1.5396 1.5396 0
1.7044 2.1914 0.28858
1.6464 2.9636 0.68297
1.2354 3.7062 1.0981
0.46421 4.1779 1.3754
-0.46421 4.1779 1.3754
-1.2354 3.7062 1.0981
-1.6464 2.9636 0.68297
-1.7044 2.1914 0.28858
-1.5396 1.5396 0
2.1914 1.7044 0.28858
2.5713 2.5713 0.87069
2.6322 3.6851 1.7158
2.0738 4.8389 2.6626
0.80168 5.6118 3.3255
-0.80168 5.6118 3.3255
-2.0738 4.8389 2.6626
-2.6322 3.6851 1.7158
-2.5713 2.5713 0.87069
-2.1914 1.7044 0.28858
2.9636 1.6464 0.68297
3.6851 2.6322 1.7158
4.0084 4.0084 3.3255
3.3309 5.5515 5.2636
1.3296 6.648 6.6973
-1.3296 6.648 6.6973
-3.3309 5.5515 5.2636
-4.0084 4.0084 3.3255
-3.6851 2.6322 1.7158
-2.9636 1.6464 0.68297
3.7062 1.2354 1.0981
4.8389 2.0738 2.6626
5.5515 3.3309 5.2636
4.8441 4.8441 8.6118
1.9933 5.98 11.222
-1.9933 5.98 11.222
-4.8441 4.8441 8.6118
-5.5515 3.3309 5.2636
-4.8389 2.0738 2.6626
-3.7062 1.2354 1.0981
4.1779 0.46421 1.3754
5.6118 0.80168 3.3255
6.648 1.3296 6.6973
5.98 1.9933 11.222
2.5089 2.5089 14.868
-2.5089 2.5089 14.868
-5.98 1.9933 11.222
-6.648 1.3296 6.6973
-5.6118 0.80168 3.3255
-4.1779 0.46421 1.3754
4.1779 -0.46421 1.3754
5.6118 -0.80168 3.3255
6.648 -1.3296 6.6973
5.98 -1.9933 11.222
2.5089 -2.5089 14.868
-2.5089 -2.5089 14.868
-5.98 -1.9933 11.222
-6.648 -1.3296 6.6973
-5.6118 -0.80168 3.3255
-4.1779 -0.46421 1.3754
3.7062 -1.2354 1.0981
4.8389 -2.0738 2.6626
5.5515 -3.3309 5.2636
4.8441 -4.8441 8.6118
1.9933 -5.98 11.222
-1.9933 -5.98 11.222
-4.8441 -4.8441 8.6118
-5.5515 -3.3309 5.2636
-4.8389 -2.0738 2.6626
-3.7062 -1.2354 1.0981
2.9636 -1.6464 0.68297
3.6851 -2.6322 1.7158
4.0084 -4.0084 3.3255
3.3309 -5.5515 5.2636
1.3296 -6.648 6.6973
-1.3296 -6.648 6.6973
-3.3309 -5.5515 5.2636
-4.0084 -4.0084 3.3255
-3.6851 -2.6322 1.7158
-2.9636 -1.6464 0.68297
2.1914 -1.7044 0.28858
2.5713 -2.5713 0.87069
2.6322 -3.6851 1.7158
2.0738 -4.8389 2.6626
0.80168 -5.6118 3.3255
-0.80168 -5.6118 3.3255
-2.0738 -4.8389 2.6626
-2.6322 -3.6851 1.7158
-2.5713 -2.5713 0.87069
-2.1914 -1.7044 0.28858
1.5396 -1.5396 0
1.7044 -2.1914 0.28858
1.6464 -2.9636 0.68297
1.2354 -3.7062 1.0981
0.46421 -4.1779 1.3754
-0.46421 -4.1779 1.3754
-1.2354 -3.7062 1.0981
-1.6464 -2.9636 0.68297
-1.7044 -2.1914 0.28858
-1.5396 -1.5396 0
1.7044 1.7044 -0.57715
1.9999 2.5713 -0.43535
2.0473 3.6851 -0.15598
1.613 4.8389 0.20482
0.62353 5.6118 0.47507
-0.62353 5.6118 0.47507
-1.613 4.8389 0.20482
-2.0473 3.6851 -0.15598
-1.9999 2.5713 -0.43535
-1.7044 1.7044 -0.57715
2.5713 1.9999 -0.43535
3.2722 3.2722 -7.1054e-16
3.6496 5.1094 0.83419
3.1024 7.2389 1.9698
1.2559 8.7912 2.8706
-1.2559 8.7912 2.8706
-3.1024 7.2389 1.9698
-3.6496 5.1094 0.83419
-3.2722 3.2722 0
-2.5713 1.9999 -0.43535
3.6851 2.0473 -0.15598
5.1094 3.6496 0.83419
6.2794 6.2794 2.8706
5.8541 9.7569 5.9471
2.5141 12.571 8.6198
-2.5141 12.571 8.6198
-5.8541 9.7569 5.9471
-6.2794 6.2794 2.8706
-5.1094 3.6496 0.83419
-3.6851 2.0473 -0.15598
4.8389 1.613 0.20482
7.2389 3.1024 1.9698
9.7569 5.8541 5.9471
9.9993 9.9993 12.698
4.5804 13.741 19.194
-4.5804 13.741 19.194
-9.9993 9.9993 12.698
-9.7569 5.8541 5.9471
-7.2389 3.1024 1.9698
-4.8389 1.613 0.20482
5.6118 0.62353 0.47507
8.7912 1.2559 2.8706
12.571 2.5141 8.6198
13.741 4.5804 19.194
6.5934 6.5934 30.141
-6.5934 6.5934 30.141
-13.741 4.5804 19.194
-12.571 2.5141 8.6198
-8.7912 1.2559 2.8706
-5.6118 0.62353 0.47507
5.6118 -0.62353 0.47507
8.7912 -1.2559 2.8706
12.571 -2.5141 8.6198
13.741 -4.5804 19.194
6.5934 -6.5934 30.141
-6.5934 -6.5934 30.141
-13.741 -4.5804 19.194
-12.571 -2.5141 8.6198
-8.7912 -1.2559 2.8706
-5.6118 -0.62353 0.47507
4.8389 -1.613 0.20482
7.2389 -3.1024 1.9698
9.7569 -5.8541 5.9471
9.9993 -9.9993 12.698
4.5804 -13.741 19.194
-4.5804 -13.741 19.194
-9.9993 -9.9993 12.698
-9.7569 -5.8541 5.9471
-7.2389 -3.1024 1.9698
-4.8389 -1.613 0.20482
3.6851 -2.0473 -0.15598
5.1094 -3.6496 0.83419
6.2794 -6.2794 2.8706
5.8541 -9.7569 5.9471
2.5141 -12.571 8.6198
-2.5141 -12.571 8.6198
-5.8541 -9.7569 5.9471
-6.2794 -6.2794 2.8706
-5.1094 -3.6496 0.83419
-3.6851 -2.0473 -0.15598
2.5713 -1.9999 -0.43535
3.2722 -3.2722 0
3.6496 -5.1094 0.83419
3.1024 -7.2389 1.9698
1.2559 -8.7912 2.8706
-1.2559 -8.7912 2.8706
-3.1024 -7.2389 1.9698
-3.6496 -5.1094 0.83419
-3.2722 -3.2722 7.1054e-16
-2.5713 -1.9999 -0.43535
1.7044 -1.7044 -0.57715
1.9999 -2.5713 -0.43535
2.0473 -3.6851 -0.15598
1.613 -4.8389 0.20482
0.62353 -5.6118 0.47507
-0.62353 -5.6118 0.47507
-1.613 -4.8389 0.20482
-2.0473 -3.6851 -0.15598
-1.9999 -2.5713 -0.43535
-1.7044 -1.7044 -0.57715
1.6464 1.6464 -1.3659
2.0473 2.6322 -1.5598
2.2269 4.0084 -1.6628
1.8505 5.5515 -1.6449
0.73867 6.648 -1.5758
-0.73867 6.648 -1.5758
-1.8505 5.5515 -1.6449
-2.2269 4.0084 -1.6628
-2.0473 2.6322 -1.5598
-1.6464 1.6464 -1.3659
2.6322 2.0473 -1.5598
3.6496 3.6496 -1.6684
4.4853 6.2794 -1.4353
4.1815 9.7569 -0.74338
1.7958 12.571 -1.4211e-15
-1.7958 12.571 -1.4211e-15
-4.1815 9.7569 -0.74338
-4.4853 6.2794 -1.4353
-3.6496 3.6496 -1.6684
-2.6322 2.0473 -1.5598
4.0084 2.2269 -1.6628
6.2794 4.4853 -1.4353
8.979 8.979 -1.4211e-15
9.8152 16.359 3.4899
4.7096 23.548 7.5353
-4.7096 23.548 7.5353
-9.8152 16.359 3.4899
-8.979 8.979 -1.4211e-15
-6.2794 4.4853 -1.4353
-4.0084 2.2269 -1.6628
5.5515 1.8505 -1.6449
9.7569 4.1815 -0.74338
16.359 9.8152 3.4899
21.645 21.645 15.392
12.071 36.213 32.189
-12.071 36.213 32.189
-21.645 21.645 15.392
-16.359 9.8152 3.4899
-9.7569 4.1815 -0.74338
-5.5515 1.8505 -1.6449
6.648 0.73867 -1.5758
12.571 1.7958 -1.4211e-15
23.548 4.7096 7.5353
36.213 12.071 32.189
23.094 23.094 73.901
-23.094 23.094 73.901
-36.213 12.071 32.189
-23.548 4.7096 7.5353
-12.571 1.7958 1.4211e-15
-6.648 0.73867 -1.5758
6.648 -0.73867 -1.5758
12.571 -1.7958 -1.4211e-15
23.548 -4.7096 7.5353
36.213 -12.071 32.189
23.094 -23.094 73.901
-23.094 -23.094 73.901
-36.213 -12.071 32.189
-23.548 -4.7096 7.5353
-12.571 -1.7958 1.4211e-15
-6.648 -0.73867 -1.5758
5.5515 -1.8505 -1.6449
9.7569 -4.1815 -0.74338
16.359 -9.8152 3.4899
21.645 -21.645 15.392
12.071 -36.213 32.189
-12.071 -36.213 32.189
-21.645 -21.645 15.392
-16.359 -9.8152 3.4899
-9.7569 -4.1815 -0.74338
-5.5515 -1.8505 -1.6449
4.0084 -2.2269 -1.6628
6.2794 -4.4853 -1.4353
8.979 -8.979 -1.4211e-15
9.8152 -16.359 3.4899
4.7096 -23.548 7.5353
-4.7096 -23.548 7.5353
-9.8152 -16.359 3.4899
-8.979 -8.979 -1.4211e-15
-6.2794 -4.4853 -1.4353
-4.0084 -2.2269 -1.6628
2.6322 -2.0473 -1.5598
3.6496 -3.6496 -1.6684
4.4853 -6.2794 -1.4353
4.1815 -9.7569 -0.74338
1.7958 -12.571 1.4211e-15
-1.7958 -12.571 1.4211e-15
-4.1815 -9.7569 -0.74338
-4.4853 -6.2794 -1.4353
-3.6496 -3.6496 -1.6684
-2.6322 -2.0473 -1.5598
1.6464 -1.6464 -1.3659
2.0473 -2.6322 -1.5598
2.2269 -4.0084 -1.6628
1.8505 -5.5515 -1.6449
0.73867 -6.648 -1.5758
-0.73867 -6.648 -1.5758
-1.8505 -5.5515 -1.6449
-2.2269 -4.0084 -1.6628
-2.0473 -2.6322 -1.5598
-1.6464 -1.6464 -1.3659
1.2354 1.2354 -2.1963
1.613 2.0738 -2.8675
1.8505 3.3309 -3.6187
1.6147 4.8441 -4.3059
0.66444 5.98 -4.7249
-0.66444 5.98 -4.7249
-1.6147 4.8441 -4.3059
-1.8505 3.3309 -3.6187
-1.613 2.0738 -2.8675
-1.2354 1.2354 -2.1963
2.0738 1.613 -2.8675
3.1024 3.1024 -3.9396
4.1815 5.8541 -5.2037
4.2854 9.9993 -6.3488
1.963 13.741 -6.9797
-1.963 13.741 -6.9797
-4.2854 9.9993 -6.3488
-4.1815 5.8541 -5.2037
-3.1024 3.1024 -3.9396
-2.0738 1.613 -2.8675
3.3309 1.8505 -3.6187
5.8541 4.1815 -5.2037
9.8152 9.8152 -6.9797
12.987 21.645 -7.696
7.2425 36.213 -6.4378
-7.2425 36.213 -6.4378
-12.987 21.645 -7.696
-9.8152 9.8152 -6.9797
-5.8541 4.1815 -5.2037
-3.3309 1.8505 -3.6187
4.8441 1.6147 -4.3059
9.9993 4.2854 -6.3488
21.645 12.987 -7.696
41.569 41.569 1.1369e-14
33.356 100.07 29.65
-33.356 100.07 29.65
-41.569 41.569 1.1369e-14
-21.645 12.987 -7.696
-9.9993 4.2854 -6.3488
-4.8441 1.6147 -4.3059
5.98 0.66444 -4.7249
13.741 1.963 -6.9797
36.213 7.2425 -6.4378
100.07 33.356 29.65
130.79 130.79 232.52
-130.79 130.79 232.52
-100.07 33.356 29.65
-36.213 7.2425 -6.4378
-13.741 1.963 -6.9797
-5.98 0.66444 -4.7249
5.98 -0.66444 -4.7249
13.741 -1.963 -6.9797
36.213 -7.2425 -6.4378
100.07 -33.356 29.65
130.79 -130.79 232.52
-130.79 -130.79 232.52
-100.07 -33.356 29.65
-36.213 -7.2425 -6.4378
-13.741 -1.963 -6.9797
-5.98 -0.66444 -4.7249
4.8441 -1.6147 -4.3059
9.9993 -4.2854 -6.3488
21.645 -12.987 -7.696
41.569 -41.569 1.1369e-14
33.356 -100.07 29.65
-33.356 -100.07 29.65
-41.569 -41.569 2.2737e-14
-21.645 -12.987 -7.696
-9.9993 -4.2854 -6.3488
-4.8441 -1.6147 -4.3059
3.3309 -1.8505 -3.6187
5.8541 -4.1815 -5.2037
9.8152 -9.8152 -6.9797
12.987 -21.645 -7.696
7.2425 -36.213 -6.4378
-7.2425 -36.213 -6.4378
-12.987 -21.645 -7.696
-9.8152 -9.8152 -6.9797
-5.8541 -4.1815 -5.2037
-3.3309 -1.8505 -3.6187
2.0738 -1.613 -2.8675
3.1024 -3.1024 -3.9396
4.1815 -5.8541 -5.2037
4.2854 -9.9993 -6.3488
1.963 -13.741 -6.9797
-1.963 -13.741 -6.9797
-4.2854 -9.9993 -6.3488
-4.1815 -5.8541 -5.2037
-3.1024 -3.1024 -3.9396
-2.0738 -1.613 -2.8675
1.2354 -1.2354 -2.1963
1.613 -2.0738 -2.8675
1.8505 -3.3309 -3.6187
1.6147 -4.8441 -4.3059
0.66444 -5.98 -4.7249
-0.66444 -5.98 -4.7249
-1.6147 -4.8441 -4.3059
-1.8505 -3.3309 -3.6187
-1.613 -2.0738 -2.8675
-1.2354 -1.2354 -2.1963
0.46421 0.46421 -2.7509
0.62353 0.80168 -3.8006
0.73867 1.3296 -5.1214
0.66444 1.9933 -6.4968
0.27877 2.5089 -7.4338
-0.27877 2.5089 -7.4338
-0.66444 1.9933 -6.4968
-0.73867 1.3296 -5.1214
-0.62353 0.80168 -3.8006
-0.46421 0.46421 -2.7509
0.80168 0.62353 -3.8006
1.2559 1.2559 -5.7412
1.7958 2.5141 -8.6198
1.963 4.5804 -12.214
0.94192 6.5934 -15.071
-0.94192 6.5934 -15.071
-1.963 4.5804 -12.214
-1.7958 2.5141 -8.6198
-1.2559 1.2559 -5.7412
-0.80168 0.62353 -3.8006
1.3296 0.73867 -5.1214
2.5141 1.7958 -8.6198
4.7096 4.7096 -15.071
7.2425 12.071 -25.751
4.6188 23.094 -36.95
-4.6188 23.094 -36.95
-7.2425 12.071 -25.751
-4.7096 4.7096 -15.071
-2.5141 1.7958 -8.6198
-1.3296 0.73867 -5.1214
1.9933 0.66444 -6.4968
4.5804 1.963 -12.214
12.071 7.2425 -25.751
33.356 33.356 -59.3
43.597 130.79 -116.26
-43.597 130.79 -116.26
-33.356 33.356 -59.3
-12.071 7.2425 -25.751
-4.5804 1.963 -12.214
-1.9933 0.66444 -6.4968
2.5089 0.27877 -7.4338
6.5934 0.94192 -15.071
23.094 4.6188 -36.95
130.79 43.597 -116.26
1122.4 1122.4 0
-1122.4 1122.4 0
-130.79 43.597 -116.26
-23.094 4.6188 -36.95
-6.5934 0.94192 -15.071
-2.5089 0.27877 -7.4338
2.5089 -0.27877 -7.4338
6.5934 -0.94192 -15.071
23.094 -4.6188 -36.95
130.79 -43.597 -116.26
1122.4 -1122.4 0
-1122.4 -1122.4 0
-130.79 -43.597 -116.26
-23.094 -4.6188 -36.95
-6.5934 -0.94192 -15.071
-2.5089 -0.27877 -7.4338
1.9933 -0.66444 -6.4968
4.5804 -1.963 -12.214
12.071 -7.2425 -25.751
33.356 -33.356 -59.3
43.597 -130.79 -116.26
-43.597 -130.79 -116.26
-33.356 -33.356 -59.3
-12.071 -7.2425 -25.751
-4.5804 -1.963 -12.214
-1.9933 -0.66444 -6.4968
1.3296 -0.73867 -5.1214
2.5141 -1.7958 -8.6198
4.7096 -4.7096 -15.071
7.2425 -12.071 -25.751
4.6188 -23.094 -36.95
-4.6188 -23.094 -36.95
-7.2425 -12.071 -25.751
-4.7096 -4.7096 -15.071
-2.5141 -1.7958 -8.6198
-1.3296 -0.73867 -5.1214
0.80168 -0.62353 -3.8006
1.2559 -1.2559 -5.7412
1.7958 -2.5141 -8.6198
1.963 -4.5804 -12.214
0.94192 -6.5934 -15.071
-0.94192 -6.5934 -15.071
-1.963 -4.5804 -12.214
-1.7958 -2.5141 -8.6198
-1.2559 -1.2559 -5.7412
-0.80168 -0.62353 -3.8006
0.46421 -0.46421 -2.7509
0.62353 -0.80168 -3.8006
0.73867 -1.3296 -5.1214
0.66444 -1.9933 -6.4968
0.27877 -2.5089 -7.4338
-0.27877 -2.5089 -7.4338
-0.66444 -1.9933 -6.4968
-0.73867 -1.3296 -5.1214
-0.62353 -0.80168 -3.8006
-0.46421 -0.46421 -2.7509
-0.46421 -0.46421 -2.7509
-0.62353 -0.80168 -3.8006
-0.73867 -1.3296 -5.1214
-0.66444 -1.9933 -6.4968
-0.27877 -2.5089 -7.4338
0.27877 -2.5089 -7.4338
0.66444 -1.9933 -6.4968
0.73867 -1.3296 -5.1214
0.62353 -0.80168 -3.8006
0.46421 -0.46421 -2.7509
-0.80168 -0.62353 -3.8006
-1.2559 -1.2559 -5.7412
-1.7958 -2.5141 -8.6198
-1.963 -4.5804 -12.214
-0.94192 -6.5934 -15.071
0.94192 -6.5934 -15.071
1.963 -4.5804 -12.214
1.7958 -2.5141 -8.6198
1.2559 -1.2559 -5.7412
0.80168 -0.62353 -3.8006
-1.3296 -0.73867 -5.1214
-2.5141 -1.7958 -8.6198
-4.7096 -4.7096 -15.071
-7.2425 -12.071 -25.751
-4.6188 -23.094 -36.95
4.6188 -23.094 -36.95
7.2425 -12.071 -25.751
4.7096 -4.7096 -15.071
2.5141 -1.7958 -8.6198
1.3296 -0.73867 -5.1214
-1.9933 -0.66444 -6.4968
-4.5804 -1.963 -12.214
-12.071 -7.2425 -25.751
-33.356 -33.356 -59.3
-43.597 -130.79 -116.26
43.597 -130.79 -116.26
33.356 -33.356 -59.3
12.071 -7.2425 -25.751
4.5804 -1.963 -12.214
1.9933 -0.66444 -6.4968
-2.5089 -0.27877 -7.4338
-6.5934 -0.94192 -15.071
-23.094 -4.6188 -36.95
-130.79 -43.597 -116.26
-1122.4 -1122.4 0
1122.4 -1122.4 0
130.79 -43.597 -116.26
23.094 -4.6188 -36.95
6.5934 -0.94192 -15.071
2.5089 -0.27877 -7.4338
-2.5089 0.27877 -7.4338
-6.5934 0.94192 -15.071
-23.094 4.6188 -36.95
-130.79 43.597 -116.26
-1122.4 1122.4 0
1122.4 1122.4 0
130.79 43.597 -116.26
23.094 4.6188 -36.95
6.5934 0.94192 -15.071
2.5089 0.27877 -7.4338
-1.9933 0.66444 -6.4968
-4.5804 1.963 -12.214
-12.071 7.2425 -25.751
-33.356 33.356 -59.3
-43.597 130.79 -116.26
43.597 130.79 -116.26
33.356 33.356 -59.3
12.071 7.2425 -25.751
4.5804 1.963 -12.214
1.9933 0.66444 -6.4968
-1.3296 0.73867 -5.1214
-2.5141 1.7958 -8.6198
-4.7096 4.7096 -15.071
-7.2425 12.071 -25.751
-4.6188 23.094 -36.95
4.6188 23.094 -36.95
7.2425 12.071 -25.751
4.7096 4.7096 -15.071
2.5141 1.7958 -8.6198
1.3296 0.73867 -5.1214
-0.80168 0.62353 -3.8006
-1.2559 1.2559 -5.7412
-1.7958 2.5141 -8.6198
-1.963 4.5804 -12.214
-0.94192 6.5934 -15.071
0.94192 6.5934 -15.071
1.963 4.5804 -12.214
1.7958 2.5141 -8.6198
1.2559 1.2559 -5.7412
0.80168 0.62353 -3.8006
-0.46421 0.46421 -2.7509
-0.62353 0.80168 -3.8006
-0.73867 1.3296 -5.1214
-0.66444 1.9933 -6.4968
-0.27877 2.5089 -7.4338
0.27877 2.5089 -7.4338
0.66444 1.9933 -6.4968
0.73867 1.3296 -5.1214
0.62353 0.80168 -3.8006
0.46421 0.46421 -2.7509
-1.2354 -1.2354 -2.1963
-1.613 -2.0738 -2.8675
-1.8505 -3.3309 -3.6187
-1.6147 -4.8441 -4.3059
-0.66444 -5.98 -4.7249
0.66444 -5.98 -4.7249
1.6147 -4.8441 -4.3059
1.8505 -3.3309 -3.6187
1.613 -2.0738 -2.8675
1.2354 -1.2354 -2.1963
-2.0738 -1.613 -2.8675
-3.1024 -3.1024 -3.9396
-4.1815 -5.8541 -5.2037
-4.2854 -9.9993 -6.3488
-1.963 -13.741 -6.9797
1.963 -13.741 -6.9797
4.2854 -9.9993 -6.3488
4.1815 -5.8541 -5.2037
3.1024 -3.1024 -3.9396
2.0738 -1.613 -2.8675
-3.3309 -1.8505 -3.6187
-5.8541 -4.1815 -5.2037
-9.8152 -9.8152 -6.9797
-12.987 -21.645 -7.696
-7.2425 -36.213 -6.4378
7.2425 -36.213 -6.4378
12.987 -21.645 -7.696
9.8152 -9.8152 -6.9797
5.8541 -4.1815 -5.2037
3.3309 -1.8505 -3.6187
-4.8441 -1.6147 -4.3059
-9.9993 -4.2854 -6.3488
-21.645 -12.987 -7.696
-41.569 -41.569 -1.7053e-14
-33.356 -100.07 29.65
33.356 -100.07 29.65
41.569 -41.569 -5.6843e-15
21.645 -12.987 -7.696
9.9993 -4.2854 -6.3488
4.8441 -1.6147 -4.3059
-5.98 -0.66444 -4.7249
-13.741 -1.963 -6.9797
-36.213 -7.2425 -6.4378
-100.07 -33.356 29.65
-130.79 -130.79 232.52
130.79 -130.79 232.52
100.07 -33.356 29.65
36.213 -7.2425 -6.4378
13.741 -1.963 -6.9797
5.98 -0.66444 -4.7249
-5.98 0.66444 -4.7249
-13.741 1.963 -6.9797
-36.213 7.2425 -6.4378
-100.07 33.356 29.65
-130.79 130.79 232.52
130.79 130.79 232.52
100.07 33.356 29.65
36.213 7.2425 -6.4378
13.741 1.963 -6.9797
5.98 0.66444 -4.7249
-4.8441 1.6147 -4.3059
-9.9993 4.2854 -6.3488
-21.645 12.987 -7.696
-41.569 41.569 -5.6843e-15
-33.356 100.07 29.65
33.356 100.07 29.65
41.569 41.569 0
21.645 12.987 -7.696
9.9993 4.2854 -6.3488
4.8441 1.6147 -4.3059
-3.3309 1.8505 -3.6187
-5.8541 4.1815 -5.2037
-9.8152 9.8152 -6.9797
-12.987 21.645 -7.696
-7.2425 36.213 -6.4378
7.2425 36.213 -6.4378
12.987 21.645 -7.696
9.8152 9.8152 -6.9797
5.8541 4.1815 -5.2037
3.3309 1.8505 -3.6187
-2.0738 1.613 -2.8675
-3.1024 3.1024 -3.9396
-4.1815 5.8541 -5.2037
-4.2854 9.9993 -6.3488
-1.963 13.741 -6.9797
1.963 13.741 -6.9797
4.2854 9.9993 -6.3488
4.1815 5.8541 -5.2037
3.1024 3.1024 -3.9396
2.0738 1.613 -2.8675
-1.2354 1.2354 -2.1963
-1.613 2.0738 -2.8675
-1.8505 3.3309 -3.6187
-1.6147 4.8441 -4.3059
-0.66444 5.98 -4.7249
0.66444 5.98 -4.7249
1.6147 4.8441 -4.3059
1.8505 3.3309 -3.6187
1.613 2.0738 -2.8675
1.2354 1.2354 -2.1963
-1.6464 -1.6464 -1.3659
-2.0473 -2.6322 -1.5598
-2.2269 -4.0084 -1.6628
-1.8505 -5.5515 -1.6449
-0.73867 -6.648 -1.5758
0.73867 -6.648 -1.5758
1.8505 -5.5515 -1.6449
2.2269 -4.0084 -1.6628
2.0473 -2.6322 -1.5598
1.6464 -1.6464 -1.3659
-2.6322 -2.0473 -1.5598
-3.6496 -3.6496 -1.6684
-4.4853 -6.2794 -1.4353
-4.1815 -9.7569 -0.74338
-1.7958 -12.571 -1.4211e-15
1.7958 -12.571 -1.4211e-15
4.1815 -9.7569 -0.74338
4.4853 -6.2794 -1.4353
3.6496 -3.6496 -1.6684
2.6322 -2.0473 -1.5598
-4.0084 -2.2269 -1.6628
-6.2794 -4.4853 -1.4353
-8.979 -8.979 -1.4211e-15
-9.8152 -16.359 3.4899
-4.7096 -23.548 7.5353
4.7096 -23.548 7.5353
9.8152 -16.359 3.4899
8.979 -8.979 -1.4211e-15
6.2794 -4.4853 -1.4353
4.0084 -2.2269 -1.6628
-5.5515 -1.8505 -1.6449
-9.7569 -4.1815 -0.74338
-16.359 -9.8152 3.4899
-21.645 -21.645 15.392
-12.071 -36.213 32.189
12.071 -36.213 32.189
21.645 -21.645 15.392
16.359 -9.8152 3.4899
9.7569 -4.1815 -0.74338
5.5515 -1.8505 -1.6449
-6.648 -0.73867 -1.5758
-12.571 -1.7958 -1.4211e-15
-23.548 -4.7096 7.5353
-36.213 -12.071 32.189
-23.094 -23.094 73.901
23.094 -23.094 73.901
36.213 -12.071 32.189
23.548 -4.7096 7.5353
12.571 -1.7958 1.4211e-15
6.648 -0.73867 -1.5758
-6.648 0.73867 -1.5758
-12.571 1.7958 -1.4211e-15
-23.548 4.7096 7.5353
-36.213 12.071 32.189
-23.094 23.094 73.901
23.094 23.094 73.901
36.213 12.071 32.189
23.548 4.7096 7.5353
12.571 1.7958 1.4211e-15
6.648 0.73867 -1.5758
-5.5515 1.8505 -1.6449
-9.7569 4.1815 -0.74338
-16.359 9.8152 3.4899
-21.645 21.645 15.392
-12.071 36.213 32.189
12.071 36.213 32.189
21.645 21.645 15.392
16.359 9.8152 3.4899
9.7569 4.1815 -0.74338
5.5515 1.8505 -1.6449
-4.0084 2.2269 -1.6628
-6.2794 4.4853 -1.4353
-8.979 8.979 -1.4211e-15
-9.8152 16.359 3.4899
-4.7096 23.548 7.5353
4.7096 23.548 7.5353
9.8152 16.359 3.4899
8.979 8.979 -1.4211e-15
6.2794 4.4853 -1.4353
4.0084 2.2269 -1.6628
-2.6322 2.0473 -1.5598
-3.6496 3.6496 -1.6684
-4.4853 6.2794 -1.4353
-4.1815 9.7569 -0.74338
-1.7958 12.571 1.4211e-15
1.7958 12.571 1.4211e-15
4.1815 9.7569 -0.74338
4.4853 6.2794 -1.4353
3.6496 3.6496 -1.6684
2.6322 2.0473 -1.5598
-1.6464 1.6464 -1.3659
-2.0473 2.6322 -1.5598
-2.2269 4.0084 -1.6628
-1.8505 5.5515 -1.6449
-0.73867 6.648 -1.5758
0.73867 6.648 -1.5758
1.8505 5.5515 -1.6449
2.2269 4.0084 -1.6628
2.0473 2.6322 -1.5598
1.6464 1.6464 -1.3659
-1.7044 -1.7044 -0.57715
-1.9999 -2.5713 -0.43535
-2.0473 -3.6851 -0.15598
-1.613 -4.8389 0.20482
-0.62353 -5.6118 0.47507
0.62353 -5.6118 0.47507
1.613 -4.8389 0.20482
2.0473 -3.6851 -0.15598
1.9999 -2.5713 -0.43535
1.7044 -1.7044 -0.57715
-2.5713 -1.9999 -0.43535
-3.2722 -3.2722 -1.4211e-15
-3.6496 -5.1094 0.83419
-3.1024 -7.2389 1.9698
-1.2559 -8.7912 2.8706
1.2559 -8.7912 2.8706
3.1024 -7.2389 1.9698
3.6496 -5.1094 0.83419
3.2722 -3.2722 -7.1054e-16
2.5713 -1.9999 -0.43535
-3.6851 -2.0473 -0.15598
-5.1094 -3.6496 0.83419
-6.2794 -6.2794 2.8706
-5.8541 -9.7569 5.9471
-2.5141 -12.571 8.6198
2.5141 -12.571 8.6198
5.8541 -9.7569 5.9471
6.2794 -6.2794 2.8706
5.1094 -3.6496 0.83419
3.6851 -2.0473 -0.15598
-4.8389 -1.613 0.20482
-7.2389 -3.1024 1.9698
-9.7569 -5.8541 5.9471
-9.9993 -9.9993 12.698
-4.5804 -13.741 19.194
4.5804 -13.741 19.194
9.9993 -9.9993 12.698
9.7569 -5.8541 5.9471
7.2389 -3.1024 1.9698
4.8389 -1.613 0.20482
-5.6118 -0.62353 0.47507
-8.7912 -1.2559 2.8706
-12.571 -2.5141 8.6198
-13.741 -4.5804 19.194
-6.5934 -6.5934 30.141
6.5934 -6.5934 30.141
13.741 -4.5804 19.194
12.571 -2.5141 8.6198
8.7912 -1.2559 2.8706
5.6118 -0.62353 0.47507
-5.6118 0.62353 0.47507
-8.7912 1.2559 2.8706
-12.571 2.5141 8.6198
-13.741 4.5804 19.194
-6.5934 6.5934 30.141
6.5934 6.5934 30.141
13.741 4.5804 19.194
12.571 2.5141 8.6198
8.7912 1.2559 2.8706
5.6118 0.62353 0.47507
-4.8389 1.613 0.20482
-7.2389 3.1024 1.9698
-9.7569 5.8541 5.9471
-9.9993 9.9993 12.698
-4.5804 13.741 19.194
4.5804 13.741 19.194
9.9993 9.9993 12.698
9.7569 5.8541 5.9471
7.2389 3.1024 1.9698
4.8389 1.613 0.20482
-3.6851 2.0473 -0.15598
-5.1094 3.6496 0.83419
-6.2794 6.2794 2.8706
-5.8541 9.7569 5.9471
-2.5141 12.571 8.6198
2.5141 12.571 8.6198
5.8541 9.7569 5.9471
6.2794 6.2794 2.8706
5.1094 3.6496 0.83419
3.6851 2.0473 -0.15598
-2.5713 1.9999 -0.43535
-3.2722 3.2722 -7.1054e-16
-3.6496 5.1094 0.83419
-3.1024 7.2389 1.9698
-1.2559 8.7912 2.8706
1.2559 8.7912 2.8706
3.1024 7.2389 1.9698
3.6496 5.1094 0.83419
3.2722 3.2722 0
2.5713 1.9999 -0.43535
-1.7044 1.7044 -0.57715
-1.9999 2.5713 -0.43535
-2.0473 3.6851 -0.15598
-1.613 4.8389 0.20482
-0.62353 5.6118 0.47507
0.62353 5.6118 0.47507
1.613 4.8389 0.20482
2.0473 3.6851 -0.15598
1.9999 2.5713 -0.43535
1.7044 1.7044 -0.57715
-1.5396 -1.5396 0
-1.7044 -2.1914 0.28858
-1.6464 -2.9636 0.68297
-1.2354 -3.7062 1.0981
-0.46421 -4.1779 1.3754
0.46421 -4.1779 1.3754
1.2354 -3.7062 1.0981
1.6464 -2.9636 0.68297
1.7044 -2.1914 0.28858
1.5396 -1.5396 0
-2.1914 -1.7044 0.28858
-2.5713 -2.5713 0.87069
-2.6322 -3.6851 1.7158
-2.0738 -4.8389 2.6626
-0.80168 -5.6118 3.3255
0.80168 -5.6118 3.3255
2.0738 -4.8389 2.6626
2.6322 -3.6851 1.7158
2.5713 -2.5713 0.87069
2.1914 -1.7044 0.28858
-2.9636 -1.6464 0.68297
-3.6851 -2.6322 1.7158
-4.0084 -4.0084 3.3255
-3.3309 -5.5515 5.2636
-1.3296 -6.648 6.6973
1.3296 -6.648 6.6973
3.3309 -5.5515 5.2636
4.0084 -4.0084 3.3255
3.6851 -2.6322 1.7158
2.9636 -1.6464 0.68297
-3.7062 -1.2354 1.0981
-4.8389 -2.0738 2.6626
-5.5515 -3.3309 5.2636
-4.8441 -4.8441 8.6118
-1.9933 -5.98 11.222
1.9933 -5.98 11.222
4.8441 -4.8441 8.6118
5.5515 -3.3309 5.2636
4.8389 -2.0738 2.6626
3.7062 -1.2354 1.0981
-4.1779 -0.46421 1.3754
-5.6118 -0.80168 3.3255
-6.648 -1.3296 6.6973
-5.98 -1.9933 11.222
-2.5089 -2.5089 14.868
2.5089 -2.5089 14.868
5.98 -1.9933 11.222
6.648 -1.3296 6.6973
5.6118 -0.80168 3.3255
4.1779 -0.46421 1.3754
-4.1779 0.46421 1.3754
-5.6118 0.80168 3.3255
-6.648 1.3296 6.6973
-5.98 1.9933 11.222
-2.5089 2.5089 14.868
2.5089 2.5089 14.868
5.98 1.9933 11.222
6.648 1.3296 6.6973
5.6118 0.80168 3.3255
4.1779 0.46421 1.3754
-3.7062 1.2354 1.0981
-4.8389 2.0738 2.6626
-5.5515 3.3309 5.2636
-4.8441 4.8441 8.6118
-1.9933 5.98 11.222
1.9933 5.98 11.222
4.8441 4.8441 8.6118
5.5515 3.3309 5.2636
4.8389 2.0738 2.6626
3.7062 1.2354 1.0981
-2.9636 1.6464 0.68297
-3.6851 2.6322 1.7158
-4.0084 4.0084 3.3255
-3.3309 5.5515 5.2636
-1.3296 6.648 6.6973
1.3296 6.648 6.6973
3.3309 5.5515 5.2636
4.0084 4.0084 3.3255
3.6851 2.6322 1.7158
2.9636 1.6464 0.68297
-2.1914 1.7044 0.28858
-2.5713 2.5713 0.87069
-2.6322 3.6851 1.7158
-2.0738 4.8389 2.6626
-0.80168 5.6118 3.3255
0.80168 5.6118 3.3255
2.0738 4.8389 2.6626
2.6322 3.6851 1.7158
2.5713 2.5713 0.87069
2.1914 1.7044 0.28858
-1.5396 1.5396 0
-1.7044 2.1914 0.28858
-1.6464 2.9636 0.68297
-1.2354 3.7062 1.0981
-0.46421 4.1779 1.3754
0.46421 4.1779 1.3754
1.2354 3.7062 1.0981
1.6464 2.9636 0.68297
1.7044 2.1914 0.28858
1.5396 1.5396 0
