electron_left,electron_right,total
-9.5628236089582574486200883e-01,-9.5564025803352214971653211e-01,1.6653771746689027821730633e-02
-9.5346521229251279816452325e-01,-9.5635065419710663103813886e-01,-3.3959369978142639467932895e-04
-9.5353418588206328987411098e-01,-9.5624146246451735553506524e-01,-6.6682753923918980376583932e-04
-9.5366038442511835704351597e-01,-9.5607859668700712063582614e-01,-9.6688305813086294904223905e-04
-9.5383862228443727637738903e-01,-9.5586868479208753068832038e-01,-1.2274170776411796879301619e-03
-9.5406157140246206083133984e-01,-9.5562028191890380224293722e-01,-1.4376936472502155339725505e-03
-9.5432006636254440579136826e-01,-9.5534395449096920494014284e-01,-1.5894629466304266429688141e-03
-9.5460419576590949120031837e-01,-9.5504888088041695048957536e-01,-1.6750484328571513259475978e-03
-9.5489877347634122273234425e-01,-9.5475135999696425503913133e-01,-1.6916109424465197719200660e-03
-9.5519872995963472916969295e-01,-9.5445936958519694837121961e-01,-1.6412601208402044505874073e-03
-9.5548476475358767867618326e-01,-9.5418701029134200819470379e-01,-1.5211836525195199243398747e-03
-9.5574869651618099553047614e-01,-9.5394504186235906662005846e-01,-1.3394357637270815075680730e-03
-9.5597903238935177938628840e-01,-9.5374340938836876802042752e-01,-1.1028086479050180912508949e-03
-9.5616637565922935060314103e-01,-9.5359040288152852049563535e-01,-8.2105826578682261640551587e-04
-9.5630309507893973552938860e-01,-9.5349231203131101786141244e-01,-5.0578370484544166174600832e-04
-9.5638363103040102686236423e-01,-9.5345316457204898341615262e-01,-1.6994191706953820641956554e-04
-9.5640471724011799636855358e-01,-9.5347455946563819395578321e-01,1.7269055715729564326466061e-04
-9.5636544717087379474662612e-01,-9.5355560205378742111292922e-01,5.0814831822765249569329171e-04
-9.5626743832730043415324417e-01,-9.5369294395431480904079535e-01,8.2271839170822147480066633e-04
-9.5611485288684994188201927e-01,-9.5388915417394115614513339e-01,1.0951807576831118495874762e-03
-9.5592536540653472165729454e-01,-9.5411269868866155352549185e-01,1.3264542382847022139458204e-03
-9.5566966961859989293515127e-01,-9.5437220149309742733834128e-01,1.5263584441820299275605066e-03
-9.5539745300400913396998703e-01,-9.5465890298197098040589026e-01,1.6456255383268114655948011e-03
-9.5510608355433523897204395e-01,-9.5495682831015815672515146e-01,1.6973865529379406069665492e-03
-9.5480722659899563975471892e-01,-9.5525349237363965659852738e-01,1.6800737621842642965930281e-03
-9.5451341906022346694982161e-01,-9.5553657424409310650048610e-01,1.5942697370974201476201415e-03
-9.5423675543526664810656257e-01,-9.5580184096342701849380319e-01,1.4360648754803140292324315e-03
-9.5400008994922724792075996e-01,-9.5602599233956286894908772e-01,1.2128486606239885503555342e-03
-9.5378340509751369236113305e-01,-9.5619759045759655791130172e-01,9.6572733918431907795820734e-04
-9.5361754097876683111678631e-01,-9.5632357526064204478188913e-01,6.6888390154740129389665526e-04
-9.5350777741439507462217762e-01,-9.5639260368543166368482389e-01,3.4216705862499807722088008e-04
-9.5063020575927137389982136e-01,-9.5716317369284076299607023e-01,-1.6650949179847662762199434e-02
