electron_left,electron_right,total
-7.6044646240393465319584720e-01,-1.1832125311475436557628882e+00,-1.5082602875441386558463819e-02
-7.8985108633271927658370259e-01,-1.2231917846273425709568983e+00,-1.0356659817022384473261809e-01
-8.1850378274554669300044907e-01,-1.2609289008053798930575340e+00,-1.7032386274358524147487515e-01
-8.5309996101495377818224597e-01,-1.2810132052653231404804046e+00,-2.2534106822628219291004825e-01
-8.9351703067572807448470940e-01,-1.2674774841826383919851651e+00,-2.5251462485948272806979276e-01
-9.3952517360340470631285825e-01,-1.2356542118190949608447227e+00,-2.6693522574838390859497395e-01
-9.9086417715366303937685188e-01,-1.1911278617862728346210588e+00,-2.7391748103305268990936838e-01
-1.0466144030811346254949967e+00,-1.1347576690985181624427014e+00,-2.7339404396618371961835692e-01
-1.1052309540632030415707732e+00,-1.0758260735395697160754480e+00,-2.7309850507191368862436320e-01
-1.1634353255038818453215299e+00,-1.0183667715549824528409317e+00,-2.7378525763487271404983403e-01
-1.2153917112824847990282251e+00,-9.6466747413318021386885448e-01,-2.7190859402325484595053240e-01
-1.2526292273108265984404852e+00,-9.1586574225955530437204288e-01,-2.6014066695556925523646896e-01
-1.2782019688623438291585899e+00,-8.7266262896456980868720166e-01,-2.4224496469709810853032650e-01
-1.2745616972064091054761548e+00,-8.3514550859847824781923009e-01,-2.0077148552991608276840907e-01
-1.2440698915579802008579691e+00,-8.0347608242663703936869979e-01,-1.3825635057921203951991629e-01
-1.1986065073031544336856768e+00,-7.7785660679452339749673229e-01,-6.6796260412297359110311845e-02
-1.1383060097997934612124027e+00,-7.5825630093253215679993673e-01,1.3489656530587978977564489e-02
-1.0721873600214544275388562e+00,-7.4504842106641899768249004e-01,9.3193416455015443133902409e-02
-1.0093321071602756600071871e+00,-7.3749618442861963885093246e-01,1.6395480908442805478841819e-01
-9.5175921511631755844717873e-01,-7.3480034984282127652477357e-01,2.2453962285933526388248538e-01
-9.0095106144342740339681086e-01,-7.3766856503329858441020406e-01,2.7274489185675521163432222e-01
-8.5757043155425827229976221e-01,-7.4670839013654477511749974e-01,3.0728940786507630278379111e-01
-8.2136746580497166370093964e-01,-7.6121869859791924106673378e-01,3.2911581712141613209610114e-01
-7.9231128046430276956613170e-01,-7.8020098952469174591328738e-01,3.3924802842843693184704534e-01
-7.6980977047283227765461788e-01,-8.0600238158751258410461560e-01,3.3592864067447480991290831e-01
-7.5350572005706029088401010e-01,-8.3855820026377236864334463e-01,3.1958034272058122304827066e-01
-7.4144745297071801282129400e-01,-8.7840758889413605992046996e-01,2.9161961940931990788783423e-01
-7.3548215222246837718955703e-01,-9.2545072970313235760642101e-01,2.5030604902381337062422517e-01
-7.3554649943567307346370399e-01,-9.7975701431849349098968105e-01,1.9564320914012811591931040e-01
-7.4079551522544884178955726e-01,-1.0402323422913055672722749e+00,1.2958214262420186813073997e-01
-7.5094241444644249661166668e-01,-1.1052329252161672279441973e+00,5.4067208495842011828358409e-02
-7.7436055450885077355849262e-01,-1.1563150181641370650709177e+00,-3.9533142400723253473415753e-02
