electron_left,electron_right,total
-9.5234955182971803289149193e-01,-1.0793569377195904035460217e+00,-1.0313009887327151403724201e-01
-1.1046951283302142154951753e+00,-7.2850381754667403733094488e-01,7.6277326912949749981862624e-02
-9.1080742466506925403280093e-01,-6.9710849993123646939352511e-01,3.0119289621103573217908433e-01
-9.5839505280444858836830235e-01,-5.7908535635182301071210986e-01,3.7129168889772312667219012e-01
-1.0716377161161376729836547e+00,-1.1533528953537468542123179e+00,-3.1651072147100101084049584e-01
-1.4156161531294191302521313e+00,-1.0381295660909013456318917e+00,-5.4550155954620449527681103e-01
-1.3624152842410706121256680e+00,-9.7758113928479284382433434e-01,-4.3192186561898027186146010e-01
-8.3684977070080712735489215e-01,-9.8398577760615002496535908e-01,8.7142479906512138043694904e-02
-6.9890248404180388419604242e-01,-1.0035181536574115934712381e+00,2.0553788483164336930997251e-01
-1.0853006712859090132639039e+00,-9.3574094008089292451302299e-01,-1.1302477194281035366429933e-01
-1.1280050988522651866929891e+00,-1.3516308692487124520908992e+00,-5.7148537670856747183734115e-01
-9.1746068544517989096220845e-01,-1.4875112558617034075325591e+00,-4.9661763869207042887410353e-01
-9.2938664403706106043046020e-01,-1.1626298804282262366882605e+00,-1.8339689133547176780325572e-01
-1.0821062293371275231379514e+00,-1.0168207020893533787386787e+00,-1.8999121115150985339425915e-01
-1.5598479535761842207364225e+00,-1.4341905030311430380152160e+00,-1.0847488332019219470225835e+00
-1.5546947137908191383104395e+00,-1.1756557104599636431885301e+00,-8.2068357056540208738226738e-01
-8.6206502001619567110424214e-01,-8.3214750160472394924227046e-01,2.1583944564199386562108884e-01
-8.3721726222278314288871570e-01,-7.8424135590524290950753539e-01,2.8897057941486270493669508e-01
-9.6602885964973173038572440e-01,-1.1518787798289413792929281e+00,-2.0712453880534997807671971e-01
-1.0467304919259809992126975e+00,-1.2877932741316806541931328e+00,-4.2342457823918744352909016e-01
-6.7257294749431162372843573e-01,-8.3224763717576599741931886e-01,4.0654393366340335624897762e-01
-4.6719970584660214241168319e-01,-6.1369785566825851841343820e-01,8.3067066804101874488708290e-01
-4.2064438862828285037309684e-01,-5.7087541805510466641493394e-01,9.2018217484091957558689501e-01
-5.9708740295075646287159543e-01,-6.5834792330223390610655088e-01,6.5632497216444107834831811e-01
-6.5322320665141786477647656e-01,-6.9489416535874526381633132e-01,5.6362342072465643205703145e-01
-5.5981349695486415374290345e-01,-6.3294578270681600695724001e-01,7.1888498337973372187548193e-01
-8.9605595560092143880837057e-01,-9.5277670004313275153862151e-01,6.2642005630119790282606118e-02
-8.4933546237405033174638902e-01,-1.2702984575916267395712111e+00,-2.0839498901626307691969942e-01
-8.1420777165331226221667293e-01,-1.0060166848454923371747327e+00,9.0722266395490080981289793e-02
-1.0904305755648964204596041e+00,-8.1615149683727772345065432e-01,4.0279277387820222600112174e-03
-1.3283630167566902180453781e+00,-8.6677556612791639700787982e-01,-2.8489603472615465662443057e-01
-8.9909902358019855306281443e-01,-7.3321745456757481118614805e-01,2.5882595212449133192933459e-01
