electron_left,electron_right,total
-8.9113247885964286254534272e-01,-1.0190090187263507459647371e+00,1.8434893090043313890191712e-02
-1.0333479987114215781218718e+00,-1.0204774694653389044418645e+00,-1.4434919538692225771114863e-01
-9.7877052935180997028652428e-01,-1.1546564906692196039728060e+00,-2.2431819921368800763161744e-01
-1.1427496442451592351119416e+00,-1.0254839682001470890782002e+00,-2.5946151439131170945984195e-01
-1.1924702557859558904596042e+00,-1.1376189984559275103492837e+00,-4.2160936424300010649801607e-01
-1.2739562235650847554779830e+00,-1.1547790139403604214862753e+00,-5.2049107783132941840165131e-01
-1.1524404707332613906345387e+00,-1.0767477972146681786114186e+00,-3.2111371004104616311281006e-01
-9.4238943324883828189797441e-01,-1.0441289678352063674537931e+00,-7.8540372870575358987821346e-02
-6.7196019155497077601779665e-01,-8.8748156465015559657416588e-01,3.4851676632573247438529052e-01
-8.1015994536932522951389046e-01,-1.0144498853956696038380869e+00,8.3407008658996861782952692e-02
-1.1192444262333287596788978e+00,-1.0948925976403436344241982e+00,-3.0598643248126222715654876e-01
-1.2040541468175338657431439e+00,-1.0871917536076256549648633e+00,-3.8289159781034642904273824e-01
-1.3835236906057859496144147e+00,-1.1324660482947082051907728e+00,-6.0737010577067840344511751e-01
-1.2408490386194881427428527e+00,-9.0032424553474332817870618e-01,-2.3223756387926042243918801e-01
-1.1441375042435311115696095e+00,-1.1228523930248592854752587e+00,-3.5770027386298508531581319e-01
-1.0543928108483147099150301e+00,-1.0193807299805319743768450e+00,-1.6410668714346621221977784e-01
-9.4551818166489898231930056e-01,-9.3944038124192741356921488e-01,2.5093404356087090079086011e-02
-9.3709138208397468883248393e-01,-7.8370548560137087701349401e-01,1.8963232985754330250927069e-01
-7.1892446053968961372504509e-01,-7.0620213730833503174011412e-01,4.8565650282529881920368098e-01
-9.9324844202239259693953954e-01,-7.4704733794674715863237680e-01,1.7080340784933456532712626e-01
-6.8635717530721318535569253e-01,-7.1035478088772219251723072e-01,5.1465256213854559952380896e-01
-6.5703153799722835426422307e-01,-7.1071987481099296868336523e-01,5.4381681674765802725346475e-01
-6.7056747890125090183488510e-01,-6.3682377054237349067733476e-01,6.0431073208068264435155470e-01
-6.9978578494935417264599664e-01,-7.0564906039554076144781902e-01,5.0632545307253629118804383e-01
-7.7645927964583938418741127e-01,-8.2433005663791569794796033e-01,3.1095145645106447851446774e-01
-7.6605576490974380821086243e-01,-9.1166038655513070843028345e-01,2.3392811157653925491217706e-01
-6.1474040090799830782231084e-01,-7.8536931792884301373192102e-01,5.1136494243733277009766880e-01
-6.3740287302063980412469846e-01,-8.1654923319184113950086612e-01,4.5728682473693327281694110e-01
-8.6695338970505209097439092e-01,-1.1883272198455081536394573e+00,-1.4433388665626534219654786e-01
-1.1110422170690235077472607e+00,-9.7907014224246680100804952e-01,-1.7950235917053403156273816e-01
-1.2384863846811926535451676e+00,-1.2073839325334596583871871e+00,-5.3562776905620035350352737e-01
-9.8628711916029621065149513e-01,-1.1355026228128339838008287e+00,-2.3064731170086560929632924e-01
