electron_left,electron_right,total
-9.1459299358927603762481340e-01,-1.0854707479898122457484533e+00,-7.1487350903051360972995099e-02
-9.1470300821752470454839568e-01,-9.2404825028061665648237977e-01,7.0725014291696641777207333e-02
-1.3473463708707598129876715e+00,-6.6319076762344786324376855e-01,-1.0142831768686599858142472e-01
-1.5478086806442552525453493e+00,-8.4236604067726994493625625e-01,-4.8140262326753058275130570e-01
-2.1493362536415325791949726e+00,-1.0676920602754569333825430e+00,-1.3085484239181057741774339e+00
-1.8356644800317460930472180e+00,-1.0018323783360882917037316e+00,-9.2925269869371862618834257e-01
-2.0932461948327287792892548e+00,-1.3471404649682416909683980e+00,-1.5323121018940872861691105e+00
-9.9702152276527833407726575e-01,-1.2140116858714282699338582e+00,-3.0305518042323731364717787e-01
-9.7936284225889536081410824e-01,-1.4372070655958348872616170e+00,-5.0861138532387117905386731e-01
-1.1067211217637078490838576e+00,-1.4694145533908655743005056e+00,-6.6811883573058183927173559e-01
-8.8434706517439021222770634e-01,-1.7429813161328533421823295e+00,-7.1917778991483327644118617e-01
-1.1126784274802372642909631e+00,-1.5912970939742634435276614e+00,-7.9562121883968783819796045e-01
-1.1659770723542945969342099e+00,-1.3780069807558934513735949e+00,-6.3536441998037274103694472e-01
-8.5533442606591014722994260e-01,-1.4346668524156533930380419e+00,-3.8106555820659226974100875e-01
-8.6696639564768274155426298e-01,-1.2610155254984460881928499e+00,-2.1869229774072351801805780e-01
-7.4323159097717594878673708e-01,-8.5262491100172455027461638e-01,3.1381035170647986198844137e-01
-9.1592900020083001244586285e-01,-9.9014308240640480640593069e-01,3.9798846556786671158079116e-03
-7.2882842385668467066750509e-01,-6.7860629490822998999277615e-01,5.0299447877797431871726985e-01
-8.9306104151207577057647313e-01,-6.6282075298417797437622312e-01,3.5490130617706960869384147e-01
-1.1803737783374752545739739e+00,-6.8651488771359137075478429e-01,4.4210521767407584547981969e-02
-9.2993798138775995987259648e-01,-4.0162006691022267279578273e-01,5.7980647003549834472835300e-01
-4.9054476693005161225258348e-01,-4.0199203444112086014428087e-01,1.0190314281847068222930375e+00
-5.1188855354863604940618416e-01,-5.5226811602310199589283002e-01,8.4754531195256888054245792e-01
-5.6888551905682382958673315e-01,-5.9535189159774670741853697e-01,7.4752288776286079929889183e-01
-6.5176587260598806139455519e-01,-6.7149890288888225420294020e-01,5.8847601723994924505234394e-01
-5.0900462542826396816764145e-01,-7.6251176588276681211908681e-01,6.4012787173038310228889713e-01
-7.5281973365393439756587668e-01,-8.6513911977628132898843205e-01,2.9351580784395836509759192e-01
-6.2272118492949146695281115e-01,-8.1321712092140863159528408e-01,4.7530062509851411789441045e-01
-4.6505156146995074717409580e-01,-6.9334831124216500519708006e-01,7.5254685018217903902382204e-01
-4.2182223277240316061664771e-01,-7.0158262886387712242708403e-01,7.8720513850467588312653788e-01
-5.2277552851265951527892639e-01,-7.9360834944345137742516272e-01,5.9385867020234073265783081e-01
-7.6073821725097090507006214e-01,-1.1247324311057058654483853e+00,5.6717819155878146375471260e-03
