electron_left,electron_right,total
-9.7078331100628578731459584e-01,-7.6576747668664213453126877e-01,1.9202560298310888953210451e-01
-1.0294995995916866871056072e+00,-5.9869730994252090550133971e-01,2.8127936325563052122333829e-01
-1.4574960338942757331892608e+00,-5.1899669469136966437616820e-01,-6.7383907778304052982321082e-02
-2.0013876512760528925127801e+00,-4.3629172875645860774085349e-01,-5.2890728197851677450103125e-01
-1.3618398697090787763386288e+00,-4.7998311684133093679704984e-01,6.6656903448473858730949360e-02
-1.3663481111725312988625092e+00,-6.1222594350675030305808377e-01,-7.0329895005165843357985977e-02
-1.5581489929380452075236008e+00,-1.3208383690697211854114812e+00,-9.7091280410088320884653967e-01
-1.3522856703060592842291499e+00,-1.5425810023422379391178083e+00,-9.8688864443482815502761696e-01
-1.0630915074990920921038651e+00,-9.5310312792063744957715699e-01,-1.0823611288887091674837393e-01
-1.6339741712749757951428364e+00,-1.1284737126918633620675791e+00,-8.5443104454284757309778797e-01
-6.9358340200180468304580472e-01,-1.9130461713944666435338604e+00,-6.9847898200386104861081549e-01
-4.9997239931832859749505360e-01,-1.4695943878018646877592346e+00,-6.1212484505380526655926587e-02
-6.6216497636042825902791265e-01,-1.2844471881554029302208164e+00,-3.7992531386015659933264033e-02
-4.1130231098818142987383339e-01,-1.6736760683850162578778509e+00,-1.7604265909822669478046464e-01
-3.5249639412774680380380232e-01,-1.3211735536574311655755309e+00,2.3561967562022734234972177e-01
-6.6214886781473858423652246e-01,-1.3828180822466484833910272e+00,-1.3530009637600648453314989e-01
-5.8226033013686051553747802e-01,-1.0576189715077208841620404e+00,2.7017266561833208626808300e-01
-4.0339328248351424832662815e-01,-1.2082277387929898360141578e+00,2.9880817626638478401446264e-01
-5.7861389406568508597672462e-01,-1.0443852408069371762167066e+00,2.8778396580070109145310653e-01
-8.4755818413142325340459138e-01,-1.1061554329810547869783477e+00,-4.2614429294003830506198938e-02
-5.4013114138278472964316279e-01,-9.9759306126821201132770511e-01,3.7364031568248434744816677e-01
-5.1353611465790005574660881e-01,-8.8860224144920318956053507e-01,5.0942987344877610489390918e-01
-8.4214448572598388231824629e-01,-1.0299085951582338527288130e+00,3.9648900640089301816715306e-02
-6.9714668654880296294606978e-01,-9.1162775661919903669172527e-01,3.0298585524942933666636691e-01
-9.3990908223526425935290263e-01,-7.4898986379944487712378987e-01,2.2284184670011031315084438e-01
-9.9267097761066136474283894e-01,-6.8897322221132606401283738e-01,2.3000006321942656484225154e-01
-9.2894367902538799164346983e-01,-7.0926375749766634726256598e-01,2.7326722475111964172356238e-01
-1.1893083238441566340526379e+00,-6.5352067630263244168986603e-01,6.8409930802625140700001793e-02
-9.8121134329181236566341795e-01,-5.6365114096599822079980413e-01,3.6608423863648420493177582e-01
-1.2441065064897123271236978e+00,-3.1542524548540745721325607e-01,3.5107824816583654836676942e-01
-1.0886900077340062598096893e+00,-4.1405072605174952915518816e-01,4.0750181437269583639704251e-01
-1.2841304184182984471362943e+00,-4.9199399140890898163291922e-01,1.1501802044505704536447865e-01
