electron_left,electron_right
3.9817750553809480607014848e+02,5.3354534376085882740881061e+02
3.2301379986260343457615818e+02,5.5772651668515811707038665e+02
2.9397353701289193850243464e+02,4.3753516541699332265125122e+02
3.5133285005319203264662065e+02,3.4191767173475079744093819e+02
4.4723767516121478138302336e+02,3.9871097837504072458614246e+02
3.0330127747578353591961786e+02,3.8186348287770954357256414e+02
2.9870256527611314822934219e+02,3.7136297098241141156904632e+02
4.0768182351989207745646127e+02,3.5062898413721268298104405e+02
3.6956898150535528202453861e+02,3.7839836974447280226740986e+02
3.6587879157219845183135476e+02,3.8745704741654174085851992e+02
5.5602572558183567252854118e+02,3.5856406329066425087148673e+02
4.8442889664631195500987815e+02,4.0261294045401427865726873e+02
3.4283299733865845837499364e+02,3.3219560970105692376819206e+02
4.9600301607767079303812352e+02,3.5915812522565420294995420e+02
5.3740871289165852431324311e+02,4.6069097998512324920739047e+02
4.5681948977316767468437320e+02,4.0733080633371940848519444e+02
4.8552972128980348998084082e+02,3.9391734357940498512107297e+02
4.4539164832001273452988244e+02,3.8993250296016128686460434e+02
4.6191893024358716957067372e+02,3.7973964718875583912449656e+02
4.4690600721471037104493007e+02,3.1688706759862469652944128e+02
3.2540392379589337679135497e+02,2.4617324242929777255994850e+02
1.9682978871327560455029015e+02,2.0305543458463216666132212e+02
2.3175850585108173618209548e+02,2.5644141173806553979375167e+02
2.5140457807657651301269652e+02,2.5827206342177885289856931e+02
2.3407851024415265328570968e+02,2.4532020095304886808662559e+02
2.6435116925037533519571298e+02,3.2601413720831408227240900e+02
3.6481337952445630889997119e+02,3.8079083687279359082822339e+02
3.2291479854859346687590005e+02,3.4776081665350636740186019e+02
2.5052316592604532274890516e+02,3.7149696669844001917226706e+02
3.0462806196611506948102033e+02,4.3522089673663822395610623e+02
3.9849443706996493119731895e+02,4.6578083484146566206618445e+02
5.0569513121620934725797269e+02,5.2272659290892556782637257e+02
