electron_left,electron_right
3.3861390188737732387380674e+02,4.0788471830481830693315715e+02
3.4493185215918879293894861e+02,4.0697344068070867706410354e+02
3.5052245515624514382579946e+02,4.1085274973681686105919653e+02
3.5699793662819871542524197e+02,4.1255302923108291679454851e+02
3.6423184413431204120570328e+02,4.1204195346977655844966648e+02
3.7196939643785623275107355e+02,4.0938738289321548791122041e+02
3.7997196562448823442537105e+02,4.0491124469141846020647790e+02
3.8791213224711822249446413e+02,3.9886010489511767218573368e+02
3.9542331051435098743240815e+02,3.9174312596001061592687620e+02
4.0203708233279769501677947e+02,3.8398786640642731526895659e+02
4.0736098452928411006723763e+02,3.7596623522449664278610726e+02
4.1096051899994245104608126e+02,3.6805324663646433691610582e+02
4.1257204527714981168173836e+02,3.6053956566536464833916398e+02
4.1201120071569772562725120e+02,3.5365974360155519207182806e+02
4.0916170697727199012661004e+02,3.4760783762920004846819211e+02
4.0439352204478143448795890e+02,3.4252012189482024950848427e+02
3.9812774180828381531682680e+02,3.3847993299833285618660739e+02
3.9071564325200051825959235e+02,3.3559253030606134871050017e+02
3.8260791623746030154507025e+02,3.3385242935994756408035755e+02
3.7432325143374009712715633e+02,3.3333099127515475856853300e+02
3.6622330041009672640939243e+02,3.3405798747521407676686067e+02
3.5863922121582652380311629e+02,3.3597935702809138547308976e+02
3.5183679656147432979196310e+02,3.3910766348974294714935240e+02
3.4595997988330475436669076e+02,3.4339345118387325328512816e+02
3.4110896480073211023409385e+02,3.4877046573016792763155536e+02
3.3739577275759666008525528e+02,3.5514461941222111818206031e+02
3.3485813619500976301424089e+02,3.6234828677222822079784237e+02
3.3353495906810758242500015e+02,3.7022750918213597515205038e+02
3.3345902284620012778759701e+02,3.7846429793435879673779709e+02
3.3457033750224798041017493e+02,3.8672669723840692768135341e+02
3.3690178694908843226585304e+02,3.9452702800638405733479885e+02
3.4213069703360247331147548e+02,3.9497965799827431965240976e+02
