Species Id, x
1,1.6992260248597248484259126e+00
1,1.7202030549880915621940858e+00
1,1.7427422808744181814688545e+00
1,1.7644145355970872746098621e+00
1,1.7862073019266255791137610e+00
1,1.8080220350033202603157179e+00
1,1.8285445034088860793985987e+00
1,1.8481744355484486241891773e+00
1,1.8692604853196583825081234e+00
1,1.8934431270681275627509876e+00
1,1.9016185913481660207935420e+00
1,1.9238995710604711586455551e+00
1,1.9456181071196094745090477e+00
1,1.9705997746534340553381526e+00
1,1.9975653111382101201343175e+00
1,2.0230632643970452022585960e+00
1,2.0488588361855875064065913e+00
1,2.0725737481807398054911573e+00
1,2.0928531613441676562104021e+00
1,2.1167016727348855198442834e+00
1,2.1300622690642883050315959e+00
1,2.1553732769860567408670704e+00
1,2.1811903962321248506839311e+00
1,2.2089157496006319725267986e+00
1,2.2376154205237548389106905e+00
1,2.2683626265826202228481634e+00
1,2.2991166638557833934441987e+00
1,2.3305410664861385683366279e+00
1,2.3555943700256634087963903e+00
1,2.3826742412126504788716375e+00
1,2.3947892751833768087976750e+00
1,2.4331318680830191780728455e+00
1,2.4651930894620099898872922e+00
1,2.4983172952609233874454731e+00
1,2.5328818751917414608954005e+00
1,2.5655813789372445832270841e+00
1,2.6032528603443534365169398e+00
1,2.6433946694766401463994043e+00
1,2.6793153668824341018250834e+00
1,2.7166750694889056916281334e+00
1,2.7327682068136796011970091e+00
1,2.7868346404783066461163799e+00
1,2.8348856505490909185596138e+00
1,2.8829279256672473152889324e+00
1,2.9296117963082344282099712e+00
1,2.9780809722484034018918919e+00
1,3.0384332155999924651723632e+00
1,3.1028636972406404836988258e+00
1,3.1633030834524271668328765e+00
1,3.2221851981850742063784310e+00
1,3.2435250001877644621117724e+00
1,3.3080876228304774144817202e+00
1,3.3732918232620257015241805e+00
1,3.4380251482211514613140935e+00
1,3.5211862571415384337569776e+00
1,3.6301521035848236529375299e+00
1,3.7625705449546615888323231e+00
1,3.8689059763962636573353393e+00
1,3.9679367004749419578502057e+00
1,4.0699717273478102086414765e+00
1,4.1126719501439215065374810e+00
1,4.2341584284513471558852871e+00
1,4.3828032672331227459494585e+00
1,4.5606456929586940418630547e+00
1,4.7538771321837876016047630e+00
1,5.0427517865691440235309528e+00
1,5.3811225768086146103996725e+00
1,5.7920710177037006971545452e+00
1,2.0371334377223426770342485e-01
1,1.0037629439988817736661986e+00
1,1.1309685060008685120180871e+00
1,1.2332400910915510827692287e+00
1,1.3247272116269050989956213e+00
1,1.4032338341349994692563996e+00
1,1.4235076551740521999533939e+00
1,1.4283011175761526345695529e+00
1,1.4144917107741548090160677e+00
1,1.4266533155622556083841346e+00
1,1.4468273576743775343800280e+00
1,1.4804468697992598791302044e+00
1,1.4915882574442145269699722e+00
1,1.4849564554432459484445417e+00
1,1.4554223269191595147020735e+00
1,1.4390853780745231915716431e+00
1,1.4333793566322339252394613e+00
1,1.3914558312360880698577148e+00
1,1.3989192247271975411138101e+00
1,1.4036936343156645179419684e+00
1,1.4081431476922801060425172e+00
1,1.3957013438955139239538994e+00
1,1.3936025377233574040758413e+00
1,1.3597988469234532082907663e+00
1,1.3286212512850059663804814e+00
1,1.3713349893820883096395846e+00
1,1.3462334594822031874628010e+00
1,1.2891585412280812672491948e+00
1,1.2701084681585357305522166e+00
1,1.2612982048760390529906772e+00
1,1.2538855465616813855689315e+00
1,1.2324403425107817167116764e+00
1,1.2240146872033643710153683e+00
1,1.1755097856710279291547749e+00
1,1.2796834613756238319126624e+00
1,1.2522866684158173722352103e+00
1,1.2316983474555911470815772e+00
1,1.2136477183137417412694958e+00
1,1.1865393325934661117315727e+00
1,1.1387612161601803340005290e+00
1,1.0675944331056281821901166e+00
1,9.7923738491951162199455894e-01
1,9.4182154029209308454539951e-01
1,1.2729729757785994692653730e+00
1,1.2704264894719909939624358e+00
1,1.2600054470699948439005311e+00
1,1.2346764362507869350338296e+00
1,1.1803414899213704458702523e+00
1,1.0963088539959862099948396e+00
1,9.9112672061720796801154165e-01
1,8.9078799489374416165077264e-01
1,7.9764978641929240588126504e-01
1,7.9371573569167919171007952e-01
1,1.6046297598482544000120242e+00
1,1.5653676631410911035402478e+00
1,1.5027427185120358910097593e+00
1,1.4153082899262654503758085e+00
1,1.3087446804955071844034364e+00
1,1.2000781710560863846382063e+00
1,1.0661166946430526980549303e+00
1,9.3754692941693729135721469e-01
1,8.0491178162094012549232502e-01
1,7.6407323152479467154307713e-01
1,6.6581750332716460594184582e-01
1,1.3102643540494576246402403e+00
1,1.1953801150071514669548378e+00
1,1.0810009104318971662195281e+00
1,9.5229033184224953778596046e-01
1,8.2158030866874942610422750e-01
1,6.8683041642744235844020295e-01
1,5.3758689075032717319402309e-01
1,3.8838347849887061569162938e-01
1,3.5085994630274125460900336e-01
1,2.4731579755286470234665330e-01
1,1.4929140311201233304316816e-01
1,2.9414428037597595277929940e-01
1,2.4555587822227664673846448e-01
1,1.8198887250453207875544592e-01
1,9.9642353727960014664333244e-02
1,6.2601702432974470902138364e-03
1,6.2127873191646560968592894e+00
1,6.1208987373391066100225544e+00
1,6.0864135334192352999593822e+00
1,6.0081992634674588060761380e+00
1,5.9323036382051350656752220e+00
1,5.8567574810019618070100478e+00
1,5.8882884803805115581099017e+00
1,5.8472530136318585647359214e+00
1,5.7892891440549822945627056e+00
1,5.7412904167942020450254859e+00
1,5.6986403317867626583392848e+00
1,5.6474484508213480538074691e+00
1,5.6260508004348750432654924e+00
1,5.5792118781235178204269687e+00
1,5.5192586386912605433963108e+00
1,5.4657781576135180401365687e+00
1,5.4132220437734890339243066e+00
1,5.4288426167398569077704451e+00
1,5.4008114733769181370348633e+00
1,5.3665599604176943415723144e+00
1,5.3266324320220874710685166e+00
1,5.2741269175255975909522022e+00
1,5.2533926052759394309532581e+00
1,5.1897517183976615839924307e+00
1,5.1126339935505473732746395e+00
1,5.0198713590690546837436159e+00
1,4.9707735767485399236420562e+00
1,4.9226658270537058115223772e+00
1,4.9398938996840220383433007e+00
1,4.9060543980584130352440297e+00
1,4.8728389822274396081525083e+00
1,4.8254315004958492352216126e+00
1,4.7555366440597763855180347e+00
1,4.6940900091072368383038338e+00
1,4.6346368309540508789723390e+00
1,4.5686115297812301960789227e+00
1,4.5047398057246219593707792e+00
1,4.4637463470577465329824918e+00
1,4.3318730050569005385341370e+00
1,4.3429766728107388473745232e+00
1,4.3081896039400069398084270e+00
1,4.2589143503359867537483296e+00
1,4.2397317107648184730805951e+00
1,4.1883011440582471607285697e+00
1,4.1322339165882642220140042e+00
1,4.0656878206485709270623374e+00
1,3.9889669375690632868725061e+00
1,3.9155400789828833651995410e+00
1,3.8664801412969715954659478e+00
1,3.8141465669179810404898490e+00
1,3.8169102805371890596575213e+00
1,3.7720954012981362524215001e+00
1,3.7580078388551783064031042e+00
1,3.4697912199775666763912341e+00
1,3.4382380241103369655775168e+00
1,3.3986566096577726092675675e+00
1,3.3417978675200599170125315e+00
1,3.2703392434971370050789119e+00
1,3.1651156389196022367116257e+00
1,3.0675911976520446877714221e+00
1,2.9945264153598811773804300e+00
1,2.9250679560705092896455426e+00
1,3.0359766885369610101008675e+00
1,3.0390677499990763621440237e+00
1,3.0340187461305441196657284e+00
1,3.0207075477703173582710861e+00
1,2.9835807975755233023562596e+00
1,2.9170725596649802469073620e+00
1,2.7912689515049016186765130e+00
1,2.6757069475289014803820464e+00
1,2.5852114216194452822605854e+00
1,2.5621027218790652923985363e+00
1,2.5641557933246992284637145e+00
1,2.6941473878696227117757189e+00
1,2.7459347813903147716985131e+00
1,2.7713744985260517772474032e+00
1,2.7792145346184735643646491e+00
1,2.7238473559449829508594121e+00
1,2.6685830372926280240619690e+00
1,2.6177873334734873544960010e+00
1,2.5594375825093864662562737e+00
1,2.5136593236344664248349545e+00
1,2.5252564510632184990868154e+00
1,2.5808680648638429033780994e+00
1,2.6298411161107728695185415e+00
1,2.8582442146943369820633052e+00
1,2.8801745924125237152679802e+00
1,2.8959610396600288240165355e+00
1,2.9099882625917690148753536e+00
1,2.9282380060742272398499608e+00
1,2.9338437029742037154278478e+00
1,2.9378479372465271524106356e+00
1,2.9490523957484948702756355e+00
1,2.9810959203642082293583826e+00
1,3.0898043564055681642344098e+00
1,3.1473984506228340762845619e+00
1,3.5868367327016663637095917e+00
1,3.6465180098808986919323161e+00
1,3.7109253205185472879179542e+00
1,3.7763214085114871210180354e+00
1,3.8357646770892608323322293e+00
1,3.8853785605521751200797098e+00
1,3.9086871760483186122314692e+00
1,3.9555381291906162033455985e+00
1,3.9815634915284525696677065e+00
1,4.0318462928114300325432851e+00
1,4.0982906584480547351745372e+00
1,4.3598009121524476938702719e+00
1,4.4579761650673823680790520e+00
1,4.5528727976350182871101424e+00
1,4.6978395665584455898056149e+00
1,4.7907039766870775920892811e+00
1,4.8328263634261654502211059e+00
1,4.9491766533898369218036351e+00
1,4.9890039248418380779526160e+00
1,5.0197084393332698226686261e+00
1,5.1086236795977608693419825e+00
1,5.2366734939698194040147428e+00
1,5.4791175286744771000257970e+00
1,5.6519704961073617965894300e+00
1,5.8168031077721442656525142e+00
1,5.9793742913180274456408370e+00
1,6.0292137515507295830730072e+00
1,6.1493248600688712457440488e+00
1,6.2238329524472542075841375e+00
1,6.2692599360323582047271884e+00
1,3.2664696047244479171212106e-02
1,1.2481672617674932634912466e-01
1,2.8395020412930466191525625e-01
1,4.4501271635762734701913246e-01
1,5.9089568217692045593025796e-01
1,6.8615361871074886934707138e-01
1,7.1643476061098432250418000e-01
1,7.7829603303960692706198188e-01
1,8.2361782151409212993087294e-01
1,8.5932163127116023559892710e-01
1,8.9202520518863448462099086e-01
1,9.2871805652938177466637626e-01
1,9.9224809095527488622678902e-01
1,1.0771489923025541202150634e+00
1,1.1427013068868598910654555e+00
1,1.1950148046356949826929394e+00
1,1.2084297078201109432171734e+00
1,1.2413712083545829223396595e+00
1,1.2783491949066829729275696e+00
1,1.3115995342852713179127022e+00
1,1.3402801219217943540229498e+00
1,1.3692126341298314073924303e+00
1,1.4002495666329655144011213e+00
1,1.4375642594342670221863045e+00
1,1.4832104205950658037949097e+00
1,1.5071315121952331139709713e+00
1,1.5139920476948249827842119e+00
1,1.5322072595085649560076035e+00
1,1.5516549723235346647243205e+00
1,1.5696810290595701875560053e+00
1,1.5871548373603374670892663e+00
1,1.6043535274537683577023017e+00
1,1.6210354092507444079274137e+00
1,1.6416196493931076716421558e+00
1,1.6642347894107591965706661e+00
1,1.6915049553205097065955442e+00
0,3.7226164827336201135210558e+00
0,3.6507393674385477666533006e+00
0,3.5746218543100147790880783e+00
0,3.4948019867089401557791462e+00
0,3.4339421444127471438889643e+00
0,3.3825360499857528573386389e+00
0,3.3621570034288215111928366e+00
0,3.3370949306549979596070443e+00
0,3.3130099070087353219093984e+00
0,3.2666437742910012786978768e+00
0,3.2302208970457546577392804e+00
0,3.1333970526942165335526624e+00
0,3.0409459607877318276791812e+00
0,2.9664010860215710430054514e+00
0,2.9374522117121606434864134e+00
0,2.8974863404841775249565217e+00
0,2.8734953487424435003561030e+00
0,2.8497802476432436691311523e+00
0,2.8449069959844912602875411e+00
0,2.8290386916095702218854058e+00
0,2.8229707803852308600767174e+00
0,2.7092884293146330954016321e+00
0,2.6360777614087202991299819e+00
0,2.5458774456299644306511709e+00
0,2.4821141084292888123741250e+00
0,2.4290175892910954580372618e+00
0,2.4006505794113666141242902e+00
0,2.3807373561896572056184596e+00
0,2.3776227646207690469282170e+00
0,2.4661048224825785624148011e+00
0,2.4906511052615210033422954e+00
0,2.4096787097276304301374239e+00
0,2.3156164512472146022048491e+00
0,2.2167993729439232630795686e+00
0,2.1360347657243932140147535e+00
0,2.0579633260840237696243094e+00
0,2.0196298384275559456568772e+00
0,2.0564328473978559230772589e+00
0,2.0639153560082714733425746e+00
0,2.1076072736287048137171496e+00
0,2.1045635729110707679012648e+00
0,2.0110696243749854872362448e+00
0,1.9300813547817383675209157e+00
0,1.8713812116597088319736031e+00
0,1.8766219360596572141020033e+00
0,1.8652337705393042810442239e+00
0,1.8905498812210659309585026e+00
0,1.9218576464131218450859251e+00
0,1.9235593962799957257203687e+00
0,1.8474177834940126441409802e+00
0,1.8239408794955571657681048e+00
0,1.8101260652123971617299958e+00
0,1.7770913989024474943789755e+00
0,1.7656305658223412358154292e+00
0,1.7607248454008708193896382e+00
0,1.7704654912950492651191325e+00
0,1.7945010183923479907264209e+00
0,1.8149447793173225651486291e+00
0,1.8005001272746077312092439e+00
0,1.7818075210624286786043058e+00
0,1.7770714856192781905264155e+00
0,1.7729060322692080653439461e+00
0,1.7155567574397203589597893e+00
0,1.6860073163536200002710075e+00
0,1.6725661804228759699242346e+00
0,1.6836899864926719860847015e+00
0,1.6898514144510088375028545e+00
0,1.7055812941674795002455767e+00
0,1.7288879611143150860641526e+00
0,1.7405595667088327171967421e+00
0,1.7455072836335778774241589e+00
0,1.7328064202388473447058459e+00
0,1.6833838534965761546402518e+00
0,1.6660706300715029115622201e+00
0,1.6639293527273244510666927e+00
0,1.6677216051722254519518174e+00
0,1.6726412285393250645171292e+00
0,1.7279352537937173739379659e+00
0,1.7426820860038882976539298e+00
0,1.7458422769273416186308623e+00
0,1.7395012153909370500315390e+00
0,1.7569662215088466261647682e+00
0,1.8156930119194150119454889e+00
0,1.8787288540972106876125736e+00
0,1.9888172656383771297328167e+00
0,2.1609513368580604009139279e+00
0,3.1702587070547569858547376e+00
0,3.6867939779826985891020286e+00
0,4.1427845383455750294388054e+00
0,4.4244613300861566074217990e+00
0,4.5106377736609708506421157e+00
0,4.7405999312711388782304311e+00
0,4.9138947294291543954614099e+00
0,5.0958839834484770392464270e+00
0,5.2387747959873429692834179e+00
0,5.3934482979619113862668200e+00
0,5.5407062808635423323266878e+00
0,5.6466014594931408510092297e+00
0,5.7476892138081252525694254e+00
0,5.8287648909867373347992725e+00
0,5.8566011106793514073842744e+00
0,5.9398792328862981548809330e+00
0,6.0246748096155702256737641e+00
0,6.1078233585287611262515384e+00
0,6.1908379814760445825072566e+00
0,6.2576674534785627912469863e+00
0,3.1664768131776266368859751e-02
0,9.2031508723544291905582782e-02
0,1.5785549621722030910753176e-01
0,2.2265650143282073036843371e-01
0,2.4635337132011297933686933e-01
0,2.9875443988125116590026664e-01
0,3.4664626284854643811783603e-01
0,3.8842421584695885350413391e-01
0,4.2868652606538065752417310e-01
0,4.7284403913246569883810366e-01
0,5.2122839963152767239762397e-01
0,5.7006101650245066814193251e-01
0,6.2254944413747770326494901e-01
0,6.7311052908151336460207403e-01
0,6.9031464081878346483733822e-01
0,7.2771803719252314834875506e-01
0,7.5730423978190830602841288e-01
0,7.8631813019416818555384907e-01
0,8.1777100998782559226896183e-01
0,8.5039571347249509614130147e-01
0,8.8468007037805085346349188e-01
0,9.1790361061019987154452338e-01
0,9.5423374379771175313180720e-01
0,9.8851282903736548135498197e-01
0,1.0010390757770497582868074e+00
0,1.0306174360963082925479739e+00
0,1.0522673753020381770539871e+00
0,1.0780277193213569919549855e+00
0,1.1048649759655277957648423e+00
0,1.1304303159741633244550485e+00
0,1.1560314180381479065573558e+00
0,1.1804982462251569774736026e+00
0,1.2053709805369796637108948e+00
0,1.2305935312197775477471851e+00
0,1.2397701117292609929165792e+00
0,1.2631292012721517803441884e+00
0,1.2831178527988960080818970e+00
0,1.3031233963608737091988132e+00
0,1.3256795871437616618493394e+00
0,1.3493325227622383621906010e+00
0,1.3729221225106162940221566e+00
0,1.3935231014511073599493329e+00
0,1.4145388480496201566438685e+00
0,1.4371305318676699247504303e+00
0,1.4449804770523084762601229e+00
0,1.4637997042064290198482013e+00
0,1.4858703461744551255208080e+00
0,1.5053031551990583292166548e+00
0,1.5236855565430742487365023e+00
0,1.5440248827304450252029255e+00
0,1.5651782505166458303591526e+00
0,1.5857682180834409280123509e+00
0,1.6078511117358975646141062e+00
0,1.6312449315744781408454855e+00
0,1.6398539309599775570802649e+00
0,1.6635463381413875261216617e+00
0,1.6921286738337510957563836e+00
0,1.7205357838252399726997055e+00
0,1.7435644147406452741932981e+00
0,1.7670894986912695223679748e+00
0,1.7901687205328651320002109e+00
0,1.8100114735971604140729596e+00
0,1.8312107760365687880721453e+00
0,1.8530961186088761305512662e+00
0,1.8619400136413248869615700e+00
0,1.8916675571115211251793653e+00
0,1.9235636503096635863130359e+00
0,1.9621544228403224874313082e+00
0,1.9987262149888254114671327e+00
0,2.0372814684034570298365452e+00
0,2.0834218871683538587546991e+00
0,2.1268288025041472977250123e+00
0,2.1716929079203426411481814e+00
0,2.2214402782137443459475890e+00
0,2.2488207647425815238761970e+00
0,2.3224718000782487159483480e+00
0,2.4080187973590638783605300e+00
0,2.5045224022566627830599373e+00
0,2.6017103876099070269845015e+00
0,2.6657778898482606955155916e+00
0,2.7004337558646840378173692e+00
0,2.7342509398337444537219199e+00
0,2.7835729629712164800992014e+00
0,2.8586649808417563534135297e+00
0,2.9015067658625697255558862e+00
0,3.0563926228616411506777695e+00
0,3.2067657955386179580159478e+00
0,3.3618680745784055297065152e+00
0,3.5069635284043365608397380e+00
0,3.6364474137167643874590794e+00
0,3.7080962399309900234811721e+00
0,3.7335930032537785194790558e+00
0,3.7640196203028235544252311e+00
0,3.8650866424978604918294423e+00
0,3.9130341570160105391096295e+00
0,4.0840324802218503918993520e+00
0,4.2649898218449173725730361e+00
0,4.4512596175172793877550248e+00
0,4.6009639880764776620480916e+00
0,4.7559132415512337388463493e+00
0,4.8673763893464752072759438e+00
0,4.9196303052891074969465990e+00
0,4.9554782108490336156592093e+00
0,5.0401282774413580511918553e+00
0,5.0815687547758727760083275e+00
0,5.1978688053622530418351744e+00
0,5.3343867299352831778946893e+00
0,5.4909086543522942491790673e+00
0,5.6338499703571338628194098e+00
0,5.7482207903862310161002824e+00
0,5.8399618985358916489758485e+00
0,5.9250337422859420399845476e+00
0,6.0344906093735790619803083e+00
0,6.0753127089160798846023681e+00
0,6.0984054877652793535958153e+00
0,6.1751627163008784293651843e+00
0,6.2789457813829336885191879e+00
0,1.2900645273036470683791777e-01
0,2.3938022740858855286205653e-01
0,2.8452179472079197619649449e-01
0,3.0894046499276511807963175e-01
0,4.0966791486597786686729705e-01
0,5.4475960717517368792073285e-01
0,6.2091433478968216519433554e-01
0,6.2352387706290302027412054e-01
0,6.1033808058624050563167884e-01
0,5.9165800781309707545574383e-01
0,5.9151095543034171164720192e-01
0,5.9104163620242311516506106e-01
0,5.9666020280854459301167481e-01
0,5.8898645988269104911694285e-01
0,6.2348467588387390669879551e-01
0,6.5210215078192934612388854e-01
0,6.9916254587978809986736906e-01
0,7.0489175860337116574783067e-01
0,6.8974455963553182868963631e-01
0,6.0907321086425580958234605e-01
0,5.1882162085902483461552492e-01
0,4.2859043627157961120488494e-01
0,3.6249473968328710382635904e-01
0,3.7341003528794447507976884e-01
0,3.3980379831583035210584853e-01
0,3.3401730802119822261175841e-01
0,3.2879707270006713892840366e-01
0,3.3481422237543867481690540e-01
0,3.2876443678106126444760093e-01
0,2.7971141669789745254348645e-01
0,1.5255281616369309460878867e-01
0,3.2286389998791520383747411e-02
0,6.2751283166318412298778640e+00
0,6.2443362016833612315735991e+00
0,6.1982002090630023971584706e+00
0,6.1438475624435717747928720e+00
0,6.1106806386294820754301327e+00
0,6.0945442902281490304972067e+00
0,6.0593771076551830034873092e+00
0,6.0207902675845170747948032e+00
0,5.9555749295050475211610319e+00
0,5.9098312943100239635896287e+00
0,5.8279687212090474091041870e+00
0,5.7698613607394522162508110e+00
0,5.7266993256604701301171190e+00
0,5.6551115126268314270419069e+00
0,5.5935385075634451723658458e+00
0,5.5712865931168149558061486e+00
0,5.5144549697992584214034650e+00
0,5.4635718089845966005668743e+00
0,5.4587642108890950254362906e+00
0,5.4443520681091976953780431e+00
0,5.3840742803076659939165438e+00
0,5.3262700437294174804492286e+00
0,5.2692326932066304578938798e+00
0,5.2164509694988527854775384e+00
0,5.1380161146837997065972559e+00
0,5.1128694297605417062868582e+00
0,5.0442243078432849046066622e+00
0,5.0106122985623722243531120e+00
0,4.9823471240634606971298126e+00
0,4.9505818883549874698246640e+00
0,4.9324544267121357421501671e+00
0,4.8694110917311936859164234e+00
0,4.7986947635787018384689873e+00
0,4.7277484346046829699616865e+00
0,4.6634755398078864274680200e+00
0,4.6386688543276113350088963e+00
0,4.5921026749889692908368488e+00
0,4.5405549101083346741347668e+00
0,4.4977847923795906126542832e+00
0,4.4657930690165015263914938e+00
0,4.4274483189285733786277888e+00
0,4.4000972312957706833458360e+00
0,4.3452969607311597854959473e+00
0,4.2819491580923418894144561e+00
0,4.2421427887229175013317217e+00
0,4.2228214798775143279385702e+00
0,4.1609361934829207640973436e+00
0,4.1058955943651715969622273e+00
0,4.0530670196353026923929974e+00
0,3.9977677759374738997166787e+00
0,3.9470038039830495080195760e+00
0,3.8896945630178829667045193e+00
0,3.8764978079400620458727644e+00
0,3.8344145081887379689078443e+00
0,3.7534211531631314073820249e+00
