Species Id, x
1,1.7175983717718470433766242e+00
1,1.7400064417072005351627695e+00
1,1.7616687023972468217891674e+00
1,1.7834962231970268309311223e+00
1,1.8053181135618949770815789e+00
1,1.8259613787062443091002706e+00
1,1.8458252982546898834925742e+00
1,1.8666966795453137084592754e+00
1,1.8907892505126382420854725e+00
1,1.9210916148412773285514277e+00
1,1.9427444597828118499904804e+00
1,1.9672668165024302933119316e+00
1,1.9943228810426558705870548e+00
1,2.0198787956517763042540992e+00
1,2.0456114491561097068483832e+00
1,2.0697901601904837853851404e+00
1,2.0902578531542230777517943e+00
1,2.1138084656908788794282827e+00
1,2.1521468043249072366052133e+00
1,2.1779269628196504804407141e+00
1,2.2053959329647523368578277e+00
1,2.2340419577332850664674879e+00
1,2.2644435996541054656461256e+00
1,2.2953588615625313273937991e+00
1,2.3267863047739107962286198e+00
1,2.3526907523884275086345497e+00
1,2.3786093100876808392740713e+00
1,2.4288411752716889679959422e+00
1,2.4612659131877689944190024e+00
1,2.4940336020234235014925162e+00
1,2.5285934804524101693345983e+00
1,2.5615553901849579254701439e+00
1,2.5986816996586288297521605e+00
1,2.6384612448126079087273865e+00
1,2.6748395517970355861336884e+00
1,2.7116913672209896901676984e+00
1,2.7749720777200543864182691e+00
1,2.8290833200631717581075009e+00
1,2.8767315360489589259884724e+00
1,2.9237582119165139715732948e+00
1,2.9720204896013751039163253e+00
1,3.0306413197849662033434015e+00
1,3.0954016459564726027053894e+00
1,3.1554662976926772799401988e+00
1,3.2151695551311605392186266e+00
1,3.3007952945503737929300314e+00
1,3.3656844519667510340354966e+00
1,3.4287480427563639118204719e+00
1,3.5094517315373816579437971e+00
1,3.6169339365268324826274693e+00
1,3.7475488999587165395155353e+00
1,3.8549699572577984518773064e+00
1,3.9561029643728771176824921e+00
1,4.0544548192993650204130063e+00
1,4.2160168233719019781347015e+00
1,4.3636797873980288642314918e+00
1,4.5393433159481455518857729e+00
1,4.7233225397632248032664393e+00
1,5.0057483846595687282388099e+00
1,5.3326790598615483318667430e+00
1,5.7282737279519855277953866e+00
1,9.9621754099500137158429425e-02
1,9.5634531215335438769642451e-01
1,1.2232074861725852343852239e+00
1,1.3044454521596904328362143e+00
1,1.3983881232936159477731053e+00
1,1.4199517229970812781658651e+00
1,1.4246655888328096928319155e+00
1,1.4126428120719640713076615e+00
1,1.4250652914288977068935083e+00
1,1.4419304763104441313714688e+00
1,1.4787177310754198167330742e+00
1,1.4891259886461485351105694e+00
1,1.4576738945565936855786049e+00
1,1.4382121229292506026098408e+00
1,1.4361808055642515391525649e+00
1,1.3993278929978927305199932e+00
1,1.3978877738701642741148135e+00
1,1.4031975741183337902384665e+00
1,1.4077699319434482383428531e+00
1,1.3964715765036006533961199e+00
1,1.3649763666288079466681893e+00
1,1.3297319947951971030875029e+00
1,1.3739366656755345186269324e+00
1,1.3500025393781547311533586e+00
1,1.2963229437488297257630165e+00
1,1.2709692301801722713605614e+00
1,1.2625517602447269283061360e+00
1,1.2553301258973148524233920e+00
1,1.2351209822004023397568062e+00
1,1.1835454097971676024059207e+00
1,1.2807638741248690283924816e+00
1,1.2580349264672374687279444e+00
1,1.2330528880131530478081459e+00
1,1.2174776573880512486880434e+00
1,1.1889866976777363483108729e+00
1,1.1466515306464442058853592e+00
1,1.0781266257809818398527568e+00
1,9.9164688348665241957036187e-01
1,1.2726696290869328187511655e+00
1,1.2723157003527632014083792e+00
1,1.2603491336611996054273277e+00
1,1.2414893981889041363331216e+00
1,1.1902297668982939615744954e+00
1,1.1079590464659558879390033e+00
1,1.0042916281711136150534003e+00
1,9.0386078320813589837001700e-01
1,7.9904731741837664582561729e-01
1,1.6067852186729820740396235e+00
1,1.5711258621662229639781572e+00
1,1.5125060250364934510969306e+00
1,1.4266348135151361020689365e+00
1,1.3218233365536700141262827e+00
1,1.2150643065279895793651121e+00
1,1.0827078449517397729096047e+00
1,9.5332251774996190629707371e-01
1,8.1851158182948224872887977e-01
1,6.7740711789428853517591733e-01
1,1.3210543161057308747530215e+00
1,1.2111910897954281107757879e+00
1,1.0946456983190153700036262e+00
1,9.6857534221363772442003892e-01
1,8.3884437688876500871515418e-01
1,7.0190028318793551420640142e-01
1,5.5804932989025746170597131e-01
1,4.0353703081223968318624884e-01
1,2.5961468409708593485518691e-01
1,1.6156370391802876707032510e-01
1,3.0115747998717112832167686e-01
1,2.5132639814795626476140455e-01
1,1.9050707970730595963715359e-01
1,1.1109592744619944948425427e-01
1,1.5955282630465833504374018e-02
1,6.2225232785657595968586975e+00
1,6.1328575512759204713120198e+00
1,6.0183310185189284879925253e+00
1,5.9422723460417730123594993e+00
1,5.8582142381559556554293522e+00
1,5.8919435605388068566412585e+00
1,5.8547385086633525475008355e+00
1,5.7963305454786846482306828e+00
1,5.7488130424524994666057864e+00
1,5.7048239370249049784433737e+00
1,5.6550333528981395758705730e+00
1,5.5870936867298555128513726e+00
1,5.5251481378558784385290892e+00
1,5.4732682780523473908829146e+00
1,5.4202389204803740341276352e+00
1,5.4319516876296258800493888e+00
1,5.4053868935651845362144741e+00
1,5.3709390439430695352029943e+00
1,5.3325952725605914039874733e+00
1,5.2799335067886534744729943e+00
1,5.1986574070376736500520565e+00
1,5.1223154944730815429920767e+00
1,5.0270494148117244037621276e+00
1,4.9768130815847992920453180e+00
1,4.9292389231234325919217554e+00
1,4.9425370241373682844709947e+00
1,4.9110371359523767864629917e+00
1,4.8781954664051108139233293e+00
1,4.8330036228772739193004782e+00
1,4.7013505498363850065857150e+00
1,4.6428494661533044052248442e+00
1,4.5770683423894453767388768e+00
1,4.5113003721922453337356274e+00
1,4.4688359533156578606849507e+00
1,4.3376671111759979027056033e+00
1,4.3471932992302217968472178e+00
1,4.3125642536850499197953468e+00
1,4.2653118758080124095499741e+00
1,4.1943611582063855536262054e+00
1,4.1399469139244065019056507e+00
1,4.0743637251996576154056129e+00
1,3.9975467605269687787483690e+00
1,3.9257338038582232364603897e+00
1,3.8735894929987964019346691e+00
1,3.8208351008383734104256746e+00
1,3.5099470239086953959883886e+00
1,3.7768440405201619824993031e+00
1,3.4760280550240252317450995e+00
1,3.4414386701199428664210700e+00
1,3.4047131254791525023506438e+00
1,3.3513341011868078567204066e+00
1,3.2803394884889764959723379e+00
1,3.1794928534488988702833012e+00
1,3.0765960623858670253127912e+00
1,3.0028235998723755706407701e+00
1,2.9345333925322116819245366e+00
1,3.0386565351305052651298411e+00
1,3.0370487298704058609644107e+00
1,3.0226277104300018905291836e+00
1,2.9884302559299098511758075e+00
1,2.9298674933045538715248313e+00
1,2.8072250169258063934307756e+00
1,2.6888305399955712005066744e+00
1,2.5897068656386252882839472e+00
1,2.5642302678682860062053805e+00
1,2.5690733257528313160378275e+00
1,2.7398680192811291078669456e+00
1,2.7683756822257090668415458e+00
1,2.7804059260741325054766548e+00
1,2.7331222586962398146681608e+00
1,2.6744637644964690537108254e+00
1,2.6258083878924454168668490e+00
1,2.5660854682149314420769315e+00
1,2.5140406024369998938539084e+00
1,2.5751110973174036189448088e+00
1,2.6240347159751280514683458e+00
1,2.8520141694901539608508756e+00
1,2.8781398616380222676980338e+00
1,2.8954936173126895049279028e+00
1,2.9062410159063030157255980e+00
1,2.9277996036457838435751455e+00
1,2.9323049595625207963678349e+00
1,2.9340768336255962367431493e+00
1,2.9691341006799039092811654e+00
1,3.0760704607909019614453427e+00
1,3.1448739876165734408175467e+00
1,3.5808028251289658605571731e+00
1,3.6388947040895294193774134e+00
1,3.7024812840785195078296965e+00
1,3.7685502030469399947776310e+00
1,3.8306672328023165796651028e+00
1,3.8756323061525073114808038e+00
1,3.9521579913990536603307646e+00
1,3.9784766860961195966694959e+00
1,4.0261878359358451717753269e+00
1,4.0879926338113232731075186e+00
1,4.3490692563245438861940784e+00
1,4.4450820181393284613591277e+00
1,4.5402230144748889628658617e+00
1,4.6862078939114706344071237e+00
1,4.7795634924743897187227049e+00
1,4.9395612701657185539261263e+00
1,4.9856792377146463834947099e+00
1,5.0150903268383446587108665e+00
1,5.0952229081090365525597008e+00
1,5.2207383412315211401732995e+00
1,5.4533412310509463694074839e+00
1,5.6312212245699448942559684e+00
1,5.7943173617924186302730050e+00
1,5.9588470193984601763759201e+00
1,6.1376522542855873609823902e+00
1,6.2153216701525284548779382e+00
1,6.2641441373619528576455195e+00
1,2.4701420156048203846665956e-02
1,1.1261074740691504048051286e-01
1,2.2308938104889197706626192e-01
1,4.2303854495923742806695600e-01
1,5.7344416458615032894385877e-01
1,6.7612731046154450620377929e-01
1,7.7154403174922614461195280e-01
1,8.1866760760415757669505865e-01
1,8.5536899635937857500067594e-01
1,8.8778834989288024637232866e-01
1,9.2331851915487639370638817e-01
1,9.8383372755527265240971246e-01
1,1.0695515028238931076742801e+00
1,1.1357203013202272767756540e+00
1,1.1898269750026810864795834e+00
1,1.2366680327661239147118977e+00
1,1.2738537190682994726387278e+00
1,1.3078312450031479574619198e+00
1,1.3366673275462048753325917e+00
1,1.3656565773867266333496673e+00
1,1.3956823757177265754592099e+00
1,1.4328904695294621962631254e+00
1,1.4793817209658477462852488e+00
1,1.5048298422452695000117728e+00
1,1.5301162745699699030410557e+00
1,1.5493035117232307751322651e+00
1,1.5674034361866706621668754e+00
1,1.5850309353607456852586211e+00
1,1.6022252965709102845437428e+00
1,1.6190201329027120724646238e+00
1,1.6387506657547084021331329e+00
1,1.6616210824616424179822616e+00
1,1.6890040511498054520700407e+00
0,3.6598576808625393752549826e+00
0,3.5849519364154094347441060e+00
0,3.5036003752472764105618808e+00
0,3.4415253086879928900998493e+00
0,3.3901596103542916971207433e+00
0,3.3662088236969909260665190e+00
0,3.3381979541819721823969758e+00
0,3.3172557762499947919820897e+00
0,3.2766191851611154994827757e+00
0,3.1455943314597663018616913e+00
0,3.0522327761512531019150174e+00
0,2.9741174835913106733187306e+00
0,2.9432273836873514838430310e+00
0,2.9038630267982665777992679e+00
0,2.8765587508626104806808144e+00
0,2.8505495078422455890176934e+00
0,2.8468932170000864623204961e+00
0,2.8310271821040697837190692e+00
0,2.7229597691557954064478508e+00
0,2.6478630575826156423602242e+00
0,2.5558828682735681425697294e+00
0,2.4894200626800215836453845e+00
0,2.4370855049332265096495576e+00
0,2.4026111225511366242812983e+00
0,2.3839766989280377629256691e+00
0,2.3738392744314502635916142e+00
0,2.4580170880392260279734273e+00
0,2.4235242672193679780434650e+00
0,2.3273346524796152401393101e+00
0,2.2294091580514314721028768e+00
0,2.1461731963493964059352948e+00
0,2.0668006243306171754170464e+00
0,2.0227388444139524636966598e+00
0,2.0569420652835028739957579e+00
0,2.0591848163516570657805005e+00
0,2.1070343438169625294165144e+00
0,2.0212038548591886311101007e+00
0,1.9396033441247417794528474e+00
0,1.8777393692133135250088571e+00
0,1.8776114123428460089826331e+00
0,1.8664587633813582989716906e+00
0,1.8863444233874444577736540e+00
0,1.9181582472784399762133489e+00
0,1.9335757799639086140786048e+00
0,1.8552973211147343324256553e+00
0,1.8135543043765693926872018e+00
0,1.7815503111888730813916482e+00
0,1.7663761474602763801300398e+00
0,1.7621217792410928115742763e+00
0,1.7688848170936100068217911e+00
0,1.7990905900826124064195710e+00
0,1.8156346042602984347524853e+00
0,1.8030104025004030088297213e+00
0,1.7833860208524450197131728e+00
0,1.7726151880912428548953130e+00
0,1.7229253306641343357341611e+00
0,1.6892410583546737523619186e+00
0,1.6740577567825538629620041e+00
0,1.6838960667751228239552574e+00
0,1.6876687915227273073526248e+00
0,1.7035768029951252611198242e+00
0,1.7275914210156702033316378e+00
0,1.7388191031602606706485403e+00
0,1.7394535907700479082649281e+00
0,1.6897083577588780656242307e+00
0,1.6642705351516400291700393e+00
0,1.6640326518182630977094050e+00
0,1.6672971958111459933604692e+00
0,1.6718820736874611121436374e+00
0,1.7197322753868282685374425e+00
0,1.7413767269488804600996446e+00
0,1.7479414648137689969331632e+00
0,1.7529140497564252854090228e+00
0,1.8068609905624424261105787e+00
0,1.8713392699929893847610174e+00
0,1.9764184845401806533971012e+00
0,2.1187559545192571341942767e+00
0,3.0756718023600120304195116e+00
0,3.6272606653167209778132474e+00
0,4.1106616650918335054143427e+00
0,4.3489139839265176235016952e+00
0,4.6954180233296929358743910e+00
0,4.8926237780606367522295841e+00
0,5.0713330890807171158485289e+00
0,5.2166428741449601957924642e+00
0,5.3870442805058216251268277e+00
0,5.5237039480137726243924590e+00
0,5.6320945026129374255674520e+00
0,5.7356350120075862974999836e+00
0,5.8188527943530772290614550e+00
0,5.9296414084820199263958784e+00
0,6.0142391206380318990909473e+00
0,6.0972591144747774194456724e+00
0,6.1810900067003169411350427e+00
0,6.2497762716433982177477446e+00
0,2.4674950004599127684201676e-02
0,8.4673645632046490305810948e-02
0,1.4950059699142223545997865e-01
0,2.1456839570082147927720939e-01
0,2.9280077088496991866151120e-01
0,3.4052623124154857148226938e-01
0,3.8283695359068292685122969e-01
0,4.2340664412668804761352703e-01
0,4.6723276297429477965650335e-01
0,5.1513665184479373593262608e-01
0,5.6405814765887418715806234e-01
0,6.1608843131415413907348011e-01
0,6.6704408538766535308184302e-01
0,7.2400895380046292881814907e-01
0,7.5359624980015138540068165e-01
0,7.8242054891646029002316709e-01
0,8.1381306585353907490087977e-01
0,8.4616245239904508412820405e-01
0,8.8050100498338068621961838e-01
0,9.1381367336305618920277993e-01
0,9.4962814883100188367848205e-01
0,9.8433739815812526519067660e-01
0,1.0274122668023750737376076e+00
0,1.0494619019461175479790427e+00
0,1.0747812538619627709124416e+00
0,1.1014356943024858903612540e+00
0,1.1272302184471698627277192e+00
0,1.1529149304406673959277896e+00
0,1.1774741022805237378179299e+00
0,1.2021201959686651505876398e+00
0,1.2275154148094573614002911e+00
0,1.2604510054112851857865962e+00
0,1.2809619439452610833996005e+00
0,1.3004541573613441762802267e+00
0,1.3226922078421547990245699e+00
0,1.3463423062852217793050613e+00
0,1.3702582841302277660844311e+00
0,1.3909570306598597611014156e+00
0,1.4116941483749898544886037e+00
0,1.4343478160797857867692073e+00
0,1.4615095769983412754555729e+00
0,1.4829702252765857295457863e+00
0,1.5031230870701364210617612e+00
0,1.5213433151477913085614091e+00
0,1.5413800158140782414761816e+00
0,1.5626664639815692758872956e+00
0,1.5830615699413597141642640e+00
0,1.6049058282256181140468243e+00
0,1.6283828229550620925181192e+00
0,1.6605259274038213224145011e+00
0,1.6883329261342860938555077e+00
0,1.7172883734612318651358009e+00
0,1.7407614551625916199384392e+00
0,1.7641752684429055086923199e+00
0,1.7873159086949661489285290e+00
0,1.8075232056172081396283602e+00
0,1.8285650076100632421827186e+00
0,1.8501474810165650097815160e+00
0,1.8881073526542153651064382e+00
0,1.9189469900620528264312270e+00
0,1.9575145396775770478825507e+00
0,1.9941200098861022738105930e+00
0,2.0317300844621941635637086e+00
0,2.0773637917355909365824118e+00
0,2.1212187172285292824369662e+00
0,2.1660786632780837379641525e+00
0,2.2149788020336065308413254e+00
0,2.3118263162545269473469034e+00
0,2.3977443026500391276556456e+00
0,2.4913384841468624308902235e+00
0,2.5914026671268253210200783e+00
0,2.6608718099350232577648967e+00
0,2.6968900247457843200038496e+00
0,2.7297820401243750865205584e+00
0,2.7769152432136752217672893e+00
0,2.8463840954194932209020408e+00
0,3.0379700324552247892029300e+00
0,3.1832663630064925719409530e+00
0,3.3424557613712275738748758e+00
0,3.4914716333703244011132938e+00
0,3.6241661287159576687599838e+00
0,3.7042766035721084172394058e+00
0,3.7302375825939071418702042e+00
0,3.7601304886146178496630910e+00
0,3.8503159938902475900590616e+00
0,4.0597505973463867690043116e+00
0,4.2415342076081357092220969e+00
0,4.4280529785431665956707548e+00
0,4.5812184699462923376245271e+00
0,4.7391684405422012105191243e+00
0,4.8578514075678507211364376e+00
0,4.9158402456087006981988452e+00
0,4.9478048783644510422163876e+00
0,5.0281540943796949605371083e+00
0,5.1816907426460376839827404e+00
0,5.3175425824766824334233206e+00
0,5.4695141286063266861106058e+00
0,5.6172279498412382992000857e+00
0,5.7343733244160564055391660e+00
0,5.8297471888276755080937619e+00
0,5.9107946805999018735633399e+00
0,6.0199224191750388968102925e+00
0,6.0676119752782957661452201e+00
0,6.1631485822118925455015415e+00
0,6.2652281655247614722270555e+00
0,1.1279758893978719669348720e-01
0,2.2329453390156306369362937e-01
0,2.8118320683343950294741376e-01
0,3.0550870216032549597784396e-01
0,3.9706412324826806381494748e-01
0,5.3060018326800428845047009e-01
0,6.1093572971552589923049936e-01
0,6.1252165514942313873092417e-01
0,5.9087374792912639165365363e-01
0,5.9286324258448797053233648e-01
0,5.8958869396509117066784711e-01
0,5.9904749317066752212213032e-01
0,5.5319408816707182907634888e-01
0,6.1719476369715087216150096e-01
0,6.4525430126563310118115169e-01
0,6.9734090160206596564762549e-01
0,6.9467073127161993451039734e-01
0,6.1994141593770746290203988e-01
0,5.3053168592373389778060755e-01
0,4.3927928077690020502998891e-01
0,3.6637066778029198088617591e-01
0,3.8082536846140335740074079e-01
0,3.4373183949381419521884595e-01
0,3.3645376668386040019953498e-01
0,3.2678747033859678605693944e-01
0,3.3145423391419326364371045e-01
0,2.9123935244499887797786641e-01
0,1.7111466337117153813096593e-01
0,4.3031151742322748532387777e-02
0,6.2830250373779001904495090e+00
0,6.2465279098483161845933864e+00
0,6.2056451916583750261224850e+00
0,6.1502988816587489395715238e+00
0,6.1160594406142516632485240e+00
0,6.0619107577105690864982535e+00
0,6.0269322589524696454077457e+00
0,5.9611707029995031348335033e+00
0,5.9212839248756523602423840e+00
0,5.8370121718042025094064229e+00
0,5.7742166492175694969546385e+00
0,5.7332074929026592968739351e+00
0,5.6633017504287055388090266e+00
0,5.6008642933630277127576846e+00
0,5.5212787660023145974719228e+00
0,5.4672404453507326138606004e+00
0,5.4609816291358548312473431e+00
0,5.4485630623690690654825630e+00
0,5.3932171183622887866704332e+00
0,5.3336447963832229746117264e+00
0,5.2747519837746823512247829e+00
0,5.2242883265636557155175979e+00
0,5.1475142502839652536295034e+00
0,5.0517937806668591349534836e+00
0,5.0165952456994391539524258e+00
0,4.9844939351558119611240727e+00
0,4.9547325575259177909970276e+00
0,4.9343031519043929478129940e+00
0,4.8777544528814802404781403e+00
0,4.8076869155545036704779704e+00
0,4.7368041939022562658578863e+00
0,4.6721416732536438232159526e+00
0,4.5990918049554210256246733e+00
0,4.5459211487327468859120927e+00
0,4.5031595815220324396932483e+00
0,4.4707968020016313204223479e+00
0,4.4323084913755605995788756e+00
0,4.4034038956072558690379992e+00
0,4.3535640435179239204899204e+00
0,4.2895397489428264137245606e+00
0,4.2484851403568297811830234e+00
0,4.1674323113009439367715459e+00
0,4.1127561882193797160311988e+00
0,4.0598967826314042994795273e+00
0,4.0045085355037031149549875e+00
0,3.9544111929276883898864980e+00
0,3.8960979468803280667543731e+00
0,3.8594836627411344132099202e+00
0,3.8433971884745825597917701e+00
0,3.7636898136403655890092068e+00
