Species Id, vx
1,1.0000000000000000000000000e+00
1,1.0000000000000000000000000e+00
1,1.0000000000000000000000000e+00
1,1.0000000000000000000000000e+00
1,1.0000000000000000000000000e+00
1,1.0000000000000000000000000e+00
1,1.0000000000000000000000000e+00
1,1.0000000000000000000000000e+00
1,1.0000000000000000000000000e+00
1,1.0000000000000000000000000e+00
1,1.0000000000000000000000000e+00
1,1.0000000000000000000000000e+00
1,1.0000000000000000000000000e+00
1,1.0000000000000000000000000e+00
1,1.0000000000000000000000000e+00
1,1.0000000000000000000000000e+00
1,1.0000000000000000000000000e+00
1,1.0000000000000000000000000e+00
1,1.0000000000000000000000000e+00
1,1.0000000000000000000000000e+00
1,1.0000000000000000000000000e+00
1,1.0000000000000000000000000e+00
1,1.0000000000000000000000000e+00
1,1.0000000000000000000000000e+00
1,1.0000000000000000000000000e+00
1,1.0000000000000000000000000e+00
1,1.0000000000000000000000000e+00
1,1.0000000000000000000000000e+00
1,1.0000000000000000000000000e+00
1,1.0000000000000000000000000e+00
1,1.0000000000000000000000000e+00
1,1.0000000000000000000000000e+00
1,1.0000000000000000000000000e+00
1,1.0000000000000000000000000e+00
1,1.0000000000000000000000000e+00
1,1.0000000000000000000000000e+00
1,1.0000000000000000000000000e+00
1,1.0000000000000000000000000e+00
1,1.0000000000000000000000000e+00
1,1.0000000000000000000000000e+00
1,1.0000000000000000000000000e+00
1,1.0000000000000000000000000e+00
1,1.0000000000000000000000000e+00
1,1.0000000000000000000000000e+00
1,1.0000000000000000000000000e+00
1,1.0000000000000000000000000e+00
1,1.0000000000000000000000000e+00
1,1.0000000000000000000000000e+00
1,1.0000000000000000000000000e+00
1,1.0000000000000000000000000e+00
1,1.0000000000000000000000000e+00
1,1.0000000000000000000000000e+00
1,1.0000000000000000000000000e+00
1,1.0000000000000000000000000e+00
1,1.0000000000000000000000000e+00
1,1.0000000000000000000000000e+00
1,1.0000000000000000000000000e+00
1,1.0000000000000000000000000e+00
1,1.0000000000000000000000000e+00
1,1.0000000000000000000000000e+00
1,1.0000000000000000000000000e+00
1,1.0000000000000000000000000e+00
1,1.0000000000000000000000000e+00
1,1.0000000000000000000000000e+00
1,1.0000000000000000000000000e+00
1,1.0000000000000000000000000e+00
1,1.0000000000000000000000000e+00
1,1.0000000000000000000000000e+00
1,1.0000000000000000000000000e+00
1,1.0000000000000000000000000e+00
1,1.0000000000000000000000000e+00
1,1.0000000000000000000000000e+00
1,1.0000000000000000000000000e+00
1,1.0000000000000000000000000e+00
1,1.0000000000000000000000000e+00
1,1.0000000000000000000000000e+00
1,1.0000000000000000000000000e+00
1,1.0000000000000000000000000e+00
1,1.0000000000000000000000000e+00
1,1.0000000000000000000000000e+00
1,1.0000000000000000000000000e+00
1,1.0000000000000000000000000e+00
1,1.0000000000000000000000000e+00
1,1.0000000000000000000000000e+00
1,1.0000000000000000000000000e+00
1,1.0000000000000000000000000e+00
1,1.0000000000000000000000000e+00
1,1.0000000000000000000000000e+00
1,1.0000000000000000000000000e+00
1,1.0000000000000000000000000e+00
1,1.0000000000000000000000000e+00
1,1.0000000000000000000000000e+00
1,1.0000000000000000000000000e+00
1,1.0000000000000000000000000e+00
1,1.0000000000000000000000000e+00
1,1.0000000000000000000000000e+00
1,1.0000000000000000000000000e+00
1,1.0000000000000000000000000e+00
1,1.0000000000000000000000000e+00
1,1.0000000000000000000000000e+00
1,1.0000000000000000000000000e+00
1,1.0000000000000000000000000e+00
1,1.0000000000000000000000000e+00
1,1.0000000000000000000000000e+00
1,1.0000000000000000000000000e+00
1,1.0000000000000000000000000e+00
1,1.0000000000000000000000000e+00
1,1.0000000000000000000000000e+00
1,1.0000000000000000000000000e+00
1,1.0000000000000000000000000e+00
1,1.0000000000000000000000000e+00
1,1.0000000000000000000000000e+00
1,1.0000000000000000000000000e+00
1,1.0000000000000000000000000e+00
1,1.0000000000000000000000000e+00
1,1.0000000000000000000000000e+00
1,1.0000000000000000000000000e+00
1,1.0000000000000000000000000e+00
1,1.0000000000000000000000000e+00
1,1.0000000000000000000000000e+00
1,1.0000000000000000000000000e+00
1,1.0000000000000000000000000e+00
1,1.0000000000000000000000000e+00
1,1.0000000000000000000000000e+00
1,1.0000000000000000000000000e+00
1,1.0000000000000000000000000e+00
1,1.0000000000000000000000000e+00
1,1.0000000000000000000000000e+00
1,1.0000000000000000000000000e+00
1,1.0000000000000000000000000e+00
1,1.0000000000000000000000000e+00
1,1.0000000000000000000000000e+00
1,1.0000000000000000000000000e+00
1,1.0000000000000000000000000e+00
1,1.0000000000000000000000000e+00
1,1.0000000000000000000000000e+00
1,1.0000000000000000000000000e+00
1,1.0000000000000000000000000e+00
1,1.0000000000000000000000000e+00
1,1.0000000000000000000000000e+00
1,1.0000000000000000000000000e+00
1,1.0000000000000000000000000e+00
1,1.0000000000000000000000000e+00
1,1.0000000000000000000000000e+00
1,1.0000000000000000000000000e+00
1,1.0000000000000000000000000e+00
1,1.0000000000000000000000000e+00
1,1.0000000000000000000000000e+00
1,1.0000000000000000000000000e+00
1,1.0000000000000000000000000e+00
1,1.0000000000000000000000000e+00
1,1.0000000000000000000000000e+00
1,1.0000000000000000000000000e+00
1,1.0000000000000000000000000e+00
1,1.0000000000000000000000000e+00
1,1.0000000000000000000000000e+00
1,1.0000000000000000000000000e+00
1,1.0000000000000000000000000e+00
1,1.0000000000000000000000000e+00
1,1.0000000000000000000000000e+00
1,1.0000000000000000000000000e+00
1,1.0000000000000000000000000e+00
1,1.0000000000000000000000000e+00
1,1.0000000000000000000000000e+00
1,1.0000000000000000000000000e+00
1,1.0000000000000000000000000e+00
1,1.0000000000000000000000000e+00
1,1.0000000000000000000000000e+00
1,1.0000000000000000000000000e+00
1,1.0000000000000000000000000e+00
1,1.0000000000000000000000000e+00
1,1.0000000000000000000000000e+00
1,1.0000000000000000000000000e+00
1,1.0000000000000000000000000e+00
1,1.0000000000000000000000000e+00
1,1.0000000000000000000000000e+00
1,1.0000000000000000000000000e+00
1,1.0000000000000000000000000e+00
1,1.0000000000000000000000000e+00
1,1.0000000000000000000000000e+00
1,1.0000000000000000000000000e+00
1,1.0000000000000000000000000e+00
1,1.0000000000000000000000000e+00
1,1.0000000000000000000000000e+00
1,1.0000000000000000000000000e+00
1,1.0000000000000000000000000e+00
1,1.0000000000000000000000000e+00
1,1.0000000000000000000000000e+00
1,1.0000000000000000000000000e+00
1,1.0000000000000000000000000e+00
1,1.0000000000000000000000000e+00
1,1.0000000000000000000000000e+00
1,1.0000000000000000000000000e+00
1,1.0000000000000000000000000e+00
1,1.0000000000000000000000000e+00
1,1.0000000000000000000000000e+00
1,1.0000000000000000000000000e+00
1,1.0000000000000000000000000e+00
1,1.0000000000000000000000000e+00
1,1.0000000000000000000000000e+00
1,1.0000000000000000000000000e+00
1,1.0000000000000000000000000e+00
1,1.0000000000000000000000000e+00
1,1.0000000000000000000000000e+00
1,1.0000000000000000000000000e+00
1,1.0000000000000000000000000e+00
1,1.0000000000000000000000000e+00
1,1.0000000000000000000000000e+00
1,1.0000000000000000000000000e+00
1,1.0000000000000000000000000e+00
1,1.0000000000000000000000000e+00
1,1.0000000000000000000000000e+00
1,1.0000000000000000000000000e+00
1,1.0000000000000000000000000e+00
1,1.0000000000000000000000000e+00
1,1.0000000000000000000000000e+00
1,1.0000000000000000000000000e+00
1,1.0000000000000000000000000e+00
1,1.0000000000000000000000000e+00
1,1.0000000000000000000000000e+00
1,1.0000000000000000000000000e+00
1,1.0000000000000000000000000e+00
1,1.0000000000000000000000000e+00
1,1.0000000000000000000000000e+00
1,1.0000000000000000000000000e+00
1,1.0000000000000000000000000e+00
1,1.0000000000000000000000000e+00
1,1.0000000000000000000000000e+00
1,1.0000000000000000000000000e+00
1,1.0000000000000000000000000e+00
1,1.0000000000000000000000000e+00
1,1.0000000000000000000000000e+00
1,1.0000000000000000000000000e+00
1,1.0000000000000000000000000e+00
1,1.0000000000000000000000000e+00
1,1.0000000000000000000000000e+00
1,1.0000000000000000000000000e+00
1,1.0000000000000000000000000e+00
1,1.0000000000000000000000000e+00
1,1.0000000000000000000000000e+00
1,1.0000000000000000000000000e+00
1,1.0000000000000000000000000e+00
1,1.0000000000000000000000000e+00
1,1.0000000000000000000000000e+00
1,1.0000000000000000000000000e+00
1,1.0000000000000000000000000e+00
1,1.0000000000000000000000000e+00
1,1.0000000000000000000000000e+00
1,1.0000000000000000000000000e+00
1,1.0000000000000000000000000e+00
1,1.0000000000000000000000000e+00
1,1.0000000000000000000000000e+00
1,1.0000000000000000000000000e+00
1,1.0000000000000000000000000e+00
1,1.0000000000000000000000000e+00
1,1.0000000000000000000000000e+00
1,1.0000000000000000000000000e+00
1,1.0000000000000000000000000e+00
1,1.0000000000000000000000000e+00
1,1.0000000000000000000000000e+00
1,1.0000000000000000000000000e+00
1,1.0000000000000000000000000e+00
1,1.0000000000000000000000000e+00
1,1.0000000000000000000000000e+00
1,1.0000000000000000000000000e+00
1,1.0000000000000000000000000e+00
1,1.0000000000000000000000000e+00
1,1.0000000000000000000000000e+00
1,1.0000000000000000000000000e+00
1,1.0000000000000000000000000e+00
1,1.0000000000000000000000000e+00
1,1.0000000000000000000000000e+00
1,1.0000000000000000000000000e+00
1,1.0000000000000000000000000e+00
1,1.0000000000000000000000000e+00
1,1.0000000000000000000000000e+00
1,1.0000000000000000000000000e+00
1,1.0000000000000000000000000e+00
1,1.0000000000000000000000000e+00
0,-1.0000000000000000000000000e+00
0,-1.0000000000000000000000000e+00
0,-1.0000000000000000000000000e+00
0,-1.0000000000000000000000000e+00
0,-1.0000000000000000000000000e+00
0,-1.0000000000000000000000000e+00
0,-1.0000000000000000000000000e+00
0,-1.0000000000000000000000000e+00
0,-1.0000000000000000000000000e+00
0,-1.0000000000000000000000000e+00
0,-1.0000000000000000000000000e+00
0,-1.0000000000000000000000000e+00
0,-1.0000000000000000000000000e+00
0,-1.0000000000000000000000000e+00
0,-1.0000000000000000000000000e+00
0,-1.0000000000000000000000000e+00
0,-1.0000000000000000000000000e+00
0,-1.0000000000000000000000000e+00
0,-1.0000000000000000000000000e+00
0,-1.0000000000000000000000000e+00
0,-1.0000000000000000000000000e+00
0,-1.0000000000000000000000000e+00
0,-1.0000000000000000000000000e+00
0,-1.0000000000000000000000000e+00
0,-1.0000000000000000000000000e+00
0,-1.0000000000000000000000000e+00
0,-1.0000000000000000000000000e+00
0,-1.0000000000000000000000000e+00
0,-1.0000000000000000000000000e+00
0,-1.0000000000000000000000000e+00
0,-1.0000000000000000000000000e+00
0,-1.0000000000000000000000000e+00
0,-1.0000000000000000000000000e+00
0,-1.0000000000000000000000000e+00
0,-1.0000000000000000000000000e+00
0,-1.0000000000000000000000000e+00
0,-1.0000000000000000000000000e+00
0,-1.0000000000000000000000000e+00
0,-1.0000000000000000000000000e+00
0,-1.0000000000000000000000000e+00
0,-1.0000000000000000000000000e+00
0,-1.0000000000000000000000000e+00
0,-1.0000000000000000000000000e+00
0,-1.0000000000000000000000000e+00
0,-1.0000000000000000000000000e+00
0,-1.0000000000000000000000000e+00
0,-1.0000000000000000000000000e+00
0,-1.0000000000000000000000000e+00
0,-1.0000000000000000000000000e+00
0,-1.0000000000000000000000000e+00
0,-1.0000000000000000000000000e+00
0,-1.0000000000000000000000000e+00
0,-1.0000000000000000000000000e+00
0,-1.0000000000000000000000000e+00
0,-1.0000000000000000000000000e+00
0,-1.0000000000000000000000000e+00
0,-1.0000000000000000000000000e+00
0,-1.0000000000000000000000000e+00
0,-1.0000000000000000000000000e+00
0,-1.0000000000000000000000000e+00
0,-1.0000000000000000000000000e+00
0,-1.0000000000000000000000000e+00
0,-1.0000000000000000000000000e+00
0,-1.0000000000000000000000000e+00
0,-1.0000000000000000000000000e+00
0,-1.0000000000000000000000000e+00
0,-1.0000000000000000000000000e+00
0,-1.0000000000000000000000000e+00
0,-1.0000000000000000000000000e+00
0,-1.0000000000000000000000000e+00
0,-1.0000000000000000000000000e+00
0,-1.0000000000000000000000000e+00
0,-1.0000000000000000000000000e+00
0,-1.0000000000000000000000000e+00
0,-1.0000000000000000000000000e+00
0,-1.0000000000000000000000000e+00
0,-1.0000000000000000000000000e+00
0,-1.0000000000000000000000000e+00
0,-1.0000000000000000000000000e+00
0,-1.0000000000000000000000000e+00
0,-1.0000000000000000000000000e+00
0,-1.0000000000000000000000000e+00
0,-1.0000000000000000000000000e+00
0,-1.0000000000000000000000000e+00
0,-1.0000000000000000000000000e+00
0,-1.0000000000000000000000000e+00
0,-1.0000000000000000000000000e+00
0,-1.0000000000000000000000000e+00
0,-1.0000000000000000000000000e+00
0,-1.0000000000000000000000000e+00
0,-1.0000000000000000000000000e+00
0,-1.0000000000000000000000000e+00
0,-1.0000000000000000000000000e+00
0,-1.0000000000000000000000000e+00
0,-1.0000000000000000000000000e+00
0,-1.0000000000000000000000000e+00
0,-1.0000000000000000000000000e+00
0,-1.0000000000000000000000000e+00
0,-1.0000000000000000000000000e+00
0,-1.0000000000000000000000000e+00
0,-1.0000000000000000000000000e+00
0,-1.0000000000000000000000000e+00
0,-1.0000000000000000000000000e+00
0,-1.0000000000000000000000000e+00
0,-1.0000000000000000000000000e+00
0,-1.0000000000000000000000000e+00
0,-1.0000000000000000000000000e+00
0,-1.0000000000000000000000000e+00
0,-1.0000000000000000000000000e+00
0,-1.0000000000000000000000000e+00
0,-1.0000000000000000000000000e+00
0,-1.0000000000000000000000000e+00
0,-1.0000000000000000000000000e+00
0,-1.0000000000000000000000000e+00
0,-1.0000000000000000000000000e+00
0,-1.0000000000000000000000000e+00
0,-1.0000000000000000000000000e+00
0,-1.0000000000000000000000000e+00
0,-1.0000000000000000000000000e+00
0,-1.0000000000000000000000000e+00
0,-1.0000000000000000000000000e+00
0,-1.0000000000000000000000000e+00
0,-1.0000000000000000000000000e+00
0,-1.0000000000000000000000000e+00
0,-1.0000000000000000000000000e+00
0,-1.0000000000000000000000000e+00
0,-1.0000000000000000000000000e+00
0,-1.0000000000000000000000000e+00
0,-1.0000000000000000000000000e+00
0,-1.0000000000000000000000000e+00
0,-1.0000000000000000000000000e+00
0,-1.0000000000000000000000000e+00
0,-1.0000000000000000000000000e+00
0,-1.0000000000000000000000000e+00
0,-1.0000000000000000000000000e+00
0,-1.0000000000000000000000000e+00
0,-1.0000000000000000000000000e+00
0,-1.0000000000000000000000000e+00
0,-1.0000000000000000000000000e+00
0,-1.0000000000000000000000000e+00
0,-1.0000000000000000000000000e+00
0,-1.0000000000000000000000000e+00
0,-1.0000000000000000000000000e+00
0,-1.0000000000000000000000000e+00
0,-1.0000000000000000000000000e+00
0,-1.0000000000000000000000000e+00
0,-1.0000000000000000000000000e+00
0,-1.0000000000000000000000000e+00
0,-1.0000000000000000000000000e+00
0,-1.0000000000000000000000000e+00
0,-1.0000000000000000000000000e+00
0,-1.0000000000000000000000000e+00
0,-1.0000000000000000000000000e+00
0,-1.0000000000000000000000000e+00
0,-1.0000000000000000000000000e+00
0,-1.0000000000000000000000000e+00
0,-1.0000000000000000000000000e+00
0,-1.0000000000000000000000000e+00
0,-1.0000000000000000000000000e+00
0,-1.0000000000000000000000000e+00
0,-1.0000000000000000000000000e+00
0,-1.0000000000000000000000000e+00
0,-1.0000000000000000000000000e+00
0,-1.0000000000000000000000000e+00
0,-1.0000000000000000000000000e+00
0,-1.0000000000000000000000000e+00
0,-1.0000000000000000000000000e+00
0,-1.0000000000000000000000000e+00
0,-1.0000000000000000000000000e+00
0,-1.0000000000000000000000000e+00
0,-1.0000000000000000000000000e+00
0,-1.0000000000000000000000000e+00
0,-1.0000000000000000000000000e+00
0,-1.0000000000000000000000000e+00
0,-1.0000000000000000000000000e+00
0,-1.0000000000000000000000000e+00
0,-1.0000000000000000000000000e+00
0,-1.0000000000000000000000000e+00
0,-1.0000000000000000000000000e+00
0,-1.0000000000000000000000000e+00
0,-1.0000000000000000000000000e+00
0,-1.0000000000000000000000000e+00
0,-1.0000000000000000000000000e+00
0,-1.0000000000000000000000000e+00
0,-1.0000000000000000000000000e+00
0,-1.0000000000000000000000000e+00
0,-1.0000000000000000000000000e+00
0,-1.0000000000000000000000000e+00
0,-1.0000000000000000000000000e+00
0,-1.0000000000000000000000000e+00
0,-1.0000000000000000000000000e+00
0,-1.0000000000000000000000000e+00
0,-1.0000000000000000000000000e+00
0,-1.0000000000000000000000000e+00
0,-1.0000000000000000000000000e+00
0,-1.0000000000000000000000000e+00
0,-1.0000000000000000000000000e+00
0,-1.0000000000000000000000000e+00
0,-1.0000000000000000000000000e+00
0,-1.0000000000000000000000000e+00
0,-1.0000000000000000000000000e+00
0,-1.0000000000000000000000000e+00
0,-1.0000000000000000000000000e+00
0,-1.0000000000000000000000000e+00
0,-1.0000000000000000000000000e+00
0,-1.0000000000000000000000000e+00
0,-1.0000000000000000000000000e+00
0,-1.0000000000000000000000000e+00
0,-1.0000000000000000000000000e+00
0,-1.0000000000000000000000000e+00
0,-1.0000000000000000000000000e+00
0,-1.0000000000000000000000000e+00
0,-1.0000000000000000000000000e+00
0,-1.0000000000000000000000000e+00
0,-1.0000000000000000000000000e+00
0,-1.0000000000000000000000000e+00
0,-1.0000000000000000000000000e+00
0,-1.0000000000000000000000000e+00
0,-1.0000000000000000000000000e+00
0,-1.0000000000000000000000000e+00
0,-1.0000000000000000000000000e+00
0,-1.0000000000000000000000000e+00
0,-1.0000000000000000000000000e+00
0,-1.0000000000000000000000000e+00
0,-1.0000000000000000000000000e+00
0,-1.0000000000000000000000000e+00
0,-1.0000000000000000000000000e+00
0,-1.0000000000000000000000000e+00
0,-1.0000000000000000000000000e+00
0,-1.0000000000000000000000000e+00
0,-1.0000000000000000000000000e+00
0,-1.0000000000000000000000000e+00
0,-1.0000000000000000000000000e+00
0,-1.0000000000000000000000000e+00
0,-1.0000000000000000000000000e+00
0,-1.0000000000000000000000000e+00
0,-1.0000000000000000000000000e+00
0,-1.0000000000000000000000000e+00
0,-1.0000000000000000000000000e+00
0,-1.0000000000000000000000000e+00
0,-1.0000000000000000000000000e+00
0,-1.0000000000000000000000000e+00
0,-1.0000000000000000000000000e+00
0,-1.0000000000000000000000000e+00
0,-1.0000000000000000000000000e+00
0,-1.0000000000000000000000000e+00
0,-1.0000000000000000000000000e+00
0,-1.0000000000000000000000000e+00
0,-1.0000000000000000000000000e+00
0,-1.0000000000000000000000000e+00
0,-1.0000000000000000000000000e+00
0,-1.0000000000000000000000000e+00
0,-1.0000000000000000000000000e+00
0,-1.0000000000000000000000000e+00
0,-1.0000000000000000000000000e+00
0,-1.0000000000000000000000000e+00
0,-1.0000000000000000000000000e+00
0,-1.0000000000000000000000000e+00
0,-1.0000000000000000000000000e+00
0,-1.0000000000000000000000000e+00
0,-1.0000000000000000000000000e+00
0,-1.0000000000000000000000000e+00
0,-1.0000000000000000000000000e+00
0,-1.0000000000000000000000000e+00
0,-1.0000000000000000000000000e+00
0,-1.0000000000000000000000000e+00
0,-1.0000000000000000000000000e+00
0,-1.0000000000000000000000000e+00
0,-1.0000000000000000000000000e+00
0,-1.0000000000000000000000000e+00
0,-1.0000000000000000000000000e+00
0,-1.0000000000000000000000000e+00
0,-1.0000000000000000000000000e+00
0,-1.0000000000000000000000000e+00
0,-1.0000000000000000000000000e+00
0,-1.0000000000000000000000000e+00
0,-1.0000000000000000000000000e+00
0,-1.0000000000000000000000000e+00
0,-1.0000000000000000000000000e+00
