Species Id, vx
1,2.9063289585576190798832386e-01
1,2.8949957743406801169427922e-01
1,2.8828756731601951068810763e-01
1,2.8696747172153819205320247e-01
1,2.8541585551911241580569367e-01
1,2.8379431947311617445706133e-01
1,2.8198655651121112830637117e-01
1,2.8021518771120879076619303e-01
1,2.7826200766668890418387150e-01
1,2.7571610447037625535315897e-01
1,2.7368979003772475611100390e-01
1,2.7150256411370204956412522e-01
1,2.6926268391076474406631291e-01
1,2.6685605508786613970784174e-01
1,2.6424250832955031853543915e-01
1,2.6159667728975644074296270e-01
1,2.5897695962650868484189459e-01
1,2.5647075452915135684861525e-01
1,2.5255419167020853876692854e-01
1,2.4964651743727647725812346e-01
1,2.4662409234265716961864712e-01
1,2.4337055877827751260156219e-01
1,2.3995713816969541087864570e-01
1,2.3637260476467858438809344e-01
1,2.3263252467912290399887354e-01
1,2.2909894795501678510518673e-01
1,2.2574022455251255281361011e-01
1,2.2034389297993911549511381e-01
1,2.1612330730403619960533490e-01
1,2.1180340399158475994667583e-01
1,2.0721486311033357474720162e-01
1,2.0246354329509180791646372e-01
1,1.9763416575515774242788325e-01
1,1.9281570826680385910556481e-01
1,1.8845966234356845148134596e-01
1,1.8521678330003898960143260e-01
1,1.8171055967455104762642293e-01
1,1.7874257666000442634768319e-01
1,1.7557542325299535512783677e-01
1,1.7218091803407925555191582e-01
1,1.6864552071769542407331244e-01
1,1.6820665601511125553102488e-01
1,1.7707045613556871010985105e-01
1,1.9032645583928997634615143e-01
1,2.0451706164117103292632294e-01
1,2.2616215563773647834189262e-01
1,2.4705066117537327619047005e-01
1,2.6780242945339532978366037e-01
1,2.9694077129962442862520788e-01
1,3.4425772123815345793218512e-01
1,4.1088006898227008578672326e-01
1,4.7805291278509742802782512e-01
1,5.3430917374781372597425388e-01
1,5.8541462400059329773682748e-01
1,6.6904627955994466770306417e-01
1,7.4584970202961708984901179e-01
1,8.3630305848192709738952999e-01
1,9.2204196798159065995292849e-01
1,1.0377982071965994315121407e+00
1,1.1679018613735800968811418e+00
1,1.3226759678088741978285725e+00
1,1.5353487731311556974134191e+00
1,1.8899681239113530484274861e+00
1,2.1206860017580972943562756e+00
1,2.0821507601185809122057435e+00
1,2.0341748774654280218499025e+00
1,1.9594524716306076506100453e+00
1,1.8675111330512279561588684e+00
1,1.7675579454103844678769519e+00
1,1.6972295647965949250135509e+00
1,1.6364293297306755636810749e+00
1,1.5838141178919651341772123e+00
1,1.5045737335854392213718711e+00
1,1.4411593544364480479202939e+00
1,1.3687996915587432589234140e+00
1,1.3046666337765662202485828e+00
1,1.2407646333389055204321494e+00
1,1.1883865564750348831069005e+00
1,1.1512089216528726964838825e+00
1,1.1145567103777578310541685e+00
1,1.0763064454855266749433440e+00
1,1.0252255339616282991954677e+00
1,9.8652062458173384040804876e-01
1,9.5630096082339144381023743e-01
1,9.4423609220624671323207622e-01
1,9.0546878351450565958202787e-01
1,8.6656414185702324015636577e-01
1,8.4893984993801252514344924e-01
1,8.2879570793633561276436694e-01
1,8.0720836127607664689520561e-01
1,7.7352742694546672286293187e-01
1,7.8609457891845790911133918e-01
1,7.7040596977522202148946917e-01
1,7.4632719348639209311357945e-01
1,7.3087744348918060044439926e-01
1,7.1111768519177498415473337e-01
1,6.9189275257628168880330577e-01
1,6.6263122158305931552746415e-01
1,6.2869669741367617543659208e-01
1,5.8670137766586005767521783e-01
1,6.8921474629524570598704258e-01
1,6.7841437227048351221725397e-01
1,6.6746111496971105569997462e-01
1,6.4606431366443550778910776e-01
1,6.1942726144537063603934257e-01
1,5.8477325460030871173700007e-01
1,5.4535240519480865373225242e-01
1,5.0623441202232566382690493e-01
1,4.8243599351123028773358214e-01
1,7.3521345249396929943941359e-01
1,7.1258968364723418442707725e-01
1,6.7962000962645496837666315e-01
1,6.4372807666243092583613361e-01
1,6.0722620671642180134597311e-01
1,5.6792549902603051137361945e-01
1,5.2524669707763904646924402e-01
1,4.7761396975007613940888973e-01
1,4.1953606109769836507439322e-01
1,6.1696733974613737760961385e-01
1,5.8364353379756017670132451e-01
1,5.4615935257383418921506291e-01
1,5.0872519242026348340601771e-01
1,4.6550267285476221168494249e-01
1,4.1843712480539285714087328e-01
1,3.6264558675154601186108039e-01
1,2.9397961799932126325529680e-01
1,2.0713459220700936036507755e-01
1,1.4918639257814245158151323e-01
1,2.1565682219089721272098359e-01
1,1.8465429553452877842190105e-01
1,1.5326773612593425077932352e-01
1,1.1291625578874671387286099e-01
1,5.8690953763466335857401646e-02
1,9.2775587269053466643597972e-03
1,-4.2027082967777115718455150e-02
1,-1.1821768089920733912911999e-01
1,-1.6171135495575278406832354e-01
1,-2.0614370264277223632198854e-01
1,-2.0300688783509429624629661e-01
1,-2.2264035992125319474155276e-01
1,-2.5894854732797667473676029e-01
1,-2.8963059453560602296562365e-01
1,-3.2042438543436979614398297e-01
1,-3.5095649182696442291984340e-01
1,-3.9476299404316794738889485e-01
1,-4.3072131992639883790729982e-01
1,-4.6094305656405143434284355e-01
1,-4.8792142056051346354905718e-01
1,-4.9065511395481725687162111e-01
1,-5.0562630454048351769102965e-01
1,-5.2513155779669173917056924e-01
1,-5.4409542506723163057813508e-01
1,-5.6952982249286132621080014e-01
1,-6.1310504635108153959066613e-01
1,-6.5009578847454341232747765e-01
1,-7.0689383153142792970413666e-01
1,-7.3606180964572187619410215e-01
1,-7.6138537487519886148845671e-01
1,-7.6040707024398146440802293e-01
1,-7.7323590955970045168754723e-01
1,-7.9093513219119004897805780e-01
1,-8.1025191638795279747142786e-01
1,-8.7817450609027036811937705e-01
1,-9.0464675232432334439636179e-01
1,-9.3385191273385093069236973e-01
1,-9.6464210651431847587389257e-01
1,-9.8784750989052427794234745e-01
1,-1.0572296422425948581036437e+00
1,-1.0784680021389088100391973e+00
1,-1.0717929600641309395570033e+00
1,-1.0911013997927536678389515e+00
1,-1.1237855747955658447523319e+00
1,-1.1477420808270069052525741e+00
1,-1.1731126769072075521904708e+00
1,-1.2019022395097334054980820e+00
1,-1.2288261141534524423235553e+00
1,-1.2534183153580369385338145e+00
1,-1.2737483194314460632767805e+00
1,-1.2959191405128216434405886e+00
1,-1.2929332315048260859668972e+00
1,-1.4258731830358748471354602e+00
1,-1.4453264819376661076688606e+00
1,-1.4585811446134067104196674e+00
1,-1.4822892291692617572351764e+00
1,-1.5148308466200084421160454e+00
1,-1.5542521750756495002576685e+00
1,-1.6022067268055695254957982e+00
1,-1.6315016154962711514286866e+00
1,-1.6559230378173417363996123e+00
1,-1.6291924144246303640670703e+00
1,-1.6284934625424309917463006e+00
1,-1.6335871232199106195537297e+00
1,-1.6432392790447334363079790e+00
1,-1.6609877240964840972026195e+00
1,-1.6999538684014028344648750e+00
1,-1.7498303444428697783763482e+00
1,-1.7973650356957910911859244e+00
1,-1.8211361198806372829750444e+00
1,-1.8222586724710034822294347e+00
1,-1.7551423297210819729485820e+00
1,-1.7367545433284787836925034e+00
1,-1.7318431645275884633861097e+00
1,-1.7417054789602040010265682e+00
1,-1.7678537896748591773388171e+00
1,-1.7886096491962175658585465e+00
1,-1.8150276911175551308730292e+00
1,-1.8408827881113605240415154e+00
1,-1.8306055756005539247865954e+00
1,-1.8084749364019003792236617e+00
1,-1.7169957876147605713157418e+00
1,-1.6983683538688525427318154e+00
1,-1.6920688987678078607501675e+00
1,-1.6887083659720150130567617e+00
1,-1.6790463044308188145237182e+00
1,-1.6774198447214330176535668e+00
1,-1.6777441506891239697552010e+00
1,-1.6700501484306753408048962e+00
1,-1.6410495067498398480410060e+00
1,-1.6051503360218288829486255e+00
1,-1.3974639104597605943069993e+00
1,-1.3769591783678987173544783e+00
1,-1.3539309721588390633684185e+00
1,-1.3289411010829574877334380e+00
1,-1.3059586640926366118975466e+00
1,-1.2878881017672751951863575e+00
1,-1.2587107488773936481152305e+00
1,-1.2469419231449634377639768e+00
1,-1.2329263268719474755386045e+00
1,-1.2140729344826972635473794e+00
1,-1.0920362863538846109889846e+00
1,-1.0524823389022628372657664e+00
1,-1.0085555985835319425802936e+00
1,-9.3592625737595336321561490e-01
1,-8.9265906718170517919475060e-01
1,-8.2728926718909445714444928e-01
1,-7.7580065133321063353122327e-01
1,-7.6330639399220689966796272e-01
1,-7.3583216683213836795118823e-01
1,-6.7530729967306601935206345e-01
1,-5.6285554914468050036191471e-01
1,-4.5634411934798019272463421e-01
1,-3.5383023785417921924789653e-01
1,-2.5044676360201023612717108e-01
1,-1.3724879781892593277881076e-01
1,-8.1331298768464829751501100e-02
1,-4.9303284039052576448458609e-02
1,-2.9429638270727337401311274e-02
1,4.7504252316144385259732985e-03
1,5.5308978584129267486169113e-02
1,1.3628883060292890094800100e-01
1,1.9311676647920630878196846e-01
1,2.2883474571958595245035895e-01
1,2.5084093086060105237677931e-01
1,2.5949103489993502469346254e-01
1,2.6495542086989687380338410e-01
1,2.6956621192805391151736671e-01
1,2.7455783168168590435698206e-01
1,2.8242944919948859139324782e-01
1,2.8969180972318470113080480e-01
1,2.9663482843772581709629321e-01
1,2.9887415436224740172832526e-01
1,2.9992594242182302188837184e-01
1,3.0071618020094043055578936e-01
1,3.0145625168703865659480812e-01
1,3.0224857082389877671602108e-01
1,3.0312106133148886133454880e-01
1,3.0393150215202680008985681e-01
1,3.0458708399786987852664311e-01
1,3.0568534430615013075538400e-01
1,3.0506941022833655718926593e-01
1,3.0325133407890947356833067e-01
1,3.0175934521672614918585964e-01
1,3.0024926967851289782984736e-01
1,2.9876603309152754972544130e-01
1,2.9710476529246671040240813e-01
1,2.9563006630274030195337787e-01
1,2.9422965827242264502672242e-01
1,2.9303202826656588042553153e-01
1,2.9218414298387018757097167e-01
0,2.9043955071083638053153209e-01
0,2.4673478739234028234150742e-01
0,1.9821403450645058708090573e-01
0,1.5497489570451117302241073e-01
0,1.1924345632110626425070876e-01
0,1.0003639744929060384492914e-01
0,7.8135691167096593678920158e-02
0,6.6232458720369827287477449e-02
0,4.6154760157954749510977877e-02
0,-2.5335218040257248550695124e-02
0,-8.3544195200733251116531619e-02
0,-1.3402655365690080424556641e-01
0,-1.7199262794087044614599336e-01
0,-1.8440054950359113794533528e-01
0,-2.0311872997084867709105538e-01
0,-2.1618155489746798680883444e-01
0,-2.2183158775367672888023662e-01
0,-2.3091476269359711981365990e-01
0,-2.6454185147868380933999788e-01
0,-3.1357568916371647560481506e-01
0,-3.4555713059475079429461175e-01
0,-3.8002857265238659811856792e-01
0,-4.0346994363937371819162081e-01
0,-4.2396714643420635448833877e-01
0,-4.3368139200666827592911545e-01
0,-4.4523043299470849154531038e-01
0,-4.3993030856444736986787802e-01
0,-4.1699757670185877422852627e-01
0,-4.6032141453335539971192247e-01
0,-4.9886676274111135809263828e-01
0,-5.3383995449236332220266377e-01
0,-5.6418430960888255043528261e-01
0,-5.9094985861243998215286410e-01
0,-5.8888150108711090346957917e-01
0,-5.9368534645764015067470609e-01
0,-5.8837888133356364139814332e-01
0,-6.0800172854624057183769992e-01
0,-6.4181584393723689618838080e-01
0,-6.7260857644170501945524165e-01
0,-6.9365684007342875982971009e-01
0,-6.9634665208033119654373877e-01
0,-7.0313144328058496679290101e-01
0,-7.0211220906735916091889749e-01
0,-6.9840708634264458964935329e-01
0,-7.2629585140093144701722849e-01
0,-7.6176765630168463694360526e-01
0,-7.8312069715473020536933291e-01
0,-8.0270439282991212781581680e-01
0,-8.1691243515596689839242117e-01
0,-8.3005154600084596339115706e-01
0,-8.3950224364409986588242418e-01
0,-8.4821301179224695143687995e-01
0,-8.6678675943183303154171426e-01
0,-8.9292991963000623023560820e-01
0,-9.2758449065435444325089520e-01
0,-9.5712505189889363066413352e-01
0,-1.0012517998938053054303055e+00
0,-1.0334826475081826391289042e+00
0,-1.0633686579945293981808163e+00
0,-1.0950833683875769164473013e+00
0,-1.1249004421413824061914966e+00
0,-1.1606122742833531180650652e+00
0,-1.2025710935494751119279044e+00
0,-1.2587235180807330170438263e+00
0,-1.3185311320877421970010346e+00
0,-1.3826935209392758885371677e+00
0,-1.4428338094074293351809501e+00
0,-1.5149989590926677962556823e+00
0,-1.5860381762865856103417173e+00
0,-1.6534358385148868464398220e+00
0,-1.7254596767856644756733431e+00
0,-1.7979809160700819248290827e+00
0,-1.9070235795164482972552378e+00
0,-1.9731818279725696907433985e+00
0,-2.0186227693980973718623773e+00
0,-2.0609624224129667879878980e+00
0,-2.0925812963364895935569621e+00
0,-1.9477970502808865660426818e+00
0,-1.4796081392196565040819678e+00
0,-1.2642755973888264442450691e+00
0,-1.1569629383640402942035053e+00
0,-9.9044371759669247445856399e-01
0,-8.9190929732120582951182541e-01
0,-8.0669239949291193791935939e-01
0,-7.2843454491934644945416721e-01
0,-6.4751269535397226739803500e-01
0,-5.6326949716782948041071677e-01
0,-4.9387506089529714659036586e-01
0,-4.3872300386781193370921983e-01
0,-3.9506131084031731459660364e-01
0,-3.4390997412776941333234504e-01
0,-3.0055338434130918212616734e-01
0,-2.6112234203288670064679877e-01
0,-2.2315999991022261728090825e-01
0,-1.9666085822248635661679828e-01
0,-1.8140084387987767677863360e-01
0,-1.6947224025694562765664841e-01
0,-1.5835643701676604955252969e-01
0,-1.4808852522884177749240564e-01
0,-1.3652826674192927725037805e-01
0,-1.3181266051087442425782115e-01
0,-1.3172432935812572463163406e-01
0,-1.3577680370587102975932225e-01
0,-1.3991489309783822214683369e-01
0,-1.4394638449878693897687754e-01
0,-1.4787185513911732526182163e-01
0,-1.5164610566184463791294945e-01
0,-1.5534188682844099482771583e-01
0,-1.6143227756406131057076436e-01
0,-1.6549795852993384737139593e-01
0,-1.6969695530547376782770641e-01
0,-1.7410087702366786044372304e-01
0,-1.7857258695973826645442273e-01
0,-1.8294215203027849869776844e-01
0,-1.8688519200094091954333919e-01
0,-1.9053120521467906134382986e-01
0,-1.9395388405335933779127799e-01
0,-1.9840919556620639774280335e-01
0,-2.0140712266131349794662242e-01
0,-2.0442703513721158237181896e-01
0,-2.0739683964709401675641232e-01
0,-2.1042677122604958039886469e-01
0,-2.1338994592077401013519022e-01
0,-2.1614627103058781099065300e-01
0,-2.1876353496829026301639942e-01
0,-2.2130270999032736201073135e-01
0,-2.2446099029693800108731239e-01
0,-2.2673063349953315182006008e-01
0,-2.2900506213805418842532902e-01
0,-2.3123311746699851121356062e-01
0,-2.3336116893560376883698382e-01
0,-2.3531448081013631168367795e-01
0,-2.3721077856896738422776139e-01
0,-2.3898112602544652194325181e-01
0,-2.4060710411202276826081459e-01
0,-2.4277656805001637807528425e-01
0,-2.4446451400686883270729766e-01
0,-2.4607065043465650711063120e-01
0,-2.4777005478982669361975866e-01
0,-2.4941950415014502162591725e-01
0,-2.5078086734967491855385902e-01
0,-2.5212563757186867707815736e-01
0,-2.5319306282518505568646106e-01
0,-2.5405377322457278754797017e-01
0,-2.5496833495046422601859604e-01
0,-2.5532349236660834002066167e-01
0,-2.5548014178250227912414516e-01
0,-2.5585730086575408925853026e-01
0,-2.5665945817036805998156979e-01
0,-2.5752197357797806942514285e-01
0,-2.5852695663459712704934645e-01
0,-2.5967012717932230758677292e-01
0,-2.6079262330313152107308383e-01
0,-2.6251574339046174211276252e-01
0,-2.6379566981107605005973937e-01
0,-2.6524085089391219449694859e-01
0,-2.6661358924359473965282064e-01
0,-2.6585031952551996248246269e-01
0,-2.6255672867002216586129748e-01
0,-2.5974495075139114597106982e-01
0,-2.5738951263078113651516787e-01
0,-2.5512675395618755747051409e-01
0,-2.4947201651413733469730971e-01
0,-2.3822855203359449838274031e-01
0,-2.2212108116136600188816885e-01
0,-1.9844968948092356342272069e-01
0,-1.7873485564347704745991052e-01
0,-1.6671728384761960728432939e-01
0,-1.5785699672000583215769609e-01
0,-1.4569274971719625710875334e-01
0,-1.2810930630056471812849850e-01
0,-6.4661530564391889175368533e-02
0,8.7789205521760227401983911e-03
0,9.9105006415636229255561318e-02
0,1.8639530290798436706900532e-01
0,2.7156448817825384889346196e-01
0,3.2782147347019729988204517e-01
0,3.5227913187734111177817908e-01
0,3.6823525944373924900787642e-01
0,4.0599416263468712795514648e-01
0,5.1190752932436123234793968e-01
0,6.2496977952039900472414047e-01
0,7.2390773735922830933731120e-01
0,8.1883994441400387298557462e-01
0,8.9890461903011864563950439e-01
0,9.6261538649806521750207366e-01
0,9.9986569091038690615391715e-01
0,1.0095566636945232374955594e+00
0,1.0419995969713600203476744e+00
0,1.1058881469431101063349843e+00
0,1.1608412951270064006337179e+00
0,1.2244589476396088301157761e+00
0,1.2927674642628812495814827e+00
0,1.3427785787807677841954046e+00
0,1.3830831421421385662995363e+00
0,1.4142614639050474778514399e+00
0,1.4539358954623795572302924e+00
0,1.4828160709673534611852119e+00
0,1.5144530622097529537484206e+00
0,1.5561040309131590753111141e+00
0,1.6135674376177542299615197e+00
0,1.6655408934469242421272384e+00
0,1.7042659068900991581330118e+00
0,1.7138164228935688360166978e+00
0,1.7291142027662333990889465e+00
0,1.7864111824673292172604988e+00
0,1.8331918412574432775130617e+00
0,1.8479589440881849515818658e+00
0,1.8393777544766829468159131e+00
0,1.8382011756961698090151458e+00
0,1.8338387494458416870912743e+00
0,1.8388390368307037103789980e+00
0,1.8221567160499223536618274e+00
0,1.8397138165880706495158847e+00
0,1.8543769457760392871392696e+00
0,1.8755737360938402602528186e+00
0,1.8858344382281742035445404e+00
0,1.8609678820943880150906580e+00
0,1.8230010363453803545752407e+00
0,1.7824202291493083105677897e+00
0,1.7460493642910774880760982e+00
0,1.7479776487784441929562718e+00
0,1.7334147036913420958370580e+00
0,1.7254612729338820731328497e+00
0,1.7204979258088941573845432e+00
0,1.7256807547730974583544139e+00
0,1.7140285597982254373050637e+00
0,1.6791092499629494128043916e+00
0,1.6173339853688095679729031e+00
0,1.5871142619389486672076828e+00
0,1.5619399458504639177647277e+00
0,1.5497390802216723937334564e+00
0,1.5227632557684145364618189e+00
0,1.5055845910027489953364466e+00
0,1.4805154608368613633473387e+00
0,1.4684565127214121993404206e+00
0,1.4468411813545640764999689e+00
0,1.4277863059127751110821691e+00
0,1.3948852862567528987369769e+00
0,1.3669620654723779740180589e+00
0,1.3495869677781058282306503e+00
0,1.3252436172225088295562045e+00
0,1.2978445180170117279061515e+00
0,1.2631001595042052887407635e+00
0,1.2400604008561246782704757e+00
0,1.2227166333305186096680472e+00
0,1.2236510498874775265676362e+00
0,1.2093999827988530793021482e+00
0,1.1822997022285506307781588e+00
0,1.1551488847248114755217330e+00
0,1.1314836981052036612993561e+00
0,1.1009936742473347415227636e+00
0,1.0557350708880957057544947e+00
0,1.0365506405075819440497753e+00
0,1.0176327493435990412251613e+00
0,1.0062675529784665950927547e+00
0,9.9450794066644210289496186e-01
0,9.7720734558030297733921543e-01
0,9.4555098344831256529374741e-01
0,9.1075525938483326005012941e-01
0,8.7581073239637630134524215e-01
0,8.3963077699421617694497399e-01
0,8.0842507910054217656892206e-01
0,7.8461215544791540477120861e-01
0,7.6413195877704254144191509e-01
0,7.4413338908361725820839183e-01
0,7.2544366035813812043642201e-01
0,7.0658783088691057283625696e-01
0,6.6975487076673401176662992e-01
0,6.4581710412726511805203700e-01
0,6.0327787840419166975891585e-01
0,5.7035673846478318615993430e-01
0,5.3738361800927181288756174e-01
0,5.0343838929845063923096404e-01
0,4.7418352148530384937430426e-01
0,4.3830525329874747697544990e-01
0,4.0851504697398588472623260e-01
0,4.0343870817782800930473286e-01
0,3.5973261426104696791838933e-01
