Species Id, vx
1,-2.3243575624258744349859285e-01
1,-2.0186916182332309555036431e-01
1,-6.4597903681986923452029714e-01
1,-8.3627071806367581086050222e-01
1,-8.1395325444070698583942658e-01
1,-1.0610341252529487121591956e+00
1,-1.0230609027263752874858938e+00
1,-9.5774528312612527969349685e-01
1,-9.5283450344296027889612333e-01
1,-9.7275653798526873217156208e-01
1,-9.8294389672933180079894555e-01
1,-9.9994627334734875745425597e-01
1,-1.0363643544454597122950190e+00
1,-1.0721459784089573119558736e+00
1,-9.7392810902961401975375111e-01
1,-9.8192357563064858183565775e-01
1,-1.0784992736797940349191549e+00
1,-1.0286312445620089395248442e+00
1,-1.0252810449189757591170746e+00
1,-9.6402402545624110707933596e-01
1,-9.8230842181155653136670480e-01
1,-1.0247016962739694534434420e+00
1,-1.0812894395344789799651153e+00
1,-1.0863430585903810499104338e+00
1,-1.0726154690850400186263869e+00
1,-1.0844528048542743103865860e+00
1,-1.0729250583844938127242585e+00
1,-1.1011111269463549344749254e+00
1,-1.0697152207593096928661680e+00
1,-8.8000338822897583579418779e-01
1,-7.3821399520110708714071279e-01
1,-4.4286036192828287516576324e-01
1,-2.7808155978823190235260654e-01
1,-2.5229630022522298027354282e-01
1,-8.3374743503686088441639868e-01
1,3.0096281407186553646937455e-01
1,6.6488789872675746472907576e-01
1,4.7838060201971494000972029e-01
1,4.3290435525171133690491843e-01
1,4.3381949166616012858455065e-01
1,4.5213045173208105120821187e-01
1,4.5719557407471639320917234e-01
1,3.9950796926935716602002913e-01
1,2.6307886842566319263170271e-01
1,1.7036935994552335205121096e-01
1,7.2119046971311795424242064e-01
1,6.4624190965890160320839186e-01
1,7.2085463156180540345019381e-01
1,8.5642736517660023043418960e-01
1,1.0248234405916658573687528e+00
1,9.0145053066571678712648463e-01
1,1.4809337448863952868549632e+00
1,1.0077973804860527184956709e+00
1,1.3912485566426600058775875e+00
1,1.3502112972246502753392861e+00
1,1.4047506241015499384161558e+00
1,1.3875701714119677010472742e+00
1,1.4115073556295316681286067e+00
1,9.3848336531510945235368126e-01
1,1.3722164450251486123022460e+00
1,1.3646848579703920734118583e+00
1,1.2005253652204990189034106e+00
1,1.2454796575431896776819940e+00
1,1.0435180258207306103201972e+00
1,1.0302411913032347712260162e+00
1,1.0976975113213016665980604e+00
1,1.0480410854445920687538774e+00
1,4.9504229488182349694369577e-01
1,-6.5612994454153039658450552e-01
1,-2.3250618326696628757055407e-01
1,-2.4659445202634605598390749e-01
1,5.0079995458192561041954605e-01
1,-4.2033741331341673008736848e-01
1,-2.2975352060239889739889918e-01
1,-5.7538430504897752904014396e-01
1,-6.5987416840446744270565205e-01
1,6.2829684192938450859600152e-01
1,-1.8235870953128457960801256e-01
1,-2.2172412585881901003759253e-01
1,-2.4970250686125619599131653e-01
1,-1.5966484082663032206816922e-01
1,1.2922333626164153042026328e+00
1,1.3115727642620094162140276e+00
1,1.2890975260535726398813949e+00
1,1.2160645913380134786052622e+00
1,1.1603854698557150015858497e+00
1,8.2199907508121072829965215e-01
1,9.8591223867192667729142386e-01
1,4.2452531371412671745702028e-01
1,-1.1138486014298041304471099e+00
1,-3.5690895785218801350424656e-01
1,8.7700354711617500846898565e-01
1,6.8763471797458164402883085e-01
1,-5.7560291140044694824240423e-01
1,-9.9090689021951872117455196e-01
1,-6.4572689930508131439523822e-01
1,5.0376520890855880363545793e-01
1,8.7743278533403745722552003e-01
1,9.4465320231844818188449153e-01
1,8.1382751075060077994294261e-01
1,-8.6297891935564352561272017e-01
1,-1.0702702267687060899703511e+00
1,-8.5335748407264422343843080e-01
1,-6.5044634075549900842361239e-01
1,6.6904192191842870585105629e-01
1,9.4877061124567640959526216e-01
1,7.7952578094058722069092937e-01
1,7.7456912209236206123819102e-01
1,7.9546853459027644372980603e-01
1,-2.6307206202864874544644636e-01
1,-5.0566670263221680237109013e-01
1,5.0174253965275583677652094e-01
1,6.7162690113018830295743555e-01
1,-4.5060795954274796004668246e-01
1,9.3901142274363347262067236e-01
1,8.9677377385212964089333809e-01
1,7.5268767349827503387871275e-01
1,8.0310303654869164002860771e-01
1,1.2456714241666544396025529e+00
1,-3.4540581490521510277247330e-01
1,9.2164100778739044272924730e-01
1,9.2232393991808092614803627e-01
1,7.2489883444105995824457978e-01
1,7.3700455799570008252885600e-01
1,7.6048034182598733821123460e-01
1,5.6463657232799802088152319e-01
1,9.3304497055540203120926890e-01
1,9.7952139327680864955283369e-01
1,7.9010843329582736149774291e-01
1,9.0838633125833379011737634e-01
1,8.9596105840129336428390161e-01
1,8.6030306755843954924500849e-01
1,6.6264497307523628766290358e-01
1,7.7974183804455599045013514e-01
1,7.4418359635341713165246347e-01
1,7.3832688644095856300708647e-01
1,1.0838956027390918013253440e+00
1,7.8996167799851135793431922e-01
1,8.4512866452407553463643808e-01
1,1.1276513267367991311118658e+00
1,7.8218007253072452389375258e-01
1,9.0471608787832225040403955e-01
1,7.8888105119971441148152280e-01
1,9.0830031248882614480777420e-01
1,9.7567305148126992619950215e-01
1,9.7256830805920901905636811e-01
1,9.4978662881372177828609438e-01
1,9.7470580385869920458929982e-01
1,9.5029789788470431233236013e-01
1,9.5253358393123499503474250e-01
1,9.3408077147917678573207922e-01
1,9.8231985684799827396318506e-01
1,1.0350022566643086729953893e+00
1,9.4983109635601914444436034e-01
1,8.9514866412275095886030840e-01
1,6.9098456390660167869555153e-01
1,6.5253796604151903526513934e-01
1,8.0899559017417665973681551e-01
1,8.1513542994330134838776303e-01
1,3.6185877346972117329926277e-01
1,1.4971334458045801318881729e-01
1,3.5190660554152403127758930e-01
1,-3.1887939443769774960912855e-01
1,-3.2847565014255591941960688e-01
1,-3.3159388783249277299347568e-01
1,-8.0914131741504313755086741e-01
1,-5.4260103280791324720233604e-02
1,-5.2459204508654144749613124e-01
1,-3.5102538050847170714163781e-01
1,-5.5165156003545956497902125e-01
1,-7.2666835746205948876053071e-01
1,5.6962159905048237451552495e-01
1,-9.5432011451905232601866658e-02
1,-3.2085433282262981746768560e-01
1,-2.6292394622715997698492174e-01
1,-3.1786018740155397299673723e-01
1,-1.1069860133401061563773737e+00
1,-9.9604456779379391129225496e-01
1,-1.1258207159561337551423321e+00
1,-1.0850167771069729738542264e+00
1,-1.0723846263399017253448164e+00
1,-1.0648826056140816564976603e+00
1,-9.8747448654943359436231276e-01
1,-1.0425129953811298477717173e+00
1,-1.0598699866749743403460116e+00
1,-1.0522148607241044171445310e+00
1,-1.0586263373875164361948009e+00
1,-1.2910084508314756401858858e+00
1,-1.3318093004087034891824715e+00
1,-1.4329231300935694193299241e+00
1,-1.4332376846574097495334854e+00
1,-1.3200872556139215951986898e+00
1,-1.2350818099881817335727874e+00
1,-1.3637772694021883523873839e+00
1,-2.6503918272236854924983618e+00
1,-1.4093756824233376612198754e+00
1,1.7666368186118508454285347e-01
1,-4.4664783695478493807939913e-01
1,-4.4384979390950940469906527e-01
1,-2.2356113080467050480137914e+00
1,-2.4412896226481830552756946e+00
1,-2.5176619781052465008031049e+00
1,-2.3002638530771761793403130e+00
1,-5.8200921926664395122941187e-01
1,-9.0179298717298495002836489e-01
1,-5.6215004244807631472724552e-01
1,-1.2539326153281427078667321e+00
1,-4.3985196720230407274598861e-01
1,1.5211304386120924614367311e-01
1,-2.7099664338164632937377974e+00
1,-2.5208556339514611721597248e+00
1,-2.4411809771902164278856162e+00
1,-2.3801543120957018295769103e+00
1,-1.8913350135650182082258652e+00
1,-1.5230498849977776032460497e+00
1,-1.6908278290045117842055333e+00
1,-1.2105778096345032324165913e+00
1,-1.2379573238770591459001480e+00
1,-1.0769785893265908516269747e+00
1,-1.2692343528058234181088437e+00
1,-1.4339646405388761785104634e+00
1,-1.4319116263686908485652793e+00
1,-1.2513197541538336743371929e+00
1,-1.1483319500414552738476459e+00
1,-1.0975709655660363939233548e+00
1,-1.0539361053285840608140234e+00
1,-1.1418414973729127392942928e+00
1,-3.4494488479411378190064852e-01
1,-2.7805993592560135363456197e-01
1,-2.9229928327776394381132263e-01
1,-3.1148220682280425286592163e-01
1,-2.7372800164473143347265705e-01
1,-2.8396033983971680214608568e-01
1,-3.3100034601677175150058474e-01
1,-3.8590837088706309021546303e-01
1,-4.8881462482565224414443605e-01
1,-7.8503095980874537662685952e-01
1,4.2889386982941957171533431e-01
1,3.6190441673304740710648275e-01
1,3.8868044131843298982786905e-01
1,1.3311250287511883216851061e-01
1,6.7217155543980167120565739e-01
1,9.2818447558407290998161443e-01
1,8.5325079472959275417309755e-01
1,8.9726541516702729150978257e-01
1,7.5114169152192844514104308e-01
1,8.6721014301518328792894863e-01
1,7.6786800120221643251028354e-01
1,1.0638015133351548247020446e+00
1,1.1017242971637655202243877e+00
1,7.3489972479737586397163795e-01
1,7.4974753173353514412724508e-01
1,7.5824636140068102374556247e-01
1,7.4423287712507069091572021e-01
1,6.9692318148775356245749890e-01
1,7.1342218065467921661593209e-01
1,6.9471036610810765754564500e-01
1,7.1723721595917133697639656e-01
1,9.4203734108502590327560711e-01
1,9.7589383856032541064706720e-01
1,6.8178460937016482912298443e-01
1,5.5586317325084799723100559e-01
1,-6.1985412758824187662298755e-01
1,-1.2963478659917462287864964e+00
1,-1.2506350063993514343252400e+00
1,1.3782186756429190555017783e-01
1,8.1412367288845965962451601e-01
1,5.4227462098325018846622925e-01
1,1.3351548323132607087870838e+00
1,1.3455952878487527080153541e+00
1,1.2113836596478251284025873e+00
1,1.3240189820221046623771599e+00
1,4.1444032284598175674972254e-01
1,3.6471567811652533253052866e-02
1,-2.3736061847692346837845889e-01
1,-2.0720437150572540430104596e-01
1,-1.9967290401147463896336376e-01
1,-2.1586545585870520191917876e-01
1,-3.2338209521506910970600757e-01
0,-1.1476777189214868446498485e+00
0,-1.1538040779378628819529240e+00
0,-1.2690213620198020905149860e+00
0,-1.2284321624499774383565409e+00
0,-1.2280504325029868439855818e+00
0,-1.3535157150655952040807506e+00
0,-1.4099259337891090204664124e+00
0,-1.4251385502103512958882447e+00
0,-1.3758030796640996484825337e+00
0,-1.1100387564930609407554130e+00
0,-9.8096091793864559349458432e-01
0,-9.2108165554584431333751127e-01
0,-9.1541659953180720687981875e-01
0,-9.3350217262900847536855053e-01
0,-9.9372130982881645699933415e-01
0,-1.0929559399793038476644824e+00
0,-1.0483491931459858470532254e+00
0,-1.1410915942024315583580574e+00
0,-1.3976060974524759927817286e+00
0,-1.3434118760544253579070073e+00
0,-9.5114877871545333576364101e-01
0,-1.0647621281191677056199296e+00
0,-9.8646922957461868897155455e-01
0,-1.0488465035011207415749368e+00
0,-1.0827047699785505852076994e+00
0,-9.9078146271659717214674856e-01
0,-1.0239045601314837874440400e+00
0,-1.0382519099627733893953518e+00
0,-8.3704596081515714178777898e-01
0,-9.3798445573781630280052468e-01
0,-1.0015785419955072210740354e+00
0,-2.5786318671815922076717698e-01
0,-1.9459704027707408480196705e-01
0,-2.6804844363420016195576068e-01
0,-2.3237486076622115849232841e-01
0,-2.1464592403782464802297625e-01
0,-1.9559598860883092852347431e-01
0,2.7507437835219067379100011e-01
0,6.8767209342221702339514877e-01
0,1.1816727973715674959720445e+00
0,8.5136810170829768651401537e-01
0,1.1660862780750045342159638e+00
0,6.0074245888506627721881159e-01
0,2.5898446389565948910771453e-01
0,9.4956427397712050986200438e-01
0,-6.1670550985634153828840454e-01
0,-6.7523965419614173644191624e-01
0,-1.3754303726290635356832581e+00
0,-1.3415286384088738191877610e+00
0,-1.3271600040776883044912893e+00
0,-5.8932053221182678637291019e-01
0,-1.2287621980537157817536809e+00
0,-1.3281519100142911149475822e+00
0,-1.3739185571023477816510194e+00
0,-1.1942261245375302980420429e+00
0,4.4102673386738722172140115e-01
0,2.7117578908193723519204354e-01
0,7.7002935731853683343217654e-02
0,2.5515098572299305113020296e-01
0,6.6691140689515121531272257e-02
0,4.8554802772083310857809124e-01
0,6.6479274830850298982909408e-01
0,6.4689202349777508160855177e-01
0,6.4879409463641168898107026e-01
0,4.9485735537541231110481021e-01
0,9.8660285051461893424118443e-01
0,9.9772126411496708797699284e-01
0,4.9317858422839666587833563e-01
0,1.7049896412699624970166212e-01
0,1.0463193437285829290317452e+00
0,1.0334492678026190315421218e+00
0,4.1330753491208210848029125e-01
0,-5.3056109648183813476407522e-01
0,-4.2374369580940229873533553e-01
0,-4.1636345249617612296333391e-01
0,-7.9779531231976330563071542e-01
0,-3.3510182561099532971837789e-01
0,-1.3329810887436830402208443e+00
0,-1.2214347854387714864543568e+00
0,-9.9360693940357291964460273e-01
0,-1.3768746955232555873038791e+00
0,-1.2663888216149770116203399e+00
0,-1.2330852199293294013671130e+00
0,-1.0728215303693007243168722e+00
0,-4.9659665965301802437181777e-01
0,-9.8750134265034783531689300e-01
0,-1.0160788090921537563104948e+00
0,-1.0699404633098597017237807e+00
0,-4.1649109507822251741160358e-01
0,-4.3193334214241702051495508e-01
0,-4.8194979012787320105104527e-01
0,-4.3712928547377455368305732e-01
0,-3.8984271734671266385063859e-01
0,-3.8680444036741640223553418e-01
0,2.5171292958309127163474272e-01
0,-7.0369524781247794198435486e-01
0,-7.0934793255472572415243349e-01
0,5.9900128329379354052974804e-01
0,6.3736186288971319324758724e-01
0,3.3468603901070920203508763e-01
0,9.1264561913551603411498547e-02
0,6.6908167712278043826046314e-01
0,1.0153354248253894376308182e-01
0,1.0780611206561371839818264e-01
0,2.1790405467231571678965452e-01
0,6.1564998097416334665865634e-01
0,1.0540372091783130337194763e-01
0,7.6398834292664885570189881e-01
0,4.8290400555310619701288033e-01
0,5.7861562941358768430433202e-01
0,7.9654428470109550630695594e-01
0,6.7540842555396163326975056e-01
0,8.3351426479762968924092092e-01
0,8.5845736949631246126557471e-01
0,1.0470893324092838128080984e+00
0,1.0115315630693855197819175e+00
0,9.4272827113759749551036293e-01
0,8.9643723043508261039136187e-01
0,8.6521316625538235989267832e-01
0,8.0115912118824061938227032e-01
0,7.8504317120979971722505297e-01
0,8.6795044004876975574092057e-01
0,8.3935618984012905219316281e-01
0,7.8777858902573594246376842e-01
0,8.2144461350336828164842018e-01
0,8.9985502575275555514622283e-01
0,9.3873556983947947784940880e-01
0,9.8148714267823033985393977e-01
0,9.2291950700306690791308029e-01
0,7.5995215750929823173009936e-01
0,7.4737445753022035965784653e-01
0,1.0047427358582878831327889e+00
0,9.7429927459165999170664918e-01
0,8.6689539823922356909235987e-01
0,6.7639042541249583262441547e-01
0,2.8223659435683490226409731e-01
0,1.2405291910594329340966624e-01
0,-2.7935918219172278798012599e-01
0,-4.7073558268239096280538547e-01
0,-6.2105264239460233888223684e-01
0,-1.2608795705142417098443275e+00
0,-1.1931345591798097061086992e+00
0,-1.2552675869269771524727730e+00
0,-1.3357247081150436240903900e+00
0,-6.5771473551981318728110182e-01
0,1.6856172686459722220853052e-01
0,9.6432373724113817914371793e-01
0,8.5835337419048152174383404e-01
0,7.4274535948002928797961886e-01
0,9.5372279255301539713229886e-01
0,9.7861834167437611320394808e-01
0,3.4953967800455532088932387e-01
0,9.4184961691345314704904013e-01
0,5.9762511647346416854276185e-01
0,-1.8874930085269994717300790e-01
0,-1.3987729097416815027266068e-01
0,-1.7279875429061611336045701e-01
0,-6.8600829006139807386688290e-01
0,-1.0144835972532038059767956e+00
0,-9.9983304068118639129636449e-01
0,-9.7033769055923591029255704e-01
0,-8.9019461232381147386405473e-01
0,-8.2735785277114948232934921e-01
0,-8.5295895038005264954250606e-01
0,-1.0892151473663742589081949e+00
0,-1.1455828088348622983971836e+00
0,-1.3111447315149378223253507e+00
0,-1.3348835608990665679840504e+00
0,-1.0422449903569446227891149e+00
0,-1.0146629341567079407582241e+00
0,-9.9811186913059390946045824e-01
0,-1.0867322009954243355878134e+00
0,-1.0224415241591513492380727e+00
0,-1.0314468254504478572641801e+00
0,-1.1071647430577489235048461e+00
0,-5.9070152673166520518321931e-01
0,-3.3766951685043361530702555e-01
0,-2.7260970412212554014885768e-01
0,-6.6042748302045217734246307e-01
0,5.6775073797201947023438606e-01
0,1.8948678094239498892470408e-01
0,1.4709156667449641009426387e-01
0,1.0206031561434742993554892e+00
0,9.5430314618553335748174504e-01
0,2.0660376185294818118798332e-01
0,5.2286535002228473612007065e-01
0,8.4763606122724965974413180e-01
0,8.0446211706713910416510771e-01
0,9.7395326057023123844658130e-01
0,8.9006706094950094332318713e-01
0,8.9183766660808105886104613e-01
0,8.7024165008102927210131838e-01
0,9.0367429026892320820252280e-01
0,9.0771821477359315721855637e-01
0,8.9638254956076512947049650e-01
0,9.5857140665511708643720112e-01
0,9.9007345978646588147142893e-01
0,9.0594702677497696008401817e-01
0,1.4457933396098654466044309e+00
0,1.3114760103130636004209464e+00
0,1.2243431971357148224655020e+00
0,1.4434465773922300346754355e+00
0,1.1545470657791934154801083e+00
0,1.5725818356814078580185878e+00
0,2.5653468847487825854614130e+00
0,1.1897340520482599934837253e+00
0,1.1620670901317615708592257e+00
0,1.1130058286073922779735312e+00
0,9.3901065416422246912020455e-01
0,1.3109815422400612483500026e+00
0,3.7287860592863969477761543e-01
0,1.2432404878479346166386676e+00
0,7.6628366102731748643606124e-01
0,1.1575007067373743741001135e+00
0,1.1056979182636303971065672e+00
0,1.1941290739140306698118366e+00
0,1.1667653358011651487657900e+00
0,1.2450483781957795148542800e+00
0,2.4751952409538280353018536e-01
0,2.5525881835307990819217139e+00
0,2.5907992011130289711218211e+00
0,2.5465662900390793055294125e+00
0,2.5582236276781871175955985e+00
0,2.6417118062628714980633049e+00
0,1.7310630527412087520389150e+00
0,2.4653852027155642723244000e+00
0,1.1857264169457477631652864e+00
0,1.3720985229039117658800251e+00
0,1.2999144460955576185767768e+00
0,1.3070283707294718666958033e+00
0,1.2890569996699565713527136e+00
0,1.3007711869773985746689959e+00
0,1.3584064844246730441312820e+00
0,1.1957422999003064489897952e+00
0,7.6950009803751751036315909e-01
0,1.1405290152000979730928520e+00
0,1.4763628162362620876990604e+00
0,8.8098184015057723339481299e-01
0,8.6374720430070139887135383e-01
0,1.0551916969858603501108973e+00
0,8.9443309467842213589250377e-01
0,1.0341663158190534943514649e+00
0,9.1380467616800142849342592e-01
0,1.0278532095622259223688388e+00
0,9.1970080080959126789252878e-01
0,1.0800863522614232437035753e+00
0,9.3661421373737452356067479e-01
0,9.0046413185736340345499684e-01
0,9.3777810052342447377782264e-01
0,9.4936391277539389221828969e-01
0,9.1413398909125209712556170e-01
0,1.0293586634624534159598852e+00
0,1.0007243132960845777290615e+00
0,2.0731166700295552973720703e-01
0,6.9808455295023330577919296e-01
0,6.6739201274265436136801100e-01
0,4.8580650892631510595620625e-01
0,9.8355746317130982037113540e-02
0,-8.3006503492449423831089916e-01
0,-8.2035001545136587708384468e-01
0,-2.6524752919057320577067571e-01
0,-3.0753765031169416621636969e-01
0,-2.8142665423068990993016314e-01
0,-3.3162250007750804225992169e-01
0,-2.7239806539345251534811609e-01
0,-2.7502153348986985159640994e-01
0,-2.4760868374828173821278199e-01
0,-2.7421378204008117762668917e-01
0,-1.0410904790229023042513745e+00
0,-1.1309308752565208067153435e+00
0,-1.1315333248985175451650775e+00
0,-5.4896920256860293196865541e-01
0,-2.9998711026586627470535973e-01
0,-4.2622673570372171525377780e-01
0,-1.1014281048440421884038187e+00
0,-1.0822964720335790378413776e+00
0,-1.0387871852069527900397361e+00
0,-9.8245760199734322171138956e-01
0,-1.0200157141147347950038693e+00
