Species Id, vx
1,-2.1316847244569170349848264e-01
1,-2.3295625457881505293578073e-01
1,-4.4606952783389602901209514e-01
1,-8.4882687201976136925907213e-01
1,-7.6567959726291690003563417e-01
1,-1.0803536366508632582394966e+00
1,-1.0238482091515412886195691e+00
1,-9.5779912029756653080170281e-01
1,-9.5798814193872838806953496e-01
1,-9.7033988246304780922457667e-01
1,-9.8021244697276177504363659e-01
1,-9.8922347105291585922515196e-01
1,-1.0185588186770295759941973e+00
1,-1.0710660253032890931734755e+00
1,-9.6528673686240396012436804e-01
1,-9.6652059421156699681176860e-01
1,-1.0689135375883198619817449e+00
1,-1.0738682766424056946874543e+00
1,-1.0260690663150522361490857e+00
1,-9.6385435250676354534959955e-01
1,-1.0014754640107328409470711e+00
1,-1.0131324308751603613387715e+00
1,-1.0309076789700024612272955e+00
1,-1.0863037641585098214136451e+00
1,-9.8764925881901188819966819e-01
1,-1.0878964033848521619773919e+00
1,-1.0785984811635001001661749e+00
1,-1.0974370613926169859553283e+00
1,-1.0824998823577258733052986e+00
1,-9.4251098940667332737319839e-01
1,-7.0822723189525293996382516e-01
1,-5.0752809385915309547954166e-01
1,-3.0030514442678513109541427e-01
1,-2.6955732558165612644529574e-01
1,-7.0487949407946282054382436e-01
1,1.5553429804770343980457881e-01
1,7.0143394624226118594378931e-01
1,5.2564659607042274469534959e-01
1,4.4061304913923693415966909e-01
1,4.3352746060162689056838303e-01
1,4.4931898845075363135848079e-01
1,4.6360196250159274589108804e-01
1,4.0177419886822429706541016e-01
1,2.9142162876838839657978042e-01
1,1.7939866152672889754171592e-01
1,3.7709813290795657358955850e-01
1,7.3853578532122921007641025e-01
1,5.5521647259170481270018627e-01
1,8.8295511572077034490035885e-01
1,9.9217610315496007622471097e-01
1,9.0905915389704849971508338e-01
1,1.1790190323653646498058833e+00
1,1.2031082498537115643699735e+00
1,1.3321869037558700110679410e+00
1,1.3908011673196605251234814e+00
1,1.3933730289631180987441894e+00
1,1.4619441816977798431764768e+00
1,1.4085808940971051850254980e+00
1,1.4214069619889524442868378e+00
1,1.4758035226949568485821374e+00
1,1.3884719630000388335133721e+00
1,1.2801983169594290945525472e+00
1,1.1767891893402198100204714e+00
1,1.0882584068644571839712398e+00
1,1.0382245143316999325122651e+00
1,1.0935845284363354679157965e+00
1,1.0300644150975966084615720e+00
1,1.2082355685222809782430886e+00
1,7.4949203990342627701437550e-01
1,-2.6484433713277005795205810e-01
1,-2.8192486993790860649866659e-01
1,-6.8120507159571019872856823e-01
1,-9.4706483818898179460887832e-02
1,-2.8639569201475911786047845e-01
1,-7.3704629032783319786403808e-01
1,-5.8671806599997544662272730e-01
1,3.8950376077323400902940875e-01
1,-2.1677809182995666503757093e-01
1,-2.1429592761721930060936359e-01
1,-2.5010366505627473765471791e-01
1,-2.4343388871755078373126935e-01
1,2.4361737093633054063168686e-01
1,1.3344808516204313963982031e+00
1,1.3371631048628376259301831e+00
1,1.1902911509270512890878990e+00
1,1.3256610164140054664017043e+00
1,9.6117953537238831618338963e-01
1,1.0042848880138321998600759e+00
1,5.6402117841584265001131371e-01
1,-7.4712451332443574614217141e-01
1,-3.5347179512297138836984800e-01
1,8.2221288104646972350053602e-01
1,9.9629341338119825621788550e-01
1,-1.1720896092084853723491733e+00
1,-6.4167402222376790366098476e-01
1,-3.5397510184450936554512168e-01
1,-7.8434879652814903927549040e-01
1,7.2935392779538998908606118e-01
1,9.4455008057424760803399977e-01
1,7.7188913776369239005958889e-01
1,-7.5412183202319593711138168e-01
1,-2.7337997283641429779876830e-01
1,-1.1927115629062738921817299e+00
1,-3.4515262784622424696578946e-01
1,2.4378907309518574320073014e-01
1,9.4819412215798215548545613e-01
1,7.8308574261357355439372441e-01
1,7.1754570856258048650033743e-01
1,7.9347719708457564724568556e-01
1,-2.6356126142941310730449800e-01
1,-2.5891635340170887635835584e-01
1,-1.6145961847957535084674419e-01
1,1.3301926893300408671905188e+00
1,-7.3986987972275208846895111e-01
1,4.5656266143043111593868844e-01
1,9.3541543337464994056773548e-01
1,6.8378795696408678495004096e-01
1,7.7157050922426995143155182e-01
1,1.3006412126610824575578818e+00
1,-3.7441287227889913369338615e-01
1,4.7274693718716281898295506e-01
1,9.4361202550467959682123364e-01
1,6.5528101392120763346582635e-01
1,7.3266051492395045663386099e-01
1,8.6509905673362208489152181e-01
1,5.7382445698128425881634485e-01
1,8.4161666451570771307899577e-01
1,9.8920388709432660601095222e-01
1,6.7548787664120035767467698e-01
1,8.9380567849619685372175582e-01
1,9.1933712556286661943261151e-01
1,9.6159937140417495182731500e-01
1,6.8160211968174388985630685e-01
1,7.7572135977097311787531453e-01
1,7.5910696566885982328187765e-01
1,7.7536539201646537122769587e-01
1,9.1286308044041841736060405e-01
1,8.7196403034257607966850401e-01
1,8.6949625800099639150175790e-01
1,7.7515024513456043386838701e-01
1,7.9338908045255496226388914e-01
1,7.9893463014915755415756848e-01
1,9.0841849377927985642600106e-01
1,8.9433388927385304434380942e-01
1,9.4973362072611400286348271e-01
1,9.5500610287368259410101246e-01
1,9.4843250503638831805375276e-01
1,9.8458949829283448629269060e-01
1,9.4957726907651163195112076e-01
1,9.5246151177627702555383848e-01
1,9.3262547665884598657726201e-01
1,9.6435090077313767586986160e-01
1,1.0180838057176837541106806e+00
1,9.5772935222152377754412100e-01
1,9.0995645731071084227892243e-01
1,7.9421532958670626456409991e-01
1,5.8461571952206570212950965e-01
1,7.8536819968724325136122388e-01
1,8.0318842633693421362295339e-01
1,6.9243122294402825733783402e-01
1,1.1037892639431148844586517e-01
1,3.1327399648244719232437205e-01
1,-3.0998111301522301985755803e-01
1,-3.3243096718065040517942066e-01
1,-3.0492866870130774792357897e-01
1,-6.9405670158421362003764443e-01
1,-4.4509905710558611557914332e-01
1,-4.2869294961523995990404501e-01
1,-8.6735361021652646051904867e-01
1,-4.7034480715100807080020218e-01
1,-8.7008361488976848630017003e-01
1,5.9680918525235859828370621e-01
1,1.1017180831627756965040987e-01
1,-4.3194286519168617610731076e-01
1,-3.0140681368818916796570306e-01
1,-2.7156719457505779091732734e-01
1,-9.2101523632825887943909038e-01
1,-1.0435677294638496803713679e+00
1,-1.0620697229515065895810721e+00
1,-1.0508928678143760748753266e+00
1,-1.1171553786808936514773904e+00
1,-1.1143030746453495005710010e+00
1,-1.0356272423171688501497556e+00
1,-1.0526559844883851546626374e+00
1,-1.1015179986857190908011717e+00
1,-1.1424299688674663943999121e+00
1,-1.0679522875581399787847658e+00
1,-1.3566640637391529367050680e+00
1,-1.2094911151397613746638626e+00
1,-1.4279212236327114560197060e+00
1,-1.4106547291611628569540926e+00
1,-1.3443632296793703861936820e+00
1,-1.2467671800985182795074024e+00
1,-1.2083516653934083251442644e+00
1,-2.6581226877074710657211654e+00
1,-2.1745102550503125904413082e+00
1,4.8119617902176670121150437e-02
1,-4.6440880577975579557303831e-01
1,-4.4017608585424328193624888e-01
1,-1.9062999091140795382415263e+00
1,-2.4379235051328183025987073e+00
1,-2.5180500882755003644319913e+00
1,-2.3677288010457404610065169e+00
1,-1.1849620698822433961794331e+00
1,-6.6308561577008762188967239e-01
1,-4.6141676504063694475021862e-01
1,-3.3039249692971328631330152e-01
1,-6.2525826696501163315389249e-01
1,1.5091504692685500654825148e-01
1,-2.6489659389953588153332475e+00
1,-2.5932546010227688348948050e+00
1,-2.4844913748219803473205047e+00
1,-2.3944697098532361501099786e+00
1,-2.0017073470235766663449795e+00
1,-1.6591532628344036748302415e+00
1,-1.6908083555813078202589850e+00
1,-1.2809554098324731352676054e+00
1,-1.3341215058470967669279617e+00
1,-1.0901880055317767492795156e+00
1,-1.2992675863187277407462261e+00
1,-1.4323583151401999558061107e+00
1,-1.4261511839622253994264156e+00
1,-1.3369719569564055827726179e+00
1,-1.2098924122413667880948651e+00
1,-1.1243095894746906182604107e+00
1,-9.9732566468221073296973600e-01
1,-1.0956951190649359961781784e+00
1,-3.9441327503517287222933874e-01
1,-2.9070803989391935662212063e-01
1,-2.9559719512405202568317009e-01
1,-2.9647971849146037559563638e-01
1,-3.4775001290711055057514045e-01
1,-2.9587906947501796395272322e-01
1,-4.0962771809331571803980410e-01
1,-3.5795422089393497122600252e-01
1,-4.0945193843218424811780665e-01
1,-8.6486875097246240784443216e-01
1,5.8332556942548730027908732e-01
1,3.6104372152493752201607435e-01
1,3.9179506485946075100557096e-01
1,2.6506107337440426574559638e-01
1,5.7391152792921706904394341e-01
1,1.0326446858372615444920939e+00
1,8.6554522916851361902246254e-01
1,8.6121904400806759127817713e-01
1,7.5132937487563788980793333e-01
1,8.8801772770449971527995103e-01
1,7.7324945552594026576542774e-01
1,8.2370031468503113192269893e-01
1,1.1053459224302761843006238e+00
1,7.7198844464454297042976805e-01
1,7.4427146016680867379733400e-01
1,7.4676279288052305194156588e-01
1,7.4261252260912213873922383e-01
1,7.1104375380274165152627575e-01
1,7.0608719541481790304970900e-01
1,7.0536613927960101211311894e-01
1,6.7645023145359239880036739e-01
1,8.9912065532802198930539817e-01
1,9.5940577715602770592084880e-01
1,8.2272830497350302181303050e-01
1,1.1173384689187687568434626e-01
1,-5.3326751762859170291619648e-01
1,-1.0829197165019353032988647e+00
1,-1.3373429976910060634764932e+00
1,-8.1365950744990933607425632e-01
1,1.0364352690510476584506705e+00
1,7.3586187812189385315519985e-01
1,1.3434859878401710364670407e+00
1,1.3017669640540985298571286e+00
1,1.2041025819436761423730786e+00
1,1.3176335943813941575797344e+00
1,2.4713579267830726449162171e-01
1,5.3115308621348167328335421e-01
1,-4.5413055452194339700611181e-01
1,-1.4281228201448023518160824e-01
1,-2.1888837435885705184901440e-01
1,-2.0123527091763623864117960e-01
1,-1.9759477292961244443425528e-01
0,-1.1621581558209939100123620e+00
0,-1.1524562453428655039999740e+00
0,-1.3035061111339367734274219e+00
0,-1.2302093560476548006477060e+00
0,-1.2152424373660635215088632e+00
0,-1.3743088471100384229117708e+00
0,-1.3802751968358273337855735e+00
0,-1.4269056992883282219963803e+00
0,-1.3982668407497713669584982e+00
0,-1.1380321425282151626134919e+00
0,-1.0190870946727186296953960e+00
0,-9.5135382981179339445532150e-01
0,-9.1311311343080014957251933e-01
0,-9.2052046854067570702540024e-01
0,-1.0111294772700660793418592e+00
0,-1.1144033607799719298725449e+00
0,-1.0880771738527488246006669e+00
0,-1.0935005259901147134371513e+00
0,-1.4011557419121771772552165e+00
0,-1.3382525728712244550422383e+00
0,-1.2009590235448572848042659e+00
0,-1.0183594864873843910402229e+00
0,-1.0090066882260961822481704e+00
0,-1.0270174376567637875012906e+00
0,-1.0914294606560328571021046e+00
0,-9.9038404475638697199713079e-01
0,-1.0869011220233522063693954e+00
0,-1.0908162365232816348736833e+00
0,-9.6321535562465376845153742e-01
0,-9.6221058049986418758692253e-01
0,-9.6930002312385665774741028e-01
0,-1.8737296472300124516863207e-01
0,-1.7403697453200972500297894e-01
0,-2.3821422446078732715335491e-01
0,-2.3626370910919264334282275e-01
0,-1.9160816673333880277851904e-01
0,-1.4499037904283706978958435e-01
0,3.4291479346858450005797181e-01
0,6.2072096458597914026000808e-01
0,9.8671873557806522025970253e-01
0,1.2500911723769663197458613e+00
0,1.2373559864647913908441978e+00
0,8.5834905344977641128423329e-01
0,2.8169102822222147342046128e-01
0,1.2063169049247837172345044e+00
0,-6.5108974156617016593173730e-01
0,-1.3341318204358567633960320e+00
0,-1.3453521622576889438249736e+00
0,-1.3291456063133102460938062e+00
0,-1.3938063238151563449918058e+00
0,-1.2750844570923489662561678e+00
0,-1.3639569975581549154952654e+00
0,-1.3451485541012297986185331e+00
0,-1.2144013294671140990033109e+00
0,-1.2104040197904304410059240e+00
0,-4.5852807012434365629971467e-01
0,2.6178981557301483906741169e-01
0,4.0592426740116405170510916e-01
0,8.2197561636656452099813919e-02
0,6.6756044477867038100526997e-02
0,5.1571245710572033438268136e-01
0,6.1039338303109380579059007e-01
0,6.5561629862998305195986859e-01
0,4.2182960535750807506971682e-01
0,5.6343463634610468915298043e-01
0,9.8075120451007369304363692e-01
0,9.7708203095677459426582345e-01
0,7.8523531196009133115154555e-01
0,6.6997607046131057995097535e-01
0,1.3635394721031066089800277e-01
0,1.0347321580282662356609080e+00
0,5.6291672518428792493239143e-01
0,-1.2045674377942838795263469e+00
0,-1.1931093806964991888008853e+00
0,-3.7854605847238836924262273e-01
0,-4.3460027931060069006363733e-01
0,-2.9835017229404781069490582e-01
0,5.2838879436752539398014505e-01
0,-1.4269146837393447135866609e+00
0,-1.1262598115891337968719199e+00
0,-1.1312724285220023823228530e+00
0,-1.2790574587829897090784925e+00
0,-1.4209043680139401555351242e+00
0,-1.0206878244494252960805625e+00
0,-3.3307591500378413984506665e-01
0,-8.5504042805511049074596031e-01
0,-1.1422987515445821582460439e+00
0,-1.1444507828765804191561983e+00
0,-3.4908883374491106454939882e-01
0,-3.4734116953388100013100370e-01
0,-4.6702846836567751820368244e-01
0,-4.4232137574648883182604209e-01
0,-3.4626915160848548147498605e-01
0,-7.8895542363045312317382241e-01
0,3.1912390113343708231141704e-01
0,-7.0425942195710822257836980e-01
0,-8.2755284866383926889454870e-01
0,3.4051600397992054514162419e-01
0,6.2696671775139489746209165e-01
0,3.7085483707458488655817064e-01
0,1.5915267979714006751912336e-01
0,5.5638299648349187620510747e-01
0,9.3975325636245832239268339e-02
0,1.0703418262590791432131709e-01
0,1.3925751492961971345074801e-01
0,5.6526421033536455862389403e-01
0,7.6383466779566500104436955e-01
0,7.1452343681717522816398969e-01
0,4.9583133899229803187580501e-01
0,5.2976678882020666883079230e-01
0,7.5134535257595558288556958e-01
0,6.2951553817168348636812425e-01
0,7.8280221361562130066857890e-01
0,8.4122509991556460029471509e-01
0,9.7726119521920329358266599e-01
0,1.0201881288298020322713455e+00
0,9.7496626753730142311837881e-01
0,9.0430993085211486270935666e-01
0,8.7709861094183427798753883e-01
0,8.0657524514803657922357161e-01
0,8.0986617435900642991697396e-01
0,8.6618605756931421613131761e-01
0,8.4007866556958665782417484e-01
0,7.5753012397497709873306349e-01
0,7.8297316249023141132568071e-01
0,8.9649608807811653754527015e-01
0,9.3032270496577706975216415e-01
0,9.8044577510275821019547493e-01
0,1.0183190073132291075808098e+00
0,7.7137167083157032188012181e-01
0,7.4932253279330163220350869e-01
0,9.7533909912156435684238431e-01
0,9.8879198985109029162998695e-01
0,8.8838458867193459411737422e-01
0,7.2100917833492783604043552e-01
0,2.1944743535865934846995629e-01
0,8.3092913840633345068376059e-02
0,3.6022863954411821207912681e-01
0,-5.9827538719186512672365552e-01
0,-6.6516677862717199509745569e-01
0,-1.1730845190783574238935216e+00
0,-1.1958823593297742693408736e+00
0,-1.2191243605993651311081294e+00
0,-1.2823389747834674778914632e+00
0,-3.6373516788692150658590663e-01
0,1.7257480529325402995866057e-01
0,1.0537480572128181677271641e+00
0,8.0938115648619546327324770e-01
0,1.1996048258559972587988796e+00
0,6.3803643510688234918859507e-01
0,1.0132954454436251534588109e+00
0,4.0083868565590574650769895e-01
0,6.0654687609499269296264856e-01
0,4.2066004800883327607863293e-01
0,-5.5426065212813679927705834e-01
0,-1.9038048626542244945447635e-01
0,-1.4527466038273917359191501e-01
0,-1.7291913210524506583354309e-01
0,-1.0279089443404001436022099e+00
0,-1.0084453926968304227074213e+00
0,-9.9450571446812241482859918e-01
0,-8.9368446689575242736225391e-01
0,-8.1338321726005125000824592e-01
0,-8.4097015948821007835789487e-01
0,-9.8486410777798638616076232e-01
0,-9.8300630130866584188709112e-01
0,-1.2993152708301602960005994e+00
0,-1.3009391255176827595363420e+00
0,-1.0334791030593684091343221e+00
0,-1.0967396682086687498269839e+00
0,-9.6462377120591580315078772e-01
0,-1.0826518173496946229050764e+00
0,-1.0165817158391929897476302e+00
0,-1.0284431169207146616884074e+00
0,-1.0848529116004306249720912e+00
0,-1.1295117004277186456562276e+00
0,-3.0558829536415815786298822e-01
0,-2.6944585480875571370518173e-01
0,-4.2709152235171216061004884e-01
0,2.7486102738074419393754511e-01
0,5.3501491533047640380971188e-01
0,2.9034232566357398575007664e-01
0,1.0142415286465085166867084e+00
0,6.4894601285813124924573003e-01
0,1.7694696426733583227708380e-01
0,3.4164147366639802116949909e-01
0,1.0024972519670694026672209e+00
0,7.9776298784559784849079733e-01
0,1.0567747330974677222314995e+00
0,9.5675143213318547541490489e-01
0,9.2190146086880131459651011e-01
0,8.7355616030521432424649220e-01
0,8.6793572050517853178064343e-01
0,8.6676836525178102554889392e-01
0,9.0492069996044632862464141e-01
0,1.3711050284732315684976811e+00
0,1.3158724725323991400216528e+00
0,8.7943107573073941996000258e-01
0,1.3983926491388478652311278e+00
0,1.2958707501603206058149453e+00
0,1.2807185756994046155199385e+00
0,1.4793086686588277078868714e+00
0,1.1684985210406004796368507e+00
0,1.3068514574217291457358670e+00
0,2.6420257698835789561542242e+00
0,1.5231858749286528720290335e+00
0,6.2574921309606545971604419e-01
0,1.1148506560478472771080760e+00
0,1.2672523459070119677960520e+00
0,1.3101677906840158982504363e+00
0,5.2300449371287882627257204e-01
0,1.2695547448134203438740997e+00
0,5.2038008372766042519685925e-01
0,1.2285908192759518176018219e+00
0,1.1639510377237296534502775e+00
0,1.1821727211031292092968670e+00
0,1.1482533016270763948085687e+00
0,1.4605076427965613117265775e+00
0,1.4538620135339946903840769e-01
0,1.5424122537375799524284048e+00
0,2.5760942075535671058617027e+00
0,2.5242897854240515798096567e+00
0,2.5086220335480318155418900e+00
0,2.6244288535756927771558367e+00
0,1.7531016433646342544960817e+00
0,2.6538150083182405758464029e+00
0,1.5776049805593643782231084e+00
0,1.2785693437672553951500731e+00
0,1.2833405327273705864854492e+00
0,1.3165010262682381725340974e+00
0,1.2979695321047040046380516e+00
0,1.2751205031017871505127914e+00
0,1.4269006828584727131215004e+00
0,1.3050466327722667347899232e+00
0,7.9810617960144747407014165e-01
0,9.5461906600864654404148268e-01
0,1.2749598258200229849990137e+00
0,1.2056468287814992024209459e+00
0,8.8787016488260128710408026e-01
0,9.5425361078724013630392164e-01
0,9.8427388041433105936306447e-01
0,1.0472619246661010183885310e+00
0,1.0825022828560484366988703e+00
0,1.0067569219520473566831242e+00
0,1.0581712845074258133593048e+00
0,1.0667957568521682087947511e+00
0,9.6326091583318962374704597e-01
0,9.5313992016747994817649214e-01
0,9.1825646553922779524725684e-01
0,9.4192818640608932945212928e-01
0,9.3144406102106369615967196e-01
0,1.0666260206103739260896646e+00
0,8.4969063686715629035717257e-01
0,1.4245277019702196064088184e-01
0,6.8674551464534339118017670e-01
0,6.8536182605858297911538557e-01
0,5.6502884583696799669638722e-01
0,2.8145375989780435643794476e-01
0,-7.9467257086278308975124673e-01
0,-8.2817170154479069488218101e-01
0,-2.7715469283455451687814275e-01
0,-3.1018166631996219040345864e-01
0,-2.9476081163897538406359899e-01
0,-3.0533673888556722708642610e-01
0,-2.8012165747220563183361719e-01
0,-2.7379806854398347493173560e-01
0,-2.6614761797743524684989325e-01
0,-2.6436209828085394102359373e-01
0,-9.7175213560622197839222736e-01
0,-1.1335120752288945222829852e+00
0,-1.1292007059735582608084314e+00
0,-6.2171419897835278334241593e-01
0,-2.8233202669399160011920458e-01
0,-2.6575309926425239037683923e-01
0,-1.1285111051069451892914230e+00
0,-1.0008857740950543036007048e+00
0,-1.0598536087559113916256592e+00
0,-1.0065290056002260676848437e+00
0,-1.0304970939047806144372998e+00
