Species Id, vx
1,3.2273722687678646492415169e-01
1,3.2580853517844160505134710e-01
1,3.2874642613973181770603560e-01
1,3.3170991887911660533916347e-01
1,3.3450278221517376620042228e-01
1,3.3689182093761516068042283e-01
1,3.3900560524126455153037796e-01
1,3.4122489598103245000970674e-01
1,3.4397977821550107524473106e-01
1,3.5091757037599835555852223e-01
1,3.5616054775701705414903131e-01
1,3.6485499455051695338880791e-01
1,3.7868344391483643729401365e-01
1,3.9160350528384352264410495e-01
1,4.0609107607355510172197910e-01
1,4.1988178273911974658361146e-01
1,4.3129454636438596670799939e-01
1,4.4412784392707160829871782e-01
1,4.5946374535677436679037555e-01
1,4.6894411607730057678367075e-01
1,4.7959491979383106485812505e-01
1,4.9135371148361767223988750e-01
1,5.0633287466788423625274618e-01
1,5.2460523228655076000137569e-01
1,5.4485285354450363470846241e-01
1,5.6182663362972451448484890e-01
1,5.7504652444876891426162047e-01
1,6.0221755510645336162411922e-01
1,6.1648725858112340958427922e-01
1,6.2720628421156365828181833e-01
1,6.3847884835417900717402517e-01
1,6.4864136529588545254654264e-01
1,6.6222022943444258658018953e-01
1,6.8024496612037699261321677e-01
1,6.9992897963669742367187609e-01
1,7.1864176983590044578420475e-01
1,7.4914971543310016066641310e-01
1,7.7292518256219211458812879e-01
1,7.8966496703296229497937020e-01
1,8.0372875048136482867278119e-01
1,8.1629122841954182554502495e-01
1,8.3676555761433690783235306e-01
1,8.6531359212902692057411969e-01
1,8.9071094685021023895643566e-01
1,9.1411798443394998159305942e-01
1,9.4205160591535430647525118e-01
1,9.5557664121360097464474848e-01
1,9.6763455489923855257217156e-01
1,9.8637751633517944949147704e-01
1,1.0153764638980484757979639e+00
1,1.0506197930771883353173735e+00
1,1.0716503269484001226174996e+00
1,1.0868119663605702029940403e+00
1,1.0954845907524288772805221e+00
1,1.1040594999667652231778447e+00
1,1.1091542429006508996280900e+00
1,1.1139536929535722720174817e+00
1,1.1025303616045865062744724e+00
1,1.1106097862279997734447079e+00
1,1.1322679054197555270633302e+00
1,1.1538461558865780176574845e+00
1,1.3139398263997488225385268e+00
1,1.7147718754985221689679520e+00
1,1.5418817893034748589542460e+00
1,1.4069926490835220622699353e+00
1,1.3238827628988860674041916e+00
1,1.2445700687249561244840379e+00
1,1.1431606417880824100308246e+00
1,1.0520866462226856619111004e+00
1,1.0097552109383653995422492e+00
1,9.7207583922429696698941370e-01
1,9.8154122090114348520017984e-01
1,9.4401971715677623908646865e-01
1,8.7588637450098971726220043e-01
1,8.1781624195138635791124671e-01
1,7.9248063187082307123887404e-01
1,7.2870559609729279593182127e-01
1,6.9736176504397051623129755e-01
1,6.8725020185284080298515619e-01
1,6.7601418952899106074028168e-01
1,6.4782527944808598885373385e-01
1,5.9599826371353481491155435e-01
1,5.3681089342920373930212463e-01
1,5.8440457211433249895549125e-01
1,5.4548473665881147542933149e-01
1,4.7277864845137151927900732e-01
1,4.2291845205692341069791951e-01
1,4.0743681563149147795144245e-01
1,3.9067946841325207341100167e-01
1,3.6094082607099126080996143e-01
1,2.9397420288950898425994751e-01
1,4.0210164318441199426956700e-01
1,3.7656739241156184094805326e-01
1,3.3374571995484092479244964e-01
1,3.1264646403873713742527229e-01
1,2.7063672389277054763923047e-01
1,2.2004999864375729412557803e-01
1,1.3446112799450918307009317e-01
1,3.1114692954988892870105133e-02
1,-3.7834746543791458739391942e-02
1,3.5736084759533154331379023e-01
1,3.3848254099451691168098932e-01
1,3.1857389226162524664687226e-01
1,2.5249829878869850530165309e-01
1,1.5142004162695882341083120e-01
1,2.4147036744538857844233348e-02
1,-8.0282200387809143915518462e-02
1,-1.9268906974385888175582693e-01
1,-2.1585888691311524989480120e-01
1,6.8093872140529110303930338e-01
1,6.2313629892390964837289857e-01
1,5.2797089649374939757109360e-01
1,4.0333182986723453700150799e-01
1,2.7091737341606797473403390e-01
1,1.0727943684685178893367663e-01
1,-4.3991532652478015918973142e-02
1,-1.8366917493307061137741698e-01
1,-3.0480190959177033693805470e-01
1,3.8796489751414986457689338e-01
1,2.5924453745084019562483491e-01
1,1.0992343996875617029296279e-01
1,-3.7431373378979088117901597e-02
1,-1.6879765674011978915380894e-01
1,-2.9651987100317894752166126e-01
1,-3.8423423553689589615700584e-01
1,-4.7913257906365769311918257e-01
1,-5.3849893641994539539297193e-01
1,-5.8523199567965977774264275e-01
1,-5.2597077990111662515460011e-01
1,-5.5016347343665417124469741e-01
1,-5.7868352515595822271876614e-01
1,-6.1449239001293398665382028e-01
1,-6.5724174674720914346437439e-01
1,-6.8441450916389834358000144e-01
1,-7.1807112988379495632784710e-01
1,-7.5556018767228172450245438e-01
1,-7.8767785540168755442635984e-01
1,-8.2269499408837010179240679e-01
1,-8.1383431396420591319440518e-01
1,-8.1601785464665466118816539e-01
1,-8.3747038447722166321085524e-01
1,-8.5441549693834950574000686e-01
1,-8.5470397610631820839444117e-01
1,-8.6531240079023141742453618e-01
1,-8.8475186667725302935849641e-01
1,-8.8765567568062464509637266e-01
1,-8.9761361506491110784367038e-01
1,-9.0198490093313243853856420e-01
1,-9.0284791379625140006481843e-01
1,-9.0716352968724045524595567e-01
1,-9.1322258967593727962963612e-01
1,-9.2191816334637533003615317e-01
1,-9.3281485200075409114361946e-01
1,-9.5218159533150981133076129e-01
1,-9.6839417697124663408914103e-01
1,-9.9093887240991740394946419e-01
1,-9.9954076159174809479424084e-01
1,-1.0068249421092752005080229e+00
1,-1.0070378974408591421507708e+00
1,-1.0136161424644989370591475e+00
1,-1.0220500205310560914995222e+00
1,-1.0300533828609912401219617e+00
1,-1.0575621696623027645500770e+00
1,-1.0639537726048400312350850e+00
1,-1.0687957551777858000718879e+00
1,-1.0734383244136009860625336e+00
1,-1.0763000666400521776466803e+00
1,-1.0941808285586278604029076e+00
1,-1.0954386480791651337085568e+00
1,-1.0964898597412460201638851e+00
1,-1.0973885623874928274545937e+00
1,-1.0994145557846064509277539e+00
1,-1.1034140987912515186053497e+00
1,-1.1143210318528213864652798e+00
1,-1.1291952159503595431999656e+00
1,-1.1437923661920545992387588e+00
1,-1.1552172576587453889374046e+00
1,-1.1650797997067217082189927e+00
1,-1.2140601774778203569837842e+00
1,-1.1741534362748153874633772e+00
1,-1.2156071793575149442290240e+00
1,-1.2157774901679296863932223e+00
1,-1.2164111972750264456522018e+00
1,-1.2203323810274377958506875e+00
1,-1.2344025673559588796024400e+00
1,-1.2576753003865022151330777e+00
1,-1.3046844742746854795001354e+00
1,-1.3451835672762169071603466e+00
1,-1.3842931083052067986471911e+00
1,-1.3311255341856860212601532e+00
1,-1.3304854114623552163720888e+00
1,-1.3394380092742634857927442e+00
1,-1.3570397013281589870814514e+00
1,-1.3886345161839983575191582e+00
1,-1.4662060020463119069944469e+00
1,-1.5429511825092141474868868e+00
1,-1.5984377430402507691553637e+00
1,-1.6129543102277792421261893e+00
1,-1.6126090945407149934709423e+00
1,-1.5258688464647383042915862e+00
1,-1.5043622893054386935318689e+00
1,-1.4963325127122630853193641e+00
1,-1.5212934136280780172967297e+00
1,-1.5581783705039993215279992e+00
1,-1.5836687494047514412898181e+00
1,-1.6126731746880738072036365e+00
1,-1.6345153936966130281405185e+00
1,-1.6148802917822224767263606e+00
1,-1.5936549373969519649563154e+00
1,-1.4551866247558515876647789e+00
1,-1.4352083512372426632452971e+00
1,-1.4228617690371709869623373e+00
1,-1.4181080934165855023110225e+00
1,-1.4018303881390732357203888e+00
1,-1.3994061907112209652837009e+00
1,-1.4004342604741015776426138e+00
1,-1.3804136214073283728254182e+00
1,-1.3266196881504059845724441e+00
1,-1.2900630138812745340004540e+00
1,-1.2128806141280970010143392e+00
1,-1.2100093497347383930673459e+00
1,-1.2046556997159807433916967e+00
1,-1.1969178855349620338444083e+00
1,-1.1873966944152847258209249e+00
1,-1.1803368567090575247391371e+00
1,-1.1646974786479591390531141e+00
1,-1.1599410984735289975589012e+00
1,-1.1509710124677796638792415e+00
1,-1.1410224062554419344195367e+00
1,-1.1188113675283688497330559e+00
1,-1.1184090423424493110360345e+00
1,-1.1141005368595635616202344e+00
1,-1.0936340073788151094902332e+00
1,-1.0813564533890385188641403e+00
1,-1.0498831408378330731778760e+00
1,-1.0421396704006860023383751e+00
1,-1.0382377730621552558432086e+00
1,-1.0267906737885639234519886e+00
1,-1.0020741523006380102600588e+00
1,-9.6762681889033630433516464e-01
1,-9.3503874113356910680039391e-01
1,-9.0005185252706143561596264e-01
1,-8.4830580845038361381682535e-01
1,-7.8797644011081424686437913e-01
1,-7.5797673789467912008888106e-01
1,-7.3838730508643946048863427e-01
1,-7.2252475569041618719268172e-01
1,-6.9027918700322488110288077e-01
1,-6.4745978332804854371573811e-01
1,-5.6246619078484594300704202e-01
1,-4.7454378204482605685399221e-01
1,-4.1479505117050546880719253e-01
1,-3.3449102973145755646200428e-01
1,-2.8861233808011288459738353e-01
1,-2.5360148436235840918584472e-01
1,-2.2481450753138187970137096e-01
1,-1.9396705278695131058341872e-01
1,-1.4159755229875883864032460e-01
1,-4.7912631279984047028008831e-02
1,2.6466067574450163890631416e-02
1,8.5557697919585576351586553e-02
1,1.3250082987831326986061242e-01
1,1.6849120230025993460998279e-01
1,2.0151306688865552874112552e-01
1,2.2411760981027328831771683e-01
1,2.4529249615634968195720944e-01
1,2.6660920105262758683650759e-01
1,2.8808564117382495783914464e-01
1,3.1313663680574527203859247e-01
1,3.1957250949010468366040527e-01
1,3.2246585874453409514828195e-01
1,3.2448141946456787731989380e-01
1,3.2412496794335571292933196e-01
1,3.2311155902264626638142886e-01
1,3.2201460356027150622182376e-01
1,3.2099454936176846642226224e-01
1,3.1991926594043679221712750e-01
1,3.1909109836979787644395401e-01
1,3.1894350459856940505076750e-01
0,8.8094080147925324375535183e-01
0,8.5837957362992112209099105e-01
0,8.3042361102691431007372103e-01
0,8.1121753137338259431743381e-01
0,7.9449618913124586683238704e-01
0,7.8270171986067182956503530e-01
0,7.6813869805128698331486703e-01
0,7.5870509888299608736161872e-01
0,7.4249878151747528143289401e-01
0,6.8603619167936091827186829e-01
0,6.4473119476695284202349967e-01
0,6.0633182816354980193551683e-01
0,5.8993766284171167413319381e-01
0,5.7140652915059320093860151e-01
0,5.5518206659315283424405152e-01
0,5.3868594016104798249955365e-01
0,5.3427413271407031558624112e-01
0,5.2354237788419344390433707e-01
0,4.6078141708074160654007301e-01
0,4.0995127560707678160412115e-01
0,3.4864669256482166970201320e-01
0,2.9882875574877942881357740e-01
0,2.5465484823661443947173666e-01
0,2.1958862850048499471000696e-01
0,2.0341240885243222491496340e-01
0,1.8757751000262382068406453e-01
0,2.5275924249878078953202021e-01
0,2.4093499418154179503304135e-01
0,1.5526985898476347580654533e-01
0,7.1552154138915607939352981e-02
0,-2.0307511522616256138817903e-02
0,-1.0803212385938942841079324e-01
0,-1.6554244454487584969903935e-01
0,-1.3422242151974486668031261e-01
0,-1.3720634980312479411779236e-01
0,-8.9383128378327902918698555e-02
0,-1.7080029712585859114071241e-01
0,-2.6606404306201991705194132e-01
0,-3.5063741373199186490694501e-01
0,-3.5953347639501975763209884e-01
0,-3.7645464926941235583868206e-01
0,-3.6269421331878026748540833e-01
0,-3.2715145048768179414366841e-01
0,-2.9498893081668714488685623e-01
0,-3.9649900680225064197870211e-01
0,-4.6073866362373649963046773e-01
0,-5.0338918472071736420758725e-01
0,-5.3041643534048066310759850e-01
0,-5.4110653787969942296598447e-01
0,-5.4215088019449286793616238e-01
0,-5.1693603919311592598262450e-01
0,-4.9922448686090242775392767e-01
0,-5.1689858885789308207137083e-01
0,-5.5020641915219714590534750e-01
0,-5.7823338266796608930775392e-01
0,-6.3845988336537484730826009e-01
0,-6.9552268909962278176095651e-01
0,-7.2722586643260433980628932e-01
0,-7.3129955444153826871200863e-01
0,-7.4241060766682365201774019e-01
0,-7.3946740426760537712169707e-01
0,-7.2613183678421766575894480e-01
0,-7.3238484705130280083551497e-01
0,-7.5242997942674627598336201e-01
0,-8.3571675642623444169032609e-01
0,-9.1214242269810152929920832e-01
0,-9.3327476484180094118414672e-01
0,-9.7062401636489537004592876e-01
0,-1.0072610371551367069997696e+00
0,-1.0111544902238454035625637e+00
0,-1.0427102404153765213834504e+00
0,-1.0998395069833708515005810e+00
0,-1.2083664507908680185721551e+00
0,-1.2730581560270772811804818e+00
0,-1.3499245498003911158946266e+00
0,-1.4764539849973687957174207e+00
0,-1.6570212123010168436820777e+00
0,-1.3937122115705198321933267e+00
0,-1.2570845349102521826267775e+00
0,-1.1741881428819482824366105e+00
0,-1.1769856609105375788715264e+00
0,-1.1487508115667885988386843e+00
0,-1.1190930020798222077615947e+00
0,-1.0943978589762584086031438e+00
0,-1.0725364109666737366666212e+00
0,-1.0499422776967066717190846e+00
0,-1.0343908274135382718839082e+00
0,-1.0255709487391642120712731e+00
0,-1.0045874220851427338629946e+00
0,-9.9727659862133477552958993e-01
0,-9.6487343802273550785741918e-01
0,-9.4179248148461058853797567e-01
0,-9.1874258434260025474316080e-01
0,-8.9294092450005269068213920e-01
0,-8.7610800246310582828357383e-01
0,-8.6536394151477624703261426e-01
0,-8.5256429142052270186979968e-01
0,-8.3148526210227702293309449e-01
0,-8.0490532721565832829924148e-01
0,-7.6924607261670707725187413e-01
0,-7.5171625722358814680745809e-01
0,-7.3667684332423422066682406e-01
0,-7.2641456401278337029481236e-01
0,-7.1560989841363797925311019e-01
0,-6.9911743069862097854638705e-01
0,-6.7722020593139786726055718e-01
0,-6.4749335337635283149637644e-01
0,-6.1359337207323483287524368e-01
0,-5.7211724727133816958968282e-01
0,-5.5175113574315570730277614e-01
0,-5.3537795924265596525515321e-01
0,-5.1987645682467409358196164e-01
0,-5.0543977497386594066597354e-01
0,-4.8710856091627185993075955e-01
0,-4.6857070342615625424542714e-01
0,-4.4277810968114611478441134e-01
0,-4.1434056201462998725304487e-01
0,-3.7893311503691162744900112e-01
0,-3.6250654823230915591025791e-01
0,-3.4422876229121518454334705e-01
0,-3.2910939399136768246378892e-01
0,-3.1747906814993087643017589e-01
0,-3.0812051600083212310465797e-01
0,-2.9926126393166774253273843e-01
0,-2.9047419551441955309911691e-01
0,-2.8112314175064667676195995e-01
0,-2.6871962787044850751172476e-01
0,-2.6112138584730848478443477e-01
0,-2.5447840124282228302377007e-01
0,-2.4668017952960638594639420e-01
0,-2.4020088512343062969733865e-01
0,-2.3456407953239352681684693e-01
0,-2.3452737167812809371270077e-01
0,-2.3588627878126683379278461e-01
0,-2.3695960056407197602545978e-01
0,-2.3867826985209197876436349e-01
0,-2.4001318642121138857703500e-01
0,-2.4134392701178708495746150e-01
0,-2.4280462861912388561336229e-01
0,-2.4398555140668623519850655e-01
0,-2.4484141227078476399370288e-01
0,-2.4428977278453359311960469e-01
0,-2.4120044706879772977714538e-01
0,-2.3748246114244525584169310e-01
0,-2.3216064475365524866212752e-01
0,-2.2647415574902962642767079e-01
0,-2.1838092482692994522608387e-01
0,-2.1052166061279639630576810e-01
0,-1.9899690898455221765850354e-01
0,-1.8763413510587792498718329e-01
0,-1.7540052114359919177566383e-01
0,-1.6278113006742775392687861e-01
0,-1.4972031714470973584596436e-01
0,-1.2297230650330784329504752e-01
0,-1.0053515555996896113644112e-01
0,-6.7905138196464848165945227e-02
0,-3.5728929578754342610835693e-02
0,-1.0143609796460784089333629e-03
0,3.5251351220458013169256617e-02
0,7.5460457702614558428422242e-02
0,1.1534293732520646547090593e-01
0,1.5998657800895133007657023e-01
0,2.4390923446966922272238776e-01
0,3.0439727904214569642604715e-01
0,3.7199028775341519414965319e-01
0,4.4621134395295769525802143e-01
0,4.9163636859591153260851115e-01
0,5.1291419617606037739676594e-01
0,5.3053085559131352155759487e-01
0,5.5626171333012397468564814e-01
0,5.8907595752059216387408469e-01
0,6.9558952541136020997214473e-01
0,7.5612499978272074141472103e-01
0,8.2270886605581272643661350e-01
0,8.8258904194174292445751462e-01
0,9.2442042512164013245978822e-01
0,9.4432865611770777647393516e-01
0,9.5128323484160237644147173e-01
0,9.5767716442424755118878466e-01
0,9.7550437970965653278199170e-01
0,1.0140151501719725235517444e+00
0,1.0269129346845415895472797e+00
0,1.0420459967610449236730119e+00
0,1.0437974640488125732673552e+00
0,1.0475831598089768714743286e+00
0,1.0518272344759125314084258e+00
0,1.0564190998837161838963539e+00
0,1.0582397343179177351402132e+00
0,1.0702330913659401367965529e+00
0,1.0855589188283039092652871e+00
0,1.0895077403694541917644756e+00
0,1.0956092510936596973181167e+00
0,1.1119274566435173312584084e+00
0,1.1307308726838887213972384e+00
0,1.1528544217265566107499808e+00
0,1.1726872177781060280210568e+00
0,1.2048325988660517626982482e+00
0,1.2207404815885494198113292e+00
0,1.2475343182197791147558519e+00
0,1.2789063742754331887141461e+00
0,1.3243013643165291171044373e+00
0,1.3701915386313692213349213e+00
0,1.4023660094123016062184206e+00
0,1.4121672423666966622590735e+00
0,1.4572226664477838653510844e+00
0,1.5323536675967337483683650e+00
0,1.5837563625950226153804579e+00
0,1.5903790473964445340016027e+00
0,1.5772023153722383170816101e+00
0,1.5793149651820708179172925e+00
0,1.5756234096528003441051169e+00
0,1.5811617265091040263058630e+00
0,1.5563233875907487302470145e+00
0,1.5868431851213580241477530e+00
0,1.6019814058069061779576714e+00
0,1.6282075433563965027872200e+00
0,1.6305822834329886106274898e+00
0,1.5975142989381190261610755e+00
0,1.5476535635656591960440664e+00
0,1.4929663458403987785771960e+00
0,1.4455397083855459072765370e+00
0,1.4563177400002433881098796e+00
0,1.4328741939592779530698863e+00
0,1.4270548151124591296223798e+00
0,1.4196808001510861085847637e+00
0,1.4244667985163488310718094e+00
0,1.4049372043699246415116022e+00
0,1.3566105841512876573062840e+00
0,1.3022737324349951126833957e+00
0,1.2847449755554523065370631e+00
0,1.2701609049746274138215085e+00
0,1.2578188278049029502625444e+00
0,1.2397138230306878892150735e+00
0,1.2289023299635730701595548e+00
0,1.2113553492088739993448598e+00
0,1.2020319433586503787836364e+00
0,1.1829097332325371194627905e+00
0,1.1703399505007463510253274e+00
0,1.1463662171970607772664152e+00
0,1.1292989151156866967085080e+00
0,1.1198568214542459209326353e+00
0,1.1050016848966950355759309e+00
0,1.0940603228968324156511471e+00
0,1.0838071934346067415333437e+00
0,1.0775832077054303681507008e+00
0,1.0758564059321453765249998e+00
0,1.0737999514836846781662416e+00
0,1.0681105643134085614320838e+00
0,1.0654674786467297487035921e+00
0,1.0617398790900554050864457e+00
0,1.0592672667968843214225672e+00
0,1.0559764538408229483934520e+00
0,1.0472289248562314245560856e+00
0,1.0416114795140383186833333e+00
0,1.0361598888673333451748704e+00
0,1.0317161096282292387371626e+00
0,1.0278540816992352002756661e+00
0,1.0200231477585430805987698e+00
0,1.0126088450335997137585764e+00
0,1.0090093617576247897460462e+00
0,1.0051984608940409682276140e+00
0,9.9906190141621498135293677e-01
0,9.9708735992626740252120499e-01
0,9.9589473363428959729048984e-01
0,9.9465448901823916294517858e-01
0,9.9309846312469873819139821e-01
0,9.9167979142322282282151491e-01
0,9.8822727099561702424068699e-01
0,9.8400348304188212100740429e-01
0,9.8011249064328420654845786e-01
0,9.7249293267033032339696774e-01
0,9.7105963491804103693283423e-01
0,9.6731981044848636130950581e-01
0,9.6206759597866986499781206e-01
0,9.5129971616391550970348590e-01
0,9.3945552096428164290387031e-01
0,9.3149364909608733942292247e-01
0,9.2775912057687848211173787e-01
0,9.0884052293979744607810289e-01
