Species Id, vx
1,2.9048852818093073846483776e-01
1,2.8937278655486237122218540e-01
1,2.8812669895380388362937651e-01
1,2.8677133453901842985445114e-01
1,2.8522194323476895982949486e-01
1,2.8356590111209012405879548e-01
1,2.8176425726130338578201417e-01
1,2.7999578324351576119610741e-01
1,2.7801695014304694808515706e-01
1,2.7547504979875525599197772e-01
1,2.7342236782609818934730583e-01
1,2.7122523902255629701940620e-01
1,2.6897937609167343886440449e-01
1,2.6652966383042042686213335e-01
1,2.6391897243932904704166731e-01
1,2.6126157288760326613541451e-01
1,2.5866328585359055214354385e-01
1,2.5615094416023409529259425e-01
1,2.5219340636152359769184272e-01
1,2.4928302082416667340147853e-01
1,2.4622250761104538807622077e-01
1,2.4295962658810166256984076e-01
1,2.3951624096308579692227170e-01
1,2.3591490260372122156340424e-01
1,2.3217619556504348610204147e-01
1,2.2868614235992698602295548e-01
1,2.2529371998276795374671622e-01
1,2.1984322823234414556736738e-01
1,2.1558648565713744993388445e-01
1,2.1123841460687195481504830e-01
1,2.0663316884389987260206567e-01
1,2.0186372718526024439000821e-01
1,1.9702620996909075978820169e-01
1,1.9223267294950363570649188e-01
1,1.8794370351163164345464907e-01
1,1.8491615048624185368986161e-01
1,1.8133225076863676572536122e-01
1,1.7838560141322462593294063e-01
1,1.7516423350120047253142275e-01
1,1.7174003897864251189098184e-01
1,1.6820513583991072992240845e-01
1,1.6912038114991739812253968e-01
1,1.7890981291398050379015672e-01
1,1.9192588647006086910451472e-01
1,2.0635933550140628245372909e-01
1,2.2847737760498060266556308e-01
1,2.4960488955907109143161904e-01
1,2.7049833329169237217115551e-01
1,3.0137329180267857786645891e-01
1,3.5138012195409606963636406e-01
1,4.2094775583777571670296425e-01
1,4.8454157704203892897965034e-01
1,5.4069566207466568386053041e-01
1,5.9250039996985615076141585e-01
1,6.7698943477043671546056203e-01
1,7.5428344496920363138059429e-01
1,8.4674183457103635586094015e-01
1,9.3290933360614403113686421e-01
1,1.0538861929873541978253115e+00
1,1.1851112760462922945947639e+00
1,1.3428714310273530685435617e+00
1,1.5704604029915743002021600e+00
1,1.9448795723939811264102673e+00
1,2.1159616643690362103313873e+00
1,2.0768448729860469192942674e+00
1,2.0260265027216224353878715e+00
1,1.9485955334080320433542965e+00
1,1.8558093035246683299988035e+00
1,1.7549471726045362540702399e+00
1,1.6896295355588919484546295e+00
1,1.6285691085784712583972578e+00
1,1.5773853723893027645175380e+00
1,1.4972737022810025386831967e+00
1,1.4328071672840239081381242e+00
1,1.3593993837012725567348070e+00
1,1.2969966751836248253226813e+00
1,1.2325661016008484516248700e+00
1,1.1835135357285839763363811e+00
1,1.1465238411591796019450840e+00
1,1.1098972988700719355392721e+00
1,1.0711569931116873277687773e+00
1,1.0205382031892720195997981e+00
1,9.8222740009739806232857973e-01
1,9.7266908063739354606269671e-01
1,9.3980261592081504318230145e-01
1,9.0022373551050560713804316e-01
1,8.6499583081025976927236343e-01
1,8.4639887002146507732902592e-01
1,8.2633181636636066080825458e-01
1,8.0431263446861456234415755e-01
1,7.6939467671893413402983697e-01
1,7.8290652380390346465333096e-01
1,7.6740344531471915701104081e-01
1,7.4441781777626636618094835e-01
1,7.2892572938703736884491491e-01
1,7.0865654760187124505677048e-01
1,6.8832699802068542105359938e-01
1,6.5889217255208465395810435e-01
1,6.2392193796556350005033664e-01
1,5.8692761388785796849987264e-01
1,6.8822022277023120473415929e-01
1,6.7696358654252908326753868e-01
1,6.6588834259542872828774307e-01
1,6.4350353032308926781723812e-01
1,6.1558797717052804454596071e-01
1,5.7984124047698182291554758e-01
1,5.4068594990320084647805743e-01
1,5.0043167313610414925761916e-01
1,4.8137207532379189256488417e-01
1,7.3251250981504023584989227e-01
1,7.0898913175640176920211388e-01
1,6.7554106355079845958044871e-01
1,6.3893591442856079165579786e-01
1,6.0274494956949375978894068e-01
1,5.6261895016417373671657742e-01
1,5.1984153991576054210099755e-01
1,4.7100542551541235702927679e-01
1,4.1466310982484533287362183e-01
1,6.1314552689803769602860939e-01
1,5.7892065167785411450296351e-01
1,5.4172297689603410297820574e-01
1,5.0322359926785209527366760e-01
1,4.6010252013913932600530643e-01
1,4.1198450119658158730118203e-01
1,3.5439272314852560130660208e-01
1,2.8518270898680297964489228e-01
1,1.9914990519636688315330275e-01
1,1.4224184545672938217997228e-01
1,2.1171381324754973141111236e-01
1,1.8123626489193161992474757e-01
1,1.4856461907229367991334357e-01
1,1.0695853722984692557584907e-01
1,5.1552151176941368726502901e-02
1,3.2986355342988493699607488e-03
1,-4.9309949769845762279629753e-02
1,-1.2331261654077591005673753e-01
1,-1.6684185744481999646993131e-01
1,-2.1263653027043971643905707e-01
1,-2.0401484934477165378297059e-01
1,-2.2719547954867802541656374e-01
1,-2.6309554384226213619157875e-01
1,-2.9296694705719994455961341e-01
1,-3.2464420753927569762709027e-01
1,-3.5455440351751482674913518e-01
1,-3.9881679419073012837770875e-01
1,-4.3473561351036549282866872e-01
1,-4.6477547033327193393148491e-01
1,-4.9251487282007344603584897e-01
1,-4.9254550940626773414265926e-01
1,-5.0748407435112974361857141e-01
1,-5.2716888911592418853757636e-01
1,-5.4668283956682617308331373e-01
1,-5.7279632951361125758893422e-01
1,-6.1711574904801214103144957e-01
1,-6.5521168390798156799803564e-01
1,-7.1135252852866603934245404e-01
1,-7.3926804481421981574129632e-01
1,-7.6450991725793970843483294e-01
1,-7.6189403670414079794426243e-01
1,-7.7573102957035844351452170e-01
1,-7.9288637495369285179691587e-01
1,-8.1292990254284036577558936e-01
1,-8.8160344899700493481731201e-01
1,-9.0794241506740536173936107e-01
1,-9.3764166777389346130178183e-01
1,-9.6835401554160560610995390e-01
1,-9.9019202486548318908887723e-01
1,-1.0596462118722871359466353e+00
1,-1.0811058440280989501047770e+00
1,-1.0738407312136746263320219e+00
1,-1.0940687040066678914485010e+00
1,-1.1267647806089216011571352e+00
1,-1.1509110789697551968657763e+00
1,-1.1762887621030451157366770e+00
1,-1.2057531246461801188729623e+00
1,-1.2321493812991977101489738e+00
1,-1.2555658637716711201193220e+00
1,-1.2757741640881459233014539e+00
1,-1.2990179099134808726745405e+00
1,-1.2948065313729502090467349e+00
1,-1.4286308844131336837079971e+00
1,-1.4468909968558925083215172e+00
1,-1.4611476581557327758531528e+00
1,-1.4857694429701631122497929e+00
1,-1.5189761614637520281689831e+00
1,-1.5598395841188108512653798e+00
1,-1.6059217019018523497919659e+00
1,-1.6345632661231059845619029e+00
1,-1.6589521380590781518549193e+00
1,-1.6291105893257753489677953e+00
1,-1.6283979157996115727513597e+00
1,-1.6342055905593813047715912e+00
1,-1.6451470183157987925426369e+00
1,-1.6637619522254762927104821e+00
1,-1.7062300214180412538667042e+00
1,-1.7557780003843981297961818e+00
1,-1.8027972938989553775002150e+00
1,-1.8221283454790078160101530e+00
1,-1.8220752591168907219554285e+00
1,-1.7526243161747876442291272e+00
1,-1.7365114097107225976657219e+00
1,-1.7321250844208937458290620e+00
1,-1.7447494053173346895135865e+00
1,-1.7705252780909581655777174e+00
1,-1.7911542372959390334585805e+00
1,-1.8183049629147169934384465e+00
1,-1.8452331915920916483031533e+00
1,-1.8264376083860449639928447e+00
1,-1.8059267198135122711732947e+00
1,-1.7121953262563203157498037e+00
1,-1.6986498239011365019024424e+00
1,-1.6908945500180603271900281e+00
1,-1.6883566132184419927853014e+00
1,-1.6783784727515416168586171e+00
1,-1.6772390352295187820885758e+00
1,-1.6785355159518497991655295e+00
1,-1.6682133430583705457905808e+00
1,-1.6361345272740279721546131e+00
1,-1.6018612889016234923644788e+00
1,-1.3951632272179459448580019e+00
1,-1.3736248983390508815460862e+00
1,-1.3509913871768497450887025e+00
1,-1.3261062232621327883208551e+00
1,-1.3030508866619556762600496e+00
1,-1.2859984582317949275420688e+00
1,-1.2562599039776081166763788e+00
1,-1.2465692146179614407941472e+00
1,-1.2302673401317036905311397e+00
1,-1.2104160545325177711362130e+00
1,-1.0871361773467724809449919e+00
1,-1.0467714149325360040165833e+00
1,-1.0035999007512563796495897e+00
1,-9.3038399271304272897253895e-01
1,-8.8687079596680284954146600e-01
1,-8.2207549641013921704058021e-01
1,-7.7437560020939510962989516e-01
1,-7.6167969176924388285954137e-01
1,-7.2940542328504176516901225e-01
1,-6.6691115114519217144106733e-01
1,-5.5138594554501307865024273e-01
1,-4.4273896025093339989808783e-01
1,-3.4067150911857085882061824e-01
1,-2.3922821213262587813908056e-01
1,-1.2867052954187788160744788e-01
1,-7.6610580232506636511047304e-02
1,-4.6714466037929607000744880e-02
1,-2.6588681408218448054547878e-02
1,1.0730779362533263143753004e-02
1,6.2228522297413962904855111e-02
1,1.4438943335293871750302230e-01
1,1.9826312814118557392717435e-01
1,2.3174766701365803744927518e-01
1,2.5218628301048640061310380e-01
1,2.6019287291249004745452567e-01
1,2.6560129895967177215965194e-01
1,2.7020249344907204536170298e-01
1,2.7515044932535609456536463e-01
1,2.8378130545703328380113817e-01
1,2.9018316244085196053958953e-01
1,2.9728198305090647313164709e-01
1,2.9902823213850837635874313e-01
1,2.9997690019279998896450934e-01
1,3.0081563964795055010625902e-01
1,3.0155131267087426083506330e-01
1,3.0235033840039859942550038e-01
1,3.0322193466233954284305696e-01
1,3.0405333400841877411480141e-01
1,3.0471982845328510203231076e-01
1,3.0566392286654792131983527e-01
1,3.0494869615954911523658666e-01
1,3.0308349467066358906564005e-01
1,3.0156317481609412611831544e-01
1,3.0006842475459455377162499e-01
1,2.9855178283113065207388104e-01
1,2.9690742717652601756483932e-01
1,2.9544594236044163793053485e-01
1,2.9407545386706951395794363e-01
1,2.9289276127081048661793261e-01
1,2.9203223541283301889492918e-01
0,2.8457212632100209459551365e-01
0,2.4108574785271458251756371e-01
0,1.9201423653085092357883923e-01
0,1.5027056385376974523282456e-01
0,1.1590513939198653081685819e-01
0,9.7454603200281209041122565e-02
0,7.5381077844172500457275987e-02
0,6.4112749695408796646312055e-02
0,4.4121985141195446677997438e-02
0,-3.2614007698574962179627335e-02
0,-9.0260322879624238501250488e-02
0,-1.3969995624167477754618005e-01
0,-1.6173992002732576200862979e-01
0,-1.8699922641642652276772196e-01
0,-2.0469897833918626606219959e-01
0,-2.1790654709549547862756924e-01
0,-2.2296607200266438386648815e-01
0,-2.3204765383715808546583048e-01
0,-2.7148467293269057387661292e-01
0,-3.0801670646351198001866578e-01
0,-3.5091266863746034543325436e-01
0,-3.8338608316538247411386919e-01
0,-4.0612988900048851981239295e-01
0,-4.2565690130551914194256824e-01
0,-4.3493817429627007475900768e-01
0,-4.4570860741166207219521311e-01
0,-4.3900206918890744001160442e-01
0,-4.2312015201314656653863722e-01
0,-4.6506674531174796438648400e-01
0,-5.0377881865772700109573634e-01
0,-5.3761790161769273943548342e-01
0,-5.6808636644823895522904422e-01
0,-5.9250380821588866098181825e-01
0,-5.8894425775539804845948311e-01
0,-5.9428348883696402449317020e-01
0,-5.8687294282533808420510013e-01
0,-6.1264861429006556292620189e-01
0,-6.4592882301842546866055272e-01
0,-6.7565958878484588812085576e-01
0,-6.8639658311836204696021468e-01
0,-6.9789360066594918752258536e-01
0,-7.0333104333382134853991374e-01
0,-7.0191827196880784978105794e-01
0,-6.9808275453674217825295045e-01
0,-7.3094103086834161242535401e-01
0,-7.6431290655450689897065786e-01
0,-7.8589556788528247555092321e-01
0,-8.0463875419381492015702406e-01
0,-8.1855932058265978845668087e-01
0,-8.3134218587966490776608453e-01
0,-8.3957629717891446574640213e-01
0,-8.5010044355359393186688521e-01
0,-8.6923376053845091693261793e-01
0,-8.9625718009645394257489670e-01
0,-9.3024027191559288674227446e-01
0,-9.6293115465593959179102512e-01
0,-1.0032337925587109239700112e+00
0,-1.0373199556553740485753679e+00
0,-1.0668372806399097907359419e+00
0,-1.0991645328516532753582169e+00
0,-1.1294857996581106895916946e+00
0,-1.1650920595843092808507890e+00
0,-1.2078534896680497290333278e+00
0,-1.2636055378791191117215931e+00
0,-1.3264826841183934291734658e+00
0,-1.3908208259542336193703704e+00
0,-1.4516243126765113746756697e+00
0,-1.5239024275782979689353169e+00
0,-1.5944833776127560476254530e+00
0,-1.6606468129065945493749723e+00
0,-1.7350885693920983232629851e+00
0,-1.8061827412059436870350737e+00
0,-1.9170975831790939558629816e+00
0,-1.9789722435157539592864850e+00
0,-2.0237568140863446686239513e+00
0,-2.0701004412306445168212576e+00
0,-2.0913206657188858628160233e+00
0,-1.9059731538097208769499957e+00
0,-1.4556366822739901234484705e+00
0,-1.2497444507997232943097288e+00
0,-1.1442187350504213760871153e+00
0,-9.7719246820325800229056767e-01
0,-8.8200282423929121655703511e-01
0,-7.9551290787789508129890237e-01
0,-7.2007256218893933574776156e-01
0,-6.3557600618967635686118456e-01
0,-5.5408327359373088505378746e-01
0,-4.8644128804068748062050531e-01
0,-4.3307285021504982047702015e-01
0,-3.9010515982500870713067798e-01
0,-3.3849341463176224609199494e-01
0,-2.9512092834544378927574826e-01
0,-2.5650452398622292093932629e-01
0,-2.1956733126230210118023933e-01
0,-1.9452306102817684685390986e-01
0,-1.7990531495527381511401188e-01
0,-1.6805486597197108467049986e-01
0,-1.5705867971579193231868032e-01
0,-1.4682728179367834919766267e-01
0,-1.3563558254449226136983953e-01
0,-1.3134996634103607293653226e-01
0,-1.3222233200244035145054511e-01
0,-1.3629206109765895638119559e-01
0,-1.4043941710074109296968459e-01
0,-1.4444929139354362179759050e-01
0,-1.4834679492978344872433638e-01
0,-1.5211834778565305748010417e-01
0,-1.5579497719920498699508471e-01
0,-1.6195561753389836612271324e-01
0,-1.6600532008107385384398924e-01
0,-1.7023483649603912692960250e-01
0,-1.7466187225093968149458590e-01
0,-1.7912169343377271069073231e-01
0,-1.8348613802279445383902612e-01
0,-1.8735899104267586534611212e-01
0,-1.9096167825254301009252345e-01
0,-1.9437566350583718177702508e-01
0,-1.9879519654076086010441315e-01
0,-2.0176513648755592389427704e-01
0,-2.0479350123660358673483017e-01
0,-2.0777461142003575411685290e-01
0,-2.1080450418395910161528661e-01
0,-2.1375550551607053195724006e-01
0,-2.1648033038805616912192420e-01
0,-2.1908621808378325734878445e-01
0,-2.2161507170194291727050029e-01
0,-2.2474171438528436905990304e-01
0,-2.2702062631208599907672863e-01
0,-2.2928059598140460018100839e-01
0,-2.3151518876584670225682316e-01
0,-2.3360554958988472007419546e-01
0,-2.3555856521016627080911121e-01
0,-2.3743192874407589854079959e-01
0,-2.3921083686557922942661492e-01
0,-2.4079616429028022350777860e-01
0,-2.4298728293456212101730785e-01
0,-2.4467786570823499281424063e-01
0,-2.4628220308305365238155105e-01
0,-2.4797618572511589962736878e-01
0,-2.4958972026267220445383543e-01
0,-2.5095023627771112506579243e-01
0,-2.5225501231886965358697239e-01
0,-2.5333072974860254555906636e-01
0,-2.5414470048672654911570135e-01
0,-2.5505479991494511837757386e-01
0,-2.5534357451724915000212945e-01
0,-2.5549723288331471771073211e-01
0,-2.5595959870763995702702687e-01
0,-2.5675549732975661010314639e-01
0,-2.5763716655928070586867307e-01
0,-2.5866241754030011579246207e-01
0,-2.5980719391895690240090744e-01
0,-2.6093369215430212149087197e-01
0,-2.6267415837159391323041291e-01
0,-2.6396995896480368593017829e-01
0,-2.6542423181304974910688088e-01
0,-2.6654280807708363720820444e-01
0,-2.6549722715425283503520859e-01
0,-2.6212000926532269540203401e-01
0,-2.5945743675405258388266816e-01
0,-2.5710617714196759564515560e-01
0,-2.5484835669242256184219286e-01
0,-2.4883136216836784782024949e-01
0,-2.3671266964485404571405525e-01
0,-2.1923367156114414999734663e-01
0,-1.9567776505711007017929148e-01
0,-1.7667882221659603203534061e-01
0,-1.6550210657365624355996658e-01
0,-1.5664002390263589981067582e-01
0,-1.4349457373780991065181922e-01
0,-1.2564058017968277036757740e-01
0,-5.6116091295506667635528686e-02
0,1.8903800625084440922840656e-02
0,1.0911771140648499067715704e-01
0,1.9736289169640938712113609e-01
0,2.8132505167089977282657287e-01
0,3.3284088413930201788559771e-01
0,3.5406907785983665615248128e-01
0,3.7046262807356777901901523e-01
0,4.1355294828854116673255703e-01
0,5.2667701710260717007372477e-01
0,6.3835363568895131525238185e-01
0,7.3900980399899440786981586e-01
0,8.2840366924886965627194968e-01
0,9.0907219568518959906811006e-01
0,9.6997127035538555084315249e-01
0,1.0029388974828383762627482e+00
0,1.0109285857771455052755982e+00
0,1.0471896881822670977157941e+00
0,1.1121268014801357626453182e+00
0,1.1688894499161792683850081e+00
0,1.2332123985506395769107257e+00
0,1.2994392816402500212547011e+00
0,1.3480372795092829818486280e+00
0,1.3868670192102943161671647e+00
0,1.4181528840244481681764910e+00
0,1.4583391990571072938109864e+00
0,1.4839994702199910125983706e+00
0,1.5187518711948233551822796e+00
0,1.5623809589704573674850963e+00
0,1.6210055004487498031551240e+00
0,1.6708100642147905023904286e+00
0,1.7056613449049535802259925e+00
0,1.7149062161640211687796409e+00
0,1.7450516820672978823836274e+00
0,1.7944368491748974303590103e+00
0,1.8375706573530246057401882e+00
0,1.8475527495819323853254446e+00
0,1.8377177961557744634291112e+00
0,1.8383681874800517075385642e+00
0,1.8343255730040508577616265e+00
0,1.8391944309697898507494074e+00
0,1.8207581432891855044431395e+00
0,1.8408399378949003022398756e+00
0,1.8553675685435817577229045e+00
0,1.8786568051783747446137340e+00
0,1.8854114984886503059158258e+00
0,1.8568383135774095826775465e+00
0,1.8180478756402327356056503e+00
0,1.7780573446101761714288614e+00
0,1.7419711561075201800008472e+00
0,1.7477876284889499736152629e+00
0,1.7317034908465809284194847e+00
0,1.7255882788096414959255753e+00
0,1.7195643667479598715175371e+00
0,1.7246355847720924447941115e+00
0,1.7114769412314747576431273e+00
0,1.6712140144753522275067326e+00
0,1.6102127387541949055105306e+00
0,1.5834959893469999769877177e+00
0,1.5608401856623257408784866e+00
0,1.5461785290115153124190783e+00
0,1.5198975293359562321882095e+00
0,1.5039049892727534007974555e+00
0,1.4781434555489505466852052e+00
0,1.4657641558515592805633787e+00
0,1.4425677386920012779114586e+00
0,1.4252487674282854346330396e+00
0,1.3913490611438956712220261e+00
0,1.3638510227451594580827532e+00
0,1.3476365347878418443627879e+00
0,1.3217116001502364763808828e+00
0,1.2946572992873353058485009e+00
0,1.2602355292518154783465434e+00
0,1.2370392335802644634412673e+00
0,1.2305685936723107509749298e+00
0,1.2234690571666571035081006e+00
0,1.2061744921008161757214339e+00
0,1.1789674721382212840836701e+00
0,1.1516778876284903265769799e+00
0,1.1284640793414426607199630e+00
0,1.0965240725198550642005557e+00
0,1.0520541549000779202316380e+00
0,1.0339315946736042928222332e+00
0,1.0162140412912519238375353e+00
0,1.0044021253818480321484685e+00
0,9.9327331146487796154076477e-01
0,9.7332172663362803710640492e-01
0,9.4117212525742510731419088e-01
0,9.0640217766432629176165392e-01
0,8.7201130321210151841171410e-01
0,8.3605314446269218819907110e-01
0,8.0539733517379419325266099e-01
0,7.8166651378423634977110623e-01
0,7.6210429039857086053189050e-01
0,7.4163473218315467683225961e-01
0,7.2359729272344674999573044e-01
0,7.0205726388684497329961687e-01
0,6.6567606816315150197738149e-01
0,6.4233442799768247777336683e-01
0,5.9885776662580747498054734e-01
0,5.6601414744487421604191013e-01
0,5.3315399195789436870285272e-01
0,4.9919579174493072803997507e-01
0,4.7044404145360907421036245e-01
0,4.3361027828269899098145856e-01
0,4.0590905039601843373731072e-01
0,4.0093827978726348515436939e-01
0,3.5320225421541540100633938e-01
