Species Id, vx
1,1.8940968496706628299008912e-01
1,1.9352618911657656908253955e-01
1,1.9797660876451345091098233e-01
1,2.0206320157083906829953435e-01
1,2.0598031353390974795836144e-01
1,2.0986835343766055417269456e-01
1,2.1327949168707860394533782e-01
1,2.1650504056585301304593827e-01
1,2.1990503389787488530693338e-01
1,2.2425572050908018639781005e-01
1,2.2554372260279278994410390e-01
1,2.2904144216749100504415537e-01
1,2.3242826289581972054598680e-01
1,2.3602578841080301685906306e-01
1,2.3965026669307393225594183e-01
1,2.4271334487065254759130539e-01
1,2.4568768685767577997225430e-01
1,2.4817355784713052146983614e-01
1,2.5027106092729806130492420e-01
1,2.5297429600481824429891731e-01
1,2.5488125721544663271345144e-01
1,2.5784372735274729837584573e-01
1,2.6092272848686071107238149e-01
1,2.6410869597295005828385683e-01
1,2.6739309331172228523243461e-01
1,2.7034427788732023900664103e-01
1,2.7304388890236636067143650e-01
1,2.7534148580584477672417165e-01
1,2.7684502773529567898336268e-01
1,2.7911956061333198508833675e-01
1,2.8006219086950856489437456e-01
1,2.8349245504162090547595199e-01
1,2.8630392314267810727201891e-01
1,2.8952177104930038042951423e-01
1,2.9278445896440474793820385e-01
1,2.9575355922622997839610548e-01
1,2.9872735308979486701375095e-01
1,3.0110190608466441686275061e-01
1,3.0299667301946331399165047e-01
1,3.0500842040914777353322052e-01
1,3.0603557560339700316376366e-01
1,3.0975644800376916920825465e-01
1,3.1338540765244921049159643e-01
1,3.1732964250693806995684554e-01
1,3.2162970918266348130387655e-01
1,3.2587629091195735586694582e-01
1,3.3011191488036328856026103e-01
1,3.3365570758778068105598891e-01
1,3.3688498793623100624472499e-01
1,3.4036171954649885318389124e-01
1,3.4183130591336546855174561e-01
1,3.4673995989821559948751428e-01
1,3.5306003734889879197567097e-01
1,3.5958562363497931224642912e-01
1,3.6669374743758814672034418e-01
1,3.7431243260211061185671610e-01
1,3.8302183311945880994642266e-01
1,3.9066790409796431360334168e-01
1,3.9814391368159729456266405e-01
1,4.0890240571019031978750036e-01
1,4.1414196810379966251502992e-01
1,4.2966530817868575642393125e-01
1,4.5119724634938129792516293e-01
1,4.7876162926879672898650142e-01
1,5.2833739266328827444141325e-01
1,6.1614249430565282139582450e-01
1,7.3106757074238915006247908e-01
1,8.7717930768532492713518423e-01
1,1.0678106600364873912667463e+00
1,1.2994875930509719452743411e+00
1,1.3679204107947831037250808e+00
1,1.5513339904468297358874906e+00
1,1.7681845137341456464241674e+00
1,1.8756167790630560165965335e+00
1,1.9757223280886013760948572e+00
1,2.0591584008713335052220827e+00
1,2.0940037733701761801796692e+00
1,2.1187345678177549324061602e+00
1,2.1406360766572052334311138e+00
1,2.1530097849872391613246236e+00
1,2.1548510930775783833723835e+00
1,2.1457523140573733222424835e+00
1,2.1338866828950697751565713e+00
1,2.1160564990670702734121278e+00
1,2.0905567441509664838861227e+00
1,2.0569798810766051211373906e+00
1,2.0228916743349003581897705e+00
1,1.9884367634244612954574905e+00
1,1.9514766327035888426877364e+00
1,1.9113926879315761286903808e+00
1,1.8960080780323258498043515e+00
1,1.8535190379587973552588664e+00
1,1.8074684504163081033567551e+00
1,1.7546549228740726533715133e+00
1,1.6997514695173983056974976e+00
1,1.6448164236173052898948299e+00
1,1.5939452681542234380174250e+00
1,1.5436416785902449255729607e+00
1,1.4927489983254689231984003e+00
1,1.4422606916094320439469811e+00
1,1.4231432635363756578072980e+00
1,1.3714378780644962407819776e+00
1,1.3191695916608776606437914e+00
1,1.2615581042471379902281114e+00
1,1.2080441136763888643201881e+00
1,1.1558612192532302653802390e+00
1,1.1073455278468129492353000e+00
1,1.0588289142704505607639476e+00
1,1.0104485871943695851626899e+00
1,9.6371260709071038252915287e-01
1,9.4736983582669953563026866e-01
1,9.1803214579472647294267063e-01
1,8.8809008320750493226114486e-01
1,8.5501646934439468061839307e-01
1,8.2006120823066352976127291e-01
1,7.8561340138909030450520277e-01
1,7.5201397360279587100961862e-01
1,7.1749724108870815975080859e-01
1,6.8320208928505310463918931e-01
1,6.5370911873448089846050379e-01
1,6.4523092788266889208159682e-01
1,7.3873190376624020547779992e-01
1,7.1338130180483183551132242e-01
1,6.8453788905849477508525069e-01
1,6.5489358282637766262013201e-01
1,6.2561268887779486469469248e-01
1,5.9684201837889616637511381e-01
1,5.6699907939279037272228834e-01
1,5.3684212270110198694794690e-01
1,5.0934151687706474831429659e-01
1,4.9941294707835337529644448e-01
1,5.6273708872314509576995079e-01
1,5.4060481784296343654716566e-01
1,5.1627391845678927140284031e-01
1,4.9169755725793368172915621e-01
1,4.6607215899632048472511769e-01
1,4.4035864990727918710788913e-01
1,4.1356826903625998337332703e-01
1,3.8487953527785156992990778e-01
1,3.5658971755369051059858521e-01
1,3.4706641687064326839973205e-01
1,3.2142425283406733660385157e-01
1,3.3058191777156969992645941e-01
1,3.1415936136793970456793090e-01
1,2.9735544161678112429214593e-01
1,2.7895406267124484012143171e-01
1,2.5763009806757714015290617e-01
1,2.3518702092385304625032916e-01
1,2.1257782671145289410397083e-01
1,1.8742257797945252595361865e-01
1,1.7829742630423472959932951e-01
1,1.5707185692831429624227724e-01
1,1.3690151138720196843934218e-01
1,1.2938491392637876953308762e-01
1,1.1895345817620044115425770e-01
1,1.0298029956700439913053202e-01
1,8.6811407010559255015280655e-02
1,7.1260245196363244946091697e-02
1,5.2736416005697665798646057e-02
1,3.3134889903853388670729174e-02
1,2.5572681998991771135099071e-02
1,3.9703795861375304476759140e-03
1,-1.5533727021950070878997252e-02
1,-3.5497695941650475592865632e-02
1,-4.2324199082187721754344523e-02
1,-5.3536955005343001001705261e-02
1,-6.6498257692908901983486203e-02
1,-7.9817925339509904203438850e-02
1,-9.5553738913478472594142943e-02
1,-1.1317162563867269597928100e-01
1,-1.2080826049555962176107471e-01
1,-1.4323219947129411933062215e-01
1,-1.6900808468594807898455201e-01
1,-1.9171922601760305049367616e-01
1,-2.1034316473590092266832130e-01
1,-2.2841593505163867994234295e-01
1,-2.2394694671562476173676259e-01
1,-2.3710638386049381898246224e-01
1,-2.5058472276077531359916861e-01
1,-2.6904824795495840827896927e-01
1,-2.7804973994909948364906427e-01
1,-3.0056932951769832484956169e-01
1,-3.2434140322788695964817407e-01
1,-3.5008557620572172686124190e-01
1,-3.7283720818670618157852914e-01
1,-3.9007099918105159197523335e-01
1,-4.0807950599295927940346473e-01
1,-4.0506480483432172334801180e-01
1,-4.2036276795429783348367891e-01
1,-4.4053748571014011981006320e-01
1,-4.4813754863706511955001588e-01
1,-4.6819997350536224356432058e-01
1,-4.8966996738080048601204908e-01
1,-5.1254681887437858467393426e-01
1,-5.3656229364713559082389338e-01
1,-5.5956172233094525481078563e-01
1,-5.7638524873746599386237222e-01
1,-5.9448835258668952796767826e-01
1,-5.9406025403935602824390116e-01
1,-6.0802661993456175171246514e-01
1,-7.3004610755209953243394239e-01
1,-7.4659164947934364420234488e-01
1,-7.5747506881938564404777026e-01
1,-7.7354662896549020167924482e-01
1,-7.9192437743779731107451880e-01
1,-8.1347612425409954184374328e-01
1,-8.4447674107097903117846727e-01
1,-8.6602867979429709599514808e-01
1,-8.8347127074162890014719096e-01
1,-8.7038417424990954796015785e-01
1,-8.7124740854444815418844428e-01
1,-8.7145660636628319295482470e-01
1,-8.7483447825241189566014555e-01
1,-8.7966424091865857981531462e-01
1,-8.9030578624532275000547088e-01
1,-9.0852428507441318483728310e-01
1,-9.3480845712511473344363822e-01
1,-9.6147507980154711670905954e-01
1,-9.8035953794004326855571207e-01
1,-9.8462368750397111227812275e-01
1,-9.8437741690114455295201878e-01
1,-9.4925753833513193402637853e-01
1,-9.3977357667556493669991369e-01
1,-9.3642185020781076865148407e-01
1,-9.3855468554931165137134030e-01
1,-9.5273813845828869695253616e-01
1,-9.6519782837192269475679041e-01
1,-9.7956476795976543670008141e-01
1,-9.9517961209316407877878419e-01
1,-1.0029076796922127279287906e+00
1,-9.9856081660519391274277723e-01
1,-9.8440450726110895196541151e-01
1,-9.3820433570541816870047569e-01
1,-9.2464931813205519794962584e-01
1,-9.2221470179584308368703205e-01
1,-9.2031415091359858315911424e-01
1,-9.1697478947417887518156476e-01
1,-9.1526152447081932095329648e-01
1,-9.1463351640558365751587644e-01
1,-9.1273255883313364478226504e-01
1,-9.1104458988040426525856219e-01
1,-8.9907950871585129437590922e-01
1,-8.7708544577220093341196616e-01
1,-7.1352289626293396995748708e-01
1,-6.9857326274363407137002469e-01
1,-6.7891659008019245025167265e-01
1,-6.5887823423114455501092834e-01
1,-6.3992781403389242811385884e-01
1,-6.2395171954814676595901801e-01
1,-6.0753463719291067590688726e-01
1,-6.0165295057098944209172942e-01
1,-5.9010054826272284600463536e-01
1,-5.8195816471472250341889776e-01
1,-5.6700966055353374528635868e-01
1,-5.1214139425291071994195136e-01
1,-4.7873934096450881936490873e-01
1,-4.4329040233341326926463921e-01
1,-4.1039856512516625919317903e-01
1,-3.7943144603875922360458617e-01
1,-3.5038454902794052836512151e-01
1,-3.3797490904498239672193449e-01
1,-3.1429408379717527211028028e-01
1,-3.0572654850559222161621165e-01
1,-2.9599396021389912103671804e-01
1,-2.6697995054833029149321533e-01
1,-2.0872100306667742963817602e-01
1,-1.6443508555379238167404310e-01
1,-1.2990765843797191791963996e-01
1,-1.0062973073504856424964515e-01
1,-7.6880396691556385224686210e-02
1,-6.9676523991428984672324987e-02
1,-5.5373369138666979349938657e-02
1,-4.9755613147475417912257711e-02
1,-4.4844738213332277498857081e-02
1,-3.8083879436602699475322709e-02
1,-2.4855791187786475948673370e-02
1,-3.0396099288253278225546694e-03
1,1.4189221181958498740893759e-02
1,2.9121190607069226408132323e-02
1,3.8894442131245432481279067e-02
1,4.1121848849358100252970871e-02
1,4.6483782905317412581513992e-02
1,4.9726960391201835420815769e-02
1,5.2263714844687482463658768e-02
1,5.4801929965308394943068748e-02
1,5.8355561553230600457808919e-02
1,6.4571299404593190951473503e-02
1,7.4523249665893173676600725e-02
1,8.2062180234209899931663301e-02
1,8.8521108769598677579182322e-02
1,9.0138219512546829959021011e-02
1,9.5300810992868467685923406e-02
1,1.0076541944508013437520333e-01
1,1.0601924158245805418498975e-01
1,1.1150794033885580436304963e-01
1,1.1696545664834476219162696e-01
1,1.2388963814247368200316401e-01
1,1.3293614552485188973207642e-01
1,1.4319826141664329655078802e-01
1,1.4811246360459134896458977e-01
1,1.4958984773742176055399966e-01
1,1.5352527141069505223214264e-01
1,1.5762606990165653475521879e-01
1,1.6164310235157047790366391e-01
1,1.6526007375048198944078592e-01
1,1.6876686119554862308689280e-01
1,1.7219724934441318908717733e-01
1,1.7707271728784443332038734e-01
1,1.8365378562802575634904656e-01
1,1.8781698698164744909533397e-01
0,-7.3624176401432317451423160e-02
0,-9.4370165894304636200473624e-02
0,-1.1651426172150018689688267e-01
0,-1.3825108060150428923584798e-01
0,-1.5694322601100374470206589e-01
0,-1.7374478311111690720380807e-01
0,-1.8359254086045351250788826e-01
0,-1.9372704215671820993094343e-01
0,-2.0551702143085906482333769e-01
0,-2.2296674550340067622045126e-01
0,-2.3155826813421478971299905e-01
0,-2.5449136200493127635269275e-01
0,-2.7636005930740292768632571e-01
0,-2.9537140848783743907191024e-01
0,-3.0905467202577335816826576e-01
0,-3.2386475212942167356544587e-01
0,-3.3730458796355000661293388e-01
0,-3.4907384156193327351402900e-01
0,-3.6031594376676562285766181e-01
0,-3.7214334261896553357473749e-01
0,-3.7935145198129399668474093e-01
0,-4.0495719724441170406237234e-01
0,-4.2722192921903018314466749e-01
0,-4.5034435920635840222558954e-01
0,-4.7025802985870218675401588e-01
0,-4.8934544000347246495152831e-01
0,-5.0604567660313448662634528e-01
0,-5.2184606626336749179984054e-01
0,-5.3490024316325135433913829e-01
0,-5.4105588512871016781957678e-01
0,-5.4508460958120874551013912e-01
0,-5.7606710975590735834828138e-01
0,-6.0572873167996688081871071e-01
0,-6.3512512528446318782471280e-01
0,-6.6304193088884999518484165e-01
0,-6.9245899151077550115473969e-01
0,-7.1820284579403426139521116e-01
0,-7.4346189525829986521898718e-01
0,-7.6652872984435405090408722e-01
0,-7.8975714342218950037022296e-01
0,-8.0348858998668282183075462e-01
0,-8.4286745523965911353059255e-01
0,-8.8166837491097738155332308e-01
0,-9.2099795007973317417793169e-01
0,-9.6019377833574837133312485e-01
0,-1.0020229764132206895510535e+00
0,-1.0433584987934361176797893e+00
0,-1.0824866299015598603006083e+00
0,-1.1262814232472333486612115e+00
0,-1.1770632251563639680824735e+00
0,-1.1964564168969851198909282e+00
0,-1.2495508922357596581775852e+00
0,-1.3017323078090687893393351e+00
0,-1.3539609260464156026415594e+00
0,-1.4069136086554308029406002e+00
0,-1.4638767221734867440829930e+00
0,-1.5227628613037116345196864e+00
0,-1.5788543691878482722046328e+00
0,-1.6284692201860326843387838e+00
0,-1.6769316019520361660255503e+00
0,-1.6949477010786466735225986e+00
0,-1.7421215286730278304361264e+00
0,-1.7892859238706966262810738e+00
0,-1.8351537123710599530568288e+00
0,-1.8810193800493006932583739e+00
0,-1.9283881009579759702177171e+00
0,-1.9735124590453636539422178e+00
0,-2.0150856178437446253326470e+00
0,-2.0452981827703942130369796e+00
0,-2.0726395770640198001899535e+00
0,-2.0822474146128078231754444e+00
0,-2.1064782440927243278849801e+00
0,-2.1279510641971284279350130e+00
0,-2.1373693619226297180091478e+00
0,-2.1415183191036581966670838e+00
0,-2.1412799320199540353826251e+00
0,-2.1363200144617553455361758e+00
0,-2.0994593562395280628152250e+00
0,-2.0527596271978953978987192e+00
0,-2.0053431912646573209713097e+00
0,-1.9880296035690594447231661e+00
0,-1.8940925137378412657085391e+00
0,-1.7712550282033769910583487e+00
0,-1.6433129135038075929742263e+00
0,-1.3790869619312888794127048e+00
0,-1.1623834591228552337582869e+00
0,-8.6792902270353411431358381e-01
0,-7.2169565700303472954857398e-01
0,-6.2959299576182004010149740e-01
0,-5.5616151152077930586159482e-01
0,-5.3231519901729018595659682e-01
0,-4.8686864770959986659093488e-01
0,-4.5246190643415695742390881e-01
0,-4.2488530382192357670589899e-01
0,-4.1228885779790119814336435e-01
0,-3.9922025937770144743410583e-01
0,-3.8917012807399065099644986e-01
0,-3.7978349064521305100683435e-01
0,-3.7084260480806541249165775e-01
0,-3.6436795681106393107739905e-01
0,-3.6238224116785361372805596e-01
0,-3.5718880547943848702274749e-01
0,-3.5212178914010616725960290e-01
0,-3.4688760591451645032279316e-01
0,-3.4126530375204194855953688e-01
0,-3.3561551269352146720237329e-01
0,-3.3040575805594424307898294e-01
0,-3.2564936861517485011674466e-01
0,-3.2146655705363302857335839e-01
0,-3.1777511966766364137626510e-01
0,-3.1673397629158467347920691e-01
0,-3.1412668621317429984429737e-01
0,-3.1148778666291315753156255e-01
0,-3.0849202199848901884138286e-01
0,-3.0504901973339548781893882e-01
0,-3.0136233518719302004740257e-01
0,-2.9791859241766843746646032e-01
0,-2.9459472513194306930728317e-01
0,-2.9139301187309035734429585e-01
0,-2.8841589015374397009239260e-01
0,-2.8749496656143308515041213e-01
0,-2.8567999115297276757630129e-01
0,-2.8400843044475265752879523e-01
0,-2.8156080286946477686527146e-01
0,-2.7863811581358732816227075e-01
0,-2.7552659078366220635203376e-01
0,-2.7244488253042675740545064e-01
0,-2.6942026405776492437027514e-01
0,-2.6616796085489685674829730e-01
0,-2.6326602927216585792180581e-01
0,-2.6216499573090457086976812e-01
0,-2.5996077407827944405482867e-01
0,-2.5839098426483325665614643e-01
0,-2.5568702132261472703689265e-01
0,-2.5263228750131100364129111e-01
0,-2.4939065588675651818917345e-01
0,-2.4605644739689724875830734e-01
0,-2.4280673778675318508213365e-01
0,-2.3934310150764639968379299e-01
0,-2.3585877436634439252571838e-01
0,-2.3460651937455692661593787e-01
0,-2.3161329972532621046532597e-01
0,-2.2907026936791291538142445e-01
0,-2.2630149000620117250015539e-01
0,-2.2298880063194076450727721e-01
0,-2.1907989894634202765466569e-01
0,-2.1529661132856836580629079e-01
0,-2.1166991872316512357521390e-01
0,-2.0772367975658809213790335e-01
0,-2.0349780955865004461458057e-01
0,-2.0209021856982309350847515e-01
0,-1.9839948476976529412318939e-01
0,-1.9419669972480899100553131e-01
0,-1.9073601827503830485888159e-01
0,-1.8715484745089319695843244e-01
0,-1.8286820956219418388144504e-01
0,-1.7859298610733242984593971e-01
0,-1.7416458292601230684049085e-01
0,-1.6929707798460963408260227e-01
0,-1.6409229263781033303359891e-01
0,-1.6212609417030512948265653e-01
0,-1.5643672000783837017223732e-01
0,-1.4963625376772879405073979e-01
0,-1.4333533980982052224995016e-01
0,-1.3896205107188500105230844e-01
0,-1.3441446904283468888330333e-01
0,-1.3009315562385759257324480e-01
0,-1.2643237260919221176536098e-01
0,-1.2233132196389009949122340e-01
0,-1.1833886300103296784769213e-01
0,-1.1682509537712958136435049e-01
0,-1.1131707915121882845888024e-01
0,-1.0524330956987348884013045e-01
0,-9.9082353783909088429382450e-02
0,-9.3722160796443756969331673e-02
0,-8.5835665749542322533471861e-02
0,-7.7735425095845495091495536e-02
0,-7.0890347267857603541507672e-02
0,-6.3717275138167731030058860e-02
0,-5.6373932445621700859650360e-02
0,-5.2071334908079601466734943e-02
0,-4.0891324916795784849554707e-02
0,-2.9894512986138738197539055e-02
0,-1.8853111094072179387826083e-02
0,-9.1016467969756639777578755e-03
0,-2.9205321842435544299476646e-03
0,6.0392845354103469324158482e-04
0,4.1369751931000578459851624e-03
0,9.0457923826469457950771869e-03
0,1.6941285922076776415678978e-02
0,2.2365708982415140326782677e-02
0,3.8407415444069864518539248e-02
0,5.8808058945602016687193014e-02
0,7.9738619038149216589062007e-02
0,1.0069317762671883831337993e-01
0,1.2236012218641736937208009e-01
0,1.3274442347344561632382920e-01
0,1.3659923393399076019250060e-01
0,1.4219729893628940686767237e-01
0,1.6007427815946748128617116e-01
0,1.6744649925608179330538405e-01
0,2.0615611834410726976862804e-01
0,2.5090842812095276448403069e-01
0,3.1089021265089433754269521e-01
0,3.6581816567370056825225788e-01
0,4.1543026746261285664374441e-01
0,4.4785479846192971509211134e-01
0,4.5938740945977901697361290e-01
0,4.7677499368255371603453341e-01
0,5.0730117895910131764480866e-01
0,5.2248898182614356144881640e-01
0,5.6653294859737390876119889e-01
0,6.1983562788120627473631430e-01
0,6.8130483227277771618446423e-01
0,7.2682491103238056062707528e-01
0,7.6101961423637265458097545e-01
0,7.8590634175098150748794978e-01
0,8.1573691120935798437585618e-01
0,8.3956096268939872651060341e-01
0,8.5148775912961549572344211e-01
0,8.5801959599530497335706514e-01
0,8.8228930576241082484045819e-01
0,9.1185729121367997684899365e-01
0,9.4202921859652588576494736e-01
0,9.6646951892778187875876483e-01
0,9.7229955096274378600895716e-01
0,9.7870213116278503839851055e-01
0,1.0049301223304416552650764e+00
0,1.0323011235734305124367438e+00
0,1.0467276219322452224247399e+00
0,1.0440372702981608465933050e+00
0,1.0405652085747174595553588e+00
0,1.0376355905937022505725054e+00
0,1.0358842082627954805928994e+00
0,1.0366450967858378273689368e+00
0,1.0320298464523838255502142e+00
0,1.0355744444347443344867088e+00
0,1.0428795122626646207919521e+00
0,1.0519577459400886176865697e+00
0,1.0626009902120059358310300e+00
0,1.0619086830976647295443627e+00
0,1.0521194741926960247724310e+00
0,1.0302201077702684006709433e+00
0,1.0086418761397237808807859e+00
0,9.8893900869922080065776981e-01
0,9.8467928144649030652857391e-01
0,9.7794558269426024033066369e-01
0,9.7015438356562411215122665e-01
0,9.6781187990095973727733281e-01
0,9.6780607695694542691455808e-01
0,9.6896309471297747961671121e-01
0,9.6440354254224902597059099e-01
0,9.4703106246844148685681830e-01
0,9.1340508000255793419341899e-01
0,8.8597163548760038409568551e-01
0,8.7637067377314525895570796e-01
0,8.6955985911524069642553059e-01
0,8.5464276557388896282674295e-01
0,8.3998736216222169570500000e-01
0,8.2853076381027590535666150e-01
0,8.2348572771632766453819841e-01
0,8.1399634416293398242459034e-01
0,7.9957634361840079773031675e-01
0,7.7945727678670140292638280e-01
0,7.6269970579153079093259748e-01
0,7.3917619889215380180047532e-01
0,7.2308039283514036199562725e-01
0,7.0702541798237117376402239e-01
0,6.8267076743851795583850617e-01
0,6.6059855109882892332251458e-01
0,6.5126061646652422254533121e-01
0,6.3000558952028851145144017e-01
0,6.1273436843263384687929829e-01
0,6.1061683841404934547369976e-01
0,6.0125685120202432276670379e-01
0,5.7654591346884720426402282e-01
0,5.5173763061671265983676449e-01
0,5.2902888550576332438168947e-01
0,5.0359813551834309297561276e-01
0,4.7225254040770603403132100e-01
0,4.6183559306424010193481422e-01
0,4.3618368011956543117690899e-01
0,4.2414017356440125716687817e-01
0,4.1325986929805563763196119e-01
0,4.0058990908837172062462173e-01
0,3.9030640173261277325877927e-01
0,3.6497822590813622234406921e-01
0,3.3626320067197168484085523e-01
0,3.0890454431872421681148921e-01
0,2.8447628883152309420268011e-01
0,2.7478231358588700583567288e-01
0,2.5684348156366998416899605e-01
0,2.3705954886514357671245534e-01
0,2.1984816161546866242204601e-01
0,2.0492025496997007261157364e-01
0,1.8912833292339065183185198e-01
0,1.7561843190288939364762655e-01
0,1.5083174891089062841231794e-01
0,1.2587461970868879523877126e-01
0,1.0936104164922964832040719e-01
0,1.0014317053590301997978429e-01
0,7.7583459062738988065710544e-02
0,5.5809786601704790276468060e-02
0,3.6223958481107390583453309e-02
0,1.7843142605516899845685685e-02
0,1.0414675648457577539218732e-04
0,-1.7091383910281227054284159e-02
0,-2.4337954136004390226499794e-02
0,-4.2007258809318680226052578e-02
0,-6.5315824529903809825270855e-02
