Species Id, x
1,2.1134985287517751295638391e+00
1,1.3260121357717997714331659e+00
1,5.6193713398400193526072144e+00
1,5.3278241344581358518439629e+00
1,5.2154971369275626713601923e+00
1,3.5091814268092593742665031e+00
1,2.4261815573246621191572103e+00
1,2.1464911663302492783600428e+00
1,2.0990103217142284108831518e+00
1,1.9823283633614563470359826e+00
1,1.9341686870843730616797984e+00
1,1.8593545371229149854030993e+00
1,1.7420187144440597570849150e+00
1,1.9968432723973310594089980e+00
1,2.3030828990760379149094206e+00
1,2.3300115484482213368266912e+00
1,3.7420979734751567136186168e+00
1,2.7875639628425807892142529e+00
1,2.8130381081455744229913307e+00
1,3.2980399687157762045330855e+00
1,2.2162250912469603214560721e+00
1,2.4651685654381538803647800e+00
1,3.8274988254130151155152362e+00
1,3.8181289489948087023662993e+00
1,3.7801459039557547825438633e+00
1,4.2629637273196507862849103e+00
1,4.3893449238989150629208780e+00
1,4.4932143201215790639935221e+00
1,4.7152569436077094167103496e+00
1,5.1949537361292739134910335e+00
1,5.7802909004096107992154430e+00
1,2.9263062325046368394865226e-01
1,1.9792524275691005808397449e+00
1,2.9597965503649001917096939e+00
1,5.2859551351146700781669097e+00
1,2.6627045374718307790828931e+00
1,4.6418593534578551640379374e+00
1,5.0200052311802823012953922e+00
1,5.3469422099542072146505234e+00
1,5.2746271105003428303348301e+00
1,5.0251648890200453223542354e+00
1,5.0792114727547552632813677e+00
1,5.6985117505443430019340667e+00
1,5.8797185514798995242813362e+00
1,6.0168210562821409226330616e+00
1,2.6220267265494374697709645e+00
1,1.8399461084448931469381705e+00
1,2.5785075180606971123609128e+00
1,3.1572925248820316035391897e+00
1,6.2353381048835085920245547e+00
1,1.8238378598848883349603511e+00
1,5.7352391088576082367467279e+00
1,3.5113753219409651329385724e+00
1,5.9667208944470848663854667e+00
1,4.8774444142379502764583776e+00
1,2.3772061076972939019924524e-01
1,4.6548630950476361789469593e+00
1,5.3614367201693804432238721e+00
1,2.9070666001023565128136283e-01
1,5.0402591456115644064084336e+00
1,5.7442250848781979399859665e+00
1,4.0840006972142628427491218e+00
1,5.0062848396498393910292179e+00
1,4.2804504387268424991930260e+00
1,4.5680258825927353427687194e+00
1,6.5003317269964411284632888e-01
1,4.2522564948101209125752575e+00
1,9.8123476955060651150120066e-01
1,3.5512145009400195583282311e+00
1,2.6526292241142392924757587e+00
1,2.2512464676793801920950955e+00
1,3.5541419483802787482318308e+00
1,2.6795939437152407336384385e+00
1,3.4495492114718184772925724e+00
1,3.6161384156433280523401663e+00
1,3.9141219221973480024701075e+00
1,4.5824547687913703697404344e+00
1,2.4078191624544955651288092e+00
1,2.1538352363061807892563593e+00
1,1.7012205695733719768014680e+00
1,2.5911983111691956338518139e+00
1,6.1620090031805148100829683e+00
1,6.1675791646290418768217023e+00
1,6.0896279828462542837996807e+00
1,7.1905958668780023401723156e-02
1,1.4126133739360182683952871e+00
1,9.3800779925314758944665527e-01
1,5.4121810680161592799208847e+00
1,4.0288483800846401905459970e+00
1,3.1899479072046359462433429e+00
1,1.1045415014291155575421044e+00
1,9.8269187141786629169359912e-01
1,3.8691539374152443819809832e+00
1,7.8237664506063098190935534e-01
1,5.2527915761250003612303772e+00
1,1.4174978755106570904587215e+00
1,5.4093971837554031267814025e+00
1,4.2047052815045162788010202e+00
1,5.1559413747457707444254993e+00
1,4.3630352046453770853418064e+00
1,4.0026614693656563659374115e+00
1,1.2803227088048538817588451e+00
1,1.0295897791560897349683046e+00
1,2.8920558885242644286961422e+00
1,3.5879996949298931241401078e+00
1,5.2250540513536076758782656e+00
1,6.0947652227480364484080155e-01
1,1.6581688056656596064186715e+00
1,1.2162382254703916206750591e+00
1,2.0993461476413246558081482e+00
1,4.3753665295063433049449486e+00
1,5.6658025835472667353087672e+00
1,4.5247025344324649509530900e+00
1,1.0298227689601735512781033e+00
1,4.4865307908582572338218597e+00
1,5.9055347779390832130275157e+00
1,1.5962052817261027648498839e+00
1,1.8410742157975745758591302e+00
1,2.2165886349314884995465036e+00
1,1.5086483787812532408878496e+00
1,4.3647260240606691183984367e+00
1,5.5310091088475923370992859e+00
1,1.4836095316153714573914613e+00
1,1.3866644958382670083096855e+00
1,1.5232265309964152510957547e+00
1,7.4719148001362045707907100e-01
1,2.4930453806852566067675525e+00
1,2.4998170612313632688028520e+00
1,2.0681511340472904514342645e+00
1,2.3778793711584214065624110e+00
1,2.3577605421926839390778241e+00
1,2.0969606500819075733943464e+00
1,1.3841432530476605045066663e+00
1,1.8607890923856098552846561e+00
1,1.9882133454627106683432203e+00
1,1.6151184659122765907568464e+00
1,3.3112087199865025688438891e+00
1,1.3109079075612792841809551e+00
1,1.8187956921509189633923143e+00
1,3.0995941133832074498855036e+00
1,1.2941158950665865301488111e+00
1,6.5803060456499840036315163e-01
1,9.8355259729945143654106232e-01
1,6.3670513961825503379543534e-01
1,5.3793605458532733898380229e-01
1,6.8954545578776893499650669e-01
1,3.8319347781958601473206727e-01
1,5.9790060440509251726837192e-01
1,4.2569960676949164524174307e-01
1,3.3272663322133949614922699e-01
1,6.2451084927902993371162665e+00
1,5.8745344357470923313258027e+00
1,4.8009904095725790540427624e+00
1,4.0970423470344377037122285e+00
1,3.9285665730374730308938069e+00
1,2.3810763004970527667580882e+00
1,2.3536116530620732056888755e+00
1,2.7239513553201275541937321e+00
1,2.7492998064892977261308715e+00
1,5.7828988380888579623473333e-01
1,5.7081457878412820150515472e+00
1,5.5843194058890066600042701e+00
1,2.7435778548161988688036672e+00
1,2.6662429088753323291882680e+00
1,3.1585021594904096886580191e+00
1,4.4142218672996254014151418e+00
1,1.3525035261728686197812976e+00
1,3.2074023190404465921687915e+00
1,3.1878623704629847068758863e+00
1,3.2085778785541050339702451e+00
1,5.8342148805041897929868355e+00
1,3.3317764977883967958405265e+00
1,2.4003705832528016150817507e-01
1,3.1296905028501327272749677e+00
1,3.3143043256455695377837856e+00
1,1.9672942642175579308627675e+00
1,4.1860331958923993056487234e+00
1,3.1701537659572003313712685e+00
1,5.9210260281582636210373494e+00
1,5.3130636276875631285321333e-01
1,6.0638579680007369532290795e+00
1,9.7568754552494441067977959e-01
1,3.2132851098362991137946665e+00
1,3.3704104735151645400037523e+00
1,4.8114614303916978244046732e+00
1,3.1807841516245036750376585e+00
1,6.2008520114602836414974263e+00
1,2.8576552087622326681071172e+00
1,3.1334741961343282046215108e-01
1,3.4710715430430441053033519e+00
1,3.1020610345842043464870130e+00
1,2.8782515679533240415821638e+00
1,2.7079391397039174194105726e+00
1,5.4431217153851534362729581e+00
1,2.5372329263384814090898089e+00
1,3.0191359938317399169704913e+00
1,1.0131538341340686759650680e+00
1,2.5173577171418517473000520e+00
1,3.0002013413721235757236627e+00
1,3.7501142104717083425313717e-01
1,4.8554058779456630290383146e+00
1,3.8790049672893545107399405e+00
1,1.2580941075114218108410569e+00
1,1.1616212958682792244502480e+00
1,6.2112080360217154506585757e+00
1,2.3714684350569519288853826e+00
1,4.3826708406417518304465375e+00
1,3.0532095705084820735919493e+00
1,6.5904466346383450137125237e-01
1,2.2799105680478639612829284e+00
1,4.0785802348669131234260021e+00
1,5.2197576665828586683915091e+00
1,6.2148135670495525673118209e+00
1,3.2154215541784498810784498e+00
1,4.9761071100136646805367491e+00
1,5.3763647301788930477073336e+00
1,2.3937524555471050291544088e+00
1,4.9387311524933910078516419e+00
1,2.7432395270624609917575754e-01
1,4.9016297737356939734354455e+00
1,3.1633853616558167409777980e+00
1,3.2598605413761023719132481e+00
1,4.7572861994131185880974044e+00
1,5.6113852375633959113088167e+00
1,5.8289870694158274488927418e+00
1,2.7171077483613954584029671e+00
1,4.4177357172475488766849594e+00
1,1.9553788711475634798375722e+00
1,3.1290029141087347674954344e+00
1,2.8658585350813692294025259e+00
1,2.4912540751158247509522425e+00
1,8.0064682758171867860141901e-01
1,1.7944160850316586142128017e+00
1,2.4253021782472834466659606e+00
1,2.6498282753921049703649260e+00
1,3.2006395314367854787462875e+00
1,5.8056174138940317419610437e+00
1,5.2698618331124018610012172e+00
1,5.6296347714561711939040833e+00
1,5.5046434148622731541422581e+00
1,5.9041797057451370633884835e+00
1,2.0704107510193403562936965e+00
1,4.4439828263689001852654314e-01
1,4.2080636694976336631413005e-01
1,6.9993685755299983597410574e-01
1,9.0040441496866463477743991e-01
1,7.0804693179225053345504648e-01
1,1.3978487060285820220428832e+00
1,2.9287680182662412242677874e+00
1,3.0689159456026193772970601e+00
1,1.2196218075572879957491068e+00
1,1.0401581352504258859426045e+00
1,7.4003474582878681076181238e-01
1,9.2654033284258652258813527e-01
1,9.6820989874507401573566767e-01
1,1.1972592771046914883470436e+00
1,1.0430932292361394519986106e+00
1,6.3550132165107275916682283e-01
1,5.3104622747206766675276413e+00
1,4.6146833808401117593689378e+00
1,2.1601490230377637935532675e+00
1,2.7112122707497063878179233e+00
1,1.1176195735090892480201319e+00
1,4.2038052074218121845206042e+00
1,3.9828225909676334692832711e-01
1,3.2262117182462968223433109e+00
1,1.6518170237963345492460121e+00
1,2.8551447308940689495670995e+00
1,5.5521731650092371879168240e+00
1,4.9820452988125651927475701e-02
1,6.1628367839005644412964102e+00
1,4.9335955449098847225286590e+00
1,5.3446286006938255042086894e+00
1,5.7892758800341059810534716e+00
1,2.8574022796411120417303664e+00
1,2.0578737288112036729614829e+00
1,1.7109277390874058077940845e+00
1,1.5195017308763620889067170e+00
1,3.6581889265225693286254227e+00
0,5.2502243312358309879073204e+00
0,5.1153235222337833931760542e+00
0,4.7942617157801254990090456e+00
0,4.8419515296303190510229797e+00
0,4.7795703176934498657146833e+00
0,4.4581457656570711023391596e+00
0,3.9724925939564066368347994e+00
0,3.5113751073889671872052531e+00
0,4.3409089755041998515139312e+00
0,5.4124871352170957905514115e+00
0,1.2067163507718774440036213e+00
0,1.7792240835429697920488934e+00
0,1.7906879854267692131486456e+00
0,1.6392441923707352646744084e+00
0,6.1575917009127065782081445e+00
0,5.5322821001356752290689656e+00
0,5.5294238579329926253080885e+00
0,5.0336666967678285189435883e+00
0,3.9477174900863003514928096e+00
0,4.4520757556186616454851901e+00
0,5.8132922168686835817652536e+00
0,5.6134443501335651305339525e+00
0,4.4714500608426566152786563e-01
0,6.2165190264173686429671761e+00
0,6.2796146120464300111052580e+00
0,5.9740838990038613864896888e-01
0,3.2715747680863438429099688e-03
0,6.0868606129574178709162879e+00
0,2.4335760849401313343776110e+00
0,3.4367048537517494999349310e+00
0,3.1911136343928259151425664e+00
0,5.8586208425245434039396741e-01
0,1.9446315336881228041931990e+00
0,7.0418449510660319212718150e-01
0,6.1955347619067946407511727e-01
0,3.2346745058642067949250531e-01
0,2.1644577068317474299874448e+00
0,6.2740270046133614911809673e+00
0,3.5588834585176454261556955e+00
0,3.9136316110237334697785627e+00
0,1.2598167788971046388013519e+00
0,2.0976851497347053232545022e+00
0,2.0773009693329833602604140e+00
0,7.7598447087657285159423282e-01
0,5.8092393043374768168973787e+00
0,2.5953920131144903038489247e+00
0,3.4955542087521456195986502e+00
0,8.1567557307868643334813896e-01
0,9.7032110409482341673026440e-03
0,2.6410819903042836997997256e-02
0,3.9885020138113720378214566e+00
0,3.5538416316492960067563445e-01
0,4.8544418135860842866691200e+00
0,1.0068306484447093751555258e+00
0,2.1751171637713997419893985e+00
0,4.3999037573139587742332424e-01
0,8.8298306932762549159576793e-01
0,5.6822354740329039657353860e+00
0,6.5907795835306870468883744e-01
0,9.4573797526929917478533127e-02
0,1.3105725244200556733886742e+00
0,2.6179844481985488080511004e+00
0,2.3751662578464864949978619e+00
0,1.4384768143523891659185665e+00
0,1.5061592158471037716793717e+00
0,5.5596714265423710088498410e+00
0,4.9561468296017814338938479e+00
0,1.5708256769512884964967725e+00
0,5.8290163453208503341329560e+00
0,4.9570158122018366242400589e+00
0,4.7309330051339255618358948e+00
0,2.2048531065309253662576339e+00
0,4.4290576129247511971698259e+00
0,1.7112731531893015102241407e+00
0,3.1017564219625093357990409e+00
0,3.1588770976886793029336786e+00
0,1.9359027412883571539481409e+00
0,4.4032502887542559477651594e+00
0,3.6211050910445696793260595e-01
0,1.5939571974812660748455073e+00
0,4.8260758966497503408277225e+00
0,2.4216434389770600255076261e+00
0,5.4705042567163939537522310e+00
0,4.3010064731072485955110096e+00
0,5.3146898977392398322194822e+00
0,4.7868427582013026722052018e+00
0,5.6923212010801460536413288e+00
0,5.4384603994545166472107667e+00
0,1.8780171440729276355341426e+00
0,1.9812245106502102132139953e+00
0,1.7815932642604404012587338e+00
0,2.3923299595080527168988738e+00
0,3.2033285910047997191441027e+00
0,5.5078509974572054108676866e-01
0,1.9927021503050643680410303e+00
0,3.6122005910033521125512834e+00
0,5.4840507718123170377566566e+00
0,3.9141669401029064445651784e+00
0,4.3699304569877668313893082e+00
0,5.6079466504491080058869557e+00
0,6.1698415859241420022840430e+00
0,2.3069028828580675494208663e+00
0,6.0808148194749236381539959e+00
0,6.1776647398828643531487614e+00
0,6.9052138427107634388590895e-01
0,2.0218793795604161900314466e+00
0,1.6505906903447981060040206e-01
0,2.4867953115053964552316756e+00
0,1.7642840388715217425641413e+00
0,2.2622378623116365936596139e+00
0,1.8822116880001393823818034e+00
0,2.6266687696547545982639349e+00
0,3.2854412662237337805493098e+00
0,3.7512016778796724025824005e+00
0,4.6406687317295327588340115e+00
0,5.2729433818347519746794205e+00
0,6.0368841977756462213733357e+00
0,8.4386602564435087003857916e-02
0,6.1731257360310838322448035e+00
0,5.8843631082450391645011223e+00
0,1.0889617696739861685273354e-01
0,6.3136835065082874685060688e-01
0,6.2727750531060433303309765e-01
0,6.2357482318723329584031490e+00
0,5.6756770929117044133249692e+00
0,5.6092605425623860426753708e+00
0,5.6338754275438427399080865e+00
0,4.9763188279409034109335153e+00
0,3.8597280474666777472236845e+00
0,3.1216355581312402733829003e+00
0,3.1044106236231803208625024e+00
0,4.5044304029674666622895529e+00
0,4.2986133580936485287793403e+00
0,3.7673933530832695026902002e+00
0,2.5306540527632188641860012e+00
0,8.7965553378830685371525533e-01
0,5.4542043887560387460666789e+00
0,4.8652053407547661834087194e+00
0,2.5798609926883910858919080e+00
0,1.0879241038816538367228759e+00
0,2.3263663088728470107469093e+00
0,2.9557145204145243155835487e+00
0,3.5336844004154515097582134e+00
0,3.3742307922872409875481026e+00
0,3.6254327508340362662409007e+00
0,1.5032334736569816779905295e+00
0,4.6057586380742321363612746e-01
0,1.8366242393408496180740030e+00
0,1.7033308299909104555069916e+00
0,2.9478257626008357306091057e+00
0,2.6098117488910910211075134e+00
0,5.6221371442810941232437472e-01
0,3.9899276021986649354289511e+00
0,4.7793299927039472052570090e+00
0,2.6766348103957811055408911e+00
0,1.5274054193129369405568241e+00
0,1.5144617409684926201407507e+00
0,5.6076385862962840889167637e+00
0,2.6405181110277196054880733e+00
0,2.6157624180927716572853114e+00
0,3.0129686416745000698824697e+00
0,3.2421529915748545924714108e+00
0,2.1601126782296549144746223e+00
0,2.0474880326618722925502425e+00
0,5.6153416159223112913423392e+00
0,4.9543080563699373186636876e+00
0,4.5606181598924289133378807e+00
0,4.7364660780925271765795515e+00
0,5.5204697393044117603722043e+00
0,1.7178436161725689768076109e+00
0,1.4595533911572178276117029e+00
0,3.5104946123831979321039398e+00
0,1.0166331903185623630747614e+00
0,1.4145135695330173231099025e+00
0,3.6547785526096654429295540e+00
0,1.1808360808544865472313745e-01
0,2.1917674343169384343354977e+00
0,2.9923606317413797839321887e+00
0,5.6618670690379548915416308e+00
0,3.9858858865820465666729433e+00
0,5.9513852432014830995399279e+00
0,1.0989922856469027667714045e+00
0,3.5475279599625637594328964e+00
0,2.5704349070160446011357180e+00
0,4.2480594634214469129673830e-01
0,1.6570225275085834759636327e+00
0,2.9723170666678506712798935e+00
0,3.9223749781706533923397728e+00
0,1.1154785239437785548943793e+00
0,1.8616425105919309768154335e+00
0,1.5598259668956502288494903e+00
0,1.2166539475967699246439224e+00
0,1.1381968873513654827434038e+00
0,1.8153912888197034636306171e+00
0,1.8665171271653773210630334e+00
0,3.9326686784560997978132946e+00
0,2.3397663289202883518669296e+00
0,2.4601733562907703856126318e+00
0,6.4295077266055333797822868e-01
0,7.7721665995080502220559993e-01
0,1.3599198888110721750166476e+00
0,2.5142505391878415821338422e+00
0,1.4300528807420902488445336e+00
0,4.0454712548995397369822058e+00
0,6.9431593345553743734654972e-01
0,4.7520270642537250083137224e+00
0,1.4648566487957381809792423e-01
0,2.3680077943233543424916832e-01
0,3.7465407015955340952473307e+00
0,4.7228726168113492889233385e+00
0,2.3899035124469754087783713e+00
0,5.8656106014134241632973499e+00
0,4.7568481806501088371419428e+00
0,4.6951787644036557800575338e-01
0,1.4555093177856164299299735e+00
0,7.3071072600250130957277861e-01
0,8.0210789260158998903449401e-01
0,6.6499111415975920014176381e-01
0,5.2622609758789442579995921e+00
0,5.4709245239150909867476003e+00
0,3.7953785465445655233907019e-01
0,1.3035671973383355926046079e+00
0,5.7095765074247371018145714e+00
0,4.3525088182493023580832414e+00
0,1.3213072615424059641497934e+00
0,2.7807348022010698329609113e+00
0,1.5339170175993879219333849e+00
0,1.7190028065407423341071080e+00
0,7.8261387065884202574039819e-01
0,7.5159330797162526849319875e-01
0,5.2567975716446935230408144e-01
0,5.3424453732503662806152533e-01
0,5.9035533143212113316167233e+00
0,3.5025190741145610928697351e+00
0,2.2370651553960674284837751e+00
0,4.3233514735818925345256503e+00
0,5.5292728728676960869847790e+00
0,1.7930927015792474943367552e+00
0,1.2457410440887259905906603e+00
0,8.0961750977731639089540749e-01
0,1.0612281042029081401523172e+00
0,2.6488356860708039963725469e-01
0,3.4880946639230714367840847e-01
0,5.5388127402566684764906313e+00
0,3.7945608969783295449929028e+00
0,4.8000876434933026359885844e+00
0,3.8888749878628816603054474e+00
0,3.1441738012291535753206517e+00
0,3.4424985968157884030915739e+00
0,3.6167801767877740815038123e+00
0,3.8101410772793116166212712e+00
0,5.9292453118168433334744805e+00
0,2.9870916307576238502008437e+00
0,5.8124072589067736771539785e+00
0,4.2402198816116403179421468e+00
0,3.8256014321089777396878162e+00
0,3.0117583463849335601025814e+00
0,1.0783989796482544853972740e+00
0,4.5387397196462071491396273e+00
0,4.0674378335596790279282686e+00
0,2.4938218279295512047610828e+00
0,2.3768963442577409339584449e-01
0,1.2291572451677639232769934e+00
0,2.0915660912997067200080892e+00
0,2.5658433522840842222478841e+00
0,3.0908606225601862327323488e+00
0,2.9392845143722734491120718e+00
0,2.4623353386791162478175465e+00
0,4.8301454226568649730211291e+00
0,3.9632406698020621327316348e+00
0,4.1585201718506166201905216e+00
0,2.7236196571733228832812301e-01
0,1.9711772757408154710390136e+00
0,6.2131734247602876664018368e+00
0,3.6487473502398568570015414e+00
0,6.3978862528704716350347326e-01
0,9.3528580606144129383494601e-01
0,1.3122109438581652796074195e+00
0,5.5124504412460251234762154e-01
