Species Id,T_x
0,3.2975354323055934340977458e-04
0,1.0414515378553181046417109e-03
0,1.0397914211848389379883040e-03
0,1.0062642318541194404180050e-03
0,9.1711150993290695750820296e-04
0,7.8144485298841791665741541e-04
0,6.2998985979322214869002838e-04
0,4.7337192031427535428636522e-04
0,3.1413266010000596723666932e-04
0,1.5915447031581035955936920e-04
0,3.2813049846279202913928996e-05
0,2.7029081019806174598484744e-05
0,2.8570099746325419709513938e-04
0,8.7261026916417945217818719e-04
0,1.5987983252329766338528660e-03
0,2.0681511199456968815024727e-03
0,2.1325718368509390121534608e-03
0,1.8813043356640387574613138e-03
0,1.4817957789369728092976342e-03
0,1.0718336393814563173992882e-03
0,7.0320558856073610461134837e-04
0,4.0804125793819867812697866e-04
0,1.9569113295119438611716078e-04
0,6.3186285538496602689172155e-05
0,5.1350162118821903261775032e-06
0,1.7637579092445925877438023e-05
0,9.4761121079960642624336054e-05
0,2.1467716127383852675082621e-04
0,3.8381569269654500480698500e-04
0,5.8343916066145782000490483e-04
0,7.7885360208643727129851353e-04
0,2.7193294846053744223679516e-04
1,7.1555285446099647396478449e-04
1,1.8674523083596658405702851e-03
1,1.2461553691725016888847133e-03
1,5.4813091275348084160934370e-04
1,1.1632186509539546549144712e-04
1,6.5561532654459198519373946e-06
1,8.7589904033308016179787403e-05
1,2.3532870859223120390754658e-04
1,3.9295129827904078882033767e-04
1,5.5187646839930889521019797e-04
1,7.0575009752254407383031953e-04
1,8.5440837423776823909837841e-04
1,9.7067699641298170725595140e-04
1,1.0275850884965732640746738e-03
1,1.0440705955903225275738233e-03
1,1.0120318577179782809638553e-03
1,8.6946930893249654761362200e-04
1,6.8030021835413750745658046e-04
1,4.8809961374064102191880354e-04
1,2.9168523721091028054475114e-04
1,1.4718949299039890015773635e-04
1,4.9549194148777644247649832e-05
1,2.6907591234442092601418517e-06
1,2.5081992521262083033293383e-05
1,1.2008011375685154285136713e-04
1,2.9169184897676276105316084e-04
1,5.4511084516475536397572821e-04
1,8.7926683982865298534054022e-04
1,1.2740928559707822079194450e-03
1,1.6877979525259994772468097e-03
1,2.0379352963646830618205108e-03
1,7.1922745635125053410147133e-04
