Species Id,T_x
0,5.1708689723075528019944095e-07
0,1.6048184374812952788938794e-06
0,1.6671151543018857309815407e-06
0,1.5969606805083614405797818e-06
0,1.4047626179226606057688208e-06
0,1.1232750468404699370494632e-06
0,7.9377572639533395256557138e-07
0,4.6952380799287204022270949e-07
0,2.0491015856420694275268003e-07
0,4.2542390704494179978522775e-08
0,1.0670432133681071711743582e-08
0,1.1631487411466496681451943e-07
0,3.4390442445029093006931241e-07
0,6.5805536428441563339536684e-07
0,1.0062395375440530247146409e-06
0,1.3309038097847868114550303e-06
0,1.5784634281516685630909324e-06
0,1.7083649471653715672911670e-06
0,1.6988343923761171151324374e-06
0,1.5485690255545607946419855e-06
0,1.2846511965020552243732337e-06
0,9.5415971639062585772845561e-07
0,6.1000237666962149863617449e-07
0,3.0823885351984278850836683e-07
0,9.6308897642193013436928944e-08
0,7.6518729366986690619768902e-09
0,5.4565106477532333717127505e-08
0,2.2798121321193056848348969e-07
0,5.0007632279209646893329728e-07
0,8.2319901942980765312691529e-07
0,1.1476726369019883248502861e-06
0,4.2552368270019431033761954e-07
1,4.4176097968564740003986858e-07
1,1.1720249561478043513171364e-06
1,8.3157192885340796221344244e-07
1,4.9414594296689484376861696e-07
1,2.1685426606748240308318685e-07
1,4.6728229248811233322929103e-08
1,9.1672621287001458635584382e-09
1,1.0869585682580193717012234e-07
1,3.2744369364040744076047766e-07
1,6.2728768636834977136349390e-07
1,9.6058036209313516928679031e-07
1,1.2729296310749710337631175e-06
1,1.5144353622863744389365854e-06
1,1.6486025630606448709220176e-06
1,1.6523258838966189120946951e-06
1,1.5280769347800589034227494e-06
1,1.2955694923641604383119860e-06
1,9.8848362516026428686703210e-07
1,6.5699947521054371886895136e-07
1,3.5390852012933060399086857e-07
1,1.2696208211988361896974109e-07
1,1.4235563386870194244772364e-08
1,3.5289848303199756263868981e-08
1,1.8799976273732584826513703e-07
1,4.5033619112637858097368602e-07
1,7.8125773081943229278787744e-07
1,1.1248858758104772568447993e-06
1,1.4276607541391349512761681e-06
1,1.6406939756415553300429892e-06
1,1.7217285943658940209770357e-06
1,1.6598990718518289527673350e-06
1,5.3694977596961569263757201e-07
