Species Id,T_x
0,3.7716565571697831916282359e-06
0,1.1628726798167644075404289e-05
0,1.1958143796089649080107570e-05
0,1.1373566627788481796083354e-05
0,9.9445226049945052769572090e-06
0,7.8834638755894709006297530e-06
0,5.5043911101291660863447062e-06
0,3.1909935524967013202124553e-06
0,1.3207610546746264726614096e-06
0,2.2688182746624008832472114e-07
0,1.1932164194991887230405453e-07
0,1.0500368965765460129081115e-06
0,2.8874421147802106954428306e-06
0,5.3396954051411089632421525e-06
0,7.9848384081392333362376529e-06
0,1.0362334533805046045970913e-05
0,1.2063882254427635618400719e-05
0,1.2801300262094049501595747e-05
0,1.2441980123056063046375723e-05
0,1.1067776868254363664668093e-05
0,8.9257937441291449078136985e-06
0,6.3980898309125055749431964e-06
0,3.8982157931531276893240973e-06
0,1.8169310369586797817046623e-06
0,4.6986596440757503093219212e-07
0,4.4506523984888545005197979e-08
0,5.7978012835840913593394783e-07
0,1.9676930801659982497755878e-06
0,3.9795022204573780771398074e-06
0,6.2984473420787915492503883e-06
0,8.5687698281932271116879962e-06
0,3.1069968592385691620269030e-06
1,3.5650682542571805963842364e-06
1,9.2164314334858229066415117e-06
1,6.6723292132605545702930816e-06
1,4.0640135907832944915391710e-06
1,1.8704305136029582416247203e-06
1,4.5906854744386619271220439e-07
1,4.2365996998033480025704002e-08
1,6.6061591834424351831161863e-07
1,2.1755655817611878020143099e-06
1,4.3131796050533292770931895e-06
1,6.7075312859770876887724467e-06
1,8.9749226892792285069366809e-06
1,1.0754865719892290753124248e-05
1,1.1782315015717355360545457e-05
1,1.1910206918120857854997627e-05
1,1.1131736638491130666171747e-05
1,9.5720346341836427372495172e-06
1,7.4611407855169455328103387e-06
1,5.1207456007862830874889648e-06
1,2.9112811525007271301406734e-06
1,1.1780135257831455139558010e-06
1,1.9582587683383577312406316e-07
1,1.3648196148640510476956794e-07
1,1.0371735078413439880783663e-06
1,2.7838182926345439333081812e-06
1,5.1208221457454664211645518e-06
1,7.6835061382176402764191889e-06
1,1.0073892149932046698895295e-05
1,1.1871894198194555124117704e-05
1,1.2751502127190315172928711e-05
1,1.2560120475512841263857067e-05
1,4.0335407119870157136975325e-06
