Species Id,T_x
0,4.7638520432624165135138128e-01
0,5.8225857607987552277961640e-01
0,7.6064663729987080920125209e-01
0,8.5698555351621563680453164e-01
0,1.0129077522303957525906526e+00
0,6.6554658247575237961513039e-01
0,6.6490500323568735296930754e-01
0,7.6278757992586376790455915e-01
0,6.2119486914353494455554028e-01
0,7.2837697247575539094555097e-01
0,8.5187441446456368954187610e-01
0,8.7598115164538770116564592e-01
0,8.5573107908390189102476597e-01
0,8.6750563476424447095780579e-01
0,1.4390723977370467601133441e+00
0,1.6539728287884112312156049e+00
0,1.0859745464262082759177019e+00
0,1.2120805896740358686969330e+00
0,1.3338869238963253494034689e+00
0,1.2027475697143166222247146e+00
0,9.8563596779106210643561781e-01
0,9.1109957327514701219683957e-01
0,8.8592486181629015451477471e-01
0,8.7080012420548924545471436e-01
0,8.4769042129415639319489628e-01
0,8.0060032489788202081371082e-01
0,9.7445853464878073868504771e-01
0,9.1578063903853068605798171e-01
0,1.0450590125655390139058909e+00
0,1.0976345803732903139149357e+00
0,1.0111741248580525809330766e+00
0,6.4340974795475824876689330e-01
1,6.4860125360673770433805885e-01
1,7.2510723137224375456355574e-01
1,7.2030683336476564182504490e-01
1,1.0328695235094480509019377e+00
1,1.1460049554928826154309718e+00
1,8.7975931745942737016719093e-01
1,8.1509918194139285851917975e-01
1,9.1925525762266180329618237e-01
1,1.0865846276582518115105813e+00
1,7.5434869190077358247492612e-01
1,9.6169309038730255156934845e-01
1,9.4825308884366288353362506e-01
1,1.3021556888493002190898551e+00
1,1.1533233783278555861784298e+00
1,8.3720271898510345565114221e-01
1,7.1907167638241076268457164e-01
1,4.9770172069036183737367196e-01
1,7.0444735455970963755589764e-01
1,8.2680757269631532935250107e-01
1,9.5537345556245589772714766e-01
1,8.0251203539270843378972131e-01
1,9.3849926627738911033560498e-01
1,1.0987177069628568659709345e+00
1,1.2007964676961284666845131e+00
1,9.9149446509436911512125334e-01
1,9.5326427724209017444678693e-01
1,9.9512722946109621879884344e-01
1,7.3879722362792155099242564e-01
1,8.0726004896526359910780002e-01
1,6.9108543933168808948153128e-01
1,9.8682596301622271806053277e-01
1,9.4556739097012154626753500e-01
