Species Id,T_x
0,3.9889919006650031985117266e-01
0,3.4815033566957409583153549e-01
0,3.1012347073612123171670873e-01
0,1.9880189472970755115710517e-01
0,7.7695742852135429856730298e-02
0,7.3653884918830875294659677e-02
0,5.4101250826953224681847843e-02
0,8.3229753973932202315566542e-02
0,1.7637411704919542243530373e-01
0,3.3224480707028458681406846e-01
0,3.4710172994197258100612657e-01
0,4.9337001266076413452665861e-01
0,5.7397230261230092196456098e-01
0,6.4613932038065624574585399e-01
0,5.4854052761786920022757386e-01
0,7.0027588806543894506262404e-01
0,6.9747183728343919995040778e-01
0,1.2450589048350475529503001e+00
0,1.4534298145370512234109128e+00
0,1.5004866333326589700192244e+00
0,1.6128560150962272246033535e+00
0,1.6114777903835120209663501e+00
0,1.6902267772825103619993570e+00
0,1.7041875399884645059245258e+00
0,1.2040544848599039617909057e+00
0,1.2910358348306516518277931e+00
0,1.3046648243960849988809514e+00
0,1.2691877163975235909276762e+00
0,1.0438515670662997791851012e+00
0,9.2534718650506597725780011e-01
0,7.2326209010862796411345244e-01
0,4.5565783366022449829557672e-01
1,8.9368319093517234463774912e-01
1,9.8838936566375446002297167e-01
1,6.2485951873787481947175593e-01
1,4.2908296331839768100735455e-01
1,4.1641058391979440811425661e-01
1,3.1353928497067373726281403e-01
1,3.3121398924901235272244548e-01
1,2.2511914068773655750455021e-01
1,1.3837451183221730066641442e-01
1,1.0470195029571517653099733e-01
1,7.7149509587020756451458681e-02
1,9.4073358550390590027134863e-02
1,1.7860898144578618573774520e-01
1,2.1502879423704657213534119e-01
1,3.1765460025682290545745445e-01
1,4.5712104717255852559532059e-01
1,5.1793956411352082280785680e-01
1,8.8307048999996207161444772e-01
1,1.1978815682915187057488993e+00
1,1.2465327221919662026294873e+00
1,1.3538734997349148869716373e+00
1,1.4318740407378567347507214e+00
1,1.4824669513642878548864701e+00
1,1.4422692362030979928988472e+00
1,1.6608337519846678720369937e+00
1,1.6951529263348636966668437e+00
1,1.7151932285378654885477090e+00
1,1.4513038300609357733605975e+00
1,1.3142001222946242400269057e+00
1,1.2300528499724969755391157e+00
1,1.1151518979017036592438217e+00
1,9.9609479413970258843136207e-01
