Species Id,T_x
0,1.1318718556205942249448526e+00
0,1.0392953922164200886157914e+00
0,8.5371486194161416705128431e-01
0,6.7281126385593770233839450e-01
0,6.7046177237854609476386258e-01
0,9.5728029965218974783880412e-01
0,8.9538625245483516312816619e-01
0,8.6713065590197646592685032e-01
0,9.1496575741886165822336352e-01
0,9.7895772776697631556430679e-01
0,7.6420732591220785767660573e-01
0,5.3861235135620566527592246e-01
0,5.0808895547943067061424927e-01
0,5.8479418078114919765653212e-01
0,4.7643904673615633527106183e-01
0,5.4291405279017124207996403e-01
0,7.9969412729499411707223544e-01
0,9.0392269534772973216263381e-01
0,9.1082262424386595256464716e-01
0,9.5649582057425819314744331e-01
0,1.0529312396134411500270289e+00
0,1.2434543670947055815645399e+00
0,1.3003895199597041987260582e+00
0,1.1902826303342093350323694e+00
0,9.3444111246328909192726542e-01
0,8.1824266226577491156746191e-01
0,1.3783349013470471700060216e+00
0,1.4303385004449460371489522e+00
0,1.4433654229403365398809456e+00
0,1.2928996460766342124770745e+00
0,1.0617585225471950494124940e+00
0,1.2055182405140019152867126e+00
1,9.3919839838311303115148121e-01
1,9.8477857340727759094534122e-01
1,8.8028292089621984484182349e-01
1,6.9289282281190045509333686e-01
1,7.4888860532052869967145625e-01
1,8.2876730676636733985418459e-01
1,6.4360597137307951065565703e-01
1,5.3327084209188746477536824e-01
1,5.3375644885408690676342758e-01
1,6.0040481946800206003445055e-01
1,5.1895657330807853924170558e-01
1,5.3715679961369477979360454e-01
1,6.4241827971226839189000657e-01
1,7.6125111181061611009823764e-01
1,7.6051703647275825659335169e-01
1,8.1099731670514474402011729e-01
1,5.5906096286147199947436093e-01
1,1.0062263505526505280585070e+00
1,1.1316428590418217137170132e+00
1,1.4046945946148996497981898e+00
1,1.2406521470628137926439649e+00
1,1.1073952814110294973204418e+00
1,1.0802946960766968143019540e+00
1,9.8214007744486031548092342e-01
1,9.8526617776329261655376968e-01
1,1.2343531683592723346976072e+00
1,1.4732676773238324585690862e+00
1,1.6336031853909962485715823e+00
1,1.0339899175303177703000301e+00
1,1.1893323622595524113876309e+00
1,1.1416948387974361622809738e+00
1,1.1966548895389936824074084e+00
