Species Id,V_var_x
0,2.3298754396578677527962498e-03
0,6.3933856637431660252524068e-03
0,3.6087853225818125948998194e-03
0,2.1457137791567109860735307e-03
0,1.1594055972048626732689991e-03
0,8.1663019723394623602952258e-04
0,7.5264323593285061865520991e-04
0,6.8391261508941587725363132e-04
0,6.7712844247345006353649977e-04
0,7.5931154987197426939338207e-04
0,9.3040610567792772153672409e-04
0,1.2549711588456845604011569e-03
0,1.8410205977205142124919490e-03
0,1.1342717050571334003183921e-03
0,2.1558971586678361831435069e-02
0,5.8799923860950252529899984e-02
0,2.2218151761769194818540996e-02
0,1.0661984896388370866460171e-02
0,5.8310685008881313340367569e-03
0,3.3255727891098249560108968e-03
0,1.7096283305994479199962921e-03
0,8.4695399834037034085543194e-04
0,2.9631755437647413174706568e-04
0,3.5980207761436423081168046e-05
0,2.6463412372511718181422938e-05
0,2.1305715035837164425883139e-04
0,6.7960078194308356450831221e-04
0,1.1718403265777864626084881e-03
0,2.3634826759419322837751931e-03
0,3.6067000119521788401022455e-03
0,5.4948490307521035552751343e-03
0,1.9806107996397192931581355e-03
1,1.6604545767659482924383241e-02
1,4.7080778797833386373206110e-02
1,4.0942045780901596685463772e-03
1,1.9312793809186956130174995e-03
1,1.5803111216225740331964289e-03
1,1.0753399452154807809656223e-03
1,8.3359987302595705410679372e-04
1,7.0583568065078609345130989e-04
1,6.6623304844062002094684516e-04
1,7.1503035652585263982905506e-04
1,7.8644554720525071227210656e-04
1,9.0792265553190601868466247e-04
1,1.6048847029861181001653136e-03
1,2.6435830441804818863316129e-03
1,5.1180587409156838227253239e-03
1,6.3976775725837035924126184e-03
1,6.9620506771672181420274050e-03
1,4.3824950728936834173921078e-03
1,2.7258419003006149894385857e-03
1,1.9308353442578189695932878e-03
1,8.2939827452428792169125682e-04
1,4.1139305536274175818106658e-04
1,9.2245699492747736504896783e-05
1,9.6154607253069505846867354e-06
1,1.2578542229935293309678324e-04
1,5.1464146327972093604430359e-04
1,1.2044384134094030143480314e-03
1,2.4075033064538818756983307e-03
1,4.4242571085099128766482401e-03
1,7.8157933996753584798833359e-03
1,1.5001941674141839114242636e-02
1,6.8705973745184466261459733e-03
