Species Id,V_var_x
0,1.4157634011830838279347167e-04
0,4.4457745410451975694859916e-04
0,4.6031174574356729933821697e-04
0,4.4717999189231440008984730e-04
0,4.0803719826087059448227468e-04
0,3.4675635304349703650489412e-04
0,2.6864823459533981094699007e-04
0,1.8232108589255076715532344e-04
0,9.8760787113287765832080056e-05
0,3.1791653920638796439017415e-05
0,2.0815960326642861288513019e-06
0,3.2962771269842900713487044e-05
0,1.3826216814865249825697302e-04
0,3.0695504777133997536403553e-04
0,4.9273125158361998077172217e-04
0,6.4055011008740071407063787e-04
0,7.0616957825650581055676458e-04
0,6.8493337715672141831346753e-04
0,5.9806097867577353612011937e-04
0,4.7204391013451951417123631e-04
0,3.3559404609468068388447581e-04
0,2.1015194392953561028022924e-04
0,1.0901607789033117604758638e-04
0,3.9911375561312339348227912e-05
0,5.7229561097624584171256190e-06
0,4.5817655484126624631895097e-06
0,3.4132304087423418468595637e-05
0,9.0766874034252896519259224e-05
0,1.6566528591428842710243929e-04
0,2.4949019200074922788731846e-04
0,3.3310195158873731353238457e-04
0,1.1823868699827189815681344e-04
1,2.1930545752074661843868120e-04
1,5.7061357681024104347711212e-04
1,4.0170801210853116121335393e-04
1,2.1803358295876645563463048e-04
1,7.6458237036321444082646870e-05
1,8.9352016529747478097321298e-06
1,1.0646923221956046862234427e-05
1,6.1976831461955646067341075e-05
1,1.3931883196545579339971355e-04
1,2.2569091350467664980686266e-04
1,3.0934135677750655051346240e-04
1,3.7996121762891912074580625e-04
1,4.3065745375558972269508518e-04
1,4.5718433467580201065225132e-04
1,4.5590497327983761470526769e-04
1,4.2608834043954756879563073e-04
1,3.6941413855584321473957132e-04
1,2.9209886796018286019005483e-04
1,2.0728070148005720875483693e-04
1,1.2680725234778822147624355e-04
1,5.9508390342029993504494034e-05
1,1.5501816298668907851245405e-05
1,1.2058251208427838310039640e-06
1,1.8588158745310346016410552e-05
1,7.0220560590103121433210032e-05
1,1.5604688883728856391847062e-04
1,2.7067725341041069461733848e-04
1,4.0374735977771270337144394e-04
1,5.3821691102891853521195120e-04
1,6.4831724254495854374569230e-04
1,7.0520372648121085884520554e-04
1,2.4278764813144467762592860e-04
