Species Id,V_Avg_x
0,-7.2527039755660022146699362e-02
0,7.2585134035174289635072853e-02
0,1.8059024109530247281796278e-01
0,1.0671877933281179173796716e-01
0,-1.2407071344816633998164868e-02
0,-2.6182990189678390091643223e-01
0,-2.3980658792209302854203656e-01
0,-7.7616202827070698844202923e-02
0,-2.4030909677734212104294187e-02
0,1.5430874745712771720085321e-02
0,1.8763027678472152248723148e-01
0,-4.4630759210923215407618159e-02
0,1.9178712229049649229395413e-01
0,1.5107949394379471819149785e-01
0,2.5388644039316882183854318e-01
0,2.0703797453450342724856625e-01
0,1.6021467573619041502297478e-01
0,8.4825463406503182062223800e-02
0,2.1418194218388669769481680e-01
0,2.6877509393160720074789083e-01
0,9.9635269699891296224514292e-02
0,-6.1352625673516250626171598e-02
0,-3.0274191510442770292055314e-02
0,1.8561650949266134125181793e-01
0,7.8693232337727500591562091e-02
0,3.4347615652828894505788071e-01
0,3.1399080868115614162405791e-01
0,1.8441892472725354701346134e-01
0,3.4517265691490328638479923e-01
0,3.7894008326972028477541699e-01
0,4.4355075728121545752813404e-01
0,3.6993654985481433383753824e-01
1,-1.6344214849129255762161250e-02
1,-3.0035203398531123974990464e-01
1,-2.1595604125484629820519444e-01
1,-3.6701144790851386590091465e-01
1,-3.1957590445769301634726389e-01
1,-1.2465119174459222961548477e-01
1,-1.9449455928201717092029810e-01
1,-3.0317451193052480373779645e-01
1,-2.4014736889177257239680330e-01
1,-2.6278526725399453667364469e-01
1,-2.6038997841543209954551230e-01
1,-1.4259222280359101775459862e-01
1,-5.1514563650999399546659419e-02
1,-7.2923543255591125045178558e-02
1,1.3499039331790566031976653e-01
1,-4.6510384189631839846335026e-02
1,-2.0378849209547241633222470e-02
1,8.7663111902211737769263777e-02
1,1.6153616776581972147575073e-01
1,2.1193186801855753986778552e-01
1,3.6104637881765427875890850e-01
1,1.2982079939777960153612923e-01
1,-6.9914553459545517033468798e-02
1,-1.6085546835270200793921447e-01
1,1.5062578237699678074257292e-01
1,2.8297391868979471230005629e-01
1,7.3901239789016151537914823e-02
1,2.0048551568852390758479487e-01
1,-2.6886459778835869460777985e-01
1,5.3369870418914333587423471e-02
1,1.1988485630793274672178939e-01
1,1.4572582812908049798572563e-01
