Species Id,V_Avg_x
0,3.5693508911744464828785794e-01
0,3.8072689312524543581162106e-01
0,4.6053197729436684548787184e-01
0,3.5027132997777393752514286e-01
0,6.1323667248402401186435640e-02
0,1.1762976730767905897412362e-01
0,1.3236401605971226391744722e-01
0,1.3483556822783837603196844e-01
0,3.1654082824005946861234406e-01
0,3.6663175580583512447319094e-01
0,2.8588878004250228848093229e-01
0,2.1401837389288783097818225e-01
0,3.3231999771791470577042560e-01
0,3.4150059456734116469789342e-01
0,5.4979331323765023853411549e-01
0,3.0625322697149887085643627e-01
0,8.9738448420900160384938715e-02
0,-4.2523244173297386483412197e-01
0,-5.1891841947140382451664209e-01
0,-5.0208804847345489541510233e-01
0,-2.9097921831999773445431856e-01
0,-3.9578113765399526580157641e-02
0,-2.5818998343970805953162539e-01
0,-4.2206427191771733742342576e-01
0,-1.6734327231467738261727618e-01
0,-2.8486528044702219553130362e-01
0,-2.3680704131206048446145473e-01
0,-3.7307964925544873091567410e-01
0,4.3137546149051703148202819e-01
0,4.0259394160773925852581101e-01
0,3.1062612093793179335321497e-01
0,3.0193756661650850148248537e-01
1,-1.1696993813602020451103414e-01
1,-1.7730924987087212651992729e-01
1,-2.1176223724637763257128142e-01
1,-2.9341561850527786425857357e-01
1,-4.3765953558243708698682894e-01
1,-3.2939115655148049066625049e-01
1,-2.1665343880814602606221797e-01
1,-2.5231152353278585298568260e-01
1,-2.3645919773217818904420540e-01
1,-2.3470553244412933890927775e-01
1,-2.1868025002900179365461497e-02
1,-2.1576964075822394062420528e-01
1,-2.8018279483364177950832641e-01
1,-2.3084730239412337704507650e-01
1,-2.4607505586829461763365146e-01
1,-4.2707186333453384108338469e-01
1,-3.3926065110435671412503211e-01
1,-3.3579845511716105432853396e-01
1,-2.1933683612813734131741228e-01
1,4.9810633447764950110236981e-02
1,1.6229378094783669661538283e-01
1,6.6883073541280119167495855e-02
1,4.9253334687269290093070140e-01
1,6.3978855709161741582846616e-01
1,1.8512298388090070444533808e-01
1,2.5973770191657051531475275e-02
1,1.1396565817204240902982271e-02
1,2.8907035246833223673945668e-01
1,3.7412425628953710488033835e-01
1,5.3562645118865226390170164e-01
1,3.7851783505771191551403376e-01
1,-1.0359977715468168812940064e-01
