Species Id,V_var_x
0,1.4017668459162738424101779e-06
0,4.3673623875038939011407509e-06
0,4.4812430576753963212387893e-06
0,4.2482716019313163791212493e-06
0,3.6964071737592040603232347e-06
0,2.9131665948283923581576052e-06
0,2.0209022620670413314283680e-06
0,1.1611385902798721800951044e-06
0,4.7586625174828769077470464e-07
0,8.0536016921972115135317210e-08
0,4.7043338150986648666187112e-08
0,3.8945906333347632583029903e-07
0,1.0568365485379288175934055e-06
0,1.9456898335924912125190125e-06
0,2.9032505663932429293351729e-06
0,3.7674458545333646014867304e-06
0,4.3977113752818693988158941e-06
0,4.6820266123218062359178510e-06
0,4.5791124234359811801626725e-06
0,4.1040363903374470029767652e-06
0,3.3392766164618403018063322e-06
0,2.4187949234041638219363819e-06
0,1.4920840423645625591930666e-06
0,7.0746348649531564778386973e-07
0,1.9099170879284779312743726e-07
0,1.6621604128165462873957276e-08
0,2.0563404904071443125214316e-07
0,7.2129656919388576393533524e-07
0,1.4787639516383391964096054e-06
0,2.3560137096338216712793426e-06
0,3.2142558458714652947266731e-06
0,1.1854149856807696466830899e-06
1,1.2763764141805971255691672e-06
1,3.3520413185429231392757285e-06
1,2.4259877711494593287126515e-06
1,1.4834476291262887354962478e-06
1,6.8861644125146628291550066e-07
1,1.7280402000580390598633018e-07
1,1.6049664083147388061751509e-08
1,2.3559501322894581297233624e-07
1,7.8769057647951996883818777e-07
1,1.5781250169999769052977222e-06
1,2.4713842858825310637080602e-06
1,3.3254919600957979681252023e-06
1,4.0077934238661508506472789e-06
1,4.4079359160494523492022576e-06
1,4.4677249959131673214332570e-06
1,4.1843961337391738522181218e-06
1,3.5959804092656853751863288e-06
1,2.7952414971397612954021397e-06
1,1.9107645782782723744566093e-06
1,1.0756492339789868074991994e-06
1,4.2650546399952252045855165e-07
1,6.6989572508418796815548050e-08
1,5.8322197733980178762079491e-08
1,4.1105985637606074795954254e-07
1,1.0736657837367738817658646e-06
1,1.9465518153210038243268280e-06
1,2.8903564801436118869115525e-06
1,3.7494245059803418544295238e-06
1,4.3843271148861095336864840e-06
1,4.6813935408681973856506384e-06
1,4.5853712866610376317540870e-06
1,1.4707251481641235556772126e-06
