Species Id,V_var_x
0,8.9775043065480997217520098e-01
0,8.0653673135802961269291700e-01
0,8.2437742665544821996093106e-01
0,6.9924884513680374276134444e-01
0,4.9998318092830312808771964e-01
0,4.9386497295484621528061098e-01
0,4.2017556653997328863781036e-01
0,5.7094133169919814019266369e-01
0,6.1070298311726012308042755e-01
0,5.9387185478275794636715545e-01
0,7.6956032698124299251674074e-01
0,4.7025669912566447905533096e-01
0,7.2555446196474537856602183e-01
0,5.5389052115474690651808487e-01
0,4.6059774397367436726824508e-01
0,7.5655086836312412934546501e-01
0,1.0818963169005706426162305e+00
0,1.1055780328420623526142208e+00
0,7.0000754855797664433225691e-01
0,1.1313105519701540657706573e+00
0,1.7442788229435788327492673e+00
0,2.1326124279686746731954372e+00
0,2.0981905338075974576383942e+00
0,1.6781758392512458044620871e+00
0,1.7021380691497722814631288e+00
0,1.5773456481156542530186471e+00
0,1.5009950356129357906809219e+00
0,1.4060451794325263819018801e+00
0,1.1428241303685382490584743e+00
0,9.4161421418920543402464318e-01
0,8.7779428461546027406825488e-01
0,8.4754741333187588736564066e-01
1,1.0824702574126212617500187e+00
1,1.1658757963429060566795670e+00
1,1.6782139071385593354079901e+00
1,8.7358415383289300670810462e-01
1,4.6248320930814018625554240e-01
1,6.8711145933179063050033619e-01
1,5.4031095723317301704469173e-01
1,4.5516746618837361504361638e-01
1,3.6345224615015703228948496e-01
1,4.7340735705919689824128227e-01
1,3.4510358215983061302978285e-01
1,3.4143613657173871311911739e-01
1,2.9735584691029703918729865e-01
1,3.3979595424086800337093450e-01
1,6.0177478797430805634860462e-01
1,8.5688899876597002247535784e-01
1,5.2209014748927506932574261e-01
1,7.5424480964575080221834469e-01
1,5.3568698136503667406316254e-01
1,8.9805583088564389093733098e-01
1,1.4578939692009185158383389e+00
1,1.6648454484185983837107869e+00
1,1.9260481508179529974711386e+00
1,2.0503017404925976130414256e+00
1,1.8425751587729659597414411e+00
1,1.6397103092522904432826181e+00
1,1.3677893932959406253502266e+00
1,8.3451368172355255836691867e-01
1,9.9204695435850087648077533e-01
1,1.0841237095280389368667784e+00
1,1.3552537452948762997095855e+00
1,1.6277207352498765935422398e+00
