Species Id,V_Avg_x
0,-6.8121500784961364072245260e-01
0,-6.2644425322126595645499947e-01
0,-6.5507642151280731646068034e-01
0,-2.6615264578042219234532695e-01
0,-2.0764351627719646042891100e-01
0,-1.8575630137739376768202249e-01
0,-4.6027098785687964310753273e-01
0,-4.2969843219093595276802944e-01
0,-1.7333501999724976183614444e-01
0,-1.2552352111162687342549305e-01
0,2.2292853573565704627945649e-01
0,2.5140858907161351548653627e-02
0,1.7036489466697976591369468e-01
0,-1.5660916898938136154750822e-02
0,2.5508651592548214903644066e-01
0,1.5415753377559515691075376e-01
0,1.2065341812393129417024795e-01
0,5.6202440438070133676973228e-01
0,8.4452037384625022742312694e-01
0,7.7238398564030108506273109e-01
0,7.1605560640072463129968128e-01
0,9.2848565758157297622688020e-01
0,9.5093579061948219077748945e-01
0,8.1872331128338882155759393e-01
0,4.3400760660167592153158012e-01
0,5.7129641034941870680885501e-02
0,8.3136524203471107857810196e-03
0,2.7474414167845856438177066e-01
0,2.7100508531936583905830318e-02
0,-6.0344515628773420790054161e-01
0,-8.9335263967454936473444604e-01
0,-5.3662897664481445936246473e-01
1,1.0739350509514961062862426e-01
1,-1.9842139736756753132240760e-01
1,-4.6989431096362788142783984e-01
1,-2.4217132607266295130088452e-02
1,3.4273046623921377129562416e-01
1,-1.9307592170643467222035383e-01
1,-3.7717966767362914870531654e-01
1,-1.1764359733075459291118392e-01
1,1.5983388859704089624003132e-01
1,2.6991847401134716477599795e-01
1,3.0272400036673985379565011e-01
1,5.3317965277822487735193135e-01
1,6.2467785679293463818595455e-01
1,6.1275563870884752759593539e-01
1,5.7032242834340773907086941e-01
1,4.5296562449178884302014580e-01
1,5.3915801436867749618642165e-01
1,4.2233901883883184780188458e-01
1,-2.0197125104873156486995356e-01
1,-2.1586820372930373701514384e-01
1,-8.0839088147573720521954499e-02
1,-4.5935626490035702529368677e-01
1,-3.8669151894817921366609426e-01
1,-5.2177069811722320835656319e-02
1,-3.4629438277991231309727027e-01
1,-6.1622472115348336796358808e-01
1,-4.3667687769491314586645103e-01
1,-2.2913259596267995799045991e-01
1,-3.3535534569473635091441110e-01
1,-1.2425360838923529827049208e-01
1,-2.0806111111317857065294845e-01
1,-2.8186769004500467072915626e-01
