Species Id,V_var_x
0,1.6760928298571786676518514e+00
0,1.1332817241302057809093640e+00
0,9.6607097784284101660290389e-01
0,9.5820489021399612994400741e-01
0,8.6828203530518788255676554e-01
0,7.6578787281669535857986375e-01
0,6.0499338447308548261105443e-01
0,5.4352502466038898898403886e-01
0,5.3653965870453856901178824e-01
0,4.6071582791499043896266130e-01
0,4.9508644573480031780832178e-01
0,3.3169480253593897067787566e-01
0,4.1128358645870588539139590e-01
0,5.8389094617499381900671551e-01
0,7.4445724099360277570269773e-01
0,7.4916549925841657842084942e-01
0,7.6464633912149493344401208e-01
0,8.9728692171974033797710035e-01
0,8.5419296806897815343972979e-01
0,1.2014702031343116317430031e+00
0,1.2808090494131576519976079e+00
0,9.3384035843542712029830000e-01
0,1.4883208513813481754795021e+00
0,1.5436720612090080173572915e+00
0,1.5179289076001591940467961e+00
0,1.2856606870723772395592732e+00
0,1.5699395519929373321588173e+00
0,1.5584628752590290456936373e+00
0,1.5789854143980139866698664e+00
0,1.3251756385626356493645517e+00
0,1.2361583559355713290983658e+00
0,1.1566239915018348138886495e+00
1,1.5004808163314309332747598e+00
1,1.0676841524107318903702435e+00
1,1.0043865937787264108749241e+00
1,8.4806602848578593878414722e-01
1,4.6196821971832996434059737e-01
1,4.6850048908686053872330035e-01
1,4.2466462657034576011483296e-01
1,4.5764782238656032120616146e-01
1,5.2660075740378475828151750e-01
1,4.7916634882144842899620585e-01
1,4.2056763199306324008119873e-01
1,4.5136085814148019235148013e-01
1,4.2965766859568976787642214e-01
1,4.0916919355299780081125505e-01
1,5.2413416211891916685061688e-01
1,1.0816545837685085373891525e+00
1,9.4025746348937511154275626e-01
1,7.8279408531905247947690896e-01
1,9.4870644069437837231362209e-01
1,1.1268586247088669960447760e+00
1,1.3119243964508904287669111e+00
1,1.2262407177183074491466641e+00
1,1.2482380331894120661928582e+00
1,1.6404951375529683854637142e+00
1,1.5286681507865216289587806e+00
1,1.4982498680196660867380842e+00
1,1.7178686288726585651431833e+00
1,1.5109469907641117636387662e+00
1,1.1772132328989539651331597e+00
1,1.0671495669414194917834493e+00
1,9.1190764290998926888676124e-01
1,9.7797103040088761982673304e-01
