Species Id,V_Avg_x
0,-1.0302594743735913329629739e+00
0,-1.0161805525512983550129320e+00
0,-9.9460236835272053390610836e-01
0,-9.7308237682534182155791314e-01
0,-9.5242297726780533739798784e-01
0,-9.3341501769923296283337777e-01
0,-9.1682051441860334950462175e-01
0,-9.0334629916560371665212870e-01
0,-8.9363313625675433460315844e-01
0,-8.8821307438472785200644921e-01
0,-8.8746140115756899646726197e-01
0,-8.9156333910286711397219506e-01
0,-9.0047366573896892028017191e-01
0,-9.1387789890187098862384119e-01
0,-9.3118250475750496963911473e-01
0,-9.5155141822446920318867569e-01
0,-9.7398343685836674676892244e-01
0,-9.9738598833501235230158954e-01
0,-1.0206481701528027361547402e+00
0,-1.0427198131497767974451563e+00
0,-1.0626687024179284346558916e+00
0,-1.0797164548271780404320452e+00
0,-1.0932603179033995033364590e+00
0,-1.1028660223156563358060112e+00
0,-1.1082673126485300674204382e+00
0,-1.1093616420021548130137035e+00
0,-1.1061918339877803152404567e+00
0,-1.0989398543774544503293100e+00
0,-1.0879143808096398693407991e+00
0,-1.0735426357674022757038301e+00
0,-1.0563588277317341734828915e+00
0,-1.0437086553547998413193909e+00
1,9.5524109884726027264179038e-01
1,9.4107987593132391701544748e-01
1,9.2213570839840042214774485e-01
1,9.0668584808964336474446100e-01
1,8.9546458978671550354988540e-01
1,8.8892718202451304065903059e-01
1,8.8725451684298617394119901e-01
1,8.9037359891141198975361704e-01
1,8.9799465341376716320809237e-01
1,9.0965648053903280789711516e-01
1,9.2477303630510554466326312e-01
1,9.4266545104840870905604788e-01
1,9.6259519235851631613343216e-01
1,9.8378402809930942662930420e-01
1,1.0054330136623967906217558e+00
1,1.0267458469917440933016906e+00
1,1.0469468823699432658003161e+00
1,1.0653040835113511963783139e+00
1,1.0811502993532668970289023e+00
1,1.0939039663994278850367436e+00
1,1.1030855984967959937392834e+00
1,1.1083231132820359210455763e+00
1,1.1093708248162477136844473e+00
1,1.1061165412921545314617333e+00
1,1.0985877898544620379084336e+00
1,1.0869669232403120773255978e+00
1,1.0716045819919708392831126e+00
1,1.0530193317413130138504584e+00
1,1.0319005734972241938862680e+00
1,1.0091080837025410144036641e+00
1,9.8564022254690386581899020e-01
1,9.7016658327425286945100424e-01
