Species Id,V_var_x
0,7.4863201497347808821558601e-01
0,7.7229178964985245592345109e-01
0,7.2880023793192683090325090e-01
0,6.6471235223308244854933946e-01
0,6.8899131134311775159773106e-01
0,5.1719597644485126863855839e-01
0,7.6856298778404208427161848e-01
0,6.2079635348713346765237020e-01
0,7.8069074989765674388308980e-01
0,1.0984434212308769041044343e+00
0,7.9361299205850532878514514e-01
0,6.4855607536200365892398167e-01
0,6.7214372279430012468992572e-01
0,7.9746044852017705650837343e-01
0,6.4728765476337735140788254e-01
0,8.1113327339524998738085060e-01
0,7.9283385980887488564405885e-01
0,9.6048432694826224587103525e-01
0,1.0633633113462046537733841e+00
0,1.2242991820284325754641941e+00
0,1.3098101679316418444187775e+00
0,1.2193359609496694506702852e+00
0,1.2715266567943754871805595e+00
0,1.6398168680268088159834861e+00
0,2.0747734227331049439158051e+00
0,1.3988008247893124469385384e+00
0,1.1863695537688083714300546e+00
0,1.2232141349653085082849202e+00
0,1.2374136433752673802644040e+00
0,1.0649679300374770285486647e+00
0,9.0426152190696207355813385e-01
0,8.2750300691560896293452743e-01
1,1.4708657032428344990648839e+00
1,1.0396470613062571697327030e+00
1,5.7911912160361211920900359e-01
1,6.9457290056225873264850179e-01
1,7.0154140303874079620527482e-01
1,9.4526974395519502980533844e-01
1,8.0994876789497771696346717e-01
1,9.4498886609753873777606259e-01
1,8.8128201060380551012940487e-01
1,7.0826399820624275083247312e-01
1,6.9126359846186880009355491e-01
1,6.5709106460053401388421435e-01
1,5.7414083906766244513875108e-01
1,6.0922762199692703788400650e-01
1,5.6362758662658851704918561e-01
1,5.1904663699670816612297131e-01
1,8.2078141737929966037512486e-01
1,8.2510997118206552691788147e-01
1,7.9094967905361568405453454e-01
1,1.1312509879678147584058934e+00
1,1.1771168675212000387375610e+00
1,1.1393257779928094297616781e+00
1,1.1449991023512606780343503e+00
1,1.3170301283286316440523933e+00
1,1.3216242045647668135188724e+00
1,1.6581404173404261648272495e+00
1,1.4703919401316900561482726e+00
1,1.1296719763021347837650410e+00
1,1.1188385272392835645405285e+00
1,1.0907103604458976420232830e+00
1,9.5002388429736650543588894e-01
1,8.2528673337606783810826983e-01
