Species Id,V_Avg_x
0,-1.0001845674506677497106466e+00
0,-1.0001716815448535857768775e+00
0,-1.0001473099860163085139675e+00
0,-1.0001169084922278962324071e+00
0,-1.0000817216603932191532067e+00
0,-1.0000431898429404942163501e+00
0,-1.0000028902192075186405873e+00
0,-9.9996247228247858718219732e-01
0,-9.9992359037437328339592568e-01
0,-9.9988783601673414391797223e-01
0,-9.9985667280123569078398305e-01
0,-9.9983137649593578633044899e-01
0,-9.9981298281858066445693112e-01
0,-9.9980224501641479228908338e-01
0,-9.9979960299354664332582843e-01
0,-9.9980516525573503994195335e-01
0,-9.9981870441817854988642011e-01
0,-9.9983966646641941888873362e-01
0,-9.9986719339689045238372955e-01
0,-9.9990015831517986555354582e-01
0,-9.9993721155916781562211781e-01
0,-9.9997683596146424989115076e-01
0,-1.0000174089893087980840392e+00
0,-1.0000572692157330134676840e+00
0,-1.0000947843952106008913461e+00
0,-1.0001284183483527545632796e+00
0,-1.0001567939070565849135619e+00
0,-1.0001787493329863387714340e+00
0,-1.0001933858762386275742529e+00
0,-1.0002001045471040630019388e+00
0,-1.0001986306535572968101633e+00
0,-1.0001935444558260890346446e+00
1,9.9980648638535685179817847e-01
1,9.9980136511891248840555591e-01
1,9.9979989750826092631541542e-01
1,9.9980662186684954306770123e-01
1,9.9982126271512061777002600e-01
1,9.9984322037724038256811809e-01
1,9.9987159572441197674663727e-01
1,9.9990522704617812443927960e-01
1,9.9994273760111962445762401e-01
1,9.9998259195935146337319566e-01
1,1.0000231588264334448012960e+00
1,1.0000627777739430346315430e+00
1,1.0000998271532901551239547e+00
1,1.0001327904235441934588380e+00
1,1.0001603181897600336469623e+00
1,1.0001812834220740189294929e+00
1,1.0001948276007912586038628e+00
1,1.0002003958983323173015378e+00
1,1.0001977599516100880805425e+00
1,1.0001870272815303053448588e+00
1,1.0001686369604150250722796e+00
1,1.0001433416915781471345781e+00
1,1.0001121770248162512473300e+00
1,1.0000764189634117062865926e+00
1,1.0000375316993124208408972e+00
1,9.9999710762242144390654630e-01
1,9.9995680206954284940934485e-01
1,9.9991826549499107645857521e-01
1,9.9988307584935642857715266e-01
1,9.9985267394170895816074562e-01
1,9.9982830443527470620779241e-01
1,9.9981548807010300894404509e-01
