electron,total
-7.4209007577390212473389397e-02,8.8983589745912983204334523e-01
-1.2510281145696133808797867e-01,8.8490288801552441366737867e-01
-1.3748657539311259778713747e-01,8.1946928138637631366947289e-01
-8.6289545251735627617861724e-02,8.8786157011518074266831491e-01
-7.1889591841602665245325454e-02,9.4634638964131068128438073e-01
-3.5922150590234097622399645e-02,9.6208465022288391921279072e-01
-2.4687709679494049958003998e-02,9.3466313839536752094971916e-01
-2.4863235798010724364459634e-02,9.4501927286339126865755134e-01
-5.2489824888803063296371931e-02,9.0037314341522911576021215e-01
-5.2629645335469731060040743e-02,9.3476345929653015254245929e-01
-4.3297321705975194694460129e-02,9.8038650754009715182490936e-01
-6.1949767872582939265413415e-02,9.6808393613211984884969752e-01
-1.1086397293632722915734945e-01,8.0570699917870569617406318e-01
-1.0392244934888771046299638e-01,9.0101342587659827287893677e-01
-1.3080659802481001130480820e-01,8.3980394350963705196733144e-01
-5.1072179296626038502715517e-02,8.9832703217475085022414305e-01
-5.3344028027634354804931149e-02,7.7872637301160640976860350e-01
-5.6533166737650804301029694e-02,9.0018905060849008226142587e-01
-6.9656284777361049398436421e-02,9.1130104493353081274165106e-01
-5.7990165370034006675492577e-02,9.7168801160943629735555760e-01
-4.5322802176377491312209145e-02,9.6833219527948466431865882e-01
-3.0237026069399056127373626e-02,9.6570461024065978872243932e-01
-3.6229563507311039749492210e-02,9.9012139867346460331276603e-01
-3.4090532790492802939219530e-02,1.0127703178307279063830038e+00
-3.6070705808242058132417895e-02,9.4695114764086973924150925e-01
-3.8957304866561862088936152e-02,9.1820913375215584828481497e-01
-3.6185127728014021553093471e-02,9.4023971300254927108142056e-01
-5.6020781153003434971182628e-02,1.0156243319310931383370189e+00
-6.7330255399726479659250344e-02,9.5044941538968508165652338e-01
-7.3454329232350984435484520e-02,9.2094967021886264824104273e-01
-6.1933202586989304083697760e-02,9.3066603134998293622714982e-01
-2.5724470942990726451959915e-02,9.6516600345167125052370238e-01
-4.3062744712753751874512176e-02,1.0090436018736479439894538e+00
-3.1952644881750189020941377e-02,9.6849630873538838926606331e-01
-5.0150658282288519684843919e-02,9.8404323864611187300255324e-01
-5.5157334897027884834663780e-02,9.7964380660698557878873771e-01
-4.1542606803689915984101333e-02,9.6168468554118424762577888e-01
-5.2857507394467741212995548e-02,9.9436614183310823023020930e-01
-3.8226158667960516424066952e-02,1.0139939654287219994444058e+00
-3.1598661938425823270115700e-02,9.6898282208772279489039647e-01
-2.8777926069944073650397343e-02,9.4456657213863626232352999e-01
-4.7535695048818792096678720e-02,9.1648185806495952032690866e-01
-3.4524728143082744624692282e-02,9.6700510637508041433818562e-01
-5.2700136443434103528105084e-02,9.2002453017951846270250371e-01
-5.5473248352158777141340806e-02,9.4252303183592323065909113e-01
-5.3926800913154861183418376e-02,9.1332695288886123208271783e-01
-2.9992466581219599103258489e-02,9.5884032722514456192897114e-01
-2.7080340759394212063471130e-02,1.0475949694289239388922397e+00
-3.4978825241168631787758159e-02,8.7362950632982072640686511e-01
-2.9331164788489239025892630e-02,9.7097672410921931351879266e-01
-4.9293433421914167880117930e-02,9.9883368068074829260183378e-01
-6.2565387715444953364851699e-02,9.1647676429759417082721029e-01
-4.6520944854773343957177190e-02,9.0884737761433376235231663e-01
-3.8931104075699593525250464e-02,9.7837248388877362526017123e-01
-4.1107025348732895153602840e-02,9.6683777534945924969633779e-01
-3.8282314183360567627634197e-02,9.3948571565260141635889113e-01
-4.6229927457793307254974025e-02,9.8184661424255215145251441e-01
-5.2846970594300504697748977e-02,8.8815986980179684184832922e-01
-5.0091141901377131406825072e-02,9.6631292385191647209552457e-01
-5.7156357561907886188912187e-02,9.2758289488272249734279740e-01
-6.7017375601790163397453171e-02,9.3373320763506328923142519e-01
-4.3295700090204898569101744e-02,8.8569053664698416117317947e-01
-3.2933007613345333108867408e-02,9.7806918815649845910797922e-01
-5.0188630139172289712501396e-02,1.0124236177214824827785833e+00
-5.4282666327611257817142842e-02,8.2564797421202107408078064e-01
-5.1795183168028773035285184e-02,9.1010545192851555196256186e-01
-5.4742740386412469533183867e-02,9.9004049649878345107367750e-01
-5.0681167224667839077412168e-02,9.8414796378345048566416153e-01
-5.3530210586131811434373873e-02,9.6117533480595718220484969e-01
-4.1258207543756364454878849e-02,9.2088585424645996724279939e-01
-6.1590005957998406049824780e-02,9.7160824762355080252973494e-01
-4.4363896269159562579798006e-02,9.0148483074157892414035587e-01
-5.6077146041278391752626931e-02,9.2916928573840573690745259e-01
-7.3149973206236229561483242e-02,8.6000192334947356265217877e-01
-5.8639490177914699309269508e-02,9.3568837922111747218423261e-01
-4.9777481196698419863011509e-02,9.8193430135488068977167586e-01
-7.2457713379533633668572179e-02,9.0613245521405216820198802e-01
-6.5118572859674261898987879e-02,9.7259068007431903613024815e-01
-5.6375139429199139229353932e-02,9.7620332552446797969025738e-01
-8.5596512901149224283869898e-02,1.0088870939452654340584559e+00
-9.7514602685767809431283126e-02,9.4516959761672691975320504e-01
-8.3013489124895825654881776e-02,9.3173334055683898480282323e-01
-8.7787797200691519705628707e-02,9.5979914146729616852837808e-01
-7.8697980903129127749906502e-02,1.0041245394606026497541507e+00
-6.5260381261470157276960435e-02,9.5124182858357098080404057e-01
-6.0318645755731634117147166e-02,9.1137479193512804798160687e-01
-6.4681542033673239400215493e-02,8.8677963093927192339549492e-01
-3.2282464911762627501889966e-02,8.0829011581335552527605159e-01
-6.7059736089302907080522687e-02,9.2269917844959603581145302e-01
-5.5957392907558231587294983e-02,9.5865324275999064251863047e-01
-8.6877606618226327350740235e-02,8.7008917711199662559096168e-01
-7.1943599871800031908541939e-02,8.9034074126120466008416088e-01
-6.9182911532651963915085958e-02,8.8248976512696686302916760e-01
-7.8464676676736594407302050e-02,9.2172905862266329979348711e-01
-8.7686948427728589328111752e-02,9.4997034153830062219725505e-01
-1.0705569458799035764684504e-01,1.0302497373621293252909936e+00
-1.6957558151238222299284075e-01,7.7895493791446535070122081e-01
-1.2596255250306848116892411e-01,8.8252932676876838513635448e-01
-1.0778516335577582874183378e-01,9.4952861818722311681995052e-01
-1.2934144621726456625410151e-01,8.6521823505910133711438448e-01
-1.2288095736328499829603800e-01,8.2106523506015172131355939e-01
-9.6817052116973001396615928e-02,8.1478811976240905767809863e-01
-8.5341387562468951077931933e-02,8.4682668374081582207679730e-01
-5.9378603452135553242285937e-02,8.2446422886671655305690365e-01
-7.3201392372336582248237846e-02,9.2685948868358403185396810e-01
-8.7624522244376196189463712e-02,9.0277139446574461434380510e-01
-1.0995945954499979080321026e-01,8.6063225420843503243872874e-01
-1.0423276691001968907723807e-01,8.2825747603013299968921501e-01
-9.6535415898539839174574695e-02,9.1110280957851497163346721e-01
-1.3564844208868886976659951e-01,8.3952247455580664148300229e-01
-1.3043439643015608542242489e-01,8.3215128995499398900648202e-01
-1.4841005747556748617377309e-01,9.1288160078669922103955514e-01
-2.2080611529814259119675057e-01,7.7858888799693581894700856e-01
-2.0167645270069356477904421e-01,8.6148870473004213188517042e-01
-1.6769498999923132531719716e-01,9.1863151342012638878031794e-01
-1.7146042992191995457673670e-01,8.8013460683174815635254618e-01
-1.4528322823499384419676517e-01,8.5132797750135513759062178e-01
-1.3062943092715778581336394e-01,8.7526017366242103712181688e-01
-1.0057650177181440276363844e-01,9.0393624529741833928397909e-01
-8.8778284090864037492174532e-02,9.0397045669137099377365985e-01
-1.1275571135938450284541545e-01,9.6331089142047954254621800e-01
-9.5206765772935117442266062e-02,9.6070951112877078781338014e-01
-1.3563901060681848864675203e-01,8.7778366297109655658204019e-01
-1.4556098030124592357381630e-01,8.5707760969259938477193828e-01
-1.9252741896617009409453658e-01,8.0495589594706840053106589e-01
-1.5854495962534459474468918e-01,8.6802271984350443112532503e-01
-1.9798692784448529424778940e-01,7.5734699093665369673544774e-01
-2.1047313748249862896955165e-01,8.2164781347325765992195556e-01
-2.4247858000830826985527722e-01,8.0831343137635380813321717e-01
-2.6016146231291081836189960e-01,6.8717915371708582217280536e-01
-2.7526678670616550048677595e-01,6.8994998601449486486103524e-01
-1.9164035858158467995338015e-01,8.2137103441290970629040658e-01
-1.7290454959028492276651434e-01,8.8999595536462117184584031e-01
-1.8022993552216787227493455e-01,8.3896338955556482019915165e-01
-1.6150993972248323116147617e-01,8.0022681064059986155712068e-01
-1.1793754537461463571812459e-01,9.0607707137674464714649503e-01
-1.2978146209419308410026872e-01,8.2982758120292543502216631e-01
-1.4804360477850492250340153e-01,8.5830112221839471864370807e-01
-1.4235642883238480704832796e-01,8.5304677070574719266460306e-01
-1.9279352770476793077492061e-01,8.1303060644544222768104191e-01
-2.6285961940234336964294926e-01,7.3533521405730284392632257e-01
-2.6730704738213528770529592e-01,7.7069864151320111034237925e-01
-2.9134868517211942595679375e-01,7.4111019354892282429148054e-01
-2.9557818001992630652097205e-01,7.7273362849965965271081814e-01
-3.5599140577225218962098552e-01,6.3329023389343463978917725e-01
-3.7246394747867916930061938e-01,6.1711024162658001390724394e-01
-3.5697924338571773716921598e-01,6.6753606964647671517809613e-01
-2.7138123494253491019279068e-01,7.9392552810700967036439124e-01
-2.3871846896258225312337231e-01,7.2053100702080596917653565e-01
-2.2452832233749178691972759e-01,7.5042971025136850915515652e-01
-2.1864112447231731639618602e-01,7.3981512136237870258526073e-01
-1.7816249150684976276792781e-01,8.6333067813060826445337170e-01
-1.6388803746826183238560759e-01,9.0442495868735495179180361e-01
-2.1258468848676820295295897e-01,7.5871192207254667394522585e-01
-2.1502815290360555167126222e-01,8.1857472848764811779176398e-01
-2.9821060558554635111505604e-01,7.2935004895954114179090766e-01
-3.3764519229070044659124505e-01,6.3766866882120742943129699e-01
-3.4390403382980461177709230e-01,6.3274016660236021003527185e-01
-3.7929493237133088401336067e-01,6.9212228252783747350918020e-01
-3.4598790577039889582167120e-01,8.2834400072722336183517200e-01
-4.9408904564266048486942395e-01,5.5062054416215344687657307e-01
-4.9847383839008485573174312e-01,4.9695552184911395698918568e-01
-4.1361403822237979843734479e-01,5.4548473030512067971642409e-01
-3.5220553761935835535012984e-01,6.1771182902935850567160969e-01
-3.5969292579584905000800177e-01,6.0285113951179769564703292e-01
-3.2922031228405618241694697e-01,7.0158023772801847428581823e-01
-3.0469242069246260662396253e-01,6.5535383814418435299842258e-01
-2.5337394383203093450873666e-01,7.6099432725695070889315730e-01
-2.4828342613941153937950901e-01,7.6085788565781609094074156e-01
-2.5545422247128823922679430e-01,7.3762437990713358715311188e-01
-2.9397761118292697890552745e-01,7.0094689246366426171874764e-01
-4.0984520292442527811260788e-01,5.7827233500327079873670755e-01
-4.7226179111728672221914849e-01,5.2051897070346675455709828e-01
-3.8946014551067531517247744e-01,6.2625539092941406860148845e-01
-4.5311469335246312706289018e-01,6.3166937611963092091826866e-01
-4.3468497766855784814055141e-01,6.1548500669966366150021031e-01
-5.5928899240965956884963362e-01,3.8654292690691338663100396e-01
-5.5163681545639209335973874e-01,3.9769960903221635017956714e-01
-4.7836217572749273330146025e-01,4.6305544389862474119468061e-01
-5.0410402040978752324917878e-01,4.9919893137471360589074720e-01
-4.1161404604286233599452771e-01,5.6118935301372774304695668e-01
-4.2615476539365343411347453e-01,5.5362801005702722001444727e-01
-3.7796322176098640088781622e-01,5.6825372929164108537491984e-01
-3.4464686316560033674250008e-01,6.8185316286102115590495032e-01
-3.6216860971736958285660535e-01,6.3836840416085038896198967e-01
-3.3064290794388484506782788e-01,7.4314770723139833563664070e-01
-4.2139255471709413658487620e-01,6.3222798319415518530917097e-01
-4.6094961086576907716150231e-01,4.7140749811225207688281102e-01
-5.4909536530147162736170685e-01,4.4251080519314966998933869e-01
-5.5066066884481723597843938e-01,5.0404106895595668369480791e-01
-6.2221263394034753702044327e-01,4.4141096340235064232615514e-01
-6.5231835592792863920408308e-01,3.8090264335321566413483652e-01
-6.4047024045609157738567774e-01,3.0547882209230126093757463e-01
-6.2222232290805445931169970e-01,3.6108286652103260827573195e-01
-5.5871437858496730832769117e-01,4.0772126077815495914791200e-01
-5.3192134040342509138099558e-01,4.6314592751397454239992157e-01
-5.3743062965701315913946701e-01,3.8526355708385973120044810e-01
-5.3012994395594148500094889e-01,4.5155733998056080125138578e-01
-5.0519350149380715109259654e-01,5.1847230486532192017534726e-01
-5.2094305338271551519824243e-01,4.9613844931641870594773991e-01
-5.1267739153451286071572213e-01,5.4392580714786631368440339e-01
-5.5334082837378661956506676e-01,4.1109226329316606030062076e-01
-5.6481423993458934607048150e-01,4.4827177673232154742066768e-01
-5.7823618988903391358036288e-01,4.1498237846753616153705480e-01
-6.3541357463422765139426929e-01,4.3200593041800405824659492e-01
-5.9642843859153216179436185e-01,4.0317355645912167361188949e-01
-6.5209437677369197494670061e-01,4.2448754818579881309403845e-01
-6.5705031608317154834253415e-01,3.6532635181970274373952634e-01
-6.7778080314716793175477960e-01,2.2666115877432346792375029e-01
-7.1244983849871323933200529e-01,2.8534943834505632764830807e-01
-7.2410260053616271047616237e-01,2.3003718840799780576134026e-01
-6.5719612001561389380555056e-01,3.5572223089814924978924182e-01
-7.4903876216912601559982932e-01,2.5704165724130068060304666e-01
-6.5375550464318421539644532e-01,3.6896162301452206655483224e-01
-6.3092662503737284573901434e-01,4.4209273755551659057516645e-01
-6.5461886501080213118797246e-01,3.5310404429945674298352287e-01
-5.6679219158343785434084339e-01,3.9977038060465630575635032e-01
-6.2633866855382702709675868e-01,3.6548332667098459847210279e-01
-6.8598444864084640038015550e-01,3.1591599932571567954653347e-01
-6.7669267810716271505100394e-01,3.0336383911523168155355279e-01
-7.3389014942388208773138558e-01,2.4295632702839786709603231e-01
-7.2046393406342956744481398e-01,2.8633193789794098016443513e-01
-7.4279618119178891788578767e-01,2.4087464487718468486576739e-01
-7.1766711003980221406095552e-01,2.8931793654854454089786486e-01
-8.0677570793410313676474743e-01,2.1909166944886449002183326e-01
-8.2618410772423889198989855e-01,1.9056689557528172507261388e-01
-8.3582165840109301502280914e-01,2.2973227083141078974648508e-01
-8.8147316937124753355448092e-01,9.1770936946598991035273229e-02
-9.3062224837346574357610507e-01,9.2419216649620383741137175e-02
-8.4265236019187994553902854e-01,1.6447340178668767851632992e-01
-7.1793828392159886320200712e-01,3.6108354222776939401740037e-01
-8.2256949899791309555041607e-01,1.4043871968169274744298036e-01
-8.0495155170077625772506735e-01,1.7234111711728095084339429e-01
-7.9503410790482709202819933e-01,2.1609169557013041540471932e-01
-8.3700378134344299851932192e-01,7.7457684303797513791778329e-02
-9.0300026999729077203937777e-01,2.2780255785996739170684577e-02
-8.8337597089765451663367912e-01,8.4739907786524071298117633e-02
-8.3243007899065646348901737e-01,1.1999497097290734437535775e-01
-8.2231515354117767913066928e-01,1.8096914079908787975625728e-01
-8.4618090385946298503938579e-01,1.4283311747010396519641517e-01
-8.4834224449962114533718704e-01,1.3769237760490105060284804e-02
-8.7802875512408395941577055e-01,1.3478223806898914638452425e-01
-9.0983998877618166289948931e-01,1.8734267958022909894566510e-01
-9.5103268747246438863385265e-01,7.5305209892911673108528703e-02
-1.0188994102139354858138631e+00,7.5804251612272555149729669e-02
-9.3106075660136711213965555e-01,1.3770420563263097157857828e-01
-9.0427146246697009956960756e-01,1.8601894542667074539110672e-01
-8.7352876664459977451571149e-01,1.5478470517873621492555003e-01
-9.6829144557018143046889236e-01,1.1949815880371916776425678e-02
-9.4511605060253545129711483e-01,1.5271049249993995378105183e-01
-9.8804242494879523928119625e-01,1.2544483245980342367431604e-02
-9.6427096979419157918300698e-01,7.4943904801877181398594985e-02
-9.6565342663915842980060233e-01,9.1173232003243342980169928e-02
-9.7173681563170466457535213e-01,-4.7004690963589168539726870e-02
-8.5692190495811959571881289e-01,8.4311777779638052976451945e-02
-8.7334758891732189312051560e-01,1.2246382182095594259862992e-01
