Ex,Ey
-0.0000000000000000000000000e+00,-1.5000000000000000000000000e+02
1.3322676295501878485083580e-14,-7.5826453895132246429966472e+01
-0.0000000000000000000000000e+00,-4.6995408707543887771862501e+01
-1.3322676295501878485083580e-14,-3.3893696004430388768469129e+01
5.3290705182007526562108804e-14,-2.7158118543448345860724658e+01
-0.0000000000000000000000000e+00,-2.3448666368025403272667972e+01
-5.3290705182007501318559837e-14,-2.1429070663732858292860328e+01
-0.0000000000000000000000000e+00,-2.0527776728183290799734095e+01
-0.0000000000000000000000000e+00,-2.0525981070293337182874893e+01
-0.0000000000000000000000000e+00,-2.1425517183178328650683397e+01
-3.9968028886505641766137982e-14,-2.3446257775111007504165173e+01
-0.0000000000000000000000000e+00,-2.7157359156496038821160255e+01
3.9968028886505610211701773e-14,-3.3892141907132121048107365e+01
-0.0000000000000000000000000e+00,-4.6994718009415940684903035e+01
-0.0000000000000000000000000e+00,-7.5826850666764443076317548e+01
-0.0000000000000000000000000e+00,-1.5000000000000000000000000e+02
7.4173546104867753570033528e+01,-7.5000000000000000000000000e+01
5.1502295646228070324923465e+01,-5.3125443211944869403851044e+01
2.0966378945350921725321314e+01,-3.9100559396026170588811510e+01
9.9186450820477585210710458e+00,-3.0678054582895335045122920e+01
5.2225148182025469267841800e+00,-2.5613165922558042808532264e+01
2.8645239398577433398429548e+00,-2.2571858326362690405630929e+01
1.4604448199210027237171516e+00,-2.0836413091257682594914513e+01
4.5154479671976066601501998e-01,-2.0043840829595794161832600e+01
-4.4887022749751992467537320e-01,-2.0043054960836933275913907e+01
-1.4601383524088353826897446e+00,-2.0834015228500543770451259e+01
-2.8659209866588946091781054e+00,-2.2569756912462572984168219e+01
-5.2229420660105549956142568e+00,-2.5611589989420441071388268e+01
-9.9186794264599065229504049e+00,-3.0676214602703307576803127e+01
-2.0967354379816164566818770e+01,-3.9098518136494789132484584e+01
-5.1502640995292040315689519e+01,-5.3124634743847174433994951e+01
-7.4173149333235571134537167e+01,-7.5000000000000000000000000e+01
4.3749113576110254086870555e+01,-0.0000000000000000000000000e+00
3.5899440603973843622043205e+01,-2.2542345546483392837444626e+01
2.2447388629049534358728124e+01,-2.5570143192224005446178126e+01
1.3487393473468115345781371e+01,-2.4071697837076907688924621e+01
8.1061962565326997065540127e+00,-2.2012796721049330272990119e+01
4.7767528313003584372609112e+00,-2.0355174378247408384368100e+01
2.5280174967668429530931462e+00,-1.9266757620417163110460024e+01
7.9335813042075176149126037e-01,-1.8735897548016389180247643e+01
-7.9017439890475071884168301e-01,-1.8736757387428752963387524e+01
-2.5267019516256410405219412e+00,-1.9266915728912724858901129e+01
-4.7775747609199390453227352e+00,-2.0355136790045929018333482e+01
-8.1064576902407292635643898e+00,-2.2012098289063104061824561e+01
-1.3486928147074296546747973e+01,-2.4070719757169506181071483e+01
-2.2448420141143873962619182e+01,-2.5567823324398560203007946e+01
-3.5901481863505217972942773e+01,-2.2541081800929635647889882e+01
-4.3750730512305658237437456e+01,-0.0000000000000000000000000e+00
2.9088855011900964342430598e+01,-0.0000000000000000000000000e+00
2.5932152454004061326031660e+01,-1.1470943800179794536120426e+01
1.9437026654757406873841319e+01,-1.6562776604162788629537317e+01
1.3475991553222433694259053e+01,-1.8027370558249867116273890e+01
8.9390382770320471195191203e+00,-1.8013148807103547710539715e+01
5.6105630404899118346406794e+00,-1.7569017488870390053534720e+01
3.0797216501520225939714237e+00,-1.7141027133521081537992359e+01
9.8154502970817092410982241e-01,-1.6899007485612973056277042e+01
-9.7988840839385660252958132e-01,-1.6900097208258355152565855e+01
-3.0785177550260143242155664e+00,-1.7142479402185653469814497e+01
-5.6111035468092760325475865e+00,-1.7570469641212429934284955e+01
-8.9385250331341321583522586e+00,-1.8013430913373976949287680e+01
-1.3474404461795362664133791e+01,-1.8026709986021131726374733e+01
-1.9437716423576290480923490e+01,-1.6562702556868231340558850e+01
-2.5934817670893465901826858e+01,-1.1471196304651430253329636e+01
-2.9090985731376282075189010e+01,-0.0000000000000000000000000e+00
2.0807225975750665014629703e+01,-0.0000000000000000000000000e+00
1.9336663999811054992505888e+01,-6.7805164951261920336378353e+00
1.5890961870979461778574660e+01,-1.1182367660036193868222654e+01
1.2037021270527356264778973e+01,-1.3461902374649545421902985e+01
8.5645493259121785456500220e+00,-1.4443038695708837693132409e+01
5.6488745048828246098082673e+00,-1.4770702473140389088257507e+01
3.1980275000242581739939851e+00,-1.4830852215669048987933820e+01
1.0342880556834790350961839e+00,-1.4820610391319759102657372e+01
-1.0336463154774302442007183e+00,-1.4822396011858089082124934e+01
-3.1970743845797175985978811e+00,-1.4834047832428286284311980e+01
-5.6485262721082643011527580e+00,-1.4772060640568561495911126e+01
-8.5626980350494292792973283e+00,-1.4442368139615362920835651e+01
-1.2036199790568549161662304e+01,-1.3460463510617691085258230e+01
-1.5892906459774170713217245e+01,-1.1182504888966020573093374e+01
-1.9338779306636986632383923e+01,-6.7804349397762040396742123e+00
-2.0808337903002797730778184e+01,-0.0000000000000000000000000e+00
1.5527822021648582051511767e+01,-0.0000000000000000000000000e+00
1.4749784793967867457809007e+01,-4.4697373817845544863303076e+00
1.2755640775234059702825107e+01,-7.9253630714707696824916638e+00
1.0215320517549789869349297e+01,-1.0192474546324081785542148e+01
7.6302381785412034531645986e+00,-1.1524866724033675069449600e+01
5.2227495205297014280176882e+00,-1.2242754521790375932255301e+01
3.0298137319726530236607687e+00,-1.2594435315121689455963860e+01
9.9000123351913127400791836e-01,-1.2735631502306324236428736e+01
-9.9332584950238467236260931e-01,-1.2737068206580980600506336e+01
-3.0281823837364871820909684e+00,-1.2597307214467244662614576e+01
-5.2194238539963535572496767e+00,-1.2244270680735739986744193e+01
-7.6269279031832617476993619e+00,-1.1525247943395308780623054e+01
-1.0214541211146022092748353e+01,-1.0193303519339993457037963e+01
-1.2757687852734807876231571e+01,-7.9248649490582403487337615e+00
-1.4752312781927447105090323e+01,-4.4684860743637777602543792e+00
-1.5530115851823872219483746e+01,-0.0000000000000000000000000e+00
1.1867751212181554265612249e+01,-0.0000000000000000000000000e+00
1.1411300928340281757300545e+01,-3.1737322003796126779207043e+00
1.0168224706439936255719658e+01,-5.8588634364786287278548116e+00
8.4375176179644508778210366e+00,-7.8614575529512391582898090e+00
6.5142693504458843989368688e+00,-9.2246994307058933770804288e+00
4.5793059137948102232940073e+00,-1.0083118578890653438406844e+01
2.7051505195083085375529208e+00,-1.0572704550009706991886560e+01
8.9165516422418789055370780e-01,-1.0793482553123078915291444e+01
-8.9532202763835022629734794e-01,-1.0793175391095106263605885e+01
-2.7042768587344774289249472e+00,-1.0573152591887462037334444e+01
-4.5764670010363284191612365e+00,-1.0084154478526270892757566e+01
-6.5117308736536836377695181e+00,-9.2267239418109632254072494e+00
-8.4358167962314816179514310e+00,-7.8640674717443896923896318e+00
-1.0168089014797953240076822e+01,-5.8598968718531194710408272e+00
-1.1413914357578745395471742e+01,-3.1735139012186790452574314e+00
-1.1871365754275236881198907e+01,-0.0000000000000000000000000e+00
9.1803576208893549193135186e+00,-0.0000000000000000000000000e+00
8.8909213574892387299541952e+00,-2.3690901570287632438294168e+00
8.0679154226624323342775824e+00,-4.4768346212791580995826735e+00
6.8494845233225234437668405e+00,-6.1742237186381210278796061e+00
5.4085771526017891730475640e+00,-7.4316693869840797503911745e+00
3.8747444012258895895683963e+00,-8.2920380175267123235016697e+00
2.3194497577402279908653782e+00,-8.8189759962065803478026282e+00
7.6953039243373178024398840e-01,-9.0683411846673784850736411e+00
-7.7299588826676779440560949e-01,-9.0675663667366919185042207e+00
-2.3191614711676518112426493e+00,-8.8191613604084242439284935e+00
-3.8729952039198543012332721e+00,-8.2926218849131405619345969e+00
-5.4068408964013814355098475e+00,-7.4341143447195099369650961e+00
-6.8477141411881792265603508e+00,-6.1773135060402886153951840e+00
-8.0671342822090945645641114e+00,-4.4809286090258311219258758e+00
-8.8924159100743249695142367e+00,-2.3722398926067458369004726e+00
-9.1830880493865123526120442e+00,-0.0000000000000000000000000e+00
7.1295708981240286661318351e+00,-0.0000000000000000000000000e+00
6.9344663070611254340747109e+00,-1.8330973081890358233891902e+00
6.3630911448305784716694689e+00,-3.5127029590781648771269374e+00
5.4826828522595292270125356e+00,-4.9300918541767977387735300e+00
4.3964550515572922151363855e+00,-6.0363970881608040031096607e+00
3.1919993045723105140609732e+00,-6.8343213772112481052545263e+00
1.9288473523676443743823938e+00,-7.3447939234814025866171505e+00
6.4306479369407598678520799e-01,-7.5929196177141804469101771e+00
-6.4614220337939742844213242e-01,-7.5925182352139968244841839e+00
-1.9293323769109254062215086e+00,-7.3449451782996728610442005e+00
-3.1914199853474136681086293e+00,-6.8358023136320342771909964e+00
-4.3964224947808334675869446e+00,-6.0400071681116651589604771e+00
-5.4826310605378045792690500e+00,-4.9335003314285605924283118e+00
-6.3630154013644100174929008e+00,-3.5173072713960853441506060e+00
-6.9329857485529133853674466e+00,-1.8375767351954661599222618e+00
-7.1268859690617460955763818e+00,-0.0000000000000000000000000e+00
5.5141630045112846048027677e+00,-0.0000000000000000000000000e+00
5.3782183984110742969164676e+00,-1.4597382303729369290579143e+00
4.9709208766746728613838968e+00,-2.8201022250113862988030178e+00
4.3257903942398856500517468e+00,-4.0011636987371366203092293e+00
3.5043476295673383624773578e+00,-4.9555729422164747077772518e+00
2.5663475659052914501501164e+00,-5.6679563377587491856957058e+00
1.5608515172372958712543323e+00,-6.1366650787745333772704726e+00
5.2180608070113720931004764e-01,-6.3681578816883588345376666e+00
-5.2502144885225987547272553e-01,-6.3679816695890156807990934e+00
-1.5624455495856890419048568e+00,-6.1369649838192597002262119e+00
-2.5680571937318465991495486e+00,-5.6695348873516424603735686e+00
-3.5045389141979090830147925e+00,-4.9585588068722845633828911e+00
-4.3250142444726025203749487e+00,-4.0042887877296857723763424e+00
-4.9712106859760005761472712e+00,-2.8238141302669896859356413e+00
-5.3751086386782400694528405e+00,-1.4622323091202955591683121e+00
-5.5079345789955791445891009e+00,-0.0000000000000000000000000e+00
4.2100944373781548080160064e+00,-0.0000000000000000000000000e+00
4.1143640820497395793609030e+00,-1.1908569642044666281321952e+00
3.8216656764663805567749932e+00,-2.3126116836389609687785196e+00
3.3472121350544412621275114e+00,-3.3045912350612356433998684e+00
2.7296624125356792056606992e+00,-4.1249708974168530772885788e+00
2.0109071680142527327461721e+00,-4.7499678589067331202500100e+00
1.2286458084380345034958282e+00,-5.1691730947809855223340492e+00
4.1174820287959390530119208e-01,-5.3785448866142031576487170e+00
-4.1494930551029829413067773e-01,-5.3786418459973486250191854e+00
-1.2308855946735521857959839e+00,-5.1702984353322714028422524e+00
-2.0130138084004385312653085e+00,-4.7520042643408073601563046e+00
-2.7311763951588785559465578e+00,-4.1263568382284816493665858e+00
-3.3478863839325114781786397e+00,-3.3075713673445359397362608e+00
-3.8209589227550191381510558e+00,-2.3160715590848837130977245e+00
-4.1091716182859236994318053e+00,-1.1923105294366469486533333e+00
-4.2024213508211545331505476e+00,-0.0000000000000000000000000e+00
3.1324490761023517926275872e+00,-0.0000000000000000000000000e+00
3.0656067147721137722271578e+00,-9.9623844067561651005604517e-01
2.8571866058179042902054334e+00,-1.9417303705699808791251826e+00
2.5134311804619939856308974e+00,-2.7876075008081695472128558e+00
2.0589710057218408856272163e+00,-3.4969454679767313365346126e+00
1.5221453685411590051046460e+00,-4.0461898929088810916709917e+00
9.3227448952982605590023013e-01,-4.4188058115017359028797728e+00
3.1233732948477427315836508e-01,-4.6062426399218123762580035e+00
-3.1677499757032800964395847e-01,-4.6064299775241455137120283e+00
-9.3580796792914799908658097e-01,-4.4180855602067721221715146e+00
-1.5241155966280570677184869e+00,-4.0464173443085629244819756e+00
-2.0601060172016385507731684e+00,-3.4980447804763636909797242e+00
-2.5147289653290054722845071e+00,-2.7885956583339654990538747e+00
-2.8559498480681115850643437e+00,-1.9418797284258353386121598e+00
-3.0590370795933568004443259e+00,-9.9706094507059483955657697e-01
-3.1233135201222856913716441e+00,-0.0000000000000000000000000e+00
2.2176175560269211217701013e+00,-0.0000000000000000000000000e+00
2.1726337114797571459234860e+00,-8.5794509490858716915795412e-01
2.0302966163338269645066703e+00,-1.6759468995145947456393287e+00
1.7919970376476899165396617e+00,-2.4139209775930492440920716e+00
1.4710800204349663289349337e+00,-3.0395573504657651398019880e+00
1.0890468244892475002671972e+00,-3.5269033694399318790146935e+00
6.6859306142510299686421149e-01,-3.8600840970690075693028120e+00
2.2412403685718484958044883e-01,-4.0278967081801191341128288e+00
-2.2679222579525792902188641e-01,-4.0272579398051355781262828e+00
-6.7087296145796937452132624e-01,-3.8581873313715342455054724e+00
-1.0929730286700287678058885e+00,-3.5246831728372964853690519e+00
-1.4733547091842811305184568e+00,-3.0377312635231978887873083e+00
-1.7917213318819831258110753e+00,-2.4117655431970934643004512e+00
-2.0294242094916477014976408e+00,-1.6735251163672288932104948e+00
-2.1672918898600870285520159e+00,-8.5628854658775044317309266e-01
-2.2082994606799632997251592e+00,-0.0000000000000000000000000e+00
1.4165588862851765661332593e+00,-0.0000000000000000000000000e+00
1.3896598152575179163648045e+00,-7.6444950107199793887247097e-01
1.3012107231334415491375012e+00,-1.4963653303894222101888545e+00
1.1498207295108222592006086e+00,-2.1593029311304179351793664e+00
9.4598861387495769559308201e-01,-2.7258364085230137874305001e+00
7.0161862193791657560382191e-01,-3.1673403877072470180564778e+00
4.3128115078963846773518753e-01,-3.4715873340804339619580787e+00
1.4516348674864582024568449e-01,-3.6241687361790324573007638e+00
-1.4706562076174242714721174e-01,-3.6236638178810269828034052e+00
-4.3323320096130846224014022e-01,-3.4702337462506509524473586e+00
-7.0365952877972048895571788e-01,-3.1641938723606592986925534e+00
-9.4718838756143519663766028e-01,-2.7208142717735470661466479e+00
-1.1505228181730364767076935e+00,-2.1545706873128036562548004e+00
-1.3004728514587673426916581e+00,-1.4914377322055611951867604e+00
-1.3855119632261265749662016e+00,-7.6074524561550060930414929e-01
-1.4107364269467832507132243e+00,-0.0000000000000000000000000e+00
6.8871855388292535504746184e-01,-0.0000000000000000000000000e+00
6.7626838109033526880153886e-01,-7.0827944314258883817814194e-01
6.3544318627540763433358961e-01,-1.3896598152575181384094094e+00
5.6252595951409889440952838e-01,-2.0094901662760293881149209e+00
4.6304256385813691299091488e-01,-2.5394805447683403976100180e+00
3.4329589893182715920616488e-01,-2.9554787801509898592655645e+00
2.1176471295331772415337923e-01,-3.2410991667062574173030498e+00
7.2047553056592009146363864e-02,-3.3867599309406273278000299e+00
-7.2857235866876243757239706e-02,-3.3862626534549034040821880e+00
-2.1140301593760177367720132e-01,-3.2396943101788844288080327e+00
-3.4355355419292460394942168e-01,-2.9530294524935953859312576e+00
-4.6373152413642620972566988e-01,-2.5360347813991630516738951e+00
-5.6234479231399847609651488e-01,-2.0058410649321589680482703e+00
-6.3559876779434432148008227e-01,-1.3855119632261263529215967e+00
-6.7585415765452561132065057e-01,-7.0536821347339162535661217e-01
-6.8680896944896208111686065e-01,-0.0000000000000000000000000e+00
-8.3266726846886701088727114e-16,-0.0000000000000000000000000e+00
0.0000000000000000000000000e+00,-6.8871855388292635424818400e-01
1.5612511283791257933250531e-15,-1.3525367621806707596476826e+00
6.2450045135165045538067966e-16,-1.9596049264337394024693140e+00
-3.0184188481996419776940329e-15,-2.4775886812088674382437148e+00
-4.1633363423443360405124872e-16,-2.8856900541500190016108718e+00
1.2490009027032983469634174e-15,-3.1641804790725229779013716e+00
-2.0816681711721680202562436e-16,-3.3092194800566523404938835e+00
6.2450045135165055398829281e-16,-3.3082755851857075235500361e+00
-4.1633363423443370265886188e-16,-3.1635050083228986039785013e+00
8.3266726846886533455784755e-16,-2.8854695533105045868182970e+00
5.2041704279304163528551158e-16,-2.4763978999370475087005161e+00
-6.2450045135164799019035085e-16,-1.9580065050376507240770252e+00
-1.0408340855860835170900560e-16,-1.3517083153090507785520913e+00
-2.0816681711721685132943094e-16,-6.8680896944896208111686065e-01
-0.0000000000000000000000000e+00,-0.0000000000000000000000000e+00
