Ex,Ey
-0.0000000000000000000000000e+00,-1.5000000000000000000000000e+02
-0.0000000000000000000000000e+00,-7.5826799480405071562927333e+01
-0.0000000000000000000000000e+00,-4.6996059900407949783129880e+01
-0.0000000000000000000000000e+00,-3.3894472122538971348149062e+01
3.9968028886505641766137982e-14,-2.7159241885175369191074424e+01
-0.0000000000000000000000000e+00,-2.3449877016514701466576298e+01
-3.9968028886505629144363498e-14,-2.1430014407712516089077326e+01
-0.0000000000000000000000000e+00,-2.0528488158554864639881998e+01
-0.0000000000000000000000000e+00,-2.0526497922845585719642258e+01
-0.0000000000000000000000000e+00,-2.1426360414227662687380871e+01
1.3322676295501881640527201e-14,-2.3447029312524190203248509e+01
-0.0000000000000000000000000e+00,-2.7158130177967478857681272e+01
-1.3322676295501870596474528e-14,-3.3892688662414968803204829e+01
-0.0000000000000000000000000e+00,-4.6994799567912302507011191e+01
-0.0000000000000000000000000e+00,-7.5826555292044659495331871e+01
-0.0000000000000000000000000e+00,-1.5000000000000000000000000e+02
7.4173200519594928437072667e+01,-7.5000000000000000000000000e+01
5.1501970049796028661148739e+01,-5.3125601833750693003821652e+01
2.0966163678933046554675457e+01,-3.9100992568532063842212665e+01
9.9184090076162885196708885e+00,-3.0678605884637086376187654e+01
5.2222975530121749088152683e+00,-2.5614004641372869031101800e+01
2.8646137387314269950877588e+00,-2.2572756584598888451864696e+01
1.4606944289798782232736585e+00,-2.0837331666318334555398906e+01
4.5175824243346440756141646e-01,-2.0044639240078794273358653e+01
-4.4893612783639913477173877e-01,-2.0043653373990327537512712e+01
-1.4602656948393024638477300e+00,-2.0834737771801894012924095e+01
-2.8658848818698960947415344e+00,-2.2570489145193075586348641e+01
-5.2228296749453875236213207e+00,-2.5612152069297756895593920e+01
-9.9183346949724171537354778e+00,-3.0676560349133438876378932e+01
-2.0966933314814845346063521e+01,-3.9098804188602699127841333e+01
-5.1502600216043859404635441e+01,-5.3124767969173042558850284e+01
-7.4173444707955354715522844e+01,-7.5000000000000000000000000e+01
4.3748796332498621097784053e+01,-0.0000000000000000000000000e+00
3.5899007431467936157787335e+01,-2.2542031321197551818613647e+01
2.2446995949113599522206641e+01,-2.5570148941550986165793802e+01
1.3486987927159193034754026e+01,-2.4071872393852228100286084e+01
8.1058493000382387805302642e+00,-2.2013241818373927571883542e+01
4.7766729750545353638813140e+00,-2.0355794213175258278170077e+01
2.5281173445200550986555754e+00,-1.9267746648445243096148261e+01
7.9367829232800413130632933e-01,-1.8736702050184245393893434e+01
-7.9009853172310040569925604e-01,-1.8737438162273143404945586e+01
-2.5268357712027471606575091e+00,-1.9267361303950618633962222e+01
-4.7774142974958513363503698e+00,-2.0355561566164642073317737e+01
-8.1060712039403579609597728e+00,-2.2012133335041390580499865e+01
-1.3486652119304947561317931e+01,-2.4070585656649658545802595e+01
-2.2448207620039607235185031e+01,-2.5567931429433681245200205e+01
-3.5901195811397307977586024e+01,-2.2541430635246648250813450e+01
-4.3750464061653921987726790e+01,-0.0000000000000000000000000e+00
2.9089137877199817694418016e+01,-0.0000000000000000000000000e+00
2.5931821108245035389927580e+01,-1.1470537550654091418778080e+01
1.9436322606278370273003020e+01,-1.6562542336235591022841618e+01
1.3475316130793347113581149e+01,-1.8027315152132693754083448e+01
8.9383757336891456191096950e+00,-1.8013203242423784899983730e+01
5.6101089086601110267338299e+00,-1.7569507535656331498330474e+01
3.0797865919708917736841158e+00,-1.7141824434919971764657021e+01
9.8206672860556643023244305e-01,-1.6899489488934428038646729e+01
-9.7959538160277159768440924e-01,-1.6900697042354472898750828e+01
-3.0783890987308035747105350e+00,-1.7142954965075400508567327e+01
-5.6106569129606711499036464e+00,-1.7570935480829977137773312e+01
-8.9378537654304022197493396e+00,-1.8013439935001503755529484e+01
-1.3474132789364707818435818e+01,-1.8026469046731904199987184e+01
-1.9437778293411835051074377e+01,-1.6562395573140967997005646e+01
-2.5934668786610167501294200e+01,-1.1471126533783623457907197e+01
-2.9090583437462051108468586e+01,-0.0000000000000000000000000e+00
2.0807721231190438260227893e+01,-0.0000000000000000000000000e+00
1.9336465095232345134945717e+01,-6.7804048747845229172526160e+00
1.5890218347634998963258113e+01,-1.1182169518652896655908080e+01
1.2036327020970999157611914e+01,-1.3461944978589421850756480e+01
8.5636569165145992599263991e+00,-1.4443041694286451459561249e+01
5.6480517825583511637432821e+00,-1.4771111936828765109908090e+01
3.1981353912419581142501102e+00,-1.4831415577453078924463625e+01
1.0348056848935007767664729e+00,-1.4821198095792405879933540e+01
-1.0335640078640719874414344e+00,-1.4822922414241618938035572e+01
-3.1970742096782509555907836e+00,-1.4834427562009592449498996e+01
-5.6478992674219528069556873e+00,-1.4772253117841124492315430e+01
-8.5616047698422867995304841e+00,-1.4442453536583654383207431e+01
-1.2035607757444413579150932e+01,-1.3460375195859979768897574e+01
-1.5892865107091324716748204e+01,-1.1181992509602583396599584e+01
-1.9338800238256336427866700e+01,-6.7800473099876263916030439e+00
-2.0808210994086675071912396e+01,-0.0000000000000000000000000e+00
1.5528328127630775412626463e+01,-0.0000000000000000000000000e+00
1.4749651589592142286733178e+01,-4.4700273308475066968981082e+00
1.2754782502473476668569674e+01,-7.9252590270357741175644151e+00
1.0214443955159794086284819e+01,-1.0192183557634320933971139e+01
7.6292087754498023599580847e+00,-1.1524390862538039570495130e+01
5.2217350254934835618314537e+00,-1.2242460848886910440569409e+01
3.0297004330072501154802467e+00,-1.2594429958374542266597018e+01
9.9055989181702686074970643e-01,-1.2735947811292771092439580e+01
-9.9282484781995772316065541e-01,-1.2737482927483320338524209e+01
-3.0277198023303104612580228e+00,-1.2597841826005700127666387e+01
-5.2186828875347321954336621e+00,-1.2244341656242802685028437e+01
-7.6259758434492583845099034e+00,-1.1525391383617765939106903e+01
-1.0213671762383638608184810e+01,-1.0193164948334326069812050e+01
-1.2757450407539479897423007e+01,-7.9243201028107268513167583e+00
-1.4752676277007585881051455e+01,-4.4681359259696158403585287e+00
-1.5530488817486796548905659e+01,-0.0000000000000000000000000e+00
1.1867666569495421313717998e+01,-0.0000000000000000000000000e+00
1.1411206068196570129202883e+01,-3.1742155339862283547347488e+00
1.0168062120848183838006662e+01,-5.8589216404664776760569112e+00
8.4371951854687328165027793e+00,-7.8611535379318775440538047e+00
6.5133796252620097533281296e+00,-9.2242305439458256444140716e+00
4.5780126867218475794629740e+00,-1.0082755457120994080355558e+01
2.7046484288360965742015196e+00,-1.0572499573264389383098205e+01
8.9175271578472403710691196e-01,-1.0793498235114659777877932e+01
-8.9545802257700057857903175e-01,-1.0793541515742784753228989e+01
-2.7039329384377324139165921e+00,-1.0573858750084081492559562e+01
-4.5754488250340186183962032e+00,-1.0084361667198926681976445e+01
-6.5104280619338110724925173e+00,-9.2262927884335166339724310e+00
-8.4345364766373762677176273e+00,-7.8633224923002060791077383e+00
-1.0167836084726614487294682e+01,-5.8596153243240181041073811e+00
-1.1414480135445606023836262e+01,-3.1730902480352085603954038e+00
-1.1871939142147438062124820e+01,-0.0000000000000000000000000e+00
9.1798970596583178149785454e+00,-0.0000000000000000000000000e+00
8.8907299491256619461410082e+00,-2.3694809082988093074106928e+00
8.0678444985278261469829886e+00,-4.4776366720685931710477234e+00
6.8491350516804452297492389e+00,-6.1747986610845488897325595e+00
5.4076068562606849354779115e+00,-7.4325469812384419299178262e+00
3.8734659961749198231473201e+00,-8.2926597356210010048016557e+00
2.3189576550135830856902430e+00,-8.8192490268864656144387482e+00
7.6951794933863082448510795e-01,-9.0687957184465002313800142e+00
-7.7318536278937943784228537e-01,-9.0673774461533120927470009e+00
-2.3185399537864510577378496e+00,-8.8187016437648821920447517e+00
-3.8711169258841655604896914e+00,-8.2923292485300077458987289e+00
-5.4049366685505395579980359e+00,-7.4329139699362043458563676e+00
-6.8469942982741427428550196e+00,-6.1757862098952962526254851e+00
-8.0672181632744823787106725e+00,-4.4804658924386107088366771e+00
-8.8930609526835660005872342e+00,-2.3715086849175985861393201e+00
-9.1843083214163758754011724e+00,-0.0000000000000000000000000e+00
7.1287047528978044752534515e+00,-0.0000000000000000000000000e+00
6.9335693961279778463335788e+00,-1.8336745155414786445646769e+00
6.3627443680624464761308445e+00,-3.5143955125941923611776474e+00
5.4822848762988849458110963e+00,-4.9314349874112997085262577e+00
4.3955185507255567500806137e+00,-6.0377603410082691937077470e+00
3.1913106410738252272096815e+00,-6.8348007002409669752296395e+00
1.9285124460105991239800005e+00,-7.3446251512465163813203617e+00
6.4362429651787744777635680e-01,-7.5926166852080472224884033e+00
-6.4536394789538331639988655e-01,-7.5916996304731556577394258e+00
-1.9288847408144287332021349e+00,-7.3436098604194617323059902e+00
-3.1896611512053407722078191e+00,-6.8350908149043281269996442e+00
-4.3938850232991013555761128e+00,-6.0390722446317326443931961e+00
-5.4820883991397844070547762e+00,-4.9325686980348981691690824e+00
-6.3635585597489150444516781e+00,-3.5166108794850732266468185e+00
-6.9340142430069953149995854e+00,-1.8370649474209375107136566e+00
-7.1289217723122417780245996e+00,-0.0000000000000000000000000e+00
5.5125480285753605258491916e+00,-0.0000000000000000000000000e+00
5.3763344365314704731417805e+00,-1.4605185025452478431162717e+00
4.9700840266580073034674569e+00,-2.8208544805606745597970075e+00
4.3257702232663701735759787e+00,-4.0023191186275450803577769e+00
3.5042411434310181128637396e+00,-4.9568836960286706272427182e+00
2.5666011859366726355347055e+00,-5.6687206070211022534977019e+00
1.5611416700465032825206890e+00,-6.1361498893781707408834336e+00
5.2244347011199188113295122e-01,-6.3671844794825211977240542e+00
-5.2417853800079416970447710e-01,-6.3671649979707529709571645e+00
-1.5619311382176235269980680e+00,-6.1363830515920989583378287e+00
-2.5665793100964364725768974e+00,-5.6694823025671139404835230e+00
-3.5024145516811113765243135e+00,-4.9585987365566319695631137e+00
-4.3245329331274859896439011e+00,-4.0046042654023388251971483e+00
-4.9717144126605203879876171e+00,-2.8231273316377838433766101e+00
-5.3764500731984918857619959e+00,-1.4624819199480476594743550e+00
-5.5101784265745008539738592e+00,-0.0000000000000000000000000e+00
4.2076677478073092331101179e+00,-0.0000000000000000000000000e+00
4.1127149155673041747149909e+00,-1.1914225470634145498394219e+00
3.8209437519801494609339443e+00,-2.3132933906237234111813450e+00
3.3462556608308884342761758e+00,-3.3062634496158849195523999e+00
2.7291170623320000210298986e+00,-4.1268285166141529529681975e+00
2.0120444477243255576581760e+00,-4.7512250789313386079015800e+00
1.2300485735491804017982531e+00,-5.1689369050179472253603308e+00
4.1260918792529588383644068e-01,-5.3781804390716780872594427e+00
-4.1456252000496085496905607e-01,-5.3784228154542281785666091e+00
-1.2312020454107899247730984e+00,-5.1707022164899125726833518e+00
-2.0118768361698742275223140e+00,-4.7522389848474970719394150e+00
-2.7290069861343275725573676e+00,-4.1269845979952517467381767e+00
-3.3466169942209385013143219e+00,-3.3081932580474178173801647e+00
-3.8214362142946236566842799e+00,-2.3153350851037517443842262e+00
-4.1108869113692110275337654e+00,-1.1925491087493587105683446e+00
-4.2039579324161460149866798e+00,-0.0000000000000000000000000e+00
3.1297029344485323143487676e+00,-0.0000000000000000000000000e+00
3.0630410459077479501388552e+00,-9.9666749408759369721622079e-01
2.8552431241055375998882937e+00,-1.9426193538972509333717653e+00
2.5122350972759406317891262e+00,-2.7887138336220638201723432e+00
2.0592795141155639804253497e+00,-3.4983262764949909495726388e+00
1.5244927975328790292763870e+00,-4.0461099065549115394446744e+00
9.3418630990616380316282630e-01,-4.4183284744863033921546958e+00
3.1295755967571065037091671e-01,-4.6046979677061568025919769e+00
-3.1670031541902821103917631e-01,-4.6054409182291253799235164e+00
-9.3574730761089208730396649e-01,-4.4174323109229831629818364e+00
-1.5228616916017756466317223e+00,-4.0459667847562217346535363e+00
-2.0583688248810330101434829e+00,-3.4982723653247003170463358e+00
-2.5128834202359868754683703e+00,-2.7892464988740046649695614e+00
-2.8560702633624610591311921e+00,-1.9421212907292904059630700e+00
-3.0611149880947405854669796e+00,-9.9620449276545575134633737e-01
-3.1250802090757834328371700e+00,-0.0000000000000000000000000e+00
2.2143327596321209504992567e+00,-0.0000000000000000000000000e+00
2.1700955616700521311202010e+00,-8.5765327782461775463218601e-01
2.0288974124456786718440071e+00,-1.6749804589348316063990296e+00
1.7905487382331477519414875e+00,-2.4123880657721938902682268e+00
1.4717209893991511915345427e+00,-3.0378577031115878703815270e+00
1.0920422497330124489423042e+00,-3.5252746525259448517886085e+00
6.7146051239793513865095065e-01,-3.8588957918557027504391499e+00
2.2549674418247378504531753e-01,-4.0259104170851891524307575e+00
-2.2729686322178732638121801e-01,-4.0248388033112396655610610e+00
-6.7172791193788594643621082e-01,-3.8552933179607959957024832e+00
-1.0927168905715900493191839e+00,-3.5229042585864771552905950e+00
-1.4722867002521105028733928e+00,-3.0364021145985979899251106e+00
-1.7904659196255285902310561e+00,-2.4113684422916743521625449e+00
-2.0283942081860737438603337e+00,-1.6741414631019022607461011e+00
-2.1687656206399190672584609e+00,-8.5603921655781611832480849e-01
-2.2115489468852329579817706e+00,-0.0000000000000000000000000e+00
1.4143963787992956948613710e+00,-0.0000000000000000000000000e+00
1.3880605869729152335168010e+00,-7.6340319728672723087470331e-01
1.3005083361579607981184381e+00,-1.4947561309218351244254563e+00
1.1493578530991832575836042e+00,-2.1563867275396395584152742e+00
9.4639292736181224174885074e-01,-2.7229331505046285855087262e+00
7.0345470878876381615185664e-01,-3.1660660943992322557960506e+00
4.3355054534691966905413096e-01,-3.4706797559350870407968159e+00
1.4701454822017279155943470e-01,-3.6245027857688127959079338e+00
-1.4608321629463491553302390e-01,-3.6230086383106492320393954e+00
-4.3381276288612846681047586e-01,-3.4685126566230661815382064e+00
-7.0397048823957708574283743e-01,-3.1637794228067281920857567e+00
-9.4683300858623020701543282e-01,-2.7202799180473555828996268e+00
-1.1506227687392915903785706e+00,-2.1540662649369246572916836e+00
-1.3007410376286019371150360e+00,-1.4920943789394505163414806e+00
-1.3869735249928369924532490e+00,-7.6166388945612506500282279e-01
-1.4130017759601496418753186e+00,-0.0000000000000000000000000e+00
6.8752636505866659977215249e-01,-0.0000000000000000000000000e+00
6.7533943074821722873934959e-01,-7.0719818939964818049759288e-01
6.3591388219276656634804112e-01,-1.3880605869729154555614059e+00
5.6237171865035473494742746e-01,-2.0077065255576087565714261e+00
4.6204162253955871619837126e-01,-2.5374184400720984911004052e+00
3.4429564430255399365421454e-01,-2.9540994529194235518332334e+00
2.1302382102835487609482357e-01,-3.2408731488608624182745643e+00
7.3167861806912121158674722e-02,-3.3876499982663408339078615e+00
-7.1306734076040947933883274e-02,-3.3878876970810369861908384e+00
-2.1249869643396526730505514e-01,-3.2415667819717057795969595e+00
-3.4448415199587933965830189e-01,-2.9540749341949084083580601e+00
-4.6257354238230807830234426e-01,-2.5375962937321294710102393e+00
-5.6228038051762452287363203e-01,-2.0072419256086764249857879e+00
-6.3599183270527337441535565e-01,-1.3869735249928367704086440e+00
-6.7667124170046866193928281e-01,-7.0650088798007482093765930e-01
-6.8822116797298282797612501e-01,-0.0000000000000000000000000e+00
-4.1633363423443350544363557e-16,-0.0000000000000000000000000e+00
2.0816681711721667876610792e-16,-6.8752636505866715488366481e-01
7.2858385991025868383016882e-16,-1.3506788614964344574786992e+00
4.1633363423443380126647503e-16,-1.9593541294441996214459323e+00
-2.6020852139652086694656237e-15,-2.4754222987971434832843443e+00
2.0816681711721653085468819e-16,-2.8834373745233219388239831e+00
2.7061686225238159118389813e-15,-3.1640135874022510265035635e+00
-1.6653345369377346134202212e-15,-3.3094850165800266950100195e+00
2.0816681711721680202562436e-16,-3.3103493110160786550011380e+00
-0.0000000000000000000000000e+00,-3.1668715484279443828086187e+00
-6.2450045135165104702635858e-16,-2.8853519181481481759021790e+00
6.2450045135165015955784020e-16,-2.4779032444361868137150395e+00
1.0408340855860886939897466e-16,-1.9602048333835300208960462e+00
2.0816681711721670341801121e-16,-1.3533424834009366577447508e+00
-3.1225022567582527699414641e-16,-6.8822116797298282797612501e-01
-0.0000000000000000000000000e+00,-0.0000000000000000000000000e+00
