Ex,Ey
-0.0000000000000000000000000e+00,-1.5000000000000000000000000e+02
-0.0000000000000000000000000e+00,-7.5827124288808818164397962e+01
-0.0000000000000000000000000e+00,-4.6995994901053769865484355e+01
-0.0000000000000000000000000e+00,-3.3894193454698765322063991e+01
-0.0000000000000000000000000e+00,-2.7159223994364538157242350e+01
-0.0000000000000000000000000e+00,-2.3450008981755861015017217e+01
-0.0000000000000000000000000e+00,-2.1430484315221740132528794e+01
-0.0000000000000000000000000e+00,-2.0529028185382813376236300e+01
-0.0000000000000000000000000e+00,-2.0527032917729179928301164e+01
-0.0000000000000000000000000e+00,-2.1426624617175981768468773e+01
-3.9968028886505641766137982e-14,-2.3447016081636657958142678e+01
-1.3322676295501870596474528e-14,-2.7157715872864507389294886e+01
3.9968028886505610211701773e-14,-3.3892497585920331459874433e+01
1.3322676295501881640527201e-14,-4.6994969196084809937019600e+01
-0.0000000000000000000000000e+00,-7.5827124476892009852235788e+01
-0.0000000000000000000000000e+00,-1.5000000000000000000000000e+02
7.4172875711191181835602038e+01,-7.5000000000000000000000000e+01
5.1502002549473118619971501e+01,-5.3125886460330903560134175e+01
2.0966465417055019315739628e+01,-3.9101155149712958802865614e+01
9.9183854533446158541210025e+00,-3.0678744777781766117641382e+01
5.2220922364714530417018068e+00,-2.5614198638271854946424355e+01
2.8643698395713985682675684e+00,-2.2573097271095615923286459e+01
1.4604903981865244855242736e+00,-2.0837823919023456653576432e+01
4.5172569874627932495769755e-01,-2.0045096035314220017653497e+01
-4.4879821589658430713853932e-01,-2.0044011223485298955893086e+01
-1.4599915819537392369653617e+00,-2.0835044674849516610493083e+01
-2.8655456278443041107095723e+00,-2.2570621176402553942352824e+01
-5.2227407521418465208284942e+00,-2.5612109796352413582098961e+01
-9.9186266616101050885845325e+00,-3.0676790154735261495488885e+01
-2.0967313445485828538039641e+01,-3.9099182314737937815607438e+01
-5.1502515401957609242344915e+01,-5.3125092660987768056202185e+01
-7.4172875523108018569473643e+01,-7.5000000000000000000000000e+01
4.3748227079338199985159008e+01,-0.0000000000000000000000000e+00
3.5898844850287041197134386e+01,-2.2542379593380186264539589e+01
2.2447141682549130337065435e+01,-2.5570754163012001214383417e+01
1.3486956511441105632798099e+01,-2.4072673684241859604071578e+01
8.1056475066861501943549229e+00,-2.2013980528266944958204476e+01
4.7763747192483965164910842e+00,-2.0356606167587411704289480e+01
2.5280012357813981260790115e+00,-1.9268245043984908448919668e+01
7.9381269553815880790637038e-01,-1.8737110735542774619943884e+01
-7.8994863953529859124103041e-01,-1.8737709977327412502745574e+01
-2.5266099529172563187273681e+00,-1.9267770423372823529462039e+01
-4.7770651215029378278131844e+00,-2.0356083241800838834478782e+01
-8.1061689783327146585634182e+00,-2.2013127988941999291228058e+01
-1.3487072518385474495516974e+01,-2.4071665707892773156117983e+01
-2.2448302506252503007999621e+01,-2.5568668782293773489300293e+01
-3.5900817685262069289819920e+01,-2.2541678296336382203435278e+01
-4.3749814678024470993022987e+01,-0.0000000000000000000000000e+00
2.9088116524430802201095503e+01,-0.0000000000000000000000000e+00
2.5931248386461110300160726e+01,-1.1470787767327886186308206e+01
1.9436171326193345976207638e+01,-1.6563036095320676110986824e+01
1.3475159088089673886656783e+01,-1.8027936017481131614204060e+01
8.9381597531259053823760041e+00,-1.8013933350209473616132527e+01
5.6101053238534328571063270e+00,-1.7570249794777744511975470e+01
3.0799858302311617919144737e+00,-1.7142284779373738956564921e+01
9.8226076540377538215409459e-01,-1.6900057842561718501883661e+01
-9.7945790372663510403583587e-01,-1.6901199849925919949100717e+01
-3.0783648464271649025647548e+00,-1.7143433307716257729680365e+01
-5.6109031934134820929216403e+00,-1.7571632770289561165100167e+01
-8.9383232182337799542892753e+00,-1.8014567936215591714699258e+01
-1.3474167454961877510299928e+01,-1.8027487297392561060860317e+01
-1.9437326033929437585356936e+01,-1.6563158512595997251537483e+01
-2.5933846619663821542189908e+01,-1.1471466202504098319536752e+01
-2.9089518930435232846321014e+01,-0.0000000000000000000000000e+00
2.0806651544682427612542597e+01,-0.0000000000000000000000000e+00
1.9335808754966361533433883e+01,-6.7803933872714505781686967e+00
1.5889993432395888461883260e+01,-1.1182358181153720266820528e+01
1.2036059256552308127652395e+01,-1.3461955153741701707303946e+01
8.5633337293895355202266728e+00,-1.4443080987218925415049853e+01
5.6480232900841311760586905e+00,-1.4771129988989907033669624e+01
3.1981931879974263566168702e+00,-1.4831736441592170194780920e+01
1.0348976249859800358166240e+00,-1.4821746370628151368009640e+01
-1.0333241046898391513053639e+00,-1.4823434216962661835736981e+01
-3.1970428732809006433512877e+00,-1.4835015579429301268987729e+01
-5.6481997500022709246536579e+00,-1.4773321266126758999348567e+01
-8.5620235054357127779667280e+00,-1.4443534221236495440621184e+01
-1.2035663094765881808712038e+01,-1.3461210709999727797026026e+01
-1.5892281411364036713962378e+01,-1.1182785744131839678061624e+01
-1.9337659172666072038282437e+01,-6.7804261662970359836322132e+00
-2.0806882273016267248522126e+01,-0.0000000000000000000000000e+00
1.5527329749887904597471788e+01,-0.0000000000000000000000000e+00
1.4748890205307393586053877e+01,-4.4696426226685188609621946e+00
1.2754609559723098399786068e+01,-7.9252156818955930006609378e+00
1.0214436282024468738427458e+01,-1.0192327751503817978573352e+01
7.6289849178777000560103261e+00,-1.1524580663818689174604515e+01
5.2214498694801880773752600e+00,-1.2242457165578620958967804e+01
3.0293694485929174575744582e+00,-1.2594765475704695845138303e+01
9.9056299003328374119803357e-01,-1.2736287825484042812718144e+01
-9.9272711252778500501392500e-01,-1.2737855951455404834860019e+01
-3.0282518955912625102655511e+00,-1.2598220802871539447664873e+01
-5.2194218352206771527335150e+00,-1.2245070127844986274112671e+01
-7.6262126621067496401451535e+00,-1.1526101850361156309077160e+01
-1.0213418977857223524097208e+01,-1.0193612601552716867558956e+01
-1.2756541490226743107427865e+01,-7.9245275455712258505514001e+00
-1.4751060875531981864128284e+01,-4.4681606987350592774532743e+00
-1.5528666597841160879056588e+01,-0.0000000000000000000000000e+00
1.1867366299345388114261368e+01,-0.0000000000000000000000000e+00
1.1410593073070767644594525e+01,-3.1735807800363988739889010e+00
1.0167308303560588456093683e+01,-5.8582741663599398052042488e+00
8.4366942746292128418872380e+00,-7.8613663227957690793346046e+00
6.5132043153147307634753815e+00,-9.2244621283309538029016039e+00
4.5778384781981245055249019e+00,-1.0082712475890161840652581e+01
2.7043625280920040587773201e+00,-1.0572606867693670196217681e+01
8.9180714923527104609490834e-01,-1.0793529760200252454183101e+01
-8.9525708207733445398446293e-01,-1.0793592048749431455689773e+01
-2.7042570496704816385147296e+00,-1.0573818717593159277612358e+01
-4.5760807974918868978875253e+00,-1.0084364570969889030038757e+01
-6.5105659791434442595914334e+00,-9.2260427947354770594756701e+00
-8.4340887899759540147215375e+00,-7.8632972920802606253687372e+00
-1.0166829508546378235678276e+01,-5.8595472771544692136558297e+00
-1.1413131627094841746838938e+01,-3.1729446775480636411259638e+00
-1.1870560875546145140901899e+01,-0.0000000000000000000000000e+00
9.1801681898151059613155667e+00,-0.0000000000000000000000000e+00
8.8906160389474528926712082e+00,-2.3690141054167810352737433e+00
8.0668240169637286385295738e+00,-4.4763066275310094965789176e+00
6.8482483200534529643732640e+00,-6.1741482074240039423784765e+00
5.4076387647833055183355100e+00,-7.4315366118912526971485022e+00
3.8733051301174716840591827e+00,-8.2915681921064976478419339e+00
2.3185521642828272881331486e+00,-8.8185297927309491683445231e+00
7.6957780897752314785975614e-01,-9.0682994830069159064578344e+00
-7.7301606992069249457699698e-01,-9.0673290432888080658813124e+00
-2.3190244178117209727929549e+00,-8.8189377089725109470919051e+00
-3.8716459123629927141507778e+00,-8.2926370358990215692074344e+00
-5.4051453832171212354751333e+00,-7.4329363299037716217299021e+00
-6.8469234602762174546342067e+00,-6.1761941610183086481811188e+00
-8.0661888756945447909174618e+00,-4.4808444487653087406897612e+00
-8.8915135983775108741156146e+00,-2.3719492059309246201337373e+00
-9.1827772427450309322694011e+00,-0.0000000000000000000000000e+00
7.1293380885118269318923012e+00,-0.0000000000000000000000000e+00
6.9342864455397590361940274e+00,-1.8331030495907880695227732e+00
6.3621742015533664371673694e+00,-3.5124865144382897419461642e+00
5.4814642902689696413176534e+00,-4.9296813529144998256015242e+00
4.3957843306322370580119241e+00,-6.0361488452904072943283609e+00
3.1908452973584289225073007e+00,-6.8331259948314881924602560e+00
1.9276312371915862442506295e+00,-7.3431008368046386536320824e+00
6.4300789867741137140200181e-01,-7.5918335565607737436266689e+00
-6.4589530804292871746241644e-01,-7.5916045758576897739544620e+00
-1.9295650422806940316178270e+00,-7.3439921222868482786338973e+00
-3.1900794184231484607039420e+00,-6.8355231517384558159733388e+00
-4.3941231042627331149219572e+00,-6.0392777976673519546579882e+00
-5.4819969088374929100382360e+00,-4.9332553683329019023062756e+00
-6.3625845534589942076308944e+00,-3.5169942062724421916186657e+00
-6.9322871783295321179707571e+00,-1.8370019565691071417035118e+00
-7.1266624636842959006344245e+00,-0.0000000000000000000000000e+00
5.5139620906335293781808105e+00,-0.0000000000000000000000000e+00
5.3781295245091635948142539e+00,-1.4596355731746011308302968e+00
4.9702457136400175485846376e+00,-2.8192713369861621686141007e+00
4.3245859892013358560802772e+00,-4.0001801773008880402926479e+00
3.5041941228663180396551979e+00,-4.9554602391914235326453309e+00
2.5663531386032412129338809e+00,-5.6672997972729985960427257e+00
1.5598446025535419590113406e+00,-6.1348029190192354676014475e+00
5.2107406992447158344816671e-01,-6.3665973819278445233749153e+00
-5.2517463564676747367343523e-01,-6.3667848252050873725238489e+00
-1.5629429936924870148118316e+00,-6.1362300635539330784240519e+00
-2.5669315877434963901748688e+00,-5.6688752123285217621173615e+00
-3.5028775998115686540756997e+00,-4.9585976691073039290813540e+00
-4.3246398688813094679517235e+00,-4.0046836224307655882626023e+00
-4.9699354639307484760024636e+00,-2.8236474877152284435055662e+00
-5.3745193921050686824969489e+00,-1.4622897373273731069787118e+00
-5.5087733296068170929515873e+00,-0.0000000000000000000000000e+00
4.2100669421626246702317076e+00,-0.0000000000000000000000000e+00
4.1150151085535977557583465e+00,-1.1901714976096571252384138e+00
3.8216295974270813040618577e+00,-2.3116548080079244442686104e+00
3.3452753880637082772864233e+00,-3.3040635332869539020350658e+00
2.7286647106601265022618463e+00,-4.1257262185466396786637233e+00
2.0115026175306174316403940e+00,-4.7508382709262955145845808e+00
1.2283336525367403169184399e+00,-5.1689871645036555847241289e+00
4.1102599249155891136808805e-01,-5.3780724520777525299308763e+00
-4.1552798966901682842234322e-01,-5.3779425750714615617198433e+00
-1.2316554294041284212113396e+00,-5.1694559062092437784485810e+00
-2.0124470239765197554504539e+00,-4.7508075048582041333133930e+00
-2.7299315143649787174240373e+00,-4.1264972995788093967917121e+00
-3.3470467274454196449084975e+00,-3.3075723358456703415697575e+00
-3.8201906683556012822577941e+00,-2.3159620056191281278756833e+00
-4.1086396906143036744651909e+00,-1.1930114550733024181283781e+00
-4.2020829890295496866770009e+00,-0.0000000000000000000000000e+00
3.1336190954142160158824026e+00,-0.0000000000000000000000000e+00
3.0664747165012400387240632e+00,-9.9591959930646567489276322e-01
2.8563536779627218820110102e+00,-1.9419415084696514117723609e+00
2.5105145786626210657743741e+00,-2.7881537330243104655380648e+00
2.0574193852269759830164730e+00,-3.4980409957712357282844096e+00
1.5230921926462257509626852e+00,-4.0468583480453412803967694e+00
9.3261042140208560979885988e-01,-4.4190597247312446427258692e+00
3.1211865935666527338554488e-01,-4.6046897629955498842946326e+00
-3.1655808977825861116883743e-01,-4.6044896889852262589215570e+00
-9.3580792347922925333847388e-01,-4.4158999768755755610527558e+00
-1.5239729811130620085179999e+00,-4.0447204485442496135760848e+00
-2.0596424307990357505104839e+00,-3.4973340266334642656431697e+00
-2.5141045749216299753925341e+00,-2.7882248097340736059379651e+00
-2.8553745831583809966502940e+00,-1.9412885095009457803172381e+00
-3.0585573864859405546212656e+00,-9.9596027807132936349177044e-01
-3.1227504194602122566948310e+00,-0.0000000000000000000000000e+00
2.2182277435496922102231565e+00,-0.0000000000000000000000000e+00
2.1730736000839452337629609e+00,-8.5870670709050822555497007e-01
2.0293954637092355142158340e+00,-1.6772492213249858838963746e+00
1.7891759007621230725959549e+00,-2.4145145368619478354332841e+00
1.4699600956390947992247220e+00,-3.0389132050122484862697547e+00
1.0904838885706080731097245e+00,-3.5265333569097516708268358e+00
6.7050223758653115790906440e-01,-3.8599296492724661788997764e+00
2.2559602823757773926161008e-01,-4.0254902192918784464836790e+00
-2.2673820354904233864701268e-01,-4.0241918068469608726900333e+00
-6.7188618896315122075435511e-01,-3.8549742450492039402831779e+00
-1.0938810737344075718624481e+00,-3.5222709878682798567695045e+00
-1.4734358755548029318305225e+00,-3.0360249724911225754908628e+00
-1.7910012103129009375379610e+00,-2.4102965600568628801170235e+00
-2.0279261366928555965216674e+00,-1.6720781212826754114075811e+00
-2.1673511811133563398357182e+00,-8.5499311660686716507484562e-01
-2.2101624328868889612920157e+00,-0.0000000000000000000000000e+00
1.4162056812331984545494379e+00,-0.0000000000000000000000000e+00
1.3892254951762530446046640e+00,-7.6478226499621737577427893e-01
1.3005458481912814949765789e+00,-1.4966916369760825400447857e+00
1.1488505949753575752225743e+00,-2.1589699151874541804829732e+00
9.4540056517917092637759424e-01,-2.7240973439515041576441945e+00
7.0207574838600783628805857e-01,-3.1664665940188680970379664e+00
4.3365355901995850107510933e-01,-3.4708112879423831387271093e+00
1.4785650178217080163989294e-01,-3.6236549472518215786465134e+00
-1.4604211553558332781221907e-01,-3.6231611691836738131655693e+00
-4.3388710450054834844024754e-01,-3.4688474423964668069686468e+00
-7.0502370855498042168107986e-01,-3.1635331168241815902320013e+00
-9.4766800298761877385800290e-01,-2.7197343963435307578890843e+00
-1.1501577237131825892646475e+00,-2.1540030957993767657399076e+00
-1.3000711397083839493404867e+00,-1.4910907979128475986385638e+00
-1.3864792652032638109460549e+00,-7.6152414331695361671137334e-01
-1.4127641862464765942775102e+00,-0.0000000000000000000000000e+00
6.8866321355725801378611095e-01,-0.0000000000000000000000000e+00
6.7638196310786335985199003e-01,-7.0810284061659956034162633e-01
6.3520781351799904257404705e-01,-1.3892254951762530446046640e+00
5.6177019378670189908575594e-01,-2.0086486888078813883851126e+00
4.6246341680768071613627512e-01,-2.5380760901516112859610530e+00
3.4376994457972920304911213e-01,-2.9540492539870544241864536e+00
2.1331388435357800936742478e-01,-3.2401518385376189002045066e+00
7.3246146996286898289696410e-02,-3.3877028130070110378824211e+00
-7.1930698693687275535602055e-02,-3.3880083403197902569559119e+00
-2.1225813660365874802060659e-01,-3.2416606974714285982486217e+00
-3.4476802768147180033864174e-01,-2.9541212358192412423818496e+00
-4.6390585452999871796109232e-01,-2.5366369889164470663445172e+00
-5.6235761188221866646586022e-01,-2.0064532328316220244346368e+00
-6.3544718421043289158234302e-01,-1.3864792652032635889014500e+00
-6.7626038320050896324175937e-01,-7.0638209312323829713875512e-01
-6.8711414625298217195847883e-01,-0.0000000000000000000000000e+00
-4.1633363423443350544363557e-16,-0.0000000000000000000000000e+00
1.5612511283791249058565347e-16,-6.8866321355725856889762326e-01
4.1633363423443350544363557e-16,-1.3527639262157267197039801e+00
-1.5612511283791249058565347e-16,-1.9590788405932564320011124e+00
-2.2898349882893833924714773e-15,-2.4763043137891309619647018e+00
4.1633363423443345613982899e-16,-2.8840056742086224161880637e+00
2.2898349882893822091801194e-15,-3.1638442029485887019291113e+00
-6.2450045135165055398829281e-16,-3.3106334429157739940308147e+00
-1.0408340855860842566471547e-15,-3.3103364969411637197538312e+00
6.2450045135165055398829281e-16,-3.1667720455284014136054793e+00
6.2450045135165104702635858e-16,-2.8858202237338450579784421e+00
-2.0816681711721682667752765e-16,-2.4772359901654565916828687e+00
3.6429192995512870096559892e-16,-1.9580085146738472889893501e+00
-2.0816681711721670341801121e-16,-1.3525207664010177044389138e+00
-1.5612511283791263849707320e-16,-6.8711414625298217195847883e-01
-0.0000000000000000000000000e+00,-0.0000000000000000000000000e+00
