Ex,Ey
-0.0000000000000000000000000e+00,-1.5000000000000000000000000e+02
1.3322676295501878485083580e-14,-7.5827319433435420137357141e+01
-0.0000000000000000000000000e+00,-4.6996525751608338339337934e+01
-1.3322676295501878485083580e-14,-3.3894649397200488749604119e+01
3.9968028886505641766137982e-14,-2.7159174886855730335355474e+01
-0.0000000000000000000000000e+00,-2.3449318333813426562528548e+01
-3.9968028886505629144363498e-14,-2.1429144144545066552609569e+01
-0.0000000000000000000000000e+00,-2.0527445794259719491492433e+01
-0.0000000000000000000000000e+00,-2.0525419417108789588155560e+01
-0.0000000000000000000000000e+00,-2.1425178185201147584848513e+01
-2.6645352591003763281054402e-14,-2.3446236137788325493147568e+01
1.3322676295501870596474528e-14,-2.7157555923173788414715091e+01
2.6645352591003741192949056e-14,-3.3891942926304466254805448e+01
-1.3322676295501881640527201e-14,-4.6994265481800056249994668e+01
-0.0000000000000000000000000e+00,-7.5826679831864680636499543e+01
-0.0000000000000000000000000e+00,-1.5000000000000000000000000e+02
7.4172680566564579862642859e+01,-7.5000000000000000000000000e+01
5.1501737124195848593899427e+01,-5.3125900422054449734332593e+01
2.0966335018117458588449153e+01,-3.9101213210970392708532017e+01
9.9186754323762897911365144e+00,-3.0678642777990052792347342e+01
5.2226655316935746142803509e+00,-2.5613780967689134371312321e+01
2.8650153711553323354621625e+00,-2.2572356354166402070404729e+01
1.4609362697768133454445660e+00,-2.0836714069002770344241071e+01
4.5186236371813859324930718e-01,-2.0043908547459242441846072e+01
-4.4886619547071415770034264e-01,-2.0042935846118243858882124e+01
-1.4604083603397690627190286e+00,-2.0833893687097141622643903e+01
-2.8661888689863483925535093e+00,-2.2569701644643764382180962e+01
-5.2228533942580543936173854e+00,-2.5611634013570462542475070e+01
-9.9183547793131019432166795e+00,-3.0676262637792852672191657e+01
-2.0967368452780124954415442e+01,-3.9098617583184910984073213e+01
-5.1502867259099986085857381e+01,-5.3124760193791345841418661e+01
-7.4173320168135333574355172e+01,-7.5000000000000000000000000e+01
4.3748199155891100531334814e+01,-0.0000000000000000000000000e+00
3.5898786789029621502322698e+01,-2.2542197944442101231743436e+01
2.2447257644064389836557893e+01,-2.5570255670260578995112155e+01
1.3487432243281240573651303e+01,-2.4072010157663580542930504e+01
8.1062864238236933545067586e+00,-2.2013415762493171001779046e+01
4.7770668986863631388928297e+00,-2.0355968817654439106945574e+01
2.5284478067071165519053011e+00,-1.9267635750650118353632934e+01
7.9377822288452715149276173e-01,-1.8736564060371833306817280e+01
-7.8998513963789895875322600e-01,-1.8736985056405515592814481e+01
-2.5267657985255214114772571e+00,-1.9266959055088989316573134e+01
-4.7777403264733466770053383e+00,-2.0354905640454415305384828e+01
-8.1065609931490687500854619e+00,-2.2011844142760708109562984e+01
-1.3486983569614412914461354e+01,-2.4070755711265501730622418e+01
-2.2448497555998514485509077e+01,-2.5568220501473987837925961e+01
-3.5901382416815096121354145e+01,-2.2541451082409373896098259e+01
-4.3750479612417315422590036e+01,-0.0000000000000000000000000e+00
2.9088284677680370293728629e+01,-0.0000000000000000000000000e+00
2.5931481453935262493359915e+01,-1.1470571045473269222725321e+01
1.9436522804895982829975765e+01,-1.6562473248381699875153572e+01
1.3475515340143699560826462e+01,-1.8027581202832802631519371e+01
8.9387068717027151620868608e+00,-1.8013696571668635471041853e+01
5.6107953829983845395190656e+00,-1.7570077218081664227611327e+01
3.0803410270594184794390458e+00,-1.7142134950575403706807265e+01
9.8251305796273968873322247e-01,-1.6899630545745839782512121e+01
-9.7926119018787027847849913e-01,-1.6900508312719221493125588e+01
-3.0783289443886694414231897e+00,-1.7142611246579761541397602e+01
-5.6110739566580667414541495e+00,-1.7570444536165620519341246e+01
-8.9387034650691390424981364e+00,-1.8013139813971555724947393e+01
-1.3474731138026378118865978e+01,-1.8026330323957317602889816e+01
-1.9438063823923997119891283e+01,-1.6562456772876306132502577e+01
-2.5934646757625984037076705e+01,-1.1471135399039226854256412e+01
-2.9090418003316568018590260e+01,-0.0000000000000000000000000e+00
2.0807057064944565638597851e+01,-0.0000000000000000000000000e+00
1.9336313540647925179882805e+01,-6.7801695761320592836796095e+00
1.5890247486704861756834362e+01,-1.1181881659413701157745891e+01
1.2036208919994308530476701e+01,-1.3461870751044701322030051e+01
8.5637904085748299820579632e+00,-1.4442914702057299436432913e+01
5.6486285197795913504137388e+00,-1.4771162537480426735214678e+01
3.1988944790429414410937170e+00,-1.4831582251227308333341171e+01
1.0354048607407120297096981e+00,-1.4821097965775894778062138e+01
-1.0329658404718202735494970e+00,-1.4822912453556021716849500e+01
-3.1967020219719231022281747e+00,-1.4834298002566518093203740e+01
-5.6482688938651390841982902e+00,-1.4772078495804134234958838e+01
-8.5624467809407640572771925e+00,-1.4442218387762265408014173e+01
-1.2036300528519166874730217e+01,-1.3460043834729912504144522e+01
-1.5893302631080420184161994e+01,-1.1181382017302819775750322e+01
-1.9338925643938786436137889e+01,-6.7797513657677246357025069e+00
-2.0808208814338858161363532e+01,-0.0000000000000000000000000e+00
1.5527945525416255279083089e+01,-0.0000000000000000000000000e+00
1.4749599794521563111970863e+01,-4.4698650685609111476992439e+00
1.2754821629983343456160583e+01,-7.9251408050050384801465952e+00
1.0214482297500103058496279e+01,-1.0192108229269654984250337e+01
7.6294150852669888607238136e+00,-1.1524033370201898662799067e+01
5.2221278338283765307892281e+00,-1.2241836153662923436513665e+01
3.0304055987639504365915855e+00,-1.2594324106962041298629629e+01
9.9118285563402541704647319e-01,-1.2735960268224644664769585e+01
-9.9246122697849403770931076e-01,-1.2737507719430645636293775e+01
-3.0274949866367824036217371e+00,-1.2597928875086799038740537e+01
-5.2189943418538140562645822e+00,-1.2244519663704938494674934e+01
-7.6266688039949173116838210e+00,-1.1525089615733850934020666e+01
-1.0213894767566936039315806e+01,-1.0192809239422080835879569e+01
-1.2757771354961811027806107e+01,-7.9236872920128309516485388e+00
-1.4753264740323166037683222e+01,-4.4676479064474934332906741e+00
-1.5530915271781116970828407e+01,-0.0000000000000000000000000e+00
1.1867326927822741566842524e+01,-0.0000000000000000000000000e+00
1.1411172735642884035200950e+01,-3.1741914262546622182981082e+00
1.0168004325996117032104848e+01,-5.8591286250054377404694606e+00
8.4373163547974474596458094e+00,-7.8613648637809472319304405e+00
6.5140624841815588652593760e+00,-9.2238898806391187434883250e+00
4.5783377830194496027615969e+00,-1.0081979913800086734454453e+01
2.7047703644812211010162173e+00,-1.0572172905413982135769402e+01
8.9222124827210835817936641e-01,-1.0793427104633018132062716e+01
-8.9493444733397620183268373e-01,-1.0793585695034250804269504e+01
-2.7037139662462168487877534e+00,-1.0573911779531044885516167e+01
-4.5754296345121900912999990e+00,-1.0084637271816420778236534e+01
-6.5107363566579072866602473e+00,-9.2261950364552998138378825e+00
-8.4348982047981468923580906e+00,-7.8630438823098760536822738e+00
-1.0168141298105830117037840e+01,-5.8594649664569500302491178e+00
-1.1415238351925953708132511e+01,-3.1731409743309120230492226e+00
-1.1872913001443865965711666e+01,-0.0000000000000000000000000e+00
9.1795626729069290661300329e+00,-0.0000000000000000000000000e+00
8.8904711695161235951445633e+00,-2.3692620112969917656187135e+00
8.0676481924570584425282505e+00,-4.4779050076742539232554918e+00
6.8497210418664220554774147e+00,-6.1754176481050855329613114e+00
5.4088000352478484700213812e+00,-7.4328615284547536745662910e+00
3.8738448090535118062405218e+00,-8.2928922302978396174921727e+00
2.3189584079310181508049027e+00,-8.8192098832471081948369829e+00
7.6977006601375763672479025e-01,-9.0687094958018814594424839e+00
-7.7294590187652079116276127e-01,-9.0673221223867503937299261e+00
-2.3185465634189523775887665e+00,-8.8190166167122931994981627e+00
-3.8712775987780685404970882e+00,-8.2927030774217040942630774e+00
-5.4050754144883734753079807e+00,-7.4337215564198846351473549e+00
-6.8471646975685862557270411e+00,-6.1762470663459856368149303e+00
-8.0678684469828443326377965e+00,-4.4803530611543704864629944e+00
-8.8937997738662133428988454e+00,-2.3719348743667389989298044e+00
-9.1846333231192911483731223e+00,-0.0000000000000000000000000e+00
7.1288029052287598119619361e+00,-0.0000000000000000000000000e+00
6.9332677279686310001238780e+00,-1.8339920785495946731202821e+00
6.3618486891880241529406703e+00,-3.5148349161770906512458623e+00
5.4823598340169468201565905e+00,-4.9315681275138132377833244e+00
4.3965879019888056689069344e+00,-6.0377349813765528452336184e+00
3.1919894282270955265801149e+00,-6.8351973076169780796362829e+00
1.9289530989771781488428815e+00,-7.3446357316057255815167082e+00
6.4410900913246649235333052e-01,-7.5926658756086355950287725e+00
-6.4524156824438694268764038e-01,-7.5914296865214536680355195e+00
-1.9290949212811712154547195e+00,-7.3435528875124536085650107e+00
-3.1901345742197819710384010e+00,-6.8351027014124845493370231e+00
-4.3942803455821897173905199e+00,-6.0392186942490138079620010e+00
-5.4815297095326354082089892e+00,-4.9329395637614998904041386e+00
-6.3638291061265839232419239e+00,-3.5167746921181675112677567e+00
-6.9348852907715841098479359e+00,-1.8373011175037836650858480e+00
-7.1290432527103879678520570e+00,-0.0000000000000000000000000e+00
5.5115785158077406080678884e+00,-0.0000000000000000000000000e+00
5.3756362533390333879879108e+00,-1.4608166837012677152785045e+00
4.9700721434928407660436278e+00,-2.8214522896448670508107170e+00
4.3268209766669611937572881e+00,-4.0018896277990307908112300e+00
3.5051708551446831840792129e+00,-4.9564430314000729183021576e+00
2.5669440588243399581358517e+00,-5.6682586074337901749231605e+00
1.5614898399393615235908328e+00,-6.1359952841253440070090619e+00
5.2297611109802921713907153e-01,-6.3669320179719424146469464e+00
-5.2383291378033891572130187e-01,-6.3667576265641550037344132e+00
-1.5622195783099828148010602e+00,-6.1358958525235491876514970e+00
-2.5669434055146296280724982e+00,-5.6686113910407058824603155e+00
-3.5029122768373910368211455e+00,-4.9577758036774630667764541e+00
-4.3247206954377412913004264e+00,-4.0038630188535586640341535e+00
-4.9722300007251281073195059e+00,-2.8236351588141750390548168e+00
-5.3770250817480462757202986e+00,-1.4629233369912990614380988e+00
-5.5100310881117238182014262e+00,-0.0000000000000000000000000e+00
4.2071695378262248254941369e+00,-0.0000000000000000000000000e+00
4.1118154383237639493131610e+00,-1.1905838295912789526198594e+00
3.8207757450902626317201793e+00,-2.3123420435346941914644958e+00
3.3473690922617418408435697e+00,-3.3060151032475113552777657e+00
2.7302189223540462847950039e+00,-4.1270418578126282227458432e+00
2.0124371755018248819624205e+00,-4.7513145663197411394662595e+00
1.2302796884390263532083054e+00,-5.1693212940123887122467750e+00
4.1334666669365593971718909e-01,-5.3779261970271692305800570e+00
-4.1420540279599304955837624e-01,-5.3775630211329064067626859e+00
-1.2309486857577225382698316e+00,-5.1700044672143938839781185e+00
-2.0120145253736958501633580e+00,-4.7517199464488841798015528e+00
-2.7295319733950438312319875e+00,-4.1259199288468160204956803e+00
-3.3473890646693500450226111e+00,-3.3070124259246362896647042e+00
-3.8228894242643249867796840e+00,-2.3159573458007396418167900e+00
-4.1112501319574086267039092e+00,-1.1926603658726169232551229e+00
-4.2031965787277902890650694e+00,-0.0000000000000000000000000e+00
3.1304108566251831469173794e+00,-0.0000000000000000000000000e+00
3.0632942098043391965234150e+00,-9.9620021094795851990255642e-01
2.8546408698366096956533511e+00,-1.9415988094627707472028533e+00
2.5121211623890280506543604e+00,-2.7889795150389096178855652e+00
2.0598713920724533998907191e+00,-3.4981990569062988427617711e+00
1.5246646226245796906795249e+00,-4.0456401028709114697790028e+00
9.3487820923193365452164016e-01,-4.4176192509729892421432851e+00
3.1473438397751107853395069e-01,-4.6046515039102313693319957e+00
-3.1591118396756329156360721e-01,-4.6048219048128027353072866e+00
-9.3637650362595992170611225e-01,-4.4165819527783485298755295e+00
-1.5228588671470515425454550e+00,-4.0457169548905547173944797e+00
-2.0582047563131449230411363e+00,-3.4972860680779116471228463e+00
-2.5147581123916666889783755e+00,-2.7889887660616756726028598e+00
-2.8578779406731080747761098e+00,-1.9423406803896285932609089e+00
-3.0610677359473066339035086e+00,-9.9649870985219723973358441e-01
-3.1247103563664899716911805e+00,-0.0000000000000000000000000e+00
2.2147691159303066754659994e+00,-0.0000000000000000000000000e+00
2.1702166288609920918872831e+00,-8.5830699771394869390661597e-01
2.0279964409993103124918434e+00,-1.6759185211959815031690368e+00
1.7907688448182126350616272e+00,-2.4131404898243693502024598e+00
1.4735583345220437667677515e+00,-3.0376285864093528488183438e+00
1.0930169814351340384916966e+00,-3.5243920088472453500116899e+00
6.7126828739970623161070762e-01,-3.8579359169506943771921215e+00
2.2614401285384228001973383e-01,-4.0252456826004978651667443e+00
-2.2613585166410993254615391e-01,-4.0255834916301180825826123e+00
-6.7184373583547385422320986e-01,-3.8558589341617621748525835e+00
-1.0927186406732585233214650e+00,-3.5231877615639111134271388e+00
-1.4728037845661654525741824e+00,-3.0374151182466442300267317e+00
-1.7924436769810667691160688e+00,-2.4122932130952974283388812e+00
-2.0303993680548448885758717e+00,-1.6734443477551048662377298e+00
-2.1689094515677784791307658e+00,-8.5586735080163256483842815e-01
-2.2101991590233938111964562e+00,-0.0000000000000000000000000e+00
1.4137968611972846488811228e+00,-0.0000000000000000000000000e+00
1.3873756886083568051759585e+00,-7.6387404078542220364766990e-01
1.2998073777261882622013900e+00,-1.4951692982010840182738320e+00
1.1504110971756558168266338e+00,-2.1567169192014628009701482e+00
9.4861987304957640088076687e-01,-2.7230487077263183515185574e+00
7.0435729208323760719423490e-01,-3.1666843888481257529576851e+00
4.3402453547868163896694682e-01,-3.4717098326302910926699496e+00
1.4708680929808706783212813e-01,-3.6246825143519041390050006e+00
-1.4652443552882757349387077e-01,-3.6247439503381815306681801e+00
-4.3398077355975239743912653e-01,-3.4706899287370922557727226e+00
-7.0441505123193348669730085e-01,-3.1645832424271356231315622e+00
-9.4731020784453123795287866e-01,-2.7219709495155846035174818e+00
-1.1507873419001273251893736e+00,-2.1559531703068164354419878e+00
-1.3014520783794418790080272e+00,-1.4918910852961684287976141e+00
-1.3876233881922004353981492e+00,-7.6090379882614467277335280e-01
-1.4129756547632235097466946e+00,-0.0000000000000000000000000e+00
6.8702103435946282328217194e-01,-0.0000000000000000000000000e+00
6.7504733065990818463575351e-01,-7.0689843059864254648516635e-01
6.3515356258327049232548234e-01,-1.3873756886083568051759585e+00
5.6288943529297830181690188e-01,-2.0067058083248303645973465e+00
4.6359086487538042620215606e-01,-2.5377867857840139542702218e+00
3.4435585653116185245181669e-01,-2.9553256813744104292140946e+00
2.1327016189592842843048004e-01,-3.2421440778672510063529444e+00
7.3109895145952327744076626e-02,-3.3893502168530895701792360e+00
-7.2143266049298090947239359e-02,-3.3892308871653384905187067e+00
-2.1168302792442852955367982e-01,-3.2428257813242620244409409e+00
-3.4399966145175103759967783e-01,-2.9552501136055857600126728e+00
-4.6417371244584665346266661e-01,-2.5384107300923290928551523e+00
-5.6236381276165148257462079e-01,-2.0079399057610531897921646e+00
-6.3534999657417323692953914e-01,-1.3876233881921999913089394e+00
-6.7701836627161005033315178e-01,-7.0648782738161175487334731e-01
-6.8839156137110457667205310e-01,-0.0000000000000000000000000e+00
0.0000000000000000000000000e+00,-0.0000000000000000000000000e+00
3.1225022567582498117130695e-16,-6.8702103435946293430447440e-01
7.2858385991025868383016882e-16,-1.3500946613198161472269021e+00
-1.1449174941446922878814175e-15,-1.9573281595260030307770194e+00
-3.2265856653168580401625587e-15,-2.4758735319057754153959650e+00
1.0408340855860836650014758e-15,-2.8845098892767699894079669e+00
2.2898349882893814203192142e-15,-3.1645852449680971218981540e+00
-6.2450045135165055398829281e-16,-3.3110502130686225719102822e+00
2.0816681711721685132943094e-16,-3.3108050352600031374095124e+00
4.1633363423443370265886188e-16,-3.1667636809700261402156229e+00
-4.1633363423443266727892377e-16,-2.8874389794111450235902794e+00
3.1225022567582483325988722e-16,-2.4787643580665248421723845e+00
8.3266726846886572898830016e-16,-1.9590915545194507174642240e+00
-3.1225022567582507977892010e-16,-1.3540367325432192124878839e+00
-4.1633363423443370265886188e-16,-6.8839156137110457667205310e-01
-0.0000000000000000000000000e+00,-0.0000000000000000000000000e+00
