Ex,Ey
-0.0000000000000000000000000e+00,-1.5000000000000000000000000e+02
3.9968028886505635455250740e-14,-7.5827145219652720697922632e+01
-0.0000000000000000000000000e+00,-4.6995887231258691940638528e+01
-3.9968028886505635455250740e-14,-3.3893890969037151705833821e+01
6.6613381477509405047192384e-14,-2.7158684679345039825193453e+01
-0.0000000000000000000000000e+00,-2.3449468801301868836617359e+01
-6.6613381477509379803643417e-14,-2.1429783640864219051991313e+01
-0.0000000000000000000000000e+00,-2.0528202394936709396233709e+01
-0.0000000000000000000000000e+00,-2.0526403023096566613503455e+01
-0.0000000000000000000000000e+00,-2.1426384444194212619549944e+01
-2.6645352591003763281054402e-14,-2.3447455256197830664177673e+01
-0.0000000000000000000000000e+00,-2.7158575955628663223251351e+01
2.6645352591003741192949056e-14,-3.3892853640481419574825850e+01
-0.0000000000000000000000000e+00,-4.6994941733419956619854929e+01
-0.0000000000000000000000000e+00,-7.5826960640378359812530107e+01
-0.0000000000000000000000000e+00,-1.5000000000000000000000000e+02
7.4172854780347279302077368e+01,-7.5000000000000000000000000e+01
5.1502056384370696662244882e+01,-5.3125699859292652149633795e+01
2.0966627125307780943330727e+01,-3.9101036059364204788835195e+01
9.9186012759567852015152312e+00,-3.0678590693624066432221298e+01
5.2222110838677107125249677e+00,-2.5613807822991443430282743e+01
2.8644505192404108306902799e+00,-2.2572620877046027487722313e+01
1.4606332031825128847657425e+00,-2.0837101530823630923805467e+01
4.5169030888382544208781155e-01,-2.0044358847812656421183419e+01
-4.4909102462875172268041979e-01,-2.0043446560573130454940838e+01
-1.4605261165506313592032939e+00,-2.0834629476203424758296023e+01
-2.8660957557172532794709241e+00,-2.2570486925112735576703926e+01
-5.2226991921417917907888295e+00,-2.5612198103013657402016179e+01
-9.9181828888956147238786798e+00,-3.0676595216725573322946730e+01
-2.0967053499948470118852129e+01,-3.9098879858444945512019331e+01
-5.1502529133290032348213572e+01,-5.3124880223269393297869101e+01
-7.4173039359621668609179324e+01,-7.5000000000000000000000000e+01
4.3748600281414702806159767e+01,-0.0000000000000000000000000e+00
3.5898963940635837843728950e+01,-2.2542166092484535511175636e+01
2.2447109165668578611985140e+01,-2.5570642859773037969262077e+01
1.3487228236372722278701985e+01,-2.4072667919588493390392614e+01
8.1059698165781064460588823e+00,-2.2013769381270083869139853e+01
4.7767062921678107301204363e+00,-2.0356112561992286913437056e+01
2.5282620292333053413358357e+00,-1.9267525195517993807925450e+01
7.9365497025050157908765414e-01,-1.8736507059992597135078540e+01
-7.9027062839077033551404838e-01,-1.8737167839561926996339025e+01
-2.5270403645396060099415081e+00,-1.9267196993305212515679159e+01
-4.7775686268102592890727465e+00,-2.0355188094993980740810002e+01
-8.1061082916128324171722852e+00,-2.2011845623402418681280324e+01
-1.3486681755431254359223203e+01,-2.4070558453215038952066607e+01
-2.2448285006543827080349729e+01,-2.5567831563904292124789208e+01
-3.5901120141555061593408027e+01,-2.2541286666131362892429024e+01
-4.3750239553461220509689156e+01,-0.0000000000000000000000000e+00
2.9088522595378190516157701e+01,-0.0000000000000000000000000e+00
2.5931413524597651587555447e+01,-1.1470876843157814306550790e+01
1.9436125298203826616827428e+01,-1.6562792222307340495035533e+01
1.3475474754459739301637455e+01,-1.8027748547830025671601106e+01
8.9387664414639189658373652e+00,-1.8013828539797351879769849e+01
5.6106947049924995596370536e+00,-1.7569795158267865531342977e+01
3.0802387051822006647228136e+00,-1.7141802155023722065152469e+01
9.8204766483989369696416816e-01,-1.6899682266076958114808804e+01
-9.7978095794136765839255077e-01,-1.6900889334611484571269102e+01
-3.0785463719826853257188759e+00,-1.7142958444499441839070641e+01
-5.6107443858144581128044592e+00,-1.7570638518714478237825460e+01
-8.9380695503628508902238536e+00,-1.8013046793105079501629007e+01
-1.3474168829397488167387564e+01,-1.8026155381577229519507455e+01
-1.9437781712864794059214546e+01,-1.6561857391819490459283770e+01
-2.5934697569385729565283327e+01,-1.1470902551072851949243159e+01
-2.9090466027358921508039202e+01,-0.0000000000000000000000000e+00
2.0806846595099070640344507e+01,-0.0000000000000000000000000e+00
1.9336171718328497348693418e+01,-6.7806159251895135042786933e+00
1.5890237460996369023291663e+01,-1.1182329204978307402029714e+01
1.2036191918882709117610830e+01,-1.3462225628209688821357304e+01
8.5639232061402665863170114e+00,-1.4443496661239260347997515e+01
5.6487326769414405447378158e+00,-1.4771364682047069649684090e+01
3.1983749214242136460484289e+00,-1.4831875685305643486344707e+01
1.0345677906627395170602313e+00,-1.4821756954578594545068881e+01
-1.0335468068132549479543059e+00,-1.4823502923750341508934980e+01
-3.1967895486426010087654959e+00,-1.4834613287864780062363934e+01
-5.6476569754158942870958526e+00,-1.4772141478000703429529494e+01
-8.5616251544755801461406008e+00,-1.4441912370035410617674643e+01
-1.2035492354145667093234806e+01,-1.3459962117774855627772013e+01
-1.5893032176039447733728593e+01,-1.1181988244490067785363863e+01
-1.9339262749735567581410578e+01,-6.7800973735989815693869787e+00
-2.0808434451315513058489159e+01,-0.0000000000000000000000000e+00
1.5527290744999165283957154e+01,-0.0000000000000000000000000e+00
1.4749084319619347738239412e+01,-4.4699622972779424756595290e+00
1.2754515595183656628819335e+01,-7.9259565929287791874457980e+00
1.0214307298198788132026493e+01,-1.0193201169758703272805178e+01
7.6296273876265381375105790e+00,-1.1525094246460366065321068e+01
5.2223156809261164212898620e+00,-1.2242877295514341895454891e+01
3.0298464326506753252488124e+00,-1.2595075571001100200874134e+01
9.9042042639519567437389469e-01,-1.2736525422912492899740755e+01
-9.9263729122755406386602317e-01,-1.2737936776363802948708326e+01
-3.0271849262330472463133901e+00,-1.2597954875062331581148101e+01
-5.2180434679850877799367481e+00,-1.2244302901581109566109262e+01
-7.6258901901370057530016311e+00,-1.1524989745357711257156552e+01
-1.0214244703852148887790463e+01,-1.0192823920783864011241349e+01
-1.2757916968688919112651092e+01,-7.9248534362084237514523011e+00
-1.4752709324895660003562625e+01,-4.4682500838035217327615101e+00
-1.5530271280160956592908406e+01,-0.0000000000000000000000000e+00
1.1866922000543183912668610e+01,-0.0000000000000000000000000e+00
1.1410215125399714608533941e+01,-3.1742453407266721931989650e+00
1.0166998588515607337967595e+01,-5.8596131076831845518881892e+00
8.4370542653511204633787202e+00,-7.8622918567529076483424433e+00
6.5142470803846252991320398e+00,-9.2250999416263859131959180e+00
4.5787513524007072973631693e+00,-1.0083237825688193822770700e+01
2.7047267940260639740301940e+00,-1.0572955846745417218812690e+01
8.9170658530003521491380525e-01,-1.0794095689025205331290636e+01
-8.9497625896309518367388591e-01,-1.0794013262875282066488580e+01
-2.7031556738599054057203830e+00,-1.0574102623849846338544012e+01
-4.5746918457112739631043041e+00,-1.0084614154008791686578661e+01
-6.5101461736783363676295266e+00,-9.2267517549810573740387554e+00
-8.4353560449963786993521353e+00,-7.8635351506547701561089525e+00
-1.0168458339059103678891915e+01,-5.8600007442707315874486085e+00
-1.1414409313527141165423018e+01,-3.1734387699529595927572245e+00
-1.1871934283708467816609300e+01,-0.0000000000000000000000000e+00
9.1788000635458182330239651e+00,-0.0000000000000000000000000e+00
8.8894712119361631863512230e+00,-2.3696875397350956049535853e+00
8.0664690791574216177650669e+00,-4.4771252310616365122086791e+00
6.8488204642555858825403448e+00,-6.1742140423514255687109653e+00
5.4086814186912510749039029e+00,-7.4324605436022865845302476e+00
3.8744597758070855597622995e+00,-8.2928552594921995932963910e+00
2.3189885693136629285504569e+00,-8.8197648862392021840150846e+00
7.6936301026532949443037523e-01,-9.0697790250710372816911331e+00
-7.7264422605219618134242410e-01,-9.0684354610475743641018198e+00
-2.3177858173665559782250511e+00,-8.8200472522379218531796141e+00
-3.8706925991162961508962326e+00,-8.2936723060133861196163707e+00
-5.4048111867829842225319226e+00,-7.4342918980832379816092725e+00
-6.8474936931418257657355753e+00,-6.1774884037908188716414770e+00
-8.0678205879871072170317348e+00,-4.4811950037760439613521157e+00
-8.8927085806249266397571773e+00,-2.3726370250290602648135518e+00
-9.1833937402550347428586974e+00,-0.0000000000000000000000000e+00
7.1275469210729927027614394e+00,-0.0000000000000000000000000e+00
6.9330898943380789845036816e+00,-1.8334978917295705613810242e+00
6.3624720858992809269238933e+00,-3.5125040023012639167632187e+00
5.4817189528104712792355713e+00,-4.9288213410268690850557505e+00
4.3956058632438512745466141e+00,-6.0358000312034914003334052e+00
3.1914470097637921419675422e+00,-6.8342555256046768619171417e+00
1.9278030284472271738138716e+00,-7.3445792196334469537077894e+00
6.4303601049166447811700209e-01,-7.5935483290404759415537228e+00
-6.4524448612998008822927432e-01,-7.5931679809032441852423290e+00
-1.9283925188257187155471684e+00,-7.3457964044035035655610955e+00
-3.1889364915565900915339625e+00,-6.8374456200438151753928651e+00
-4.3939622714557708960114724e+00,-6.0405576614519036482420233e+00
-5.4822591506891873436302376e+00,-4.9340408688562193972870773e+00
-6.3636069602973437397963608e+00,-3.5169639576318063589610574e+00
-6.9332143097510980922493218e+00,-1.8373182566778138991026026e+00
-7.1266602336503463988037765e+00,-0.0000000000000000000000000e+00
5.5118042800866788866187562e+00,-0.0000000000000000000000000e+00
5.3769672096348992695880042e+00,-1.4603855431963332911493580e+00
4.9711456298601239822687603e+00,-2.8199591765372162832647973e+00
4.3255244353533592871485780e+00,-4.0004776303800442249780644e+00
3.5032472341134432980425117e+00,-4.9548780063523407690695421e+00
2.5656805873771304504771251e+00,-5.6676159219285695556322935e+00
1.5596957658778645150476905e+00,-6.1357596276626074072169104e+00
5.2077424899553259596274302e-01,-6.3674786848306865749691497e+00
-5.2489230141522358330519182e-01,-6.3682120115946583283061955e+00
-1.5620634565071271904201922e+00,-6.1379465074577241878728273e+00
-2.5654538561646966776663703e+00,-5.6707137408465513317423756e+00
-3.5014064355953911089613939e+00,-4.9596554835152222295846514e+00
-4.3238999893217302528114487e+00,-4.0048706555852700006425948e+00
-4.9710979758086990543120010e+00,-2.8227653390534861443939008e+00
-5.3757446229931202807961199e+00,-1.4612959622380623514459330e+00
-5.5087572268994069446534922e+00,-0.0000000000000000000000000e+00
4.2067758346803270086411430e+00,-0.0000000000000000000000000e+00
4.1131307178008640335065138e+00,-1.1908428772112817917161465e+00
3.8223799987155704371843967e+00,-2.3125694397604013019531521e+00
3.3468001229953472375200363e+00,-3.3049751174939618891812643e+00
2.7284675716953259438923851e+00,-4.1256635523087021866217583e+00
2.0105653884535263919985937e+00,-4.7503569050091440928440534e+00
1.2279402655451101544770154e+00,-5.1695515480894771442876845e+00
4.1058362655961366805001944e-01,-5.3783032440478795166427517e+00
-4.1571230875701759011064951e-01,-5.3783881467279845978168851e+00
-1.2308942480776121630725584e+00,-5.1706010612498767287092960e+00
-2.0106454676140881332457866e+00,-4.7517147135113679823348320e+00
-2.7281191861944904530901113e+00,-4.1273822862665188182518250e+00
-3.3453690062274525907071165e+00,-3.3085035217301861365513105e+00
-3.8200322669501365346889088e+00,-2.3159349867570231396030067e+00
-4.1104489706976119478554210e+00,-1.1919635857936781153654238e+00
-4.2040683091742216959119105e+00,-0.0000000000000000000000000e+00
3.1301185256641157472756731e+00,-0.0000000000000000000000000e+00
3.0643977698744984117240620e+00,-9.9597482638393608489479902e-01
2.8570133895774456611604819e+00,-1.9417041684133826695557445e+00
2.5124303228050579583907620e+00,-2.7881830087651042759944175e+00
2.0578654465982606502905128e+00,-3.4981304990680905930844347e+00
1.5217925915963559369004088e+00,-4.0465836434685549249934411e+00
9.3174942683912920227129462e-01,-4.4194740366749645232857802e+00
3.1193765035702541998929860e-01,-4.6051608957734506688552756e+00
-3.1719011861722024026022382e-01,-4.6047725840259419172184607e+00
-9.3539002329051035289353422e-01,-4.4171001136451160107299074e+00
-1.5222350811813387672088993e+00,-4.0459781897095661307162118e+00
-2.0581952438142105954455019e+00,-3.4984201041277556143427319e+00
-2.5124526898122363505194699e+00,-2.7892759185153108703048019e+00
-2.8545580398721916992599290e+00,-1.9427995911057107658592713e+00
-3.0598096362360975852823231e+00,-9.9665824803847613555518592e-01
-3.1248300553120507139226447e+00,-0.0000000000000000000000000e+00
2.2148261819124539506731253e+00,-0.0000000000000000000000000e+00
2.1714265493874798096385348e+00,-8.5800842176769986924256273e-01
2.0301718163344015799509634e+00,-1.6756109301022721336238419e+00
1.7903737923406379817237166e+00,-2.4142580790375318677831729e+00
1.4700669369918741846703369e+00,-3.0394771600217325158155290e+00
1.0892218508466522397526433e+00,-3.5266815853203339337085254e+00
6.6936301324021385550366858e-01,-3.8596744809811247556297076e+00
2.2528507920863560798352410e-01,-4.0255082993224329257486716e+00
-2.2765152662868276545182766e-01,-4.0232736416519898625665519e+00
-6.7209985376123559941419217e-01,-3.8548963887042995146714475e+00
-1.0919654580967272927694012e+00,-3.5225891454726587781465241e+00
-1.4714169150002354147233063e+00,-3.0360727077766815895643049e+00
-1.7897484932054075201790511e+00,-2.4107405333413058912128690e+00
-2.0274145964733003566493608e+00,-1.6737602133207676313730872e+00
-2.1676493795918991835947054e+00,-8.5594019993248227073934231e-01
-2.2107518130972683145785140e+00,-0.0000000000000000000000000e+00
1.4141016821287146765229181e+00,-0.0000000000000000000000000e+00
1.3887868397722253899218003e+00,-7.6417447060465504282689153e-01
1.3007637323076128854637545e+00,-1.4957340396754925659905666e+00
1.1485640928855971321098650e+00,-2.1587533345574279053380451e+00
9.4544194031545758516443811e-01,-2.7238490915249631285632859e+00
7.0159527063696325299702039e-01,-3.1656353950491382676091234e+00
4.3292271283703015471999720e-01,-3.4696440391513365675280056e+00
1.4833848968615978569651759e-01,-3.6229045289936561147214888e+00
-1.4657820799908657938281920e-01,-3.6211588978358126844625531e+00
-4.3470552711117849131738922e-01,-3.4666179898526858771390380e+00
-7.0341140025372050903484933e-01,-3.1615972336188162827852466e+00
-9.4634663168285770851184679e-01,-2.7190940226976292315441697e+00
-1.1501401953563221702836472e+00,-2.1536571124047827474612404e+00
-1.2997577064633669685633777e+00,-1.4915739284002205167212196e+00
-1.3860494229153283995970014e+00,-7.6152251665000658675808154e-01
-1.4129496554470846181317256e+00,-0.0000000000000000000000000e+00
6.8647724070314408706394715e-01,-0.0000000000000000000000000e+00
6.7569250971198757671487556e-01,-7.0705084106435767132836645e-01
6.3559295238162982766283449e-01,-1.3887868397722253899218003e+00
5.6225874049116753017329984e-01,-2.0078145733719705567921210e+00
4.6318487650016376688810738e-01,-2.5373509326578229661208752e+00
3.4342690322027918936598212e-01,-2.9532565136874309175141207e+00
2.1209387929569656350281548e-01,-3.2389462032947857750286857e+00
7.3770220524159865749247444e-02,-3.3861792265244594624107322e+00
-7.1364987487713082980889112e-02,-3.3872846929809470317707110e+00
-2.1253818954423919773688567e-01,-3.2396010185253714119824053e+00
-3.4444149094167031410762547e-01,-2.9525791658697677632972045e+00
-4.6347679378620260104426620e-01,-2.5361896182716505698806486e+00
-5.6222839890799980455682316e-01,-2.0062325341869087225177282e+00
-6.3528000071852475105771418e-01,-1.3860494229153283995970014e+00
-6.7607545119167899994039317e-01,-7.0647482772354230906586281e-01
-6.8770677979725514106235096e-01,-0.0000000000000000000000000e+00
-4.1633363423443350544363557e-16,-0.0000000000000000000000000e+00
2.6020852139652081764275579e-16,-6.8647724070314464217545947e-01
4.1633363423443350544363557e-16,-1.3513850194239749313851462e+00
-2.6020852139652081764275579e-16,-1.9576631454664039644342211e+00
-2.9143354396410327631684122e-15,-2.4759025004063106578655606e+00
8.3266726846886691227965799e-16,-2.8840328984667373823924663e+00
1.8735013540549477176603523e-15,-3.1627563068468678153521978e+00
-1.6653345369377346134202212e-15,-3.3082206570581269566844185e+00
1.6653345369377348106354475e-15,-3.3102967478951907942530397e+00
6.2450045135165055398829281e-16,-3.1654906820826975710758688e+00
6.2450045135164700411421932e-16,-2.8852203688067112885562437e+00
9.3675067702747445047585508e-16,-2.4766077001993553885483834e+00
-1.4571677198205132261405852e-15,-1.9582667812343033109101498e+00
-7.2858385991025848661494252e-16,-1.3521509023833579998807863e+00
-0.0000000000000000000000000e+00,-6.8770677979725514106235096e-01
-0.0000000000000000000000000e+00,-0.0000000000000000000000000e+00
