Ex,Ey
-0.0000000000000000000000000e+00,-1.5000000000000000000000000e+02
3.9968028886505635455250740e-14,-7.5827166833276081092662935e+01
-0.0000000000000000000000000e+00,-4.6996316103250727280737920e+01
-3.9968028886505635455250740e-14,-3.3894257965665666176846571e+01
6.6613381477509405047192384e-14,-2.7159179480352140245713599e+01
-0.0000000000000000000000000e+00,-2.3449363758190433060235591e+01
-6.6613381477509379803643417e-14,-2.1429293992536067037235625e+01
-0.0000000000000000000000000e+00,-2.0527435975072148011122408e+01
-0.0000000000000000000000000e+00,-2.0525610981020882661596261e+01
-0.0000000000000000000000000e+00,-2.1425503095968025490947184e+01
-2.6645352591003763281054402e-14,-2.3446196216188273098168793e+01
-0.0000000000000000000000000e+00,-2.7157313631511428297926614e+01
2.6645352591003741192949056e-14,-3.3891723356041921988435206e+01
-0.0000000000000000000000000e+00,-4.6994371660727509265598201e+01
-0.0000000000000000000000000e+00,-7.5826631122985659771984501e+01
-0.0000000000000000000000000e+00,-1.5000000000000000000000000e+02
7.4172833166723918907337065e+01,-7.5000000000000000000000000e+01
5.1501841948374675439481507e+01,-5.3125779583828574459403171e+01
2.0966454433805203905194503e+01,-3.9101161663567644666272827e+01
9.9185683114492544376616934e+00,-3.0678877224204793350281761e+01
5.2224471037376849480438068e+00,-2.5614169014587556461037821e+01
2.8649427439080361601497771e+00,-2.2572554004200540589408774e+01
1.4609638915590748009520894e+00,-2.0836826532894928476480345e+01
4.5184150575759318702040446e-01,-2.0043969274843938421781786e+01
-4.4903356044793796275627074e-01,-2.0042991922800801773973944e+01
-1.4602926175836963285092907e+00,-2.0834206712734527400243678e+01
-2.8659052677717293811099353e+00,-2.2569761364795343894229518e+01
-5.2227635699268217805979475e+00,-2.5611274819435546845625140e+01
-9.9185290146080067330558450e+00,-3.0675729942138424632958049e+01
-2.0967453883471872444488326e+01,-3.9098285221320175253367779e+01
-5.1502814169636259578055615e+01,-5.3124518800719982891678228e+01
-7.4173368877014354438870214e+01,-7.5000000000000000000000000e+01
4.3748440832342851081193658e+01,-0.0000000000000000000000000e+00
3.5898838336432397966291319e+01,-2.2542209489295636615224794e+01
2.2446902359623777556407731e+01,-2.5570383319850414238771918e+01
1.3486992648980047349027700e+01,-2.4072359020731667555992317e+01
8.1063232200043238151465630e+00,-2.2013608631362885148519126e+01
4.7773424816926244318437966e+00,-2.0356139448949665649024610e+01
2.5285847293565351101563010e+00,-1.9267503610906683064740719e+01
7.9383461009412870090784509e-01,-1.8736563140098223101404074e+01
-7.9023743789058875641728719e-01,-1.8737190802942109257855918e+01
-2.5267694419945412320771538e+00,-1.9267486119650744313958057e+01
-4.7770681067010469789124727e+00,-2.0355457199457013928167726e+01
-8.1059685773430789623716919e+00,-2.2011793250095426088819295e+01
-1.3487010401884592880605851e+01,-2.4070183547411858171471977e+01
-2.2448788858581561811433858e+01,-2.5567531050265053238490509e+01
-3.5901714778679831852059579e+01,-2.2540937667013146494809916e+01
-4.3750962398560048427498259e+01,-0.0000000000000000000000000e+00
2.9088414188132638571460120e+01,-0.0000000000000000000000000e+00
2.5931458628524257647995910e+01,-1.1470831365174500859893669e+01
1.9436304902369172964426980e+01,-1.6562708056687149849039997e+01
1.3475342999936785304271325e+01,-1.8027394224437362169055632e+01
8.9386666755196859668330944e+00,-1.8013535627125648375113087e+01
5.6110477643642377998389748e+00,-1.7569893240937680900515261e+01
3.0805402004105171265280205e+00,-1.7141920551208450262947736e+01
9.8215431372216577265987780e-01,-1.6899788986326043982444389e+01
-9.7995654000045973042176684e-01,-1.6900906654720063926333751e+01
-3.0785590140985994445088636e+00,-1.7143264606847179010173932e+01
-5.6102123982164107118819629e+00,-1.7571126216434201694482908e+01
-8.9374899178816651357237788e+00,-1.8013502251104540619053296e+01
-1.3474266814777632106370220e+01,-1.8026454761412306737611289e+01
-1.9438208003073160767826266e+01,-1.6562435506554120223654536e+01
-2.5935283119371195681424069e+01,-1.1471073648308514947302683e+01
-2.9091493542988040132968308e+01,-0.0000000000000000000000000e+00
2.0806778101993845808692640e+01,-0.0000000000000000000000000e+00
1.9336130279745248117251322e+01,-6.7805061215625377357696379e+00
1.5890339500360916247245768e+01,-1.1182508619730006316217441e+01
1.2036165078541550599311449e+01,-1.3462324739003607376730542e+01
8.5638242035040050836869341e+00,-1.4443535754618816113747926e+01
5.6489575576098207676523089e+00,-1.4771564228685168274068928e+01
3.1986889839681715841379628e+00,-1.4832087186560606539842411e+01
1.0348485065825154816110398e+00,-1.4821910797184841612761375e+01
-1.0337130584117228959684098e+00,-1.4823548002582141336347377e+01
-3.1969890037086776679586819e+00,-1.4834632852665000868341849e+01
-5.6473057509584103641486763e+00,-1.4772537671948825277468131e+01
-8.5612971223211840055000721e+00,-1.4442741911055192005619574e+01
-1.2035943657334172485207091e+01,-1.3460911825053399226703732e+01
-1.5893407745477766468411573e+01,-1.1182668249639347024526614e+01
-1.9339279272125711628405043e+01,-6.7805025106945331359042939e+00
-2.0808815101943011427465535e+01,-0.0000000000000000000000000e+00
1.5527401945007566652634523e+01,-0.0000000000000000000000000e+00
1.4748950008794253108135308e+01,-4.4696859354469360425810009e+00
1.2754486284928105988001334e+01,-7.9257435875813584402749257e+00
1.0214315865047975506740841e+01,-1.0193182576876079536987163e+01
7.6294271858381241813162887e+00,-1.1525494574753562204705304e+01
5.2224963324224482619229093e+00,-1.2243460669466937673632856e+01
3.0301936319108442319247843e+00,-1.2595505617055810176907471e+01
9.9069349770063008797649218e-01,-1.2736875457323048266289334e+01
-9.9267859548061854191303155e-01,-1.2738192425086811709888934e+01
-3.0275486834652829415404085e+00,-1.2598084229484456386671809e+01
-5.2183214566066027373381075e+00,-1.2244701164409212523764836e+01
-7.6258640709862399731377991e+00,-1.1525695776791005542349922e+01
-1.0214193153361788901634100e+01,-1.0193707748607394591999764e+01
-1.2757798688714297341562087e+01,-7.9251837692926763168088655e+00
-1.4752614869731846880540616e+01,-4.4684851614155025600894078e+00
-1.5530488521598975637516560e+01,-0.0000000000000000000000000e+00
1.1867406231099973723530638e+01,-0.0000000000000000000000000e+00
1.1410386692163887900619557e+01,-3.1740776918602140455050176e+00
1.0166842858931774529196446e+01,-5.8592302108964906537380557e+00
8.4364140913693468348810711e+00,-7.8622816051335355780338432e+00
6.5135461109131442825059821e+00,-9.2255499826038143140749526e+00
4.5789465153075727954501417e+00,-1.0083955984973233199752940e+01
2.7052741961120601033030653e+00,-1.0573715100311231296359438e+01
8.9216169855151372658497166e-01,-1.0794412565555889571555781e+01
-8.9492183057313012817246545e-01,-1.0794223125082945458075301e+01
-2.7034977430310775936561640e+00,-1.0574297238279909194602624e+01
-4.5749172982649595198267889e+00,-1.0084752762190321462298925e+01
-6.5103037065193687382702592e+00,-9.2267343244291808446178038e+00
-8.4354316498358450360228744e+00,-7.8635910718490675819225544e+00
-1.0168185158285872660144378e+01,-5.8599042247845911646209061e+00
-1.1414095502833031758882498e+01,-3.1734132832323314055145147e+00
-1.1871844779112004530929880e+01,-0.0000000000000000000000000e+00
9.1792465612871367852676485e+00,-0.0000000000000000000000000e+00
8.8897197978977615662188327e+00,-2.3698241219715465710748958e+00
8.0662823716547844554725089e+00,-4.4779358538307834081138026e+00
6.8479960933406509582255239e+00,-6.1752880910917067325272001e+00
5.4077528059984256714187723e+00,-7.4329832372324284861520027e+00
3.8743312147150303914600045e+00,-8.2932105957994455280868351e+00
2.3197370513281874160327334e+00,-8.8199370177212443877579062e+00
7.7018547292891725852825857e-01,-9.0691882538683437076088012e+00
-7.7256326820463705473684968e-01,-9.0679321702356876500061844e+00
-2.3180783205726589457640330e+00,-8.8198856358509285513491704e+00
-3.8707585427558752755317073e+00,-8.2934600404487888170024235e+00
-5.4047023806449869809398479e+00,-7.4341726058386221609453060e+00
-6.8473630537172009979940412e+00,-6.1766781912988468761227523e+00
-8.0676209000975589447079983e+00,-4.4804827519789514056469670e+00
-8.8927106449472539395628701e+00,-2.3720107928471634295419790e+00
-9.1836619551343101619522713e+00,-0.0000000000000000000000000e+00
7.1277579871568823577376861e+00,-0.0000000000000000000000000e+00
6.9324508383331044925057540e+00,-1.8343788852748617035359757e+00
6.3613788898116165881901907e+00,-3.5147414302809356634327287e+00
5.4813667079677017568428710e+00,-4.9309596875848979991019405e+00
4.3956236062054054869463471e+00,-6.0370537546594409405997794e+00
3.1919927348187577820226579e+00,-6.8344950094758640801728689e+00
1.9292965380431628119595189e+00,-7.3447966811092921801673583e+00
6.4416654603707057535899594e-01,-7.5929529505996145033464018e+00
-6.4561921255571597111355686e-01,-7.5920707633668529368264899e+00
-1.9290256132441783165631932e+00,-7.3443146818613804782671650e+00
-3.1892042682526535735121342e+00,-6.8355581646286385222310855e+00
-4.3935218573694294619258471e+00,-6.0391434252768361190533142e+00
-5.4817417959761760570813749e+00,-4.9325220340058653079040596e+00
-6.3635177598341883253851847e+00,-3.5157951786782053460456154e+00
-6.9336127508540794650571115e+00,-1.8365561196111024333532669e+00
-7.1278231934176776718459223e+00,-0.0000000000000000000000000e+00
5.5104887907374147104633266e+00,-0.0000000000000000000000000e+00
5.3749783676168263468753139e+00,-1.4610692822304178761783078e+00
4.9697015693447497142187785e+00,-2.8213179655840652237941413e+00
4.3256837689621461251476831e+00,-4.0018977526798575894417809e+00
3.5042174841074595903478439e+00,-4.9564229978881195748385835e+00
2.5665882882651804841600551e+00,-5.6687723784896730805371590e+00
1.5612791102044378810376202e+00,-6.1369620241784108571891920e+00
5.2291139067135627982452206e-01,-6.3683063335633338652996827e+00
-5.2392499946640369579142771e-01,-6.3684012840252499643156625e+00
-1.5615657218344445311686286e+00,-6.1365668665459001118733795e+00
-2.5655872861713304722286466e+00,-5.6682576490032339222580049e+00
-3.5016662500222155429696613e+00,-4.9572164975210544213268804e+00
-4.3240148071185720013431819e+00,-4.0027275935527066863528489e+00
-4.9716549857027967362910204e+00,-2.8215343355534558966724035e+00
-5.3769154662690485935172546e+00,-1.4611675678704374448102499e+00
-5.5105497159121048511565277e+00,-0.0000000000000000000000000e+00
4.2056194226960466053810705e+00,-0.0000000000000000000000000e+00
4.1111328727490397128008226e+00,-1.1904462964956132875471440e+00
3.8205504193621777631051373e+00,-2.3120469200438131807118225e+00
3.3462616756636478498876386e+00,-3.3054270436572195102087335e+00
2.7287489803955904399401788e+00,-4.1266682366299098916329058e+00
2.0114537085284669437612592e+00,-4.7517630917823936442800914e+00
1.2297625829695022492416001e+00,-5.1703013704710576448064785e+00
4.1272728619023157925482792e-01,-5.3799517709771089712944558e+00
-4.1387974553828266177646356e-01,-5.3803700103444125346641158e+00
-1.2288819782221624965501405e+00,-5.1715687564241434870382363e+00
-2.0098538992278078829656351e+00,-4.7519596706162277044427356e+00
-2.7279918019189026701099010e+00,-4.1265702647476967257489378e+00
-3.3460596340085797528729472e+00,-3.3070233449748842602389232e+00
-3.8219577341519199720210054e+00,-2.3144797096308020734056754e+00
-4.1120784153006235683847081e+00,-1.1915321112829253547005237e+00
-4.2054880576768027822254226e+00,-0.0000000000000000000000000e+00
3.1295961977461885794582486e+00,-0.0000000000000000000000000e+00
3.0629314475730136102527013e+00,-9.9532156420455686340886814e-01
2.8547208221831446017802136e+00,-1.9403724356312554988335251e+00
2.5110624523760494142265998e+00,-2.7878962473578265957030453e+00
2.0578814359822850121872762e+00,-3.4975173654070990103548411e+00
1.5229551544240331750756923e+00,-4.0462027720099209560089548e+00
9.3309043100972333117937296e-01,-4.4194260727263614541016068e+00
3.1284275079800089036652366e-01,-4.6066846383742392490034945e+00
-3.1554198491343865562441806e-01,-4.6072322901007130013795177e+00
-9.3315538210625903481343357e-01,-4.4187978205264162312460030e+00
-1.5205887944948837109393480e+00,-4.0472348687188643978629443e+00
-2.0567299243808743192118982e+00,-3.4987885053593332784771519e+00
-2.5119242520016786812675491e+00,-2.7895741336970387713733999e+00
-2.8561637520108367205295963e+00,-1.9421039049852846236632331e+00
-3.0624357566382460760223694e+00,-9.9617591109026859541586418e-01
-3.1274854933462545858446902e+00,-0.0000000000000000000000000e+00
2.2149762942869322124295195e+00,-0.0000000000000000000000000e+00
2.1707604371177828816996680e+00,-8.5728402518797608422573830e-01
2.0279757362089072536548429e+00,-1.6748242713620962174303486e+00
1.7891167458878036722325078e+00,-2.4131827610902463199238355e+00
1.4704424557434949694112447e+00,-3.0378692217788278995271867e+00
1.0895450012092038338806788e+00,-3.5256081468343314355706752e+00
6.6928071660518384522475799e-01,-3.8592571506026405181444261e+00
2.2492106881587986544346336e-01,-4.0267715681666933491555938e+00
-2.2599292769045964401897209e-01,-4.0255491759516042193922658e+00
-6.6888455684031300485514748e-01,-3.8559552774997696289460691e+00
-1.0898445840607238199737594e+00,-3.5231615604188779578009871e+00
-1.4703310668970772656649615e+00,-3.0369414128070593150710010e+00
-1.7893750336345310980590284e+00,-2.4121903721004702703112343e+00
-2.0285595115451480197066303e+00,-1.6741201697949312787727649e+00
-2.1699745103153373904092405e+00,-8.5616722044571225147535642e-01
-2.2131362354962642591260646e+00,-0.0000000000000000000000000e+00
1.4150281473702353007837473e+00,-0.0000000000000000000000000e+00
1.3881071762109162825993280e+00,-7.6424392385651362946674681e-01
1.2988220862808739219929066e+00,-1.4954843621251707741492964e+00
1.1480175019593168439513420e+00,-2.1567825832831153398672086e+00
9.4545605023819856427280683e-01,-2.7224995311212389914601317e+00
7.0156722560022033441384792e-01,-3.1655702597069073078728252e+00
4.3192700967736213923942046e-01,-3.4698639681360532449616585e+00
1.4655072544903754994116696e-01,-3.6233494221534785495464348e+00
-1.4472569424651543501525452e-01,-3.6218636983985197375091047e+00
-4.3076776657353288424445736e-01,-3.4674896064726321576188184e+00
-7.0157492980217284195276761e-01,-3.1628477046349856571794135e+00
-9.4575873606246607661063308e-01,-2.7202956018727104670063000e+00
-1.1491030089895506449693130e+00,-2.1550803069710959825044938e+00
-1.3001406003560775914706937e+00,-1.4921985000453743541726226e+00
-1.3883155868433134649819749e+00,-7.6159748274625627129097438e-01
-1.4151510524548283065371379e+00,-0.0000000000000000000000000e+00
6.8648844657390506451832835e-01,-0.0000000000000000000000000e+00
6.7527607499261244061727893e-01,-7.0751407368511776141417613e-01
6.3543707678230587632128845e-01,-1.3881071762109162825993280e+00
5.6210157689173556594397496e-01,-2.0063361599659916834070827e+00
4.6165477931970333447253552e-01,-2.5361246781702329045060651e+00
3.4218056419439007997951308e-01,-2.9517922102041933563043585e+00
2.1150155415861263130672398e-01,-3.2376919037704539050537278e+00
7.2921338553413053706897529e-02,-3.3837192198815535526534859e+00
-7.0133112009613196580204431e-02,-3.3842426292194915937727728e+00
-2.0986856307677850819182197e-01,-3.2389935256350388392831974e+00
-3.4265057946080201833893852e-01,-2.9534748626459590425952229e+00
-4.6256366923318881223536891e-01,-2.5374185958328645540404978e+00
-5.6127793180719598442607321e-01,-2.0077161265834915226946578e+00
-6.3507668732030808644850595e-01,-1.3883155868433136870265798e+00
-6.7777601026996303623661788e-01,-7.0757552622741437531317388e-01
-6.8994127000375149449951095e-01,-0.0000000000000000000000000e+00
0.0000000000000000000000000e+00,-0.0000000000000000000000000e+00
4.1633363423443335753221584e-16,-6.8648844657390517554063081e-01
1.0408340855860838622167021e-15,-1.3505521499852244371453480e+00
6.2450045135165075120351912e-16,-1.9573626001385153738709732e+00
-3.5388358909926837115871577e-15,-2.4747553037686946808548782e+00
-4.1633363423443370265886188e-16,-2.8806721587779291482434019e+00
2.0816681711721649634202359e-15,-3.1591164321574756179700216e+00
-8.3266726846886720810249745e-16,-3.3036752670951505805874149e+00
-4.1633363423443370265886188e-16,-3.3049591092643035850073829e+00
4.1633363423443370265886188e-16,-3.1634090430759247425385183e+00
1.2490009027033001219004541e-15,-2.8852219831107457359564705e+00
4.1633363423443296310176323e-16,-2.4781078841543182633699871e+00
-5.7245874707234486204173779e-16,-1.9600946446443665571734982e+00
-8.3266726846886701088727114e-16,-1.3555520205399262945178407e+00
1.5612511283791263849707320e-16,-6.8994127000375193858872080e-01
4.1633363423443370265886188e-16,-0.0000000000000000000000000e+00
