Ex,Ey
-0.0000000000000000000000000e+00,-1.5000000000000000000000000e+02
-0.0000000000000000000000000e+00,-7.5827297036039766453541233e+01
-0.0000000000000000000000000e+00,-4.6996602678076222048275667e+01
-0.0000000000000000000000000e+00,-3.3894738654572492464467359e+01
3.9968028886505641766137982e-14,-2.7159635866703251139142594e+01
-0.0000000000000000000000000e+00,-2.3449984357875912621693715e+01
-3.9968028886505629144363498e-14,-2.1430020442407364811288062e+01
-0.0000000000000000000000000e+00,-2.0528470018361197446665756e+01
-0.0000000000000000000000000e+00,-2.0526564104864490900581586e+01
-0.0000000000000000000000000e+00,-2.1426336126651126079423193e+01
-2.6645352591003763281054402e-14,-2.3447185614845970746955572e+01
-0.0000000000000000000000000e+00,-2.7158035273400422227041418e+01
2.6645352591003741192949056e-14,-3.3892446140912880991891143e+01
-0.0000000000000000000000000e+00,-4.6994774318144514779760357e+01
-0.0000000000000000000000000e+00,-7.5827022992455482608420425e+01
-0.0000000000000000000000000e+00,-1.5000000000000000000000000e+02
7.4172702963960247757313482e+01,-7.5000000000000000000000000e+01
5.1501698660961885423148487e+01,-5.3125693641373182174447720e+01
2.0966279190733629889109579e+01,-3.9101173701706180452219996e+01
9.9184834056864872309233760e+00,-3.0678971054419267971979934e+01
5.2223771483483307775941284e+00,-2.5614380692475887002501622e+01
2.8648077121479427198380563e+00,-2.2572949109064747830188935e+01
1.4607571697573182856189078e+00,-2.0837548760196067831884648e+01
4.5172816877143706637554033e-01,-2.0044848548927326703505969e+01
-4.4893305414496442740102111e-01,-2.0043889801523121718673792e+01
-1.4603107549907392570531783e+00,-2.0834837934104186274453241e+01
-2.8658495733746751632509131e+00,-2.2570486788341927564260914e+01
-5.2226302630334506815756868e+00,-2.5612044623928024833503514e+01
-9.9183695223720160782931998e+00,-3.0676289163640589663373248e+01
-2.0967288425771307913691999e+01,-3.9098551736757947594469442e+01
-5.1502612840927753268260858e+01,-5.3124724136236835647650878e+01
-7.4172977007544531602434290e+01,-7.5000000000000000000000000e+01
4.3748612717253642756531917e+01,-0.0000000000000000000000000e+00
3.5898826298293819547780004e+01,-2.2542142159538478551894514e+01
2.2446722586953910649754107e+01,-2.5570350486267443557153456e+01
1.3486793009230295226075214e+01,-2.4072341312293144000022949e+01
8.1060219453545627743551449e+00,-2.2013590239845054696843363e+01
4.7768319322798182824385549e+00,-2.0356049680945531576981011e+01
2.5281005601373780500296107e+00,-1.9267831448700206919966149e+01
7.9365895867294722343388003e-01,-1.8736776179250682616839185e+01
-7.8998938517685934890266708e-01,-1.8737608099404283734656929e+01
-2.5265969868188080660331707e+00,-1.9267782121479086754334276e+01
-4.7772066898238643162244443e+00,-2.0355846482160597332722318e+01
-8.1058023752986585463986557e+00,-2.2012550898918778585766631e+01
-1.3486507112829887233829140e+01,-2.4070897691524525185968741e+01
-2.2448434972596256642418666e+01,-2.5567879444353380335996917e+01
-3.5901448263242059510957915e+01,-2.2541170524686208409548271e+01
-4.3750551727526328704698244e+01,-0.0000000000000000000000000e+00
2.9088418644883276442669739e+01,-0.0000000000000000000000000e+00
2.5931348174694441865995032e+01,-1.1471213000065795029058791e+01
1.9436080037978964440981144e+01,-1.6562933787007217745212984e+01
1.3475243652108874314876630e+01,-1.8027578818656358805583295e+01
8.9386687796959467533497445e+00,-1.8013509635816888021508930e+01
5.6105665032927900526260601e+00,-1.7569678919332655908647212e+01
3.0800306714521648032700796e+00,-1.7141605712238963121762936e+01
9.8195151806736347133153231e-01,-1.6899305190951615429639787e+01
-9.7993899637336867591841383e-01,-1.6900718007840549006459696e+01
-3.0785491377470561857876419e+00,-1.7143427091203335521640838e+01
-5.6106183508143683269508983e+00,-1.7571605989837919992169191e+01
-8.9376814723973758702868508e+00,-1.8014252621525979947136875e+01
-1.3473698067806616052166646e+01,-1.8027314379981749681292058e+01
-1.9437561258932991137271529e+01,-1.6562927958730899291595051e+01
-2.5934733396574362274122905e+01,-1.1471333812771675297881302e+01
-2.9090635958172097019769353e+01,-0.0000000000000000000000000e+00
2.0806186717122049145700657e+01,-0.0000000000000000000000000e+00
1.9335892511286601802567020e+01,-6.7807587142771188482015532e+00
1.5890356768363346873229602e+01,-1.1182426390553487749457418e+01
1.2036217160420623173422427e+01,-1.3462065765486874724388144e+01
8.5639218446782638949343891e+00,-1.4443231533206482453124408e+01
5.6487358558577440703629691e+00,-1.4771316520840223063260055e+01
3.1984742885184198613046647e+00,-1.4831451251093326959562546e+01
1.0345466630713631150939591e+00,-1.4821041372357555587768729e+01
-1.0341112854285785527252983e+00,-1.4822925713056147145607611e+01
-3.1974849688161808280995047e+00,-1.4834618292231189329299923e+01
-5.6480322201465096298989010e+00,-1.4772911250739729993597393e+01
-8.5615107654424882355215232e+00,-1.4443504604789724865554490e+01
-1.2035182450034806578287316e+01,-1.3461420753414675033354797e+01
-1.5892454405386176929937392e+01,-1.1183010173546310994652231e+01
-1.9338520304511160219362864e+01,-6.7805505986162861731258999e+00
-2.0807884101982971003508283e+01,-0.0000000000000000000000000e+00
1.5526901216329042298980312e+01,-0.0000000000000000000000000e+00
1.4748921784140954116537614e+01,-4.4694608559227919641898552e+00
1.2754772986769209452972973e+01,-7.9253071599066258201560231e+00
1.0214438509455881387566478e+01,-1.0192671242121644326061869e+01
7.6294180243425984144778340e+00,-1.1524838664167203816646179e+01
5.2223467854059446580095027e+00,-1.2243069822247175437723854e+01
3.0303058199348313905829855e+00,-1.2594901707775878918482704e+01
9.9047705610454417346488754e-01,-1.2736427307278578524574186e+01
-9.9351591624700108518197794e-01,-1.2737669843508740541437874e+01
-3.0285346754306403660450542e+00,-1.2597918653867852256666993e+01
-5.2195046633729038632054653e+00,-1.2244931405042910554925584e+01
-7.6261909750723209100442546e+00,-1.1526305972740454208746996e+01
-1.0213203636563205733978066e+01,-1.0194079044958597179970639e+01
-1.2756691104134601388864212e+01,-7.9255962431465176720735144e+00
-1.4751723223028051279470674e+01,-4.4687514576276958777611981e+00
-1.5529534760939524673517553e+01,-0.0000000000000000000000000e+00
1.1867265005276465217320947e+01,-0.0000000000000000000000000e+00
1.1410585351379975094232577e+01,-3.1737285088696931545371172e+00
1.0167146382164496287714428e+01,-5.8587495241191165362693027e+00
8.4366856561600442887538520e+00,-7.8618244128803196346666482e+00
6.5135232645527310069155646e+00,-9.2250866399655429006543272e+00
4.5786728122490680803480245e+00,-1.0083556185901228374746097e+01
2.7051168034870172185435422e+00,-1.0573432823193254392890594e+01
8.9177852733850171418339414e-01,-1.0794473482791483220921691e+01
-8.9560263201785250686270956e-01,-1.0793848853184833558316313e+01
-2.7047465303503499534087950e+00,-1.0574209198072963999948115e+01
-4.5764195390191115819789047e+00,-1.0085086086022277740426034e+01
-6.5106584053581757487449977e+00,-9.2270203089693900722068065e+00
-8.4344727204408709297922542e+00,-7.8643182191389460200525718e+00
-1.0167126818055274739549532e+01,-5.8604922018523870619333138e+00
-1.1412924061364641659110930e+01,-3.1738250477303773244841523e+00
-1.1870381186727575695272208e+01,-0.0000000000000000000000000e+00
9.1794441985896551017276579e+00,-0.0000000000000000000000000e+00
8.8901722600218366920898916e+00,-2.3697425992832852337244276e+00
8.0666770827585825287542320e+00,-4.4776172493112236239198864e+00
6.8481013936094541350030340e+00,-6.1750549641136363021587385e+00
5.4076862513216887862199656e+00,-7.4330193932352104368987966e+00
3.8740006021782327216840258e+00,-8.2932370500461694007299229e+00
2.3193885230445769884966012e+00,-8.8202814872568033877087146e+00
7.7006102611296500803916842e-01,-9.0699339620746801671202775e+00
-7.7325163152848230829761178e-01,-9.0684039206504465369107493e+00
-2.3197719082680827717979355e+00,-8.8201468396587721088053513e+00
-3.8723157742693299354641567e+00,-8.2934736346440072196628535e+00
-5.4054231081889909660276317e+00,-7.4338204814252382135464359e+00
-6.8466755294462027237045731e+00,-6.1767964109116411108857392e+00
-8.0661979327260322492065825e+00,-4.4807709249836058518212667e+00
-8.8912310211756615530021008e+00,-2.3722092720737455451285314e+00
-9.1818846654787673600139897e+00,-0.0000000000000000000000000e+00
7.1277798067098956380505115e+00,-0.0000000000000000000000000e+00
6.9329681020687523584911105e+00,-1.8338226215066197877234799e+00
6.3618340173341456633693269e+00,-3.5146293070939540470476459e+00
5.4812835122360583639533615e+00,-4.9318846348111975430583698e+00
4.3953411786201970201659606e+00,-6.0378034293724338610331870e+00
3.1914107182274760177165263e+00,-6.8351401221599079605084626e+00
1.9284198914585066741977926e+00,-7.3450362774418476163873493e+00
6.4365609394485889804826684e-01,-7.5936441306550559460220029e+00
-6.4581550960194367139166616e-01,-7.5932817906172482835813753e+00
-1.9298162443439113022947140e+00,-7.3452610340215054307577702e+00
-3.1900931807855781308091991e+00,-6.8361333519999059049609968e+00
-4.3939811816258105281463031e+00,-6.0393971508198296405112160e+00
-5.4814231639992403444239244e+00,-4.9324851393703124102785296e+00
-6.3625396792173800619707436e+00,-3.5166125820234777066275456e+00
-6.9321531363810349191112437e+00,-1.8373149546030183021372295e+00
-7.1259626425800846050151449e+00,-0.0000000000000000000000000e+00
5.5117989555764150821914882e+00,-0.0000000000000000000000000e+00
5.3755429529278835332206654e+00,-1.4599899280642965049281656e+00
4.9686150694540076599992062e+00,-2.8212518930986401066718372e+00
4.3249272713309743210174929e+00,-4.0027861952929510991339157e+00
3.5044307639729779246806629e+00,-4.9572227915320326019354980e+00
2.5667677541088198545082832e+00,-5.6691841646363423379284541e+00
1.5608845145494301132060855e+00,-6.1367065004213339207694844e+00
5.2181551293756411880053747e-01,-6.3678586049799603685528382e+00
-5.2486853489493179303337911e-01,-6.3687988814054508068807081e+00
-1.5626234696507399490883472e+00,-6.1373258128534846633783673e+00
-2.5664518910676550333960222e+00,-5.6697432946460279978850849e+00
-3.5017748955593992477020038e+00,-4.9586273676718404246344107e+00
-4.3238909606498525661777421e+00,-4.0038433475334747058127505e+00
-4.9710277479587370308422578e+00,-2.8228891713857411360777405e+00
-5.3746184391521838463745553e+00,-1.4622178227237139225280771e+00
-5.5072547562727311998287405e+00,-0.0000000000000000000000000e+00
4.2077999505813030722833901e+00,-0.0000000000000000000000000e+00
4.1117162089701126959084831e+00,-1.1907979434976583288374741e+00
3.8190377501054930675650212e+00,-2.3124583322799061591013015e+00
3.3453126138026658686897008e+00,-3.3050087056423484987988104e+00
2.7289432092768057813714222e+00,-4.1262350123544244695494854e+00
2.0119270093381746988825398e+00,-4.7508658915816477374960414e+00
1.2297454511148888656180134e+00,-5.1695299658165865253067750e+00
4.1156371296074201193704312e-01,-5.3788064687705254840466296e+00
-4.1528271747546818826180015e-01,-5.3789254213193675724369314e+00
-1.2307606575844878271652760e+00,-5.1702044366162995814306669e+00
-2.0113947356039338920652426e+00,-4.7512727137704171553878041e+00
-2.7280812345132585683415982e+00,-4.1264803476098634860136372e+00
-3.3456849677131428322240936e+00,-3.3076265248992271494898887e+00
-3.8209141544076201668644899e+00,-2.3154752495251491595240623e+00
-4.1092639649952937830335031e+00,-1.1921893459175916252235083e+00
-4.2015269971326567599589907e+00,-0.0000000000000000000000000e+00
3.1302030685810993126949597e+00,-0.0000000000000000000000000e+00
3.0630846206479778182085738e+00,-9.9633855254660341760342135e-01
2.8544043073093186002608945e+00,-1.9417097634301534458955985e+00
2.5111505912564564546585189e+00,-2.7876558429606554945223706e+00
2.0585735780336786859834319e+00,-3.4967980450188833607683137e+00
1.5234728006466589089740182e+00,-4.0448946152755143046420017e+00
9.3294393736055281074470713e-01,-4.4180692370579857097823151e+00
3.1242005743478301615922987e-01,-4.6052651466506606681150515e+00
-3.1626650274070583490626518e-01,-4.6048897917370492649524749e+00
-9.3497076210178964306152238e-01,-4.4162976197877021888871241e+00
-1.5227278020612187159343875e+00,-4.0446365282599918700157104e+00
-2.0581287066882105740717179e+00,-3.4971049524733262003906020e+00
-2.5128858625651395719557968e+00,-2.7889938735712598294469444e+00
-2.8555905689771012845312725e+00,-1.9427162495752672288773510e+00
-3.0591431896270346868504930e+00,-9.9703666459901318930292291e-01
-3.1228760644375483934709337e+00,-0.0000000000000000000000000e+00
2.2151228454880951268535227e+00,-0.0000000000000000000000000e+00
2.1700064455399581397898601e+00,-8.5776967886432797794071803e-01
2.0277204596914395473561399e+00,-1.6755958594560318442034941e+00
1.7902243322139348435939610e+00,-2.4129837338445656591545685e+00
1.4717044369619456389841616e+00,-3.0371691677829342204120167e+00
1.0906558172990721278239334e+00,-3.5246969576423103909235124e+00
6.6937491973974261316726597e-01,-3.8580865868114497807539465e+00
2.2474315828167840125573207e-01,-4.0250422569424539886995262e+00
-2.2631519061250915392236038e-01,-4.0238684781501570242312482e+00
-6.7050739410743009916160418e-01,-3.8539433207206177378623124e+00
-1.0922020682895574594795107e+00,-3.5217932933605138323684969e+00
-1.4724385798245269718620420e+00,-3.0357557424936194578890536e+00
-1.7912962648150838607108426e+00,-2.4109123205969820169514151e+00
-2.0289569454353726385420487e+00,-1.6732980319649899403344762e+00
-2.1665477154200249998439176e+00,-8.5578300679548247043015863e-01
-2.2074536679346281609070957e+00,-0.0000000000000000000000000e+00
1.4146637108524422465904991e+00,-0.0000000000000000000000000e+00
1.3874887611919448637820551e+00,-7.6358126545808924223734948e-01
1.2991902523290796978017170e+00,-1.4946313144893836888371652e+00
1.1495772829295529682269716e+00,-2.1561742788361488720738635e+00
9.4686035423593306603606834e-01,-2.7217272643092749184745571e+00
7.0255538161814301556518103e-01,-3.1652928603820598141282971e+00
4.3259863806040887990178589e-01,-3.4691188842032723016473028e+00
1.4663816609607557839289882e-01,-3.6221532970832002185090914e+00
-1.4516756651886955631347575e-01,-3.6208301168708536543761056e+00
-4.3289557731214578506495627e-01,-3.4664468877405938407321173e+00
-7.0454022383421965880501148e-01,-3.1620627436398609511059021e+00
-9.4724773392467886967693858e-01,-2.7191944238057144112019614e+00
-1.1504281520365100544012193e+00,-2.1535148561147132717508157e+00
-1.3004612551756009608538989e+00,-1.4904047499742494320429387e+00
-1.3858451576620434142483873e+00,-7.5990056971736819058094170e-01
-1.4113100508465818982983819e+00,-0.0000000000000000000000000e+00
6.8796031457191719749033609e-01,-0.0000000000000000000000000e+00
6.7537513105057467299729979e-01,-7.0733185542622145636215691e-01
6.3512744631338113876495299e-01,-1.3874887611919450858266600e+00
5.6312838239404361395656906e-01,-2.0065221077553005990523616e+00
4.6258585541603425284051809e-01,-2.5370660441214973879198169e+00
3.4326419740507535527385130e-01,-2.9533824619912367737128989e+00
2.1251448303860245858665223e-01,-3.2396214257396418467749299e+00
7.3031925614096840360112139e-02,-3.3859811000516426560125183e+00
-7.0608781269902665123083807e-02,-3.3862595918357181190572192e+00
-2.1174002087643692404661522e-01,-3.2408135335327732384769206e+00
-3.4494960435467769688244744e-01,-2.9533640145235722229699604e+00
-4.6389069229938018068537531e-01,-2.5362733096985543568280264e+00
-5.6250659098362032484175188e-01,-2.0061162805988921320476948e+00
-6.3534265903802744634987221e-01,-1.3858451576620431922037824e+00
-6.7614296544577556780097893e-01,-7.0565502542329117119379589e-01
-6.8765252849989177974521226e-01,-0.0000000000000000000000000e+00
-4.1633363423443350544363557e-16,-0.0000000000000000000000000e+00
3.1225022567582498117130695e-16,-6.8796031457191775260184841e-01
9.3675067702747523933676030e-16,-1.3507502621011491239499946e+00
1.1449174941446926823118702e-15,-1.9582152071986786978641248e+00
-3.0184188481996419776940329e-15,-2.4770070268892343534616884e+00
-1.2490009027033005163309067e-15,-2.8833869180307529767048891e+00
3.5388358909926829227262524e-15,-3.1635354216993878395669526e+00
-1.2490009027033011079765856e-15,-3.3084158841079509549842896e+00
-4.1633363423443380126647503e-16,-3.3095992729275840460445579e+00
6.2450045135165055398829281e-16,-3.1671983215681467349611466e+00
-6.2450045135165104702635858e-16,-2.8861192311747090322171516e+00
6.2450045135164986373500074e-16,-2.4772991128587924514192764e+00
5.2041704279304687381496031e-17,-1.9583378465759464504003518e+00
-4.1633363423443355474744215e-16,-1.3522859308915509135573529e+00
-2.6020852139652106416178867e-16,-6.8765252849989222383442211e-01
4.1633363423443370265886188e-16,-0.0000000000000000000000000e+00
