Ex,Ey
-0.0000000000000000000000000e+00,-0.0000000000000000000000000e+00
1.0926725019580468596191527e-18,1.9264507357313122607941902e-04
-0.0000000000000000000000000e+00,-2.3668457657953895743874195e-03
-1.0926725019580468596191527e-18,-5.4997313424252512389922565e-03
4.0657581468206387386330314e-19,-3.3143333500533045214708761e-03
-0.0000000000000000000000000e+00,-8.6250915489601888159337806e-04
-4.0657581468206372941855731e-19,7.5201810132568983145034958e-04
-0.0000000000000000000000000e+00,1.4477675203856691580998894e-04
-0.0000000000000000000000000e+00,9.1859165627860292838158252e-05
-0.0000000000000000000000000e+00,6.8607237320461155610784587e-04
0.0000000000000000000000000e+00,1.1188669187195729014944190e-03
4.0657581468206372941855731e-19,-8.0942267380931061035442831e-05
-0.0000000000000000000000000e+00,1.9897932265605208952685690e-03
-4.0657581468206406645629758e-19,3.5554580939693341060103826e-03
-0.0000000000000000000000000e+00,2.2124515967895880610982751e-03
-0.0000000000000000000000000e+00,-0.0000000000000000000000000e+00
1.9264507357313122607941902e-04,-0.0000000000000000000000000e+00
-1.1834228828976937029915373e-03,-1.0377530721946391385063224e-03
-2.8461882079991907175398058e-03,-2.0948862544674321656268390e-03
-4.7374379212895866616411800e-04,-2.9172998629546837735804221e-03
2.3186110937646171002712858e-03,-1.7126997558466776003238685e-03
2.0331757256894971222505042e-03,-1.2699569119784686905411109e-03
5.0364295346729242436323304e-04,-5.4708585107068386822748440e-04
-3.3007946784891487772631291e-04,1.9881780711493649417380414e-04
2.7064781058302236080650993e-04,4.8019155015078835314207284e-04
5.1350387654585641274834762e-04,9.6907724536199910201489383e-04
-3.8350732029277141699186160e-04,2.5040772695711528954970460e-04
4.3546315392047399688707499e-04,9.1710488398926142284556251e-04
1.8182001806751316077409575e-03,2.1582122973617455345685112e-03
1.1132918511453335252189140e-04,2.2190655594130893023263607e-03
-1.7777290469846674866860603e-03,1.2752713266404281603622062e-03
-2.2124515967895884947791441e-03,-0.0000000000000000000000000e+00
-2.0755061443892782770126448e-03,-0.0000000000000000000000000e+00
-2.0948862544674308645842320e-03,-1.3321236003563882450279054e-03
-1.8795467907600439845527962e-03,-5.1436350013367318576712472e-04
3.8218649862075353531090660e-04,1.1059244921758533408695513e-03
1.6473429509762157335606148e-03,7.1001351183991442614362732e-04
1.1656139047759932984155151e-03,1.7189315266761242070739715e-05
1.4687747190934043444582313e-03,-2.2885380419530399007804755e-04
1.0272774012214723297897745e-03,5.7091796534147157705235687e-04
7.7025943824706279757646987e-04,2.8326474659220470236203893e-04
-2.2978382319367311780247687e-04,5.8321149821740573670342256e-04
-5.1972361372737692721858471e-05,-5.4350941712426434522520413e-04
1.9078045704046292692368514e-03,1.5145682486223173857792235e-03
1.3019606754238271205392774e-03,9.4466455798212112682926689e-04
-8.8294097072131802472760853e-04,3.0248038653299928356019133e-04
-2.2190655594130897360072296e-03,-2.8528525479632518271552732e-04
-2.5505426532808571880861503e-03,-0.0000000000000000000000000e+00
-2.4716021271396458602875867e-03,-0.0000000000000000000000000e+00
-1.6977863830313669971788793e-03,-6.5562924150801326142468106e-04
-4.0814011546694891480191458e-04,-7.6037314392860368746779320e-04
7.5063321984462927100728580e-04,2.3011902910298449127443621e-05
1.2298759168555245101933648e-03,1.3458093044023039844790668e-04
1.0943084096542783807681776e-03,1.5558635535645574683033532e-03
1.0573716035420027085228734e-03,7.5196188906847963653867772e-04
1.8203908293859403155420806e-04,1.1953748788470085380464258e-03
2.8294134345895657466768425e-04,1.1096774763599114715928451e-03
-3.1327028717061296009954718e-04,9.7127426257687706889071277e-04
5.4784943011214055734459105e-04,1.5352029208818747125359083e-03
1.9236371290268588184202425e-03,9.3515433753821514996362740e-04
6.0611231858581399341290297e-04,-3.7216761267948219715079317e-04
-1.1186206276639135397815705e-03,-1.3306295732262215375518721e-03
-2.0802094335176670412967947e-03,-1.2367410597895894808218031e-03
-1.6418810871969380209278722e-03,-0.0000000000000000000000000e+00
-3.3867646274053047998620070e-03,-0.0000000000000000000000000e+00
-2.8552593983960346604722425e-03,-1.0515189005210060554235119e-03
-1.2009056463417326805764862e-03,-1.5810141999007812016464491e-03
1.2771405729895875941215522e-03,-1.8794879308240090148851564e-03
3.1801946016304749424719045e-03,-9.8092315383238484587102857e-04
1.7829948634042426178214491e-03,1.4539579139956489931689854e-03
1.1082860443758556310417385e-03,1.5880432249718702628765721e-03
1.3849929885129041648439419e-03,2.6334523912803363583645666e-03
5.4615882197693122000053956e-04,2.1297254546079821824200451e-03
1.9574162132829023156080361e-04,1.3405356098904342831285019e-03
-8.8092286411399611648943841e-05,3.0011894766200867407102137e-03
4.3403684327393137860220495e-07,8.9326270899969361771048026e-04
-9.6382323534060815751339790e-04,1.7408348427469693596664549e-05
-1.7475144178314254168188357e-03,-1.4180932022550328617388482e-03
-8.8843598618686798161492302e-04,-8.9108892499091768655411494e-04
-7.7060533701677481053550489e-05,-0.0000000000000000000000000e+00
-4.5746399281816575374537415e-03,-0.0000000000000000000000000e+00
-3.2788005829321479819848939e-03,-6.3182416157260860509192746e-04
-1.2361091457699518742635592e-03,-5.1129301293242597568206032e-04
1.3507242659130255183624891e-03,5.2521260905461061765236996e-04
4.5633217616751825182475066e-03,1.8057736307911505333617663e-03
3.6632747884585326221540402e-03,2.2730619753877131378194676e-03
2.2368660808266900737184546e-03,2.8406811084112706944360127e-03
7.2372131257470589688757245e-04,1.8460758192289968959015622e-03
-1.0099754379309460426694667e-03,9.2530920777005151636046554e-04
5.5819373484149148977040422e-04,2.1978430260575384483541506e-04
1.0057652922139997324173233e-04,5.8913133810720272505456752e-04
-1.0601439991657554944709529e-03,6.6337640562181925379253711e-04
-1.7052435926689106428927323e-03,1.7981248345262147454032275e-04
-2.0271179010823009436492725e-03,-2.2670045582534684982731199e-04
-6.6211623126263407113772930e-04,6.2856232506871537093345870e-04
1.4029676278489729797024910e-04,-0.0000000000000000000000000e+00
-4.6504129505505224437267309e-03,-0.0000000000000000000000000e+00
-3.3665524113284609614149545e-03,4.8500302572207601740569838e-04
-4.3868875714513342635707954e-05,4.8760588421575763772367051e-04
3.5942072167131646452664651e-03,6.9535702302361639647043656e-04
4.9280439679635782215805229e-03,1.1164276009963062380458965e-03
2.8179023410243629957361300e-03,-1.2321647624338207243493981e-04
6.8129988821713960596426762e-04,3.5476055642284380674603139e-04
-5.3037891212831588059334331e-04,-2.1080238237963125173812795e-03
-1.0801326946463126171121827e-03,-1.4564519981707794212683060e-03
-1.4043624833455866816531166e-04,-1.1089560765890746265455169e-03
3.5549981660466594638597693e-04,-9.7319949630935169340023583e-04
-4.0888481781130715624061889e-04,-4.7264815201874946833798807e-04
-1.8539000967877736648220521e-03,-9.8752979490164907207250256e-04
-1.2987645762153313035852653e-03,-1.0118819406229181620537894e-03
-6.6173553036152107757750240e-04,6.1688250908465834705662889e-04
-1.3341851838391087514690270e-03,-0.0000000000000000000000000e+00
-3.6046338767375053942221275e-03,-0.0000000000000000000000000e+00
-2.7911946987163901816308975e-03,2.2068992300000893000411217e-03
-1.0257551484684115494089296e-03,2.5913354008302437285482522e-03
1.9795459826935741728948237e-03,1.1543096000099094429469648e-03
3.7447482624081841577623475e-03,-6.4270258664715748837814591e-04
2.9016077438850699198036320e-03,-2.0887869668679494468410685e-03
2.5205873327375962877211490e-04,-9.0576598892720423111812877e-04
-1.0874912420189182526986116e-03,-2.1717461921744243835696864e-03
-1.0907690723707611426683724e-05,-3.4400115166163689134695702e-04
1.0414462367029195428991262e-03,5.4410378860122172629148508e-06
7.3688445379172526697453272e-04,-7.9665101574738681985445032e-05
-1.0744742977580529815634369e-03,-1.1459933722741913898063304e-03
-2.2444773812730790113478818e-03,-1.3543900195680219199906302e-03
-4.2270559709599271136851173e-04,-1.1335751527502863252039322e-03
3.4976570936028452459692906e-04,-1.4618735072655308308148259e-03
-1.0934682553844197756137691e-03,-0.0000000000000000000000000e+00
-2.3661449055034487363655127e-04,-0.0000000000000000000000000e+00
-7.7521701049821766654757127e-04,1.1044412456925314838102059e-03
-1.0964585057046925559848249e-03,2.7755024923020324770228662e-03
3.6016922923576407886137041e-04,2.2664945313243564477267977e-03
1.6849474010857195486329241e-03,2.2230427313195320025707158e-03
2.5548389387443160361557126e-03,1.3914740258793259920083729e-03
5.9834066291066423555478071e-04,1.3529773308999550052167393e-03
3.1385925137251465954092017e-05,7.9120973827353450330557294e-04
1.0970545354141241455037115e-03,8.2273856355280961145937102e-04
1.2389980175233955474872749e-04,1.2634303050039865420201002e-03
-7.9593459355553760562612675e-04,-2.1300631681822932523770464e-04
-1.6836097358045893235961588e-03,-9.2881654801349239260893631e-04
-1.8414818772638686002196540e-03,-1.1794804157305915296837656e-04
-1.4062480639128402144094609e-03,-1.2221406720933073093184051e-04
4.7183962238876503078599534e-04,-1.7508241756294721201692166e-03
1.5895618306919529101606248e-03,-0.0000000000000000000000000e+00
-1.3957513853524428602825846e-03,-0.0000000000000000000000000e+00
-1.5692206414358077302528133e-05,-1.8180068267881972538142776e-04
1.3629813716341325187733635e-04,1.7570226316644690055246425e-03
1.4270862217110736984426733e-03,2.0042934297554433446808542e-03
2.8697277569631534852034882e-03,2.5956479572018797963295356e-03
2.0315423434654933561305246e-03,2.6927563226078429260701430e-03
-3.4820555433203164309025057e-04,1.6779882032664670751809233e-03
-1.6177300093660636464559799e-03,1.7763958621538960755414926e-03
4.6131287600674442898190941e-04,-2.0669000481776680596714135e-04
5.7013563318806070490834571e-06,-4.9541987343352036909926994e-04
-1.4553623992257535592342865e-03,-8.4147548269336873080770367e-04
-9.7941602251288293126685325e-04,-6.9248514691200063926601604e-04
-1.4378749004689179730870352e-03,-6.0605510802767576395561067e-04
-2.0555817311524058818572591e-03,-1.1027181979556014909671369e-03
4.7197977656961528263382388e-04,-1.2799207937324551254132388e-03
2.4081800958745246815650987e-03,-0.0000000000000000000000000e+00
-6.0021585590798432439940679e-04,-0.0000000000000000000000000e+00
9.8180562116625090529620223e-04,1.2983525981419303130942611e-03
1.0896356067295700532915337e-03,1.0794559361419640754892191e-03
1.1987945547731744359853945e-03,1.5764275657140080100920843e-03
2.3734102939381184795009094e-03,7.1974311502656716614534371e-04
1.6371791848089041823688383e-03,3.9508461146395561398858565e-04
-3.1801979754328201866267478e-04,-1.5297416783002359009363547e-04
-1.8532922829469825574955077e-03,5.7027154978885801015625612e-04
-1.1747612001732922991370511e-03,-2.6736529154465569872722863e-04
-5.1088567612326239719688914e-04,-1.7583841261112720215364913e-03
-9.9299986703401776737265561e-04,-1.0502103850946720685344271e-03
-1.4481893611388964651642830e-03,2.8349815566541385633905770e-04
-2.2517149283074692350803403e-03,-1.3655180768603757297807721e-03
-2.0801137496176194674468718e-03,-1.1606633089272541496661528e-03
1.5745578203443665217531322e-03,-8.6681935166200551473592029e-04
4.1494034181568627273062333e-03,-0.0000000000000000000000000e+00
1.2009538109314168985441995e-03,-0.0000000000000000000000000e+00
1.0637637297276057203598842e-03,2.5385372673095792008662874e-04
4.1437310473549116571559403e-04,-2.1445504890928716217393668e-04
1.0673734005956770059392325e-03,5.3108508851314704946044998e-04
1.6883848027131006554191206e-03,-3.3528772701201962685643720e-04
1.1588250606089029251521971e-03,-2.4424447589002948148795280e-03
-1.7301861600712935534279735e-04,-3.6029364896854416608351634e-03
-1.7321211330806956466693558e-03,-1.7255732086034695615256451e-03
-1.8673427998933856027108380e-03,-6.9792169364776086761675833e-04
-7.7714373721813570939503935e-04,-6.7251383464074553173578375e-04
5.8651988255093226443115384e-04,-9.3965112492848379670967729e-04
-1.2947237142785865925131983e-03,1.2617024970609382159177081e-04
-2.8820363650615848406799646e-03,-7.4651867180673594365236667e-04
-1.5568830059540354499719728e-03,7.1768130536663829553006844e-04
1.6326430854968695949303026e-03,5.9938317105987957630897078e-04
4.1418187991985357110369392e-03,-0.0000000000000000000000000e+00
-9.2508402446068064097807471e-05,-0.0000000000000000000000000e+00
7.6735057225696368891215693e-04,-5.7099701677444094846669564e-04
1.3668669685117590742451377e-03,2.1807095926443332612777726e-04
1.0779618766704420797231112e-03,1.4264933499959727195537107e-04
-6.0011955347532577008384802e-04,-1.1475895639168219499598456e-03
-1.6304695778645195321232553e-03,-2.7841267845847240611223405e-03
3.9885175275354366837207709e-04,-4.7869248141130162771395007e-03
1.0517225130907009462283286e-03,-1.8430660049595635509300795e-03
-1.2170182621056741553797892e-04,5.3925871253851596215378450e-04
-7.5261510740398554313024260e-04,1.0810007156613161624636454e-03
-1.9431578268717773641874325e-04,6.9642010782507385129036503e-04
-1.2550569080171487205271896e-03,3.2036545602526201280413343e-04
-1.6602038726469248424572056e-03,1.5415584717370131150743218e-03
-7.3421190675100286328336185e-04,2.3342177983474033525768121e-03
8.5687651497772768412197752e-04,2.2544579316755618617063028e-03
2.9506370760371027073265537e-03,-0.0000000000000000000000000e+00
5.8959777382534364642031888e-05,-0.0000000000000000000000000e+00
1.2818346889920391278028244e-03,6.0343836878019413124188408e-05
1.1280194565095296842932582e-03,1.1927727180860064123014280e-04
-2.9828712258557905619496542e-04,2.6988766883784303307267094e-04
-1.2383913168712231984286420e-03,-9.4272442920014085012553329e-04
-2.4805101895872933535913685e-03,-3.0343272777559328031229957e-04
7.6804216361803191379098443e-04,-1.3733617618399136632578728e-03
3.5940623935708415799539228e-03,-2.2740786421177375774271834e-04
1.0567239207274960622467974e-03,8.1821075133117727399417740e-04
-6.1998234193157760341802431e-04,6.8817177718172686026049112e-04
-1.7411537708512240022439010e-04,2.1871119356001262820643483e-03
-4.4958535036664732872924155e-04,1.2307661513374713087992651e-03
-8.6818402273944360932750319e-04,2.2169721660732855453290746e-03
-8.4398354601548605281868820e-04,2.5146444264444833653626699e-03
-7.0157471285053570921041999e-04,1.9825891744433710855988195e-03
-3.6709706415259180708327014e-04,-0.0000000000000000000000000e+00
2.8179271309970741821778611e-05,-0.0000000000000000000000000e+00
8.8662784406556426237966395e-04,-2.9479888691267161992225210e-05
1.5764108004715825586683486e-03,-1.2818346889920389109623899e-03
1.5960175661700690011388787e-05,-1.1574993452007974019390968e-03
-1.1734399500887623003092530e-03,-9.8354756640646055949883664e-04
-2.0611069105042922368353775e-03,8.0891971670426108197669846e-05
4.7487661631736308252144108e-04,1.4969626231808334446138353e-03
3.2432950262617919919005960e-03,-6.8715019194760665940252542e-04
7.9387781518293321601775769e-04,-2.0970997703900068342974805e-03
6.1628607686496379020058001e-04,-1.7438741126751017458673676e-03
3.4827859146856660369981351e-04,-1.4771174284584304235018459e-03
-1.2251966775439896741028978e-03,-1.5697587355899813785220509e-03
-3.7632559753991365325553886e-04,-1.0275320780917820105704319e-03
-9.6859489838091732301361692e-04,-7.0157471285053614289128898e-04
-1.6577679114667556812406923e-03,-1.8354853207629590354163507e-04
-1.0145412728496398975519543e-03,-0.0000000000000000000000000e+00
5.0821976835257996269975045e-20,-0.0000000000000000000000000e+00
5.0186702124817246941549498e-19,-2.8179271309970697776065354e-05
-1.2705494208814497863787546e-19,-1.7732556881311278742380244e-03
-7.0515492858920445449539517e-19,-3.1810008722531371398722921e-03
3.0493186101154792947160166e-19,-1.8051760394545307043812077e-03
-7.1150767569361180333490480e-19,-8.3412097207561264767400333e-04
-6.0986372202309576264670610e-19,2.3170377815540537692895473e-03
1.3213713977167085289465831e-18,-1.7838742047103404390201442e-03
1.2197274440461924882583844e-18,-4.1695522709695271787455617e-03
-1.2197274440461924882583844e-18,-3.3716298350762044858108801e-03
-2.0328790734103177322760630e-18,-5.4021244246994573612319357e-03
8.1315162936412765143010907e-19,-4.0681870180133417047585453e-03
8.1315162936412466623869526e-19,-2.9517310696114745435791882e-03
-0.0000000000000000000000000e+00,-3.3155358229335122298431227e-03
4.0657581468206416275279480e-19,-1.0145412728496398975519543e-03
-0.0000000000000000000000000e+00,-0.0000000000000000000000000e+00
