Ex,Ey
-0.0000000000000000000000000e+00,-1.5000000000000000000000000e+02
-0.0000000000000000000000000e+00,-7.5827147263655390929670830e+01
-0.0000000000000000000000000e+00,-4.6996475603655703423555678e+01
-0.0000000000000000000000000e+00,-3.3895271899744699339862564e+01
-1.3322676295501881640527201e-14,-2.7160173739536404013961146e+01
-0.0000000000000000000000000e+00,-2.3450343769382762104669382e+01
1.3322676295501875329639959e-14,-2.1430466996345725050332476e+01
-0.0000000000000000000000000e+00,-2.0529017812712382351492124e+01
-0.0000000000000000000000000e+00,-2.0526943776214157111326131e+01
-0.0000000000000000000000000e+00,-2.1426577669264130321380435e+01
-0.0000000000000000000000000e+00,-2.3447471472334875386422937e+01
-0.0000000000000000000000000e+00,-2.7158361053224020054130960e+01
-0.0000000000000000000000000e+00,-3.3892407270266559748961299e+01
-0.0000000000000000000000000e+00,-4.6994516523524076490048174e+01
-0.0000000000000000000000000e+00,-7.5826472449762917449334054e+01
-0.0000000000000000000000000e+00,-1.5000000000000000000000000e+02
7.4172852736344609070329170e+01,-7.5000000000000000000000000e+01
5.1501762198172144735508482e+01,-5.3125958242149366128614929e+01
2.0965937681955338689476775e+01,-3.9101335751422212183570082e+01
9.9181509320596514811541056e+00,-3.0679280133611907643853556e+01
5.2224640651809552949202953e+00,-2.5614730423463864639188614e+01
2.8648533715953390377251253e+00,-2.2573349061972059814706881e+01
1.4606629783352029772203196e+00,-2.0837784682180881645763293e+01
4.5176161006578408052547502e-01,-2.0045018236282722057239880e+01
-4.4877992827587320778803814e-01,-2.0044083291614271047365037e+01
-1.4602638480603593595930079e+00,-2.0835106208842518071833183e+01
-2.8658916919799453104644726e+00,-2.2570706610385510515470742e+01
-5.2224678989658404049123419e+00,-2.5612244759983116892954058e+01
-9.9180777351500246652449277e+00,-3.0676475184431250653460665e+01
-2.0967032589748178850186378e+01,-3.9098681791728836287802551e+01
-5.1502741738237972413116950e+01,-5.3124746090063460712826782e+01
-7.4173527550237096761520661e+01,-7.5000000000000000000000000e+01
4.3748083515701260637342784e+01,-0.0000000000000000000000000e+00
3.5898664248577794921857276e+01,-2.2542434771133144977284246e+01
2.2446678108537458484761373e+01,-2.5570514704723819932041806e+01
1.3486605327958345768024628e+01,-2.4072255739690014308962418e+01
8.1059310716398353946487987e+00,-2.2013486929663514501953614e+01
4.7769457412829794407116424e+00,-2.0356272384993093993443836e+01
2.5283308256893506360540869e+00,-1.9267837125212569304721910e+01
7.9370139056661259679970044e-01,-1.8736768554927255792108554e+01
-7.9008797255979668072711775e-01,-1.8737647526272624531884503e+01
-2.5266233187712399121949147e+00,-1.9267768600351182328722643e+01
-4.7771385511406014856561342e+00,-2.0355590617235090888925697e+01
-8.1057685740457348089194056e+00,-2.2012198442114669916236380e+01
-1.3486437031745710513064296e+01,-2.4070862400325541585743849e+01
-2.2448270905632213612079795e+01,-2.5568126263484156623917443e+01
-3.5901318208271170817624807e+01,-2.2541498159942992884907653e+01
-4.3750507819873092785201152e+01,-0.0000000000000000000000000e+00
2.9087983194078315563046999e+01,-0.0000000000000000000000000e+00
2.5931247493448324803466676e+01,-1.1470738141090244255337893e+01
1.9436116713398472910512282e+01,-1.6562598469278309920582615e+01
1.3475178707119956911242298e+01,-1.8027269927714414166075585e+01
8.9384474198778764986172973e+00,-1.8013285719994886591166505e+01
5.6105031760462829026891995e+00,-1.7569675448201362399913705e+01
3.0801668084010387360649474e+00,-1.7141489273796036485464356e+01
9.8195120900572718802834515e-01,-1.6899413258032772944261524e+01
-9.7977997369979941133522061e-01,-1.6900761045831430351427116e+01
-3.0782069390228259386788068e+00,-1.7143161054284238531408846e+01
-5.6103215337434333420674193e+00,-1.7571118810332656323680567e+01
-8.9377396820562875490168153e+00,-1.8013551799367220951353374e+01
-1.3474005556519511372925990e+01,-1.8026542380807484278193442e+01
-1.9437668349365633702063860e+01,-1.6562482582184276935777234e+01
-2.5934615474753801578344792e+01,-1.1471107740136011088338819e+01
-2.9090531230351093228136961e+01,-0.0000000000000000000000000e+00
2.0806607233520768573953319e+01,-0.0000000000000000000000000e+00
1.9336065779299481448560982e+01,-6.7802593242326603117930972e+00
1.5890146321913292126737360e+01,-1.1182175249538541805804925e+01
1.2035918077241769097440738e+01,-1.3461751961637842711638768e+01
8.5635255511528889371675177e+00,-1.4443179545998999557809839e+01
5.6487421874818286582353721e+00,-1.4771208609568841296777464e+01
3.1985930158579396476170587e+00,-1.4831515479198268181448839e+01
1.0344296185312165103908910e+00,-1.4821393704633230470335548e+01
-1.0338357688112644883204894e+00,-1.4823091647943449800095550e+01
-3.1969810832724641080915262e+00,-1.4834622490801933736292995e+01
-5.6475292962235821292438231e+00,-1.4772583106795334373373407e+01
-8.5611921445205627634322809e+00,-1.4442451098834377276602936e+01
-1.2035367814562770050201834e+01,-1.3460310448854047038480530e+01
-1.5892836264960742198582011e+01,-1.1182015185290536507523029e+01
-1.9338835626086890329133894e+01,-6.7800462716233571569546257e+00
-2.0808292339601063503096157e+01,-0.0000000000000000000000000e+00
1.5527464545612998492174484e+01,-0.0000000000000000000000000e+00
1.4749072243909784774018590e+01,-4.4692683227736358375636883e+00
1.2754624075993291398845031e+01,-7.9250307156032091526753902e+00
1.0214174410659500935594224e+01,-1.0192099219231415929698414e+01
7.6289907719468788016570215e+00,-1.1524423728372356734439563e+01
5.2221672428470142790501995e+00,-1.2242713737680713137478961e+01
3.0299817133366486743284440e+00,-1.2595165252338519579211606e+01
9.9037504026054512529242402e-01,-1.2736470073668158420332475e+01
-9.9300875986850134502503806e-01,-1.2737794690736423675048172e+01
-3.0276983978747091796890345e+00,-1.2598023329289018690246849e+01
-5.2181501417758777705557804e+00,-1.2244624650650685282471386e+01
-7.6254670241150019904807777e+00,-1.1525291191047049466078533e+01
-1.0213569642975672380202923e+01,-1.0193236032275102331823291e+01
-1.2757404172134945596894795e+01,-7.9245967684236138239839420e+00
-1.4752600289463266847178602e+01,-4.4682001360948060408873062e+00
-1.5530438687104377137870870e+01,-0.0000000000000000000000000e+00
1.1868070587973496898825942e+01,-0.0000000000000000000000000e+00
1.1411035063696271407707172e+01,-3.1733966163282261163658404e+00
1.0167315425455512922781054e+01,-5.8580443782308568856365127e+00
8.4365250644726206274981450e+00,-7.8606547739552254938644182e+00
6.5129110327035899530301322e+00,-9.2237637564535095435758194e+00
4.5780006635156667016417487e+00,-1.0082854860575571009917439e+01
2.7048366798704943647635446e+00,-1.0573185413313655800493507e+01
8.9180018013331219250972026e-01,-1.0794015583683075121257389e+01
-8.9538902443212631254709777e-01,-1.0793777457515897566509011e+01
-2.7038110431867261596039498e+00,-1.0573667579968747176621946e+01
-4.5747971579816111287186686e+00,-1.0084327188687415954859716e+01
-6.5098035261449798127841859e+00,-9.2265679214806244345936648e+00
-8.4346733919393361844640822e+00,-7.8639275370735459702586923e+00
-1.0167800368780442354932347e+01,-5.8599969660186488340514188e+00
-1.1414238857663271176079434e+01,-3.1734072091091567457965539e+00
-1.1871892067411449644964705e+01,-0.0000000000000000000000000e+00
9.1806713129565462594428027e+00,-0.0000000000000000000000000e+00
8.8910278656789270002036574e+00,-2.3686914446499942599189126e+00
8.0673659183662920213464531e+00,-4.4764561374864175746779438e+00
6.8484550324368473894764975e+00,-6.1736950130996275376560334e+00
5.4067906853265332856040004e+00,-7.4317244505293986733818201e+00
3.8727455859868689103109318e+00,-8.2923559221478004843675080e+00
2.3188209902291441188992849e+00,-8.8193040843232584080624292e+00
7.6978299605830269314310499e-01,-9.0687590864094893561286881e+00
-7.7266075615417340038959537e-01,-9.0673350636028864357740531e+00
-2.3182481290462280121289496e+00,-8.8188172369536523831357044e+00
-3.8710504832877541403490795e+00,-8.2926597977187199717263866e+00
-5.4050673725011320058797537e+00,-7.4341111658400791384337936e+00
-6.8469986875136985560175162e+00,-6.1772802640722304090559192e+00
-8.0668838441705545960758172e+00,-4.4809694767064076614815349e+00
-8.8926033234446144604135043e+00,-2.3722366340369513970642856e+00
-9.1836242688860618699209226e+00,-0.0000000000000000000000000e+00
7.1306876986735092671665370e+00,-0.0000000000000000000000000e+00
6.9345789262098556093860680e+00,-1.8331913202067027235386831e+00
6.3623118570058814214007725e+00,-3.5133305660559908112361427e+00
5.4812567514296404169726884e+00,-4.9304454479889789908497733e+00
4.3942501236554178944970772e+00,-6.0370478685201023338890991e+00
3.1904210297218078551395593e+00,-6.8342819060310002754476955e+00
1.9284335156088063811807842e+00,-7.3443491103650435647409722e+00
6.4376920085368449786500378e-01,-7.5924906134424539061456016e+00
-6.4544717497629033875483628e-01,-7.5914894245251494098170042e+00
-1.9291357773025605837347030e+00,-7.3436697587294590405804229e+00
-3.1900910868680374399275479e+00,-6.8353877660983242137149318e+00
-4.3944239924984920264705579e+00,-6.0399061932751623160697818e+00
-5.4815317028056682602255023e+00,-4.9332636239927749599587514e+00
-6.3627567387451637870299237e+00,-3.5168194340500593675358232e+00
-6.9332693809568635145978988e+00,-1.8372876938501885302201799e+00
-7.1274187993375459626577140e+00,-0.0000000000000000000000000e+00
5.5142886725431408123654364e+00,-0.0000000000000000000000000e+00
5.3776972996229357448783048e+00,-1.4606389394365622003135741e+00
4.9701117905840161981245728e+00,-2.8210307048623866066350274e+00
4.3247377299727363109127509e+00,-4.0021860997171101459457532e+00
3.5029542272845120010060782e+00,-4.9570638498904582291970655e+00
2.5654443441419276794590587e+00,-5.6688901320412918849456219e+00
1.5606122828176913763797984e+00,-6.1366143329111606519177258e+00
5.2264268189819729215628286e-01,-6.3676511393512784664494575e+00
-5.2383990144117886789132399e-01,-6.3674031739898797610521797e+00
-1.5621464706194030380714821e+00,-6.1359455160638836090924997e+00
-2.5672869178334578599276483e+00,-5.6684790287071162850907058e+00
-3.5029432303955845284804127e+00,-4.9578771203433769088064764e+00
-4.3239119282885969397511872e+00,-4.0035209554777644314071949e+00
-4.9709079140279683883818507e+00,-2.8222807363418644932551160e+00
-5.3757838893945555369668909e+00,-1.4616894487983569383970917e+00
-5.5090488811856843653913529e+00,-0.0000000000000000000000000e+00
4.2094098198003848665393889e+00,-0.0000000000000000000000000e+00
4.1135482213474698909294602e+00,-1.1912915581609586634925790e+00
3.8207646967253339198578033e+00,-2.3138706968401123731382540e+00
3.3452236064015696825890700e+00,-3.3071848392704947805498250e+00
2.7275460913312357114079987e+00,-4.1279529380442383512672677e+00
2.0108705467011058765081088e+00,-4.7524415622220201882441870e+00
1.2296725082988200217215535e+00,-5.1698322405560910297595001e+00
4.1298035977496494464134003e-01,-5.3782784434108723559120335e+00
-4.1374155168889548139787848e-01,-5.3781461807387200835250951e+00
-1.2302116320197966636840192e+00,-5.1697612278076414682459472e+00
-2.0120226911475302955523148e+00,-4.7509969429037122168324458e+00
-2.7294659192691415050546766e+00,-4.1255838997513256671823001e+00
-3.3459353188041571769417715e+00,-3.3064307023330208323841362e+00
-3.8209252320657558499306106e+00,-2.3149864976922205350717832e+00
-4.1109886446149985772535729e+00,-1.1917334404289070537430462e+00
-4.2040399017408320858635307e+00,-0.0000000000000000000000000e+00
3.1317055562212243735586981e+00,-0.0000000000000000000000000e+00
3.0638266027828238158292606e+00,-9.9682569338398563374425976e-01
2.8542185094744811912903515e+00,-1.9433694502788461111464358e+00
2.5106554887686112209621569e+00,-2.7904584423500660150807562e+00
2.0576975043329861492225064e+00,-3.4989048041522643472944765e+00
1.5235650416300761111898510e+00,-4.0468783533785419592732069e+00
9.3477540162883965280116172e-01,-4.4189227238619857018875337e+00
3.1432874171556746123457060e-01,-4.6054491386646461137388542e+00
-3.1532268583794798022523764e-01,-4.6055582057453667843560652e+00
-9.3499723278439461626732054e-01,-4.4172623629893799090950779e+00
-1.5231095897771422809086062e+00,-4.0453200235789887884152449e+00
-2.0583769898248940322105227e+00,-3.4969325224672225260746927e+00
-2.5133145262294931399082998e+00,-2.7879203750354419888424218e+00
-2.8562106521238548317853656e+00,-1.9424082567671012711230105e+00
-3.0607973917023354459843176e+00,-9.9667933976386580141593186e-01
-3.1255820003278698138160507e+00,-0.0000000000000000000000000e+00
2.2157584330324122667832398e+00,-0.0000000000000000000000000e+00
2.1701787710686226695599998e+00,-8.5912553992013451775733301e-01
2.0271319477592526503428871e+00,-1.6771254651416236391980874e+00
1.7896882525281505582626096e+00,-2.4141339950318858598166116e+00
1.4711261803027586569925234e+00,-3.0385231455749157625234602e+00
1.0908526269913838557812369e+00,-3.5255331575011124023433240e+00
6.7110172301271575623360377e-01,-3.8589292549804348197994841e+00
2.2634487789158419523971588e-01,-4.0271235443390525077234088e+00
-2.2555477601362927675410219e-01,-4.0262903179214371007788031e+00
-6.6997344985341833467629158e-01,-3.8566859836607214617743011e+00
-1.0916928506253722463981148e+00,-3.5226815641668576262190982e+00
-1.4720662707255953716156682e+00,-3.0362482653269702304044131e+00
-1.7914110531040356999454843e+00,-2.4112773921985430902736880e+00
-2.0296841967941783302364911e+00,-1.6737068712463012420954556e+00
-2.1685803878478959738629328e+00,-8.5630320737762632976597388e-01
-2.2106812222130991507640374e+00,-0.0000000000000000000000000e+00
1.4134544763809542278210074e+00,-0.0000000000000000000000000e+00
1.3867011376411990664081486e+00,-7.6493970686936552105805731e-01
1.2992100543627289610526532e+00,-1.4962243066283171799568663e+00
1.1492578083353182094583644e+00,-2.1577252003557405579670103e+00
9.4629834186375871851737429e-01,-2.7230302819966594185530084e+00
7.0315893222455672084691969e-01,-3.1653557052895031631578604e+00
4.3318501479089904782071585e-01,-3.4693937517694655170430451e+00
1.4696767877456526352197841e-01,-3.6236502876889140623006824e+00
-1.4488512515961687876497876e-01,-3.6234330527234854812945741e+00
-4.3138847902981486415185941e-01,-3.4690075596419993608776622e+00
-7.0267187144339005033799594e-01,-3.1633685840654277576788900e+00
-9.4697281785657971830971746e-01,-2.7205599432981735219527764e+00
-1.1507731321488241515993423e+00,-2.1553093242410437113676380e+00
-1.3012364673029368500323244e+00,-1.4921980410566384467330181e+00
-1.3870905204560326495766276e+00,-7.6155594370940893345078848e-01
-1.4129755855726158220164734e+00,-0.0000000000000000000000000e+00
6.8587901929368166875633506e-01,-0.0000000000000000000000000e+00
6.7395446444030571164773846e-01,-7.0672723819047744697741109e-01
6.3434645427287816854544644e-01,-1.3867011376411992884527535e+00
5.6288227715980854171107239e-01,-2.0059372925532064080300643e+00
4.6349567536899610731282451e-01,-2.5359589459765174979111180e+00
3.4448915721857820138041006e-01,-2.9522356344169669029042780e+00
2.1280714061330519015768914e-01,-3.2391178782010738856911303e+00
7.2305576937563925676855092e-02,-3.3854206492078655621469352e+00
-7.0912047966714769620111269e-02,-3.3860855569756398431024991e+00
-2.0990898119536011146024634e-01,-3.2405355240482478507146880e+00
-3.4324523428154590787286793e-01,-2.9546970779458252565063958e+00
-4.6400701090121254654974337e-01,-2.5378636526048570232205748e+00
-5.6304915086250184597105317e-01,-2.0077242600892444279736537e+00
-6.3593081626254321925273416e-01,-1.3870905204560326495766276e+00
-6.7638234679125774917451963e-01,-7.0648779278630813305284164e-01
-6.8756933479428128386246044e-01,-0.0000000000000000000000000e+00
-4.1633363423443350544363557e-16,-0.0000000000000000000000000e+00
2.6020852139652081764275579e-16,-6.8587901929368222386784737e-01
5.2041704279304183250073789e-16,-1.3479089288806114232954769e+00
1.5612511283791278640849293e-16,-1.9545719278394382278918329e+00
-1.7694179454963418557935788e-15,-2.4736734832002280626284119e+00
4.1633363423443335753221584e-16,-2.8815632785774338842088582e+00
6.2450045135164877905125607e-16,-3.1626517976373840213000221e+00
-4.1633363423443350544363557e-16,-3.3071775598040433763458168e+00
8.3266726846886740531772375e-16,-3.3072629515125129273656057e+00
-6.2450045135165055398829281e-16,-3.1653534638706117831929987e+00
8.3266726846886533455784755e-16,-2.8874449891217937036458352e+00
5.2041704279304143807028528e-16,-2.4788629953075185241573308e+00
-8.8470897274816885713691321e-16,-1.9594309673193672782787189e+00
-5.2041704279304183250073789e-16,-1.3527646935825154983490393e+00
5.2041704279304212832357734e-17,-6.8756933479428172795167029e-01
4.1633363423443370265886188e-16,-0.0000000000000000000000000e+00
