Time,electron,All Species
0.0000000000000000000000000e+00,0.0000000000000000000000000e+00,0.0000000000000000000000000e+00
2.0000000000000001110223025e-01,1.4370123491426464788604800e-04,1.4370123491426464788604800e-04
4.0000000000000002220446049e-01,-2.6420183840199866465679734e-05,-2.6420183840199866465679734e-05
6.0000000000000008881784197e-01,-6.8867405491658157680977259e-05,-6.8867405491658157680977259e-05
8.0000000000000004440892099e-01,-2.1457411325799804146206851e-05,-2.1457411325799804146206851e-05
1.0000000000000000000000000e+00,6.9931022604085831071568657e-05,6.9931022604085831071568657e-05
1.2000000000000001776356839e+00,2.5189789565417495253996094e+00,2.5189789565417495253996094e+00
1.4000000000000001332267630e+00,1.0394411690081670762708654e+00,1.0394411690081670762708654e+00
1.6000000000000000888178420e+00,6.3892024821880555318642791e-01,6.3892024821880555318642791e-01
1.8000000000000000444089210e+00,3.8532642445970732847371210e-01,3.8532642445970732847371210e-01
2.0000000000000000000000000e+00,2.8316589215963533510134198e-01,2.8316589215963533510134198e-01
2.2000000000000001776356839e+00,2.4287349508607175563312808e-01,2.4287349508607175563312808e-01
2.4000000000000003552713679e+00,2.3534053135181115523621997e-01,2.3534053135181115523621997e-01
2.6000000000000000888178420e+00,2.2368049408577300729561443e-01,2.2368049408577300729561443e-01
2.8000000000000002664535259e+00,2.2271944831096596173480862e-01,2.2271944831096596173480862e-01
3.0000000000000000000000000e+00,2.2171948474874192402950257e-01,2.2171948474874192402950257e-01
3.2000000000000001776356839e+00,2.2163360168065426858419187e-01,2.2163360168065426858419187e-01
3.4000000000000003552713679e+00,2.2491714302233134503694600e-01,2.2491714302233134503694600e-01
3.6000000000000000888178420e+00,2.2716110087224938851591105e-01,2.2716110087224938851591105e-01
3.8000000000000002664535259e+00,2.2640143235542053989917122e-01,2.2640143235542053989917122e-01
4.0000000000000000000000000e+00,2.2773572059650015741993911e-01,2.2773572059650015741993911e-01
4.2000000000000001776356839e+00,2.3122556431771909557504330e-01,2.3122556431771909557504330e-01
4.4000000000000003552713679e+00,2.2257188438965452847995152e-01,2.2257188438965452847995152e-01
4.6000000000000005329070518e+00,2.2821076518501448582298963e-01,2.2821076518501448582298963e-01
4.8000000000000007105427358e+00,2.2620144932515337532485944e-01,2.2620144932515337532485944e-01
5.0000000000000000000000000e+00,2.2773046049193573781010969e-01,2.2773046049193573781010969e-01
5.2000000000000001776356839e+00,2.3023096983242097302024831e-01,2.3023096983242097302024831e-01
5.4000000000000003552713679e+00,2.2853800754391417893174321e-01,2.2853800754391417893174321e-01
5.6000000000000005329070518e+00,2.3243317503460292350325744e-01,2.3243317503460292350325744e-01
5.8000000000000007105427358e+00,2.2988098716057231429843455e-01,2.2988098716057231429843455e-01
6.0000000000000000000000000e+00,2.2427016205265040693639378e-01,2.2427016205265040693639378e-01
6.2000000000000001776356839e+00,2.2098266866864582635976433e-01,2.2098266866864582635976433e-01
6.4000000000000003552713679e+00,2.2313947432180586405436884e-01,2.2313947432180586405436884e-01
6.6000000000000005329070518e+00,2.2136157743106371631469642e-01,2.2136157743106371631469642e-01
6.8000000000000007105427358e+00,2.2261798753370692915964923e-01,2.2261798753370692915964923e-01
7.0000000000000000000000000e+00,2.2867266919543663417080381e-01,2.2867266919543663417080381e-01
7.2000000000000001776356839e+00,2.2362762386419549054394906e-01,2.2362762386419549054394906e-01
7.4000000000000003552713679e+00,2.2968771342772451027336444e-01,2.2968771342772451027336444e-01
7.6000000000000005329070518e+00,2.2079887244317539241045267e-01,2.2079887244317539241045267e-01
7.8000000000000007105427358e+00,2.2226055774629688288612783e-01,2.2226055774629688288612783e-01
8.0000000000000000000000000e+00,2.2288246912295800461478734e-01,2.2288246912295800461478734e-01
8.2000000000000010658141036e+00,2.3053837564078100141884420e-01,2.3053837564078100141884420e-01
8.4000000000000003552713679e+00,2.2407703137681642124867665e-01,2.2407703137681642124867665e-01
8.5999999999999996447286321e+00,2.2645508832661739861968897e-01,2.2645508832661739861968897e-01
8.8000000000000007105427358e+00,2.2431112730521185483212321e-01,2.2431112730521185483212321e-01
9.0000000000000000000000000e+00,2.2720577480709486239973671e-01,2.2720577480709486239973671e-01
9.2000000000000010658141036e+00,2.1747202104097537733728984e-01,2.1747202104097537733728984e-01
9.4000000000000003552713679e+00,2.3091273842593929011002274e-01,2.3091273842593929011002274e-01
9.6000000000000014210854715e+00,2.2052065363426914812450264e-01,2.2052065363426914812450264e-01
9.8000000000000007105427358e+00,2.2408833642970824029383436e-01,2.2408833642970824029383436e-01
1.0000000000000000000000000e+01,2.2527186119768277672292811e-01,2.2527186119768277672292811e-01
1.0200000000000001065814104e+01,2.3090150440667839282227192e-01,2.3090150440667839282227192e-01
