Species Id, x,y
0,4.4366874653352672552841796e-01,9.8766252907200524635555894e-01
0,3.5783906411599242236576401e-01,9.0024383843330157972673078e-01
0,5.5836598421574668016376108e-01,7.8909459726257191736209506e-01
0,4.9917771661831111806861827e-01,9.9545770548794132448477967e-01
0,5.4783833520886326962084922e-01,8.6519800556051529305534586e-01
0,4.0786181603405496920444762e-01,8.2277505629394454000902215e-01
0,5.9353824283826661645235845e-01,7.1581078984878243609557558e-01
0,4.9899246894691212661498980e-01,9.5025444659746838294012150e-01
0,5.1637253001289307174914711e-01,7.5152819557737782218964639e-01
0,4.3249006144972185206043491e-01,9.5910375385204071907452317e-01
0,5.6603052544350129782202430e-01,9.6896080286168573270089155e-01
0,3.8629697513317678980726555e-01,8.8829057699886881938056149e-01
0,4.6714436374963208553623417e-01,9.7936148230680863946417958e-01
0,3.8148222021333955122912585e-01,8.5344679812327217671708013e-01
0,5.7769786748481866123228201e-01,8.4400218283186867473943948e-01
0,4.4731818249222854433355678e-01,9.9525540458136740884498295e-01
0,4.4732705601852329468925973e-01,7.1612912078341572907902446e-01
0,4.4184538467779665982249071e-01,9.0226218937297020250554169e-01
0,4.2511928340723026398251250e-01,8.6580762801323962740696061e-01
0,5.6972218149458964120412929e-01,9.3485572001173178335875491e-01
0,4.9664540692661435228316691e-01,9.2042876039590248993249588e-01
0,3.4864191863154436745730891e-01,9.7629805651258805276881958e-01
0,3.6766769199042470539495753e-01,8.7710473161659074925466939e-01
0,3.1234674425162090027896511e-01,9.7831603720889315223274707e-01
0,3.9568374925830024357864545e-01,9.8966352156294945530135010e-01
0,3.9696041535187087667679862e-01,8.5241514011125196770279899e-01
0,5.2423082320427349944935713e-01,9.1367457917298533498495772e-01
0,4.4322131546973031479552674e-01,8.0917329918003000344128850e-01
0,4.1152046335280595412697835e-01,8.4518046776625121996318057e-01
0,3.5094889890387936937088398e-01,9.4649051177596799089286606e-01
0,6.0692070731290481688802174e-01,8.6669532930064929754365721e-01
0,4.4254522790334316351135158e-01,9.5998376637272286870938842e-01
0,5.0645601051433997152884103e-01,7.2387377736273195161231797e-01
0,3.7482863859478959822624233e-01,9.7119616377654860439605500e-01
0,4.7107257945710895308266686e-01,9.7552231867904293238780156e-01
0,4.7895753692892845121420464e-01,8.5052211257358767415581724e-01
0,3.2170619930935473451683038e-01,7.9954865085978488181694956e-01
0,1.9634934447877069874088818e-01,9.0719378682142437497759602e-01
0,5.2368378271371041066117868e-01,8.6348900893723745664232183e-01
0,7.0405480650884011417645070e-01,9.8894956418223078919993441e-01
0,4.4207613397751072126240501e-01,9.7375376421052961539714943e-01
0,4.6676579693909153734310280e-01,9.4950404262413834466372009e-01
0,1.8755141484599360812701718e-01,8.5435856865794279624282126e-01
0,4.2983180033578138878880281e-01,9.5315280691493819986703784e-01
0,3.9280939247154711413401174e-01,8.8540874976478534108537133e-01
0,4.5304305387350146672176265e-01,7.7922551727541156108003406e-01
0,3.6522022257607844597515623e-01,9.6961596745192146773462127e-01
0,7.1128130729055771830360300e-01,7.4766604399533864722116050e-01
0,5.8782614096672936021548139e-01,9.0683787084880351780924457e-01
0,3.9180482903152935580948224e-01,9.8969622518031830082918532e-01
0,4.1095342866173889539993525e-01,8.3232669303913331404487508e-01
0,4.2092571726815508625918483e-01,9.9320299951415458306058781e-01
0,3.6843454933699743003572280e-01,8.7770021500716688400700605e-01
0,5.7753846212774917479038095e-01,9.9086126101687255207650651e-01
0,4.1567169021997713018734544e-01,9.7265531650086733961302343e-01
0,2.9477578307291768533460186e-01,8.7575269625333851397641638e-01
0,2.8716753440521131102158847e-01,8.8454607372128890574458637e-01
0,7.4530734450012858793854775e-01,8.7588683025403279991394356e-01
0,3.9066313980591332866154630e-01,9.7462828411989632648726456e-01
0,4.4106457748590294221102681e-01,9.8709426939555378055501933e-01
0,5.2437603734762894269749722e-01,9.1020264250976745667998102e-01
0,4.6790835555011583979378997e-01,7.6810522509700052129488768e-01
0,7.4968235157157758763446509e-01,8.9011955950448840013677909e-01
0,4.3343179794262776116653413e-01,7.6579288677111057026536400e-01
0,5.9205783075075402166476124e-01,9.3485371659700999824593737e-01
0,5.4657609019620023715901880e-01,8.1718351433153024743205606e-01
0,4.6718179980811697094011947e-01,9.7079616648772204534623143e-01
0,4.4487725709114295247204041e-01,8.7137188415327360146989122e-01
0,4.6887463568056608753664705e-01,9.6841014705732408884841789e-01
0,5.1055205209678244937521185e-01,9.2636736606835246021773855e-01
0,4.8701062744838841123140583e-01,9.6894403046550647840007287e-01
0,2.4320976545844394389739307e-01,7.7280773380097145253131430e-01
0,4.4066107381862362757374285e-01,9.9055670914571103402579411e-01
0,3.6624128336752298507050796e-01,9.0136387717647714623581123e-01
0,4.6185589402208587772591386e-01,9.7024824141706000890650330e-01
0,5.7742821328641358302746767e-01,9.4060850638177928573213649e-01
0,4.5272319467281352256549098e-01,8.2503696167420248475110611e-01
0,4.0272521283954515469716284e-01,8.7339831073449847309575489e-01
0,3.6991875501006826754135659e-01,8.4238582128081540556507889e-01
0,4.6873591970530686934282016e-01,9.9559683038310109459700925e-01
0,4.2304214743305262880213036e-01,9.0520651276295782672320911e-01
0,4.1804974658354282501804278e-01,9.8770012561104236770148646e-01
0,4.5604618586898643117777397e-01,9.9738891611416902183151478e-01
0,4.7437865853391708581554553e-01,9.6337966819434905918484446e-01
0,3.4882666625235297930274214e-01,9.1185581958538730606989020e-01
0,3.8565431560110086106618610e-01,9.7106761560103171948554746e-01
0,4.8999377642980301850172964e-01,8.2062341189996579338128413e-01
0,4.6890360137938447149252852e-01,9.5866807250426810949051060e-01
0,4.3670631631553324947248029e-01,9.4060812837541118991424582e-01
0,4.5280164704060049674083643e-01,9.8739661125172428768337340e-01
0,3.1139187749119190407043334e-01,9.7759878383490395048482924e-01
0,4.1437912628396339487224509e-01,9.8331171455186683338922649e-01
0,4.0373085069719416573263970e-01,9.6036199876550454312962302e-01
0,4.3843499560358001332360800e-01,9.7882385324516951730089431e-01
0,4.0253417453590190078216438e-01,9.9625311133579785849434529e-01
0,3.6749484700511902968145250e-01,9.5362690537445826688411898e-01
0,4.1502388426152281297731861e-01,9.5123087953989193810144798e-01
0,3.4778750079076314882797760e-01,8.1098146253798020222092191e-01
0,5.1753632206240607338543214e-01,6.9025602237210237355213849e-01
0,3.9554237760522603650770179e-01,9.8084836611663206440425711e-01
0,6.1142363483828165993116954e-01,8.0472653901097812578768753e-01
0,5.2129017908415475890393509e-01,9.0885346288107116130561280e-01
0,4.6733507215655406552556883e-01,8.9908878134617220556634720e-01
0,4.4869431351175814715048773e-01,8.3018517921710788254330282e-01
0,4.4217687081602830012627692e-01,7.5022920397872361331081947e-01
0,5.0698099816477149026638926e-01,7.4603091952221367577635647e-01
0,6.3103521416574059887949488e-01,9.3670723414417655927621809e-01
0,3.9327566334468300190962964e-01,9.8843808939662003432147230e-01
0,4.3402456887577850475068431e-01,9.8626437725891547003698179e-01
0,4.3463539973424852869143820e-01,9.6339774657454957385027683e-01
0,2.9483980182446378748295501e-01,9.0028983794054662226358232e-01
0,4.0326325234347087933528542e-01,9.7244652226049044241307229e-01
0,3.6994102975393700072359593e-01,9.4566267577167784086356050e-01
0,4.8468877831214801643611167e-01,9.8522891848012694726577365e-01
0,2.6109090660631883995534963e-01,8.0752956642735951309219899e-01
0,3.5380080112277134674059198e-01,7.6722943379404573427393643e-01
0,4.5378999097022421072011866e-01,8.1403946918393776943645435e-01
0,5.1903260286292118852458088e-01,8.5009874129852480706404094e-01
0,3.8060660378269584036559081e-01,8.9889454412152791640266969e-01
0,1.7175345851456835788440003e-01,9.6128468519582599416395396e-01
0,4.7122534028927753890769736e-01,7.9559776450430774730193662e-01
0,5.2966466649870591609783332e-01,7.5094872512977350886842487e-01
0,4.0832192613731027597268053e-01,8.8904074943678412790148968e-01
0,4.2251034242524426742804167e-01,8.2122038550458809069709787e-01
0,4.4626313282603052856600812e-01,8.4809065935121941137708745e-01
0,3.7860504327468880170215471e-01,8.6074451780411986856478279e-01
0,4.3886213636304238772112285e-01,9.5962047661399541009785708e-01
0,3.9324584303942883289906263e-01,8.5819962735263022324261328e-01
0,3.2424274282411758019151193e-01,9.0712098627606452261318282e-01
0,4.6457257381020233832913391e-01,9.6226137172104109218651047e-01
0,4.7312894746415617985846325e-01,9.8912734931274814975665777e-01
0,3.9271756518698786031507098e-01,9.1877365979650060801020572e-01
0,3.9987451637145221550184715e-01,9.0658755740205587692059908e-01
0,4.1889749126123210221095405e-01,9.8927830168526709186949120e-01
0,5.9002699152604010102152188e-01,6.8713101365772011330790292e-01
0,4.2368780391450500122374478e-01,9.9965337961484257434108258e-01
0,3.4199188638171595933101798e-01,5.9716152606860295470880828e-01
0,4.6821648529247184011836680e-01,7.9834420102128489382664611e-01
0,4.1834342430481374908168846e-01,7.3941654053154903802891340e-01
0,4.0469850741366292234957314e-01,9.6604919962506163866322595e-01
0,3.8623107867194694797774446e-01,9.2059927771870131429921003e-01
0,4.6723679073862012245399455e-01,8.6065009219456722888708100e-01
0,5.2316813533493500276705390e-01,9.6137891157205701553323252e-01
0,2.7135985668857881547566535e-01,9.9002543066920334347003063e-01
0,4.5347653987837932554327836e-01,7.8686438176805761912646631e-01
0,4.7535551998360114911434948e-01,9.9035439416399861922712944e-01
0,4.0953583830640977181403173e-01,6.9529577846353318726357884e-01
0,6.7153011556365860279527169e-01,8.6742727096628202687611520e-01
0,2.9120112371130851824929664e-01,7.6790886564216931375881359e-01
0,3.7593803417431592706066112e-01,9.3485795197453847027446727e-01
0,3.9096630238205787311045469e-01,9.6901423480482362649013339e-01
0,5.0799674754726742431643061e-01,7.8102139775613965699818664e-01
0,3.6239735685890173133572034e-02,9.3467203303630264077384027e-01
0,5.4225222940520700909416973e-01,7.6682484490114655173442770e-01
0,4.5088511256050378683823965e-01,9.9050059844290960775481381e-01
0,5.6990130266290739413648225e-01,8.8340589389366608319420493e-01
0,4.5414780254550363158827508e-01,8.6559019932985592493679405e-01
0,4.9197959923568052031939146e-01,7.6715561422155742477002605e-01
0,4.8664137526856593440882648e-01,9.7644240296179718452407315e-01
0,9.5410441992665517840777056e-02,9.1730328784074477432852746e-01
0,4.9679948463579470807616190e-01,8.6193866078293579491287346e-01
0,4.2174279384772561662941825e-01,9.6149597304730349822676772e-01
0,4.8029578303347764123287789e-01,9.1919637245099428124461838e-01
0,5.1642983959790922376953404e-01,9.0045959802868080767979109e-01
0,6.8468939625196612031032828e-01,7.8919030566331282994241292e-01
0,4.0993134529729952086896105e-01,8.5629750897756817806794061e-01
0,5.7332393913998647150265242e-01,8.0922394639967920593193185e-01
0,6.5750663190419789128071670e-01,9.8367028154953040086638794e-01
0,3.7863504568672790018268870e-01,6.6499233976609151142156406e-01
0,4.6280414852599044417402752e-01,9.9670279264328154322782893e-01
0,5.0046523654040386830388343e-01,8.2531123164181119378213225e-01
0,3.4516077913397830156938539e-01,9.7866996918692616969082110e-01
0,3.6674670706046919033127551e-01,9.1509141448793385187343574e-01
0,4.4082217263127737583161547e-01,9.9309832953039511860282573e-01
0,6.0486577961179266438307423e-01,8.0425851390626146297790910e-01
0,4.7261731581770843879652944e-01,9.2234924646520921598380482e-01
0,5.2415148979789960570485619e-01,9.5288848417240468169353562e-01
0,2.5754116768786150526437950e-01,8.3534831939344955653581337e-01
0,5.5075972385178406653949423e-01,9.2611546005977096740480192e-01
0,4.2007974485878746273570528e-01,8.7896344576212148691496395e-01
0,5.6418964479363831188152290e-01,9.2558419886211718008439675e-01
0,4.5534584701482272439676535e-01,9.7182789760261123479523349e-01
0,4.3707292263991298630898541e-01,9.9601370307780690005472479e-01
0,6.2357994335624356008196401e-01,8.7215587759549462187891322e-01
0,4.6047459764196391196477975e-01,9.3574137402479062863847048e-01
0,4.1035783415966120557527574e-01,9.6162508496076004593788866e-01
0,1.2622512480443920379613587e-01,9.5007260597714526806356616e-01
0,5.2406724042570906885174509e-01,8.5852949408630196970193538e-01
0,7.7359481008311858918347070e-01,9.7078835374244498712670293e-01
0,3.5641284587228033720052167e-01,8.9063691899427510634268401e-01
0,3.6122737396170617740764897e-01,9.2576993793625528272883685e-01
0,3.6463264096549652393264296e-01,9.8943802349734144563342397e-01
0,4.0753545671359869828620504e-01,7.3162609823941371356426089e-01
0,4.1793467722329941116399254e-01,9.2068384468030528555715364e-01
0,4.8793720818550345708075611e-01,8.5008144420114950534639320e-01
0,4.7672898310031236457362525e-01,8.1675416044115189961871693e-01
0,4.1523872882199558409510587e-01,9.8437538869189467050091480e-01
0,4.3229753815085142365504112e-01,9.9589738659452209379452370e-01
0,4.0855673073633202996290947e-01,8.7531191609600877967523047e-01
0,4.2842749707258775959672903e-01,9.5800875342408353674272803e-01
0,3.6858937640057054530018377e-01,8.7779830327856656069229757e-01
0,4.5475336922409964612867839e-01,9.4748753433103183319019536e-01
0,4.5752672779018166426823200e-01,8.2065913116130273508019854e-01
0,4.6740845590972468492907410e-01,9.9383453074984284825177383e-01
0,6.5240418505634245605051547e-01,8.9685336850950647669122873e-01
0,4.3448121205184486726125215e-01,7.5937606522819611765129366e-01
0,4.7019198369362946721139451e-01,9.4982942779903156704790490e-01
0,3.0960023328128716268992093e-01,9.0929144110726711769387975e-01
0,4.3522935786709543437567049e-01,9.4739686044871251890953090e-01
0,4.9449868068892216532717043e-01,7.9781837158903878837179491e-01
0,2.4211365481863467152834346e-01,9.3043178589140762557718745e-01
0,3.9447568500475171937580399e-01,9.2923441249671989705660735e-01
0,5.0163448965949175573086904e-01,8.2412559415442132593199176e-01
0,4.1472439108170799926256223e-01,9.8049890877879219974744274e-01
0,4.3105783376356560099296189e-01,9.3290547623953679057251520e-01
0,4.6963647662301000185181010e-01,9.7108263792488414001269348e-01
0,5.6171000996451603270998021e-01,9.4636502059346661042127380e-01
0,3.8194392903191753951830378e-01,9.7033312588247888630377247e-01
0,2.4711010325103566209747896e-01,8.0973439285435011569802555e-01
0,4.3927670544459901380562883e-01,9.3825065599483059575192101e-01
0,3.5618563146513382289271021e-01,8.7491307573725918267371071e-01
0,3.5751907493641338353640435e-01,9.7492018982193207055075845e-01
0,4.9094152646994781985512191e-01,9.9396722703681406052567127e-01
0,5.0821310747733960955230259e-01,9.1316960403178337735141668e-01
0,5.5101214302829859548182867e-01,9.1121452514036516134865451e-01
0,4.4251690145060673664545448e-01,9.5570642132810779134644008e-01
0,6.3415774312990214056640070e-01,8.9841391091380051747705693e-01
0,4.4199470654152200888020730e-01,9.7196095510443414333678902e-01
0,2.5827062310189485838662904e-01,9.0170275777397612682051431e-01
0,4.1122885968097966369327878e-01,9.9165969818206978203534163e-01
0,4.9411953532984909109870841e-01,9.6730765933857276728247143e-01
0,4.2630986135711862461405985e-01,9.9568651229456273110685061e-01
0,4.8416234042080702471011477e-01,9.8482545447640446045767249e-01
0,3.8462604659048588162661986e-01,9.4932760007708005822735231e-01
0,3.2775598340045530854069966e-01,7.9613972385397568931608703e-01
0,5.0230869069376771207657839e-01,9.4083918974883151697952144e-01
0,4.9653022578504191208992324e-01,8.3924861726464594635643834e-01
0,4.9499958078720240894909921e-01,9.7689627754107477564105011e-01
0,3.1711820326739847963892771e-01,8.1675451563332668314387774e-01
0,4.4908757634972240602166949e-01,7.9062619183119509091994814e-01
0,4.1891104312200555526146672e-01,9.5557584718770482989924631e-01
0,4.7075170206860672550419622e-01,7.7705444956702562908645859e-01
0,2.3731022332657114581877522e-01,8.5689893443174036669063298e-01
0,5.2372658076869993415414228e-01,9.3037233562052712443346536e-01
0,3.9661233907008702770369268e-01,9.0925581588706272384570184e-01
0,3.8632397914346883194269822e-01,9.2447912663609688177501766e-01
0,3.6662961589120030003741135e-01,8.8952288494516118522170700e-01
0,4.9470632711763462552312376e-01,9.5884574463127014709584728e-01
0,5.3375356610878177399115430e-01,9.8995752473674625271371497e-01
0,4.1106107868023739060348021e-01,9.1844967395280785460442985e-01
0,3.8148537461425019445826479e-01,9.8952064012005946924688260e-01
0,4.5832124408556768058176090e-01,9.1291945847477651287960043e-01
0,4.4885438682326966874924778e-01,9.6676659855586599690013827e-01
0,4.6878031519893825773692697e-01,8.9896863420919270737385887e-01
0,2.1664786756407536372215361e-01,9.5539132709544483113006663e-01
0,4.3370401526576191075790234e-01,9.2811257426726789798721029e-01
0,4.3896070672396420020433538e-01,9.1814994513944203635702479e-01
0,6.0800328853345608770553099e-01,9.5283194416323979680782941e-01
0,4.3487467781000183064676889e-01,9.7900617003521317460723594e-01
0,6.5914262648282884171635487e-01,9.4782872283319796746781094e-01
0,4.5990862263021714539945606e-01,8.5118325489061996691475542e-01
0,2.7177943190120940064602451e-01,8.5416891847752207667099356e-01
0,4.5453945217757979468942153e-01,9.9844609564482200703139370e-01
0,6.3978103191541402239295167e-02,5.8966632496050619405281168e-01
0,5.5986924985496955287089804e-02,9.6762631084074002263406555e-01
0,6.2458046527413069171075222e-01,7.6916023247609066615382289e-01
0,1.2479941664851007532277549e-01,7.6380765826195040624213561e-01
0,4.0556037921035037463468598e-01,9.0053729609210309003941575e-01
0,1.4258373030072987730498824e-01,7.5279318613277135252559447e-01
0,6.7799735491877344273348172e-01,9.1460414895108566035730746e-01
0,1.9433430481823527058438117e-01,6.3322707890294771537753604e-01
0,6.6427135486703026145960393e-01,8.2046826446033982449534960e-01
0,4.1586567611653857401421419e-01,8.9347616081068426119315973e-01
0,2.4976079852488622390360717e-01,9.8049891031361946502897808e-01
0,5.3780133131566998372363742e-01,9.9923367566795717742422767e-01
0,6.5906289288864772224485478e-02,9.2279611879808032259830952e-01
0,2.0718831482869573545890773e-01,9.1461756016513306999371480e-01
0,6.2333484847024389630121277e-01,7.6455278595022724275054316e-01
0,1.6061360615956590813802052e-01,9.3509862760323236852144646e-01
0,9.2050673159688156665936276e-01,6.5062533612688377981925214e-01
0,2.0763514751491238263803041e-01,8.4688067752587581349388302e-01
0,5.3171504497888033569097388e-01,9.3350999522523248064231893e-01
0,3.9868758536365894729058823e-01,8.2617874753883346894411943e-01
0,5.2492837326967001221333931e-01,6.5777188391528174093991765e-01
0,2.2526371971575165353840475e-01,9.8396953165623801673689286e-01
0,5.2493262636357773676110128e-01,8.0579187580513578215146708e-01
0,5.4132272225829303202715437e-01,9.7049651923865354330445143e-01
0,5.6084071820992031920383170e-01,9.0484927709981688437324010e-01
0,1.6914353736445508769037360e-02,8.5679100414896214310545020e-01
0,4.4462996461706766337940167e-01,8.3751700025361952572922064e-01
0,9.6182545376802569547791677e-02,9.4318824585887306444220712e-01
0,1.7680868476643560316396986e-01,8.8741097474315555615476114e-01
0,1.7196207801207161192103001e-01,9.8884229270208257034369126e-01
0,6.9167585540989262593569720e-01,8.6100175662560851641558202e-01
0,8.2709073371980856848040276e-02,6.2387445796555973664965222e-01
0,3.3049796760065852652132889e-01,6.9413210523770352278205564e-01
0,5.7978679263796517595608293e-01,9.4171442410860495275670701e-01
0,7.4977091855315891599786937e-01,8.9889413111134308653760172e-01
0,4.7159528609932621634470706e-01,9.3385218162122851648376809e-01
0,4.0165943742886273115644258e-01,8.5169675694105073660011840e-01
0,7.1303751359945188870170796e-01,9.8900522311269056796589894e-01
0,4.3997956060008253098558839e-01,8.3491288960641085736824607e-01
0,6.7084571590783714789552050e-01,8.0948302084601808648045562e-01
0,9.4410255407845500297270291e-01,9.2645662054072630553491763e-01
0,5.8240163314395776428256113e-01,3.3666935123546215535839110e-01
0,1.6893542854965470922934401e-01,7.4325169411593861035214559e-01
0,9.3263926368159166813143202e-01,7.0681968869068645400233208e-01
0,9.5278409719118806187054815e-01,8.4567417648658071982481488e-01
0,3.6744358898684720271532456e-01,7.9761701509566140799734058e-01
0,1.1419529394598115779047021e-02,7.9645124505621356369999830e-01
0,4.2838319661821627759579201e-01,7.9083738750527821093072589e-01
0,1.5366727397717294678614053e-01,6.2787519212546216706982705e-01
0,7.9920577328564468277960486e-01,4.4001749037070048142794576e-01
0,2.2242532212777604838649381e-01,8.8014431131453607637382675e-01
0,8.9329082727013753295608467e-01,8.6358107466304301347292949e-01
0,1.3559740318299684513903003e-01,8.1029787233085193154380477e-01
0,9.0810977930573077987475017e-02,6.2087423970065125367057135e-01
0,7.6716761902010599527557133e-01,9.9541523992371183648941724e-01
0,7.6768218624675732542073092e-01,4.1736975946440418860916566e-01
0,7.3026333232140516749097969e-01,9.2568035705454998485208762e-01
0,7.2190020664939891226197233e-01,8.7966425315386043148890849e-01
0,6.8138504635475816151313211e-01,9.9631131644536152780489147e-01
0,2.6270573529139285007261151e-01,8.5351820365482033992066135e-01
0,7.4404975381641080822703316e-01,4.6280924895867875390464974e-01
0,2.8795599351887668504446083e-01,8.0083137567792150868228873e-01
0,1.6842859307778168531655183e-01,6.8267206591792084502401394e-01
0,5.1130468681881779957620893e-01,3.8165687764066735798706986e-01
0,3.1121853821927081273912563e-01,6.3635774918205290084927128e-01
0,4.9857116369717435766517610e-01,9.6162855711029771033082625e-01
0,1.2744510273366854713472662e-01,7.4975180869055990662275235e-01
0,2.4394336668470240070405453e-01,8.5205888909497251582081390e-01
0,8.4013977349651003390107462e-01,9.7058450873863910679517630e-01
0,3.9733073945551355965477569e-01,6.5030887589536412463075976e-01
0,5.4358154569998662353214058e-01,7.7330988835489011812285298e-01
0,8.5386440107341154970299613e-01,6.8101432743302292571740963e-01
0,2.0644004907844726304233518e-01,9.5616791973697223827599601e-01
0,2.5257889566721125618187216e-01,9.8417595392320333935742838e-01
0,2.6890563856163907097140964e-01,8.8235760197915069635854479e-01
0,8.3151667705049692180807597e-01,8.0241801642296584073932308e-01
0,6.5346534757280139160684485e-01,5.6170746675451843632487225e-01
0,5.9187867201803545658123085e-01,9.7735509874662840346104531e-01
0,4.2923312623200804427625599e-01,5.8351265507269911569920851e-01
0,3.3118566930521114999308452e-01,8.4910220769706457044634362e-01
0,6.4740641416053790191398321e-02,7.1031579678049916459769975e-01
0,4.9198746009465488260303800e-01,9.1893462469002540338181007e-01
0,2.2204866205263951162152125e-01,7.8072327996825463536367806e-01
0,4.3895553146555532642025810e-01,5.0410312476765040123893868e-01
0,5.1906918329546936075047370e-01,6.3417209186209033688896852e-01
0,4.2389283250500026101192930e-01,8.5399175549670580664951558e-01
0,5.1607946802440374245435351e-01,7.4460841319050397046908074e-01
0,2.0782552369657117385948197e-01,9.2252174842390977094197524e-01
0,6.8213458510674385149030741e-01,6.7876688462243162103249006e-01
0,2.1033230525371490737818192e-01,8.0296684793952499692437641e-01
0,6.0771229073414434473932033e-01,9.9494021392602638442781426e-01
0,5.3303965561021671160091273e-01,6.1107557709585347271996625e-01
0,9.0346530833905014379325848e-01,8.9759028015705000225210597e-01
0,2.4007726210615934481218403e-01,6.6076678507678587859430763e-01
0,2.2893172714239440335148856e-01,6.2685830389749241930985590e-01
0,7.4373442429434621914197123e-01,5.4130429814598213233978186e-01
0,8.8437606422846748444044351e-01,7.5236228468826538140490356e-01
0,5.7751922250379417178578478e-01,8.3340955047547915501837679e-01
0,6.9495547478174324318445088e-01,7.8035665463944581254907007e-01
0,9.7162009613562139165310327e-01,5.8726936364153370373486496e-01
0,1.6674265691142295398030626e-01,7.0710186382227568913094728e-01
0,9.4202662955780469555833179e-01,8.2224056517594501514167860e-01
0,5.6907588973627110107145199e-01,7.4696356952877540624768926e-01
0,2.8292676831679069993086273e-01,7.6490000897155319137254992e-01
0,6.5770046726214814736266590e-01,7.4228529110524898992906628e-01
0,5.6082594660129925223657210e-01,5.6088559238356505698419596e-01
0,6.9975867914750911058519023e-01,9.7452773750736210178757801e-01
0,3.5982734528152038322446060e-02,9.9623003781185026639377611e-01
0,6.3242381743182418674109613e-01,9.4881619143171558317106928e-01
0,7.1710359233194753691975620e-01,7.0609905339968281889895252e-01
0,3.5021628683921307567672443e-01,8.3859025303230372294649442e-01
0,4.2456888585976793049070466e-02,7.1137309644839707978292154e-01
0,7.5710057670235175741879630e-01,5.1225923685354313175110974e-01
0,1.9512682279798632123402058e-01,7.5920633868904685570555557e-01
0,4.8734984062942710014709746e-01,9.4430423184087575183554009e-01
0,8.2180476954867742733767955e-01,6.1921403808336639151832514e-01
0,4.3293777937579791537103802e-01,7.5038013027239069963059137e-01
0,2.8739766163524393949302294e-01,8.6155414706869171137526564e-01
0,4.5938631856968881184144493e-01,8.3616392525781424449604629e-01
0,2.6945260999928299927574926e-01,7.8977813770431504192259808e-01
0,6.0966021760490551884004162e-01,5.8875188350866280995177249e-01
0,4.8501796392689139336695803e-01,9.5503029042197806752767519e-01
0,6.0058561809408317344605166e-01,8.5394240765024465034116474e-01
0,1.7990250228823151390500357e-01,7.3577846618926578958763685e-01
0,4.7910674374889938853527838e-01,5.5061797678544233125563778e-01
0,4.9041551911206432423639967e-01,9.2032721703423592263249020e-01
0,5.2286806260722884509561936e-01,8.4403614832265649869924573e-01
0,2.4460880638825166499827901e-01,9.5370176372557124988560417e-01
0,4.2270168844163030774652157e-01,6.3900598391746066262442127e-01
0,5.2978615105312665267689454e-01,8.0093747863417985577427771e-01
0,3.8488312009538144797815562e-01,6.5234905811737131653416100e-01
0,2.4855491895140968683364235e-01,6.4133777345566089778117203e-01
0,1.2552353734621549130601181e-01,8.7218215413912147937480768e-01
0,8.8744206724050989087970720e-01,8.7833103036153981069134034e-01
0,5.7984587643542662149798161e-01,9.0673233198360414508698568e-01
0,3.7224322232247136765792561e-01,6.6360808265550075280003739e-01
0,7.2914359383934768121804382e-01,6.6642107381317305936363482e-01
0,7.1777480725690367968638839e-01,6.6511270941281175339554466e-01
0,6.1721171004537511706189434e-01,9.9740261782577954718931323e-01
0,1.5052325086555096156359923e-01,4.3728599496023068393668609e-01
0,5.1651017902139240156600408e-01,9.0909893640851491269927465e-01
0,4.6710061886105891382214850e-01,6.4226072950222712343304465e-01
0,3.5457801178663606034291433e-01,9.5083191858343540925346815e-01
0,6.6218331882942804700320494e-01,5.9261573757413221752443633e-01
0,6.3838161980949159612919175e-03,8.0315835741309782314090171e-01
0,1.5941511187628504275792807e-01,8.1672627644132389512776626e-01
0,6.7586847868851029907943939e-01,4.9534986973791478304107727e-01
0,9.3693564291238096153335846e-02,7.8590513355936386652444980e-01
0,9.7479531954282361283503633e-01,9.1606110906963356121934794e-01
0,5.0829864971665261741406994e-01,9.0835240538170969326614568e-01
0,7.2026374727109515605505408e-02,6.6664270306657924525239878e-01
0,9.2238953831051628817760957e-02,8.8538865880848927059076914e-01
0,2.8105395854156411949986705e-01,9.2675838896962425828007781e-01
0,3.6231445146577151428246566e-01,7.0195066722729648756029519e-01
0,2.6032595510483402811985343e-01,7.6399406926006541151963347e-01
0,5.8500106237994797808710246e-01,8.0340432965544883447961411e-01
0,5.0208835174374555343490556e-01,9.3927661966797604264911570e-01
0,1.8855278037960054859922820e-02,6.8078644218667383469778542e-01
0,8.0079506665731936543295433e-02,6.7689104392299970225366224e-01
0,1.7276756260310016655168397e-01,7.2776833641426907917093558e-01
0,8.0053333444139296304342679e-01,9.3509813124664842298727763e-01
0,2.9050614938081908977807188e-01,8.4762154248557264324404059e-01
0,5.6254282669108868208951435e-01,6.8991545701152601210992543e-01
0,1.3037114235157057362535227e-01,8.5117429298227342826521635e-01
0,2.5974795573437958751128463e-03,6.8824112830015371500280708e-01
0,6.0678744065551171171790656e-01,6.6526768252340551246248879e-01
0,9.1328431400163223585764172e-01,7.3934622889574863613404432e-01
0,4.8040683537576323036688564e-01,7.4989308380614261295704637e-01
0,9.1362886442901114492087800e-01,8.1941165423841677561966890e-01
0,2.7343183408073123974446617e-01,4.6178863289395777336210358e-01
0,4.7758063891292723557313593e-01,5.7121193827597438463783419e-01
0,9.5805987548145288279499709e-01,8.0295869083474058491844971e-01
0,7.4643533269725814704997902e-01,6.9672727530787836869308194e-01
0,9.8145404685102244357608470e-01,5.5734908129879123794836460e-01
0,3.7623555267453079320461029e-01,9.1107949048981129447355443e-01
0,3.6731591653074768810682826e-01,9.9319885210750269433077619e-01
0,9.0840503530138527743531540e-01,3.0853502936142818136033839e-01
0,4.2944017693829639181757329e-01,5.5703132515168118921167206e-01
0,1.7331885003859093252742696e-01,8.4372232359341170493394202e-01
0,5.7643476006691163338047090e-01,6.6749145871357495884979016e-01
0,3.4534789413425065474072539e-01,7.3227968600912474173014743e-01
0,2.3975450234902340174159008e-01,8.4657697985003077523202819e-01
0,5.5086033415388957479308374e-01,7.5143467833393606802872000e-01
0,9.9446573217134637268088682e-01,6.2896018245582829830908622e-01
0,3.3743105993384359120312865e-01,4.3455879163654187458121214e-01
0,6.6653786101448608825137399e-01,6.4153886644085766910450275e-01
0,2.5178950970058477931701191e-01,9.7863416242349909879294501e-01
0,3.7939830014030417881798485e-01,9.6976070321337892732316277e-01
0,3.5773440688501689788125759e-01,9.0239941442474491672953718e-01
0,8.2224644673346669598856806e-01,5.3877747790991592502507501e-01
0,7.9628576368862324930120167e-01,6.0475034759276324880516995e-01
0,4.8661824274554832392425396e-01,8.3337012618786532325287908e-01
0,5.8490459508641290398145429e-01,8.0689863927764904349970720e-01
0,1.9638130636565101494461771e-01,6.5289601338959091236802124e-01
0,5.0661667502352281111654975e-01,9.8760809863297038813101381e-01
0,3.1675679200687556491544683e-01,6.7277513156942070349231244e-01
0,4.9999055459580565852206746e-01,9.3266804694216998150579911e-01
0,5.4771596836837577182421910e-02,9.9008223100895453860914586e-01
0,7.9836931187075754756676815e-01,1.3498706530860693497686498e-01
0,3.5579908626353112799378664e-01,3.7131447907034725863795188e-01
0,4.9198374311835163519290859e-01,6.1555573397289020665112957e-01
0,6.6096708503859025185533937e-01,8.3901141140359281056504415e-01
0,6.7854152156526226224997345e-01,5.0590460465651321264601847e-01
0,3.1057277986854364693058983e-01,5.7965976914128214403376660e-01
0,4.3455871766437154102291629e-01,9.5081618509202514566425180e-01
0,2.0026677160576755731824505e-01,8.4274382869351927016765558e-01
0,2.5380515678666903944815658e-01,8.0013425537239601936789768e-01
0,6.6263429088289971247149879e-01,9.5596655353670889621042761e-01
0,3.7432717038180385316081811e-01,9.0532943568956580904227849e-01
0,7.2630993137472832366086095e-01,8.5667127880424953634275198e-01
0,8.9991059892714109214040263e-01,6.3143123896083519497324232e-01
0,7.8638548878014746801312640e-01,6.5909628155878141608781107e-01
0,4.8308621231797976847133214e-01,9.4747221599846886963547377e-01
0,8.6393130917988014694230969e-01,8.4014074225857204858414207e-01
0,8.9010579154914015731492327e-01,8.0972008871317602274331193e-01
0,2.5403949652889745713935099e-01,6.8416261169262915231570332e-01
0,6.7045324260085648049312113e-01,6.1340267912524792937034590e-01
0,7.0450732286230388634606925e-01,7.4083275886127941678438447e-01
0,1.6975680255474231983292555e-01,9.1518576212589597407287556e-01
0,8.2847930246652823349506889e-02,6.3486820789163334044502562e-01
0,6.9484789040340688703878413e-01,5.3330133435678495068543725e-01
0,4.5515715126414879598826246e-01,9.0289645716032551625573888e-01
0,3.5625295873184470440975247e-01,6.0484949931808296152979665e-01
0,5.1094773878110677500785641e-01,8.2411370614655798938485987e-01
0,8.8561766318178580803532896e-01,4.9514253649726369665984294e-01
0,9.0969512471126490193995551e-01,6.3975175090005664824133191e-01
0,5.4496152475602854803327091e-01,9.7881152781567803966566998e-01
0,6.3762954263192517245784074e-01,5.7772165991740953572275430e-01
0,6.7693312560594121052304217e-01,8.3515665452567544591033766e-01
0,4.1184343152638963614364798e-01,6.9223959866496143078506975e-01
0,8.2754701087265736259013238e-02,7.1924399642130298904163510e-01
0,7.6520267741648084758310233e-01,1.6811973540338032151453262e-02
0,9.1866220691765376749060579e-01,5.9080106210065919114526878e-01
0,3.9942297271384896717449919e-01,9.3467808583856482051999137e-01
0,7.3948802879421793310399380e-01,5.7245511664015946706740579e-01
0,7.6193500624503140983279081e-01,8.6880493712597517408369185e-01
0,3.3713215518733807840590089e-01,4.6245217159977436427453767e-01
0,8.0458275288649927503570325e-01,7.4844929942236859687909600e-01
0,5.1573893015539473694275330e-01,4.2005690011457363919333829e-01
0,9.8411830466162486530379283e-01,6.6261972138979752244836163e-01
0,4.0740732150398312194639061e-01,6.7731913294739753972351082e-01
0,4.3294985887873771446265891e-01,4.6780888251060237514877826e-01
0,2.4822710085360902287909823e-01,8.8908122315571758154106874e-01
0,7.5426759617224403697832713e-01,9.1311044169541744075502265e-01
0,8.2790920986062488395873515e-01,6.3293464911573671383138162e-01
0,7.7129662892672934404458829e-01,5.7229904243189477774933493e-01
0,9.3454649504611442267787424e-01,6.9792126327616410552678872e-01
0,7.1750288229190806177371087e-01,9.8186904813994824170464426e-01
0,7.5937975842471128196109476e-01,8.7076980762742206554349877e-01
0,3.8306073554912312140174890e-01,6.7635125710504151452795440e-01
0,2.9403428959650973473216595e-01,2.1848478630546952494739799e-01
0,9.4577130488567889843309899e-02,6.6756181484560139782757915e-01
0,4.7946220264177341618960781e-01,3.0027458650588967348227243e-01
0,3.9190643155281712495252577e-01,6.5407692361567848493564270e-01
0,4.3786535841911516930835546e-01,9.6538495155671111280781815e-01
0,9.0751046282271641274519425e-01,8.5372327506368039795603408e-01
0,6.7731997066598104151324833e-01,6.7455673801071969197806766e-01
0,4.1718067912816925169039450e-01,7.5675776165998942524026916e-01
0,4.2078566048912913188928542e-01,8.7084059666707958058395889e-01
0,1.3555175113639739148396757e-01,7.2712878969694516584354460e-01
0,5.8455681670924974913106098e-01,9.8182479132993827342090754e-01
0,6.0564992285142593697599978e-01,8.1973155205784264953905449e-01
0,2.6483774610728616494270682e-01,6.7367288127345170689608267e-01
0,4.7908713912151706937336826e-01,7.9865853538731279570583865e-01
0,2.9027162200397121916140009e-01,6.6515760111536448295765922e-01
0,8.7500313493397952058217015e-01,1.8958225985802240609601199e-01
0,3.1741034406072343720950357e-01,7.5217803936723071078773728e-01
0,8.0213207085511162297564169e-01,5.2635226088324371662707790e-01
0,4.9187040321114805507818346e-01,9.2291093904489418520142863e-01
0,3.9490782837129317917046478e-01,7.9463378397477457681929991e-01
0,9.2217182463889546539803632e-03,7.1497958860445831597019151e-01
0,5.9864834373483932772330718e-01,9.6901031718950758619968155e-01
0,7.3381430766464461612486048e-01,8.7564643236838413109524026e-01
0,8.8583216738470405005045905e-01,9.9742866928803897152988611e-01
0,4.0359547749627994184251634e-01,5.8117218717129581762037560e-01
0,7.4472665555120287628199094e-01,6.1272867108862916207812077e-01
0,5.7006496703282660831746398e-01,8.3846078121257683335443289e-01
0,4.6854376865557884057622573e-01,6.7200249816059309804217037e-01
0,9.6574234963630933847866800e-02,5.9574226635935523255227508e-01
0,8.0589019907893444383262249e-01,6.6670817687197991840974964e-01
0,4.2412600649782911110818873e-01,7.5893394415480630588177746e-01
0,9.2114836236069530528425275e-01,6.2771823414791227957465480e-01
0,2.1741649534418669431623528e-01,6.2537524546190415009050412e-01
0,9.3072574309546296511541641e-02,9.7379144944409246065220032e-01
0,4.8032756173862212190073251e-02,7.5712115298751214709227497e-01
0,3.1972577263899026878135601e-01,8.7234063792645344381782024e-01
0,4.1787147187329709563385904e-01,9.4585891694149715203110418e-01
0,8.6655385252151373443041393e-01,7.4337441097878320661607177e-01
0,7.4557497007149164947037434e-01,8.5305066591649891805104744e-01
0,5.1306134005926740115910434e-01,4.2236835392959570789628287e-01
0,9.7960249124069287418592467e-01,6.8725211303361821713053814e-01
0,2.8520093903292215165024004e-02,7.9065596039447838538904989e-01
0,6.7067417001273743615286094e-01,8.6980408156802313524025294e-01
0,8.5470561722091442646842552e-01,4.5543259365502125612934492e-01
0,8.0022037329088879786809230e-01,9.6296141512844168897089503e-01
0,8.4783782116644923476656004e-01,8.9967816796522337430275229e-01
0,5.3620526899450715596628925e-01,9.6982528298303927183354745e-01
0,7.0732797909850619877403233e-01,5.1561458263442716543067945e-01
0,8.9096816231968478660974142e-01,8.5091975384275353455620916e-01
0,2.1836595308818790295291024e-02,8.0663818900747563667152917e-01
0,3.4939797575815667585175106e-01,4.0215954318969560077334791e-01
0,3.3034896461870261186177800e-01,7.6840281278065947212496667e-01
0,9.8803417762977974181382024e-01,6.7650776915322463622715077e-01
0,8.1469275436097587927974928e-01,6.1445293700190095620428110e-01
0,4.5639880824999579100875735e-01,5.8014810214289125323006147e-01
0,1.2797103817680705040160660e-02,6.7234367918377846429223155e-01
0,9.9761437900454053018250988e-01,6.4578940424668740405422795e-01
0,8.3243215375648049736412304e-01,7.6168735811523524681376784e-01
0,1.2521623185592248295172624e-01,8.4508761874801663349643377e-01
0,5.8738182650589931821372147e-01,6.4612321922739113233546959e-01
0,1.9723525227519517200036603e-01,8.0532443287250521368747513e-01
0,5.5800472366174214133849318e-01,5.7586724845682690787640468e-01
0,5.6947386336738237133658913e-02,7.8518605537772034885790617e-01
0,6.1106034829135680297440558e-01,9.7683951570586446955246629e-01
0,6.2202836011614448530337995e-01,4.4275806179642090976145141e-01
0,9.1488270519925030122010412e-01,8.3488451928006679469973506e-01
0,4.3405370720335789691546324e-02,4.9673331521717184466879758e-01
0,3.5455924089069401627938305e-01,8.6250487644410023246877017e-01
0,8.1846137617918501838687462e-01,9.5748088505811268511536127e-01
0,1.4183592064559191747719069e-01,7.6151720125073285583283678e-01
0,9.6404304142511920705516104e-01,5.0719775364183472543544440e-01
0,1.2705265360828310594598634e-01,8.4368881650478677602933431e-01
0,5.2734858263491279917190013e-01,8.0956283542879248216195265e-01
0,9.5275060463723559855964140e-01,6.0016862260229930647881247e-01
0,8.6450718544762406025938617e-01,7.4384194158732563906255564e-01
0,3.1489526279488644355808447e-01,4.5628562397519667470646709e-01
0,3.6949023180614481987049658e-01,8.5292198868828705826672376e-01
0,6.5479462222255069292486951e-01,9.5130990745759436144624033e-01
0,3.3479202555125076035125176e-01,8.2797053465040393316343170e-01
0,7.5947229749931510767169129e-01,8.6757791433700037764253921e-01
0,9.9566064737472403933793430e-01,8.4463413377350859967407359e-01
0,2.4130843222886616539213378e-01,3.8797525217525974383647736e-01
0,7.7738276335290867891103517e-01,5.2059801709509145872800673e-01
0,2.3969569328553519405033967e-01,5.0313957648231988351028576e-01
0,8.5972332025707998148789102e-01,7.4737783034856275499180356e-01
0,2.5226854122478681308194837e-01,6.2588669832191290431921971e-01
0,8.4771850594897324437937414e-01,1.7575553483578493230155004e-01
0,7.8233999650337859854687395e-01,3.4026719405192806799931304e-01
0,1.6658017393779811499143761e-02,9.4752930070677954255131681e-01
0,8.8906530106979686500778826e-01,5.4264108936202337662990658e-01
0,7.5592372502237797915469741e-02,7.0684881696221979474614727e-01
0,8.6175438610903987157740858e-01,9.4661528157591623422462135e-01
0,2.0231007207131498915053669e-01,7.9446183609699749794685886e-01
0,1.7306107818481031301871553e-01,6.4342559417639200169958258e-01
0,8.7631481183846293703254560e-01,7.5242658907485249208946243e-01
0,4.1892175504645767780687038e-01,7.7300050711657697366518960e-01
0,8.4215354116772411785518671e-01,3.1644371697266060472486515e-01
0,5.9763453690651913152720454e-01,9.8182674160648331085354812e-01
0,7.0384670595015547123196598e-02,8.2673459735446952478810090e-01
0,3.7890858503256830136507460e-01,9.1921208564187917300358777e-01
0,7.4176478470242024343406229e-01,3.6460312943493944359829584e-02
0,6.6764041854558309196931987e-01,7.8852776551697045803734909e-01
0,1.6282320011366477330305713e-01,5.3527072940899400599334967e-01
0,1.9609424223850036028693467e-01,9.9480029426094618294484917e-01
0,7.7698665386615617389765021e-01,9.4964306866307990340203560e-01
0,4.9012944043974721042289389e-01,6.9699965289022713932354236e-01
0,6.7945583937044407019101300e-01,7.2682446626565300196176622e-01
0,8.2537356450531751406174408e-01,9.2330707133491918270351562e-01
0,7.4296492400513758358471250e-01,5.7916677153881446216132645e-01
0,8.6606185884999820068230747e-01,8.2725687363826760911678093e-01
0,1.2687547316622097004490399e-01,6.7724589692457404233039142e-01
0,5.9416500453063247899621047e-01,7.8608894670895790302012074e-01
0,8.4068455551936061009854484e-01,6.9705690341434378698437513e-01
0,7.3832631894092948243724095e-02,5.8092954231413485022272880e-01
0,6.3122080936048952093386788e-01,9.8374401191758364948469762e-01
0,2.9053598133485691867861078e-01,6.3721753967956196174071692e-01
0,6.0764615132380261908195962e-01,5.1933788034771177777315643e-01
0,2.1849062931403473442060204e-01,6.2219973521009275252424686e-01
0,6.4580210523526715427067302e-01,6.3406977564891064957919298e-01
0,7.9833535911766506654174691e-01,6.2765683409491734856544554e-01
0,1.4013703386801751316070863e-01,9.0522883288114841526805776e-01
0,5.1850526497725368813007663e-03,8.2278360157929142371102671e-01
0,9.0121453564342623998584259e-01,8.0891550234015496823047897e-01
0,9.3317925522021205608780292e-01,7.9420798972151496197824372e-01
0,7.2048511627748734742482384e-01,8.0297442889232772955665496e-01
0,1.4104377121794911542629336e-01,9.6771827396592313696999099e-01
0,9.2898408203495497215129717e-01,6.3890344450145020172016075e-01
0,2.0507559743491721171437803e-02,9.6511258167391900109066682e-01
0,9.8778709266880948547395747e-01,7.8349614278255053090305182e-01
0,2.3208898591682181056228274e-02,5.8557933348114177274368330e-01
0,9.8633770666440045982170659e-01,9.1231746617789322151281795e-01
0,8.2025675787416374440397249e-01,7.9439354043533294547074775e-01
0,3.4580486230925799873148208e-02,8.0085502481388670670270358e-01
0,4.2821284478948173912726816e-02,8.7140472156303971917878926e-01
0,5.0606598536018010392467659e-02,2.1863325799699970253264780e-01
0,4.0989660249345116760366636e-01,8.9376868291644262498607532e-01
0,3.7678340817023608932956336e-01,8.2423485636600357651104787e-01
0,4.3911501879098474576679223e-01,9.0494780702895127877383175e-01
0,7.7861863311254875252842567e-01,9.3891661764053890859571538e-01
0,1.4375884206948530419367671e-01,6.3917773188154225483259552e-01
0,9.6519976380910055269168879e-01,9.8341260825752352392470357e-01
0,6.4992290543944819525279399e-01,7.6241116072742065590261973e-01
0,1.5656823166306901851108080e-01,7.7968660357714159037101354e-01
0,7.7894448861855813959209627e-02,7.5473113135735891976452194e-01
0,8.6506954245487133192682450e-01,5.9841960243858316470522141e-01
0,6.7599071322235149139601162e-01,9.2557186437828253833259851e-01
0,3.7447851315853175613312942e-01,7.2536079734095659787840304e-01
0,6.7269957135376956536276793e-01,7.5603220757742417568181281e-01
0,2.4005579258586989821466773e-01,4.8236965780802959491424531e-01
0,2.4670490119024957031967915e-01,8.5191077763724731841676885e-01
0,4.9543116349692395417037005e-01,7.5398333462822042516648935e-01
0,5.0383417329554847086114933e-01,9.1161097631812360031489106e-01
0,6.8189407226850429211140181e-01,5.2352916012338579498930358e-01
0,1.9880961327626520129818743e-01,8.9301082562423428345965704e-01
0,9.6081700385693835642086924e-01,5.6069818120362202584772149e-01
0,3.7895404122139708658068002e-02,8.1909182139168268399487260e-01
0,1.2247870388822565401731879e-01,5.4948684349221565970111669e-01
0,3.4514843369485026514098536e-01,7.2754738423100506761187489e-01
0,2.9155820020480011089958339e-01,8.4534079898429925759018033e-01
0,8.5553735743393766188802374e-01,6.8357922145347860265474083e-03
0,9.4538154595247769762522694e-01,7.8397186310630684324962658e-01
0,9.2373911984584766710071335e-01,9.2189523663657824137374064e-01
0,6.8550080695377024753156547e-01,8.8146188324279517445347665e-01
0,7.4834233922745074796267772e-02,9.7704354388781811113773301e-01
0,6.2483006479751201922567816e-01,7.7858203346562881996817396e-01
0,6.5630865889880940500233919e-01,9.2632751657539869061253057e-01
0,7.2131029466123752769135535e-01,8.2954980548481360713708455e-01
0,1.1356582490780392502571772e-02,9.8393379660832147592941510e-01
0,5.2257677054432072338840953e-02,5.9768983444869250298836505e-01
0,4.8566691542151096960822088e-01,3.2260129518177876883910926e-01
0,8.7457677835011282674315680e-01,7.3659942340605044641677068e-01
0,1.5990660308457105287516242e-01,1.8032120098055548496063238e-02
0,5.6362846031337943131234169e-01,4.5375690552773284558440992e-01
0,8.6457644551814816225032700e-02,9.6081867395376807650109185e-01
0,8.9556238225338613556658629e-01,9.4014335580399399638906743e-01
0,6.5056814029097909113374953e-01,6.7868993005894739933836490e-01
0,4.7427453123418722435999939e-01,8.1873721600551896404596164e-01
0,8.6707702674017972377384922e-01,8.1544211057044624357814655e-01
0,7.4602884449170958625074945e-01,7.9559343914896007987636040e-01
0,6.4326132837211524861942280e-01,7.2269936524087730056464807e-01
0,3.4172168773756456117141056e-01,9.5999731825523948458567247e-01
0,6.2200041211269740948353046e-01,6.9854246074662840193525426e-01
0,2.5150071373301752242213070e-01,7.2974144989809219818965857e-01
0,8.3724043265299419314118268e-01,6.2778608954840420253162847e-01
0,3.0643514748342259856883629e-01,7.5286536944744708588217463e-01
0,8.6418720623960021409715182e-01,6.2146963837852275958084647e-01
0,4.1666079109306131122991701e-01,7.6047431549059940625312493e-01
0,3.0471321401466178180328370e-01,8.9436538290325151567827788e-01
0,2.9357837363047140089022946e-01,7.7574666920295864969148170e-01
0,6.3210953928012247882151087e-01,6.7521102584977743532590466e-01
0,2.9547369549262536558842385e-01,7.3479123305228788431975318e-01
0,8.1791257413860785074888327e-01,9.3455052026969154255198191e-01
0,5.9805056985264015700920481e-01,8.2694200007584239831004425e-01
0,1.8921277724097906869360486e-01,7.8290019665236676438269114e-01
0,3.2839761554023172429594979e-01,4.7308322425746979211780285e-01
0,8.3312757516476809716010621e-01,7.9995956995971184699811829e-01
0,1.5649775039667956910705016e-01,4.8889383749977022297628082e-01
0,8.3174948853795338532535197e-01,5.6160279003439939060626784e-01
0,4.2219361199486854507867406e-01,7.2979989081280149942898561e-01
0,3.6445267810340464809115701e-01,9.3348359217727572278988646e-01
0,1.9129397809813988851068700e-01,5.4998455689094427611962601e-01
0,5.9783135130395270717684753e-01,7.6827388212496872110790491e-01
0,2.0748722224783167078498991e-01,8.6480481352393412386447835e-01
0,6.4255306675072110245139356e-01,7.6100903403086639364971688e-01
0,3.4238902202956628118002413e-01,6.0484403641800887907464812e-01
0,4.3044576780956611550266189e-01,8.2298233856216973514108304e-01
0,8.5575402424367630338508661e-01,5.9884414958564446962441252e-01
0,3.9071116953546503047789429e-01,6.8600350014846112056687844e-01
0,6.5008567537452055518087946e-01,9.0357886976450951799222366e-01
0,7.9367903746983814450288719e-01,7.3585132476421888370055058e-01
0,5.1567946471901882077304435e-01,8.6654389991446056917823171e-01
0,5.6668917304296884118741673e-01,9.5895322205987043595598607e-01
0,3.1213877653015753566023704e-02,8.5099386126875931068980208e-01
0,3.2313831387817371076920381e-01,8.6488210476901472567590190e-01
0,5.4131294676295371726126859e-01,9.3951528843805631741048501e-01
0,2.0706258260739415777429429e-01,6.7170849909162688717856327e-01
0,3.7879479001557281314660486e-01,4.7268214463771685007742462e-01
0,1.1567933953045064776610218e-01,9.3741618704809792639309762e-01
0,9.3948259851825821620252555e-01,6.9137589338286176143810735e-04
0,7.3669113916607154024518422e-01,8.8912990314726880747286941e-01
0,5.8446571404676284089418914e-01,9.0785251805943778524721210e-01
0,3.3989634867712475996270882e-01,8.1337693466522631435822177e-01
0,4.9896643389772421528505220e-01,5.0466653058108668084003057e-01
0,3.7296149638570896822642453e-01,9.9707487917385217990329238e-01
0,3.7911397527439438803753546e-01,7.0353324880407130947901351e-01
0,2.1833017975199986437928601e-02,7.7118955590533933008856593e-01
0,5.8378594270068084881586401e-01,7.7374327894728711640937036e-01
0,8.3043560071161248714588510e-01,6.3535374798479293811936941e-01
0,2.2196243152173766866042115e-01,8.5480789697148518158087427e-01
0,1.0309227541718546383719968e-01,4.6434371731028911689520555e-01
0,1.2755300547113129772114348e-02,9.4101641333337515682444518e-01
0,7.0717381025109604664180551e-02,3.4408080358000525666994918e-01
0,2.5554905412788164742465824e-01,6.6663295799797961382893163e-01
0,9.7633083198038650429850804e-02,8.9125664653975356088722037e-01
0,8.9459323324218342765590251e-01,9.7333896639482642143548219e-01
0,2.7103530242621354240384335e-01,8.4489495552464788374891214e-01
0,8.7161018050198990625432316e-01,7.8601363163262616406967709e-01
0,2.1051534272396077440703266e-01,6.6463367598259659452253345e-01
0,6.1076449861975135036118445e-02,6.9480363232436026521554595e-01
0,5.1711050313640261055780911e-02,8.7617177070595930743479585e-01
0,2.0297459079869067943846517e-01,9.1078522534207029259789579e-01
0,3.4800129868023244039676456e-01,7.5636096165985933215125669e-01
0,1.4983669327668236448403150e-01,9.3203357099972883315075478e-01
0,6.9343571220514665931489162e-01,6.3639647231020179951599403e-01
0,1.7292390675279678546871764e-01,6.1596059509530198816662505e-01
0,8.7717832338486811938338406e-01,8.7997723656464599262250204e-01
0,7.8888405027788299772595337e-01,8.2842108641754330644602078e-01
0,7.9777351363475457191043461e-01,8.0557176427911569849271700e-01
0,7.0255268706720208626848034e-01,8.7242612362003812975785877e-01
0,9.7615832139911085096883880e-01,8.2075540139135649830848251e-01
0,6.8535586553927352326809341e-01,6.5451910067612839583262030e-01
0,1.1320131213361950273110779e-02,6.5328781879770392304607185e-01
0,3.0224694980575034231051745e-01,7.3363282428126752598984694e-01
0,9.1160465702291193501594080e-01,9.4089812369173864148308439e-01
0,3.0683038593479444733347350e-01,9.4493482375609116896697515e-01
0,3.9151332981724301651738074e-01,7.7516233116054067409095296e-01
0,5.6833586341961161991775953e-01,8.2730106367775835263245199e-01
0,4.2184295584184444694031413e-01,9.0416087025402402943541347e-01
0,4.9989114618206975659830960e-01,7.7504141561754480438395376e-01
0,8.4914522406748793592612401e-02,8.9924862783008996380829103e-01
0,8.7545388575610938453053222e-01,9.2598759852784451318541414e-01
0,5.5605046568542459972661618e-01,5.9058273748889733578693040e-01
0,7.9921226283793833644608640e-01,7.7161995466136845678306599e-01
0,2.7470514635759746280285754e-01,8.8308511100592657072638758e-01
0,3.7767882700526889117043083e-01,7.0501242108069972491790622e-01
0,3.4966743480496387252998147e-01,3.0302089285094030435274703e-01
0,7.8731283266164431289269032e-01,5.9212678453177447490674012e-01
0,5.7989986590051989523431075e-01,7.0713951894578541690350448e-01
0,3.8825808665536543085039511e-01,7.1420097627905998471931071e-01
0,5.2655009159557208953117424e-01,6.5420664276143347670711137e-01
0,9.8716673711891778086879867e-01,8.6707894286674902506462104e-01
0,6.0679185954617376186348565e-01,8.6264224614535345292409829e-01
0,4.5872616345885919297842293e-01,7.9814673128285862357955693e-01
0,7.7629101940996392272609228e-01,8.4736151931157721595155863e-01
0,4.2215551330425826748182772e-01,9.8388976875083566930868528e-01
0,3.1493964576508909347651866e-01,8.5861196478408441379315263e-01
0,4.8784184636052163597241815e-01,8.4692714802745461266653137e-01
0,1.9097651692264308587176913e-01,8.5973290134242141835585471e-01
0,9.8992094783593453932724060e-01,5.2813742196837121234409551e-01
0,6.4395062849603945664966886e-01,9.7560023759603931026163082e-01
0,6.0769247283619909349994259e-01,8.2130204538880446918369671e-01
0,5.7211220075899060777402383e-01,9.0903671298243515774828438e-01
0,4.6972740454788608488456703e-01,6.6239714010396855137230432e-01
0,9.7988773510996285409646589e-01,7.2848842109105060860230196e-01
0,1.3957895959965938015301390e-03,9.0042730849650109981041624e-01
0,5.3815346102232508584961579e-01,9.3932081912734199935499646e-01
0,2.7774401647612806387499518e-01,7.7752520220564180775113527e-01
0,7.6720840668638712323001982e-01,7.4454514951562211777513767e-01
0,8.1521509516467394185212925e-01,9.1590746145887336204793883e-01
0,8.2363241266341868929146131e-01,9.6623832794906194809669842e-01
0,5.0543143577606963745552093e-01,8.5151510975620681165310089e-03
0,7.0291788384792874833095766e-01,9.3601145193133894473191958e-01
0,3.5037138239041987208821638e-01,9.4798431807590222142323455e-01
0,9.2514286591402949966322922e-01,7.3205838622942187576825290e-01
0,2.2645201551977051090958071e-01,9.2653069495802387045557680e-01
0,3.4543084836029869233442469e-01,9.6343283315617478379522254e-01
0,6.0736722849295599058194739e-01,5.6457671081293181458704566e-02
0,6.6215756036704487286215226e-01,1.9425900635724246967583895e-02
0,7.7640453657654218133643553e-01,1.8240670016072790815542248e-01
0,1.2422672543153202850962913e-01,8.8498367866362293021609275e-01
0,2.5227739521054198812421987e-02,9.0128494878518372601661213e-01
0,9.0496711862023260231069344e-01,8.2015800909200176072033628e-01
0,6.5584195037891546142816424e-01,1.7812467707098988967118203e-03
0,7.6754891421944204665805955e-01,2.3151122323375927791744289e-01
0,3.1451098777380792625990580e-01,3.8506992508524007234882447e-01
0,4.1721676377938776703047097e-01,8.8088849515583711458077687e-01
0,8.3537572213467026216449085e-01,5.2901039910777880592718247e-02
0,7.9417558533390897324011348e-01,9.5623951575907084610150832e-01
0,8.5841123441846090003082281e-01,7.2922596154832119985655936e-01
0,4.9630152886014250457336061e-01,9.2578217584738276002553903e-01
0,3.8698680710925548176248867e-01,9.3183229328187422435547660e-01
0,2.1275050734982992040045247e-01,7.5107897079849550436847494e-02
0,8.8041572219606567539784692e-01,7.6879759278421122559166179e-01
0,2.1700670520834358656614427e-01,8.4984219269890437509218373e-01
0,7.6212982532908579713648578e-01,9.5954681517354556419263645e-01
0,7.3889856956495192363831848e-01,8.9266176064689761737724893e-01
0,2.6227866001038302457004647e-01,9.8577753561837833107261986e-01
0,1.5125136495717805829031022e-01,6.1072871602247946754005170e-02
0,1.3787491600901391475275659e-01,7.8831463181668126605217140e-01
0,8.9639277573159226175647518e-01,8.8009736584132358672150076e-02
0,7.1249990884113656441911644e-01,7.0740873557275496530394321e-01
0,7.7680387092215874567102674e-01,8.9613695555404571102542377e-01
0,8.0106735407180806873839174e-01,8.8057014262988619890393238e-01
0,3.7492569281900356426007193e-01,3.1765045227037713715390055e-02
0,5.5828359852969300369807115e-01,9.2842515708677053609676477e-01
0,1.0446959845343467554457106e-02,8.6547949381659372569686184e-01
0,3.3056116226755638543011173e-01,8.8049855184451697454051100e-01
0,8.2858907509031354265971459e-01,9.5754381370163832443154206e-01
0,8.5013686248950848245442558e-01,6.8435485621557790025804024e-01
0,9.7276761250411070136578928e-02,6.5401004064283863037587707e-01
0,6.5243549069078055069326183e-01,9.2685496652603649447854650e-01
0,1.7536459029185591518285037e-01,5.6146259625223182698761093e-01
0,2.1782169340239776467171851e-01,9.4527976767504151567322879e-01
0,1.5836439617967013049337766e-01,3.6132872956197092939589766e-01
0,7.8603355513335160242860411e-01,2.1906028495962281965603324e-01
0,6.8800099605876119390757140e-01,9.3109815238908066881151626e-01
0,7.8900656634612442719145520e-01,8.2270999075535256039870546e-02
0,2.5678383808252919218162447e-01,9.4601679690446471848730425e-01
0,7.3782061580184410409799511e-01,8.4593678313143882974145527e-01
0,1.2400085739934274542406456e-01,8.2001356102996814101402379e-01
0,2.7297062889705570043474836e-01,2.6026536787533172123687564e-01
0,2.8177289256691873120530545e-01,1.7077643276449538944916640e-01
0,5.1319045861424827936758675e-01,4.3362434619537904012531726e-01
0,8.8768504442122253550451205e-01,9.1621127695454462891433423e-01
0,8.7164351439421472456103857e-01,8.9866183264404353447929452e-01
0,9.3766865024847934062535160e-02,9.8885020834789882915316639e-01
0,1.1808206665151683989467557e-01,9.6774970316200714659515825e-01
0,1.8447212308323512885976925e-01,9.4089848223756711309562206e-01
0,8.7318102513165352096535798e-01,2.0905073525529060951555493e-01
0,5.7682630543162183300864854e-01,5.7171394391465302220467493e-01
