Species Id, x,y
0,6.1539482206731954683220920e-01,7.7255832833569537676510208e-01
0,4.1866777642751229482342978e-01,9.8591077327786946771226440e-01
0,4.4388029709835769009984574e-01,6.7253426779361813458990582e-01
0,3.2761650005799508589277025e-01,9.1300847207267321614665434e-01
0,5.0041622040070554700008643e-01,7.7482876028155756031878809e-01
0,4.6186874103295066928964729e-01,9.3656618963873028427258305e-01
0,7.7855386558501560312350875e-01,8.5288730470394424898472607e-01
0,4.2829222039727615767290558e-01,9.5778062471233238461820747e-01
0,4.5041970500816413958133921e-01,9.9639140942498805042504273e-01
0,5.1185259991558063052963234e-01,9.7205482686328714692081121e-01
0,3.2804081502029858175006893e-01,9.7407483191466870398045330e-01
0,3.2195809605543940223881805e-01,9.0956424850757178202087516e-01
0,3.3683607980701496531494854e-01,9.3513969005906927289828445e-01
0,3.5637168828137066878269934e-01,9.5999453743330087629459513e-01
0,4.4124536101627054307527942e-01,9.3292479050372667526147552e-01
0,3.5783107414986681238389110e-01,9.7713472990321659228385442e-01
0,4.7933122066655914350619128e-01,8.9820964468429265181725896e-01
0,4.3722848137265080126212524e-01,7.7764700483431692390468015e-01
0,4.2252447618019511876852334e-01,9.8699240459695325444755554e-01
0,5.9744967449394148495400714e-01,7.3895098665173408747364192e-01
0,3.8247472666440640587381949e-01,9.0835396924992839462476013e-01
0,4.3120026352114876333487814e-01,9.6425664645244113515332174e-01
0,4.6517144039230473584467518e-01,8.5770945782770335874545253e-01
0,4.3578834023745460779508676e-01,9.4234070603759201301130588e-01
0,4.2043119745209245330386238e-01,7.5504764276405622602794665e-01
0,4.3076396056758864405722420e-01,9.0779193169535965513006204e-01
0,4.1258573729082648195998217e-01,9.6943340799685451258937974e-01
0,3.0697078815456313449772097e-01,8.5043478127079075168381905e-01
0,4.7907249609656227251619498e-01,9.5026079132596541487743025e-01
0,5.3259331121311459522615905e-01,9.7741432453404497593396627e-01
0,1.2267729196920484913135851e-01,8.2736570755914340402625839e-01
0,4.2718220060173056618069154e-01,9.0920851172290784170115785e-01
0,3.3542868749570642350477101e-01,9.2542770517622696679893579e-01
0,3.9489909349130786209158828e-01,9.5256655852290161856643635e-01
0,2.8831354178922224962278165e-01,9.2354958537210107838433260e-01
0,5.1008905871242726792758049e-01,9.0403369203048966618041504e-01
0,5.2243496246108378500139224e-01,7.9769527085486335860053941e-01
0,4.1725006083330296036137952e-01,9.9181350435062032300237433e-01
0,4.2999942139319047296197596e-01,9.0606507927124901868864981e-01
0,3.9247304153972412121831326e-01,9.7711885994487557294263524e-01
0,3.5770949532878537624469573e-01,9.4784484200729124392381664e-01
0,4.2923953302965422995640665e-01,8.6418020667812156521137013e-01
0,4.8324866936826715857478121e-01,9.4467070744543424343220295e-01
0,4.5563371260294344144980982e-01,8.9943739658258137215085526e-01
0,3.6672373763510085487027368e-01,8.3464406557340942161005160e-01
0,4.1386734283282999857789264e-01,9.7104234023466795555634690e-01
0,4.2920963119564131682537322e-01,9.9624837740535321373158695e-01
0,4.4855586221600030061296138e-01,8.8404815687976967542027751e-01
0,3.6454933365206071416153577e-01,9.1675324589470896796683519e-01
0,4.9833719805903486932407986e-01,7.9820193045912291029964081e-01
0,4.5050183595997794760990018e-01,9.5435902556921103911946602e-01
0,4.4870676869682324383603600e-01,9.8806697639986396097810939e-01
0,3.8569502444627418169531552e-01,8.3822116245411437684964540e-01
0,5.2904265264703842497340247e-01,8.2203198475903671571529685e-01
0,3.7988802275899141713821905e-01,7.0210565451587725327442513e-01
0,3.4820774014273336849356610e-01,8.5473562020806703731778953e-01
0,4.6986476565542167893596570e-02,6.4095315413976505780624393e-01
0,4.1611236459575901003304921e-01,9.6317990586434165667384377e-01
0,7.9923677514834989832337442e-01,5.9326018988390494257600949e-01
0,5.4190701672365626517802184e-01,9.8264791539143725440652588e-01
0,1.8947507052295992080459541e-01,8.2709034221687116605892243e-01
0,4.1660723377933783773130472e-01,9.5816609130707819375061263e-01
0,4.0164334657015221541342953e-01,8.5673333995860145861911406e-01
0,6.8851045247372766322513371e-01,7.8092214827500705531804215e-01
0,4.2036937988340861149794137e-01,9.8555489717107480629465499e-01
0,5.1009211080675131988471094e-01,8.1785541591996757659899231e-01
0,4.0306000291125182455331810e-01,9.8630714670169361557583443e-01
0,5.1246986824992957210156419e-01,8.7968168303464366886146308e-01
0,3.8629362817746948355335235e-01,8.7425699298533421366386165e-01
0,3.8678635052097420921057846e-01,9.2396017300771604574549656e-01
0,5.1129087659280558764152147e-01,9.1969256730871196126031464e-01
0,4.8121707764007742857970129e-01,9.6137747756685232314310952e-01
0,4.0145984288707714515709313e-01,9.3062174303081368620382818e-01
0,4.0856176275559646926538448e-01,8.5712053918523734008516612e-01
0,4.5460002021766338087260806e-01,9.8510909687664227618597579e-01
0,4.6804937791576328720566380e-01,9.3362995335885901049266522e-01
0,4.0098330572939372418161952e-01,6.8419436506778286144481172e-01
0,5.0671016084394449041639064e-01,7.6424024802586110194368985e-01
0,2.6672027109891727203461187e-01,9.1514295339539619700275352e-01
0,4.4271551938980280294089198e-01,9.7823240037169800764615957e-01
0,2.5151364962125588586872027e-01,9.3064801932354068725317120e-01
0,7.8781520420271489157926226e-01,9.7933236548862012682548084e-01
0,6.3757600584040752256242968e-01,8.9569022696536204630746170e-01
0,3.5555378766894218944827344e-01,8.1685857209954049196198866e-01
0,2.9726752241100573570520282e-01,7.5707934544560262501988745e-01
0,4.1669436483858801612001344e-01,8.9606200246183664859245255e-01
0,4.1951267812741688256750194e-01,9.9143691431217562115563169e-01
0,3.7812946224393306771105472e-01,8.7851139638522757202565572e-01
0,4.4229440895632288199834647e-01,9.4706202606382261510731269e-01
0,3.7460665251323999047627922e-01,9.0650191657831480362972343e-01
0,4.7716248129191407567617489e-01,9.1705361516589523063203160e-01
0,4.8283479508674620461761151e-01,9.5350015158790424329993130e-01
0,4.0247590444136721599122097e-01,9.7201777981955284069215395e-01
0,4.2438148314987356179983635e-01,9.8010351980504473168309687e-01
0,3.9407887984981243567617071e-01,9.7632146663571761635580515e-01
0,6.8502522686723799072439078e-01,9.6400852038928874776502198e-01
0,4.3305558227471596666191545e-01,9.8051167275071227091842729e-01
0,2.8602897315402114886140339e-01,9.1934476936299613925029917e-01
0,3.9503882833233294746833053e-01,9.8965386406193633916927865e-01
0,3.6859381986555095345181599e-01,6.1106191572410550882921143e-01
0,3.9836433259080533675344782e-01,8.7742702660418503413097824e-01
0,5.3645606802032874682595320e-01,9.9813088989963938413296773e-01
0,3.0133029152216611601389218e-01,8.4950483659539521852366306e-01
0,4.3704558778870206126043740e-01,9.3054352082706748294782528e-01
0,4.4042475694833366217650905e-01,9.9453015018184953710544960e-01
0,1.4959828652316958796930635e-01,8.1788070722617212116034580e-01
0,4.6694192021860370100938553e-01,9.1377256962269859386083226e-01
0,6.1326407621345668808032769e-02,6.9790009073052727828212483e-01
0,5.6355331621334214808882734e-01,8.8890001895586157054651721e-01
0,3.7629473870464857920836721e-01,9.4560605840010902856107577e-01
0,4.3861101036450345080908164e-01,9.3364688096920445126158938e-01
0,3.3249935809345426696026493e-01,9.6494330867713840049759710e-01
0,4.6289076769341064299112531e-01,7.8325719819080086292473197e-01
0,4.9067957404044260094622132e-01,9.4052192760846542451957930e-01
0,5.9433740290299486019875985e-01,7.9158623651314030666981125e-01
0,4.2144561051329165746182071e-01,8.5079397957849589584355954e-01
0,4.0049249440782902498270346e-01,9.4978162296806922793024341e-01
0,3.4641416664316715401383817e-01,8.3641976488852820548203226e-01
0,4.0943909091443259073983540e-01,9.7866704174761698364903850e-01
0,4.2813180728138244823810510e-01,9.2830570018395042186654109e-01
0,3.8858639100372538432992542e-01,9.4219627483779044840872530e-01
0,4.3144308837506489817670285e-01,9.6402015198005230889322092e-01
0,4.2569177679123204605105002e-01,9.5540302381577191237482793e-01
0,4.4623183061616344957656111e-01,9.9708919475449353519991291e-01
0,3.1147768289708049893604880e-01,8.7452398634160077861565696e-01
0,1.4935150330956559194817146e-01,6.4010580297696861862277729e-01
0,3.9058868619655451315253458e-01,8.6609417013528466888772073e-01
0,4.2168233185274112129192758e-01,9.8758398833531468863355940e-01
0,5.5666252738849553161060157e-01,8.9380521534098189562200787e-01
0,4.4182895174823427764110306e-01,9.9144007887838814241376895e-01
0,2.3598791968328658441578227e-01,9.0626002376150871508997398e-01
0,2.4283443448636124473161146e-01,8.3930514557987012658202275e-01
0,3.4566258489204604309463775e-01,8.9138858865030912159710397e-01
0,3.4415000963372205378121294e-01,9.4986072938944832166896504e-01
0,4.3831943032769427048833677e-01,9.4569036101074877009864394e-01
0,5.3346115683699912857207437e-01,7.8750151542367607948591512e-01
0,5.3127806740655436623654850e-01,9.1859183559922175099643482e-01
0,3.1922130232536211069671594e-01,8.8796991457604834696581975e-01
0,2.5182632855631281731945137e-01,9.8001231275533262632393416e-01
0,2.5638927335588057587756339e-01,8.8408600442628337834349850e-01
0,2.6404281326161738174818083e-01,6.8332112387970345146470663e-01
0,7.1165698430196577817241632e-01,7.0188886115254378594841000e-01
0,5.7043607163241338842141204e-01,8.2730612591979801884178869e-01
0,3.1457046819509909552081695e-01,9.9056510192627234001605530e-01
0,4.3149446568107818755777316e-01,9.8232021790133172700620889e-01
0,3.2197414705081012220588832e-01,9.2269868344515015845530570e-01
0,5.6957918030464149694580556e-01,9.5710757125106016296456346e-01
0,4.1385748110340903060944129e-01,9.6615215329792525356111810e-01
0,4.2827062183716618770645823e-01,8.3723533629969559832773029e-01
0,4.9125417688291245221776649e-01,9.1031880760178951472738618e-01
0,2.1061309119345167362169491e-01,8.9040019810039927605771481e-01
0,3.8062948453708611573631515e-01,8.9885213841130473522156308e-01
0,4.4430165337272115033684372e-01,9.2503701958371786773227541e-01
0,4.8547263287350794769281492e-01,9.2497083029288096334141756e-01
0,6.0403326917523036954094096e-01,7.3391748897118747052559229e-01
0,4.5420770421666034621921426e-01,8.8481159223460936757987838e-01
0,3.9799572274059458187878136e-01,9.6096377274059474604683828e-01
0,6.1962329513479796894159790e-01,9.0548047371825435281067485e-01
0,1.7353397070473614016705710e-01,6.6117754375558257518008531e-01
0,4.7727616796945016020004005e-01,9.0196674034492330118695236e-01
0,4.5472905829301468738634640e-01,8.7744549862115461813516504e-01
0,3.7191004305193087198233570e-01,8.8219731151511238120832559e-01
0,4.3287803551798281764817489e-01,9.8057915060388434191906981e-01
0,4.4606219581509409799480181e-01,9.4104085538136195143721352e-01
0,4.4848665203025572800754617e-01,8.4242348559217195003157030e-01
0,4.2158919785184922890408643e-01,9.5721426105960449870480033e-01
0,4.1451350998285774185347918e-01,9.8728308800271702416750941e-01
0,3.2419564359608143977453665e-01,7.5553447725585287653160549e-01
0,4.0029686796393620928924406e-01,9.9579489428857304034181652e-01
0,4.0731934690477877847314403e-01,9.8240901070805908279481855e-01
0,4.1219816721377305901441446e-01,9.8947218379358137241297300e-01
0,4.5638387469462998735636461e-01,8.2562030930999541489256899e-01
0,4.1267928573212919740598181e-01,9.7630772370419371952721121e-01
0,5.1912326719297852140044824e-01,8.0145270336198826122142691e-01
0,7.8827879139792389473484491e-01,8.8880849078721102518585440e-01
0,3.1167561588477754597192870e-01,9.0003636170818879236321663e-01
0,4.1962745534287176907284334e-01,9.7748016967846196312308393e-01
0,4.0513258851089151146851464e-01,9.4712295634899679175333631e-01
0,4.5840516247182311326824333e-01,9.5134470461902731486247831e-01
0,6.1222709925739760006280221e-01,9.6583494578758855020339524e-01
0,4.0201400940104004000374971e-01,9.8439982728228192510044892e-01
0,3.8969710799280254942544843e-01,9.2284771404702070629610944e-01
0,4.2392424641591103240401139e-01,9.5181884867208821354722659e-01
0,4.4353277526949513864806818e-01,9.2254745573260055202524654e-01
0,6.1240555230468407543753528e-01,8.3791410006004518606914644e-01
0,3.1766929256229775591080511e-01,8.2231244080599896761896161e-01
0,4.0844124405539816713428536e-01,9.6250824222615383174428416e-01
0,4.9923191457279170180072470e-01,9.3367381860982190389108837e-01
0,4.5251688951046536990574509e-01,9.6160947013334263644424027e-01
0,4.8658178404235896685747775e-01,7.8835601554823464542920419e-01
0,3.5789391735249032056032092e-01,7.9719655467864181108694765e-01
0,4.1996453487052454178751759e-01,9.2876757798535214405433180e-01
0,1.9867292169909819832263054e-01,7.7246686308932344111610746e-01
0,4.5522378218167819374784244e-01,9.5025067691658215984773506e-01
0,4.8013876462301341430105595e-01,9.6856196374557423922624366e-01
0,6.2706113588860179497430636e-01,9.8030516943344769842383357e-01
0,4.6856188980570656621438275e-01,9.4589645971568814264429648e-01
0,4.6326595535765946465289744e-01,9.1289445825889292684962584e-01
0,4.4815846472226705810015801e-01,7.6146918171987143519885421e-01
0,4.0697097179209046347025946e-01,8.8452235203470219726540336e-01
0,5.4490241141620399112355244e-01,9.3099189302906271148430051e-01
0,3.7774081455808516949446130e-01,6.4990509246287619937731961e-01
0,5.6006361704246243604643496e-01,8.4788827464411842260716412e-01
0,6.3001961954795060449896482e-01,9.1866798965622242789663687e-01
0,3.8744077793766923401008739e-01,8.4918905985847237261054943e-01
0,4.8683311593492206714728354e-01,9.4175731881475699402983537e-01
0,4.7836572226660423190480742e-01,8.9077545859498763469730420e-01
0,3.1599654439724333965244796e-01,9.7849005879830419640796890e-01
0,4.0540676292890692744563808e-01,9.9381725851910984737003218e-01
0,2.0322076839129898928604234e-01,7.4630739591061789894865797e-01
0,4.0826134324394092178778237e-01,9.8393479951829843077604210e-01
0,4.2304666395805667900020808e-01,9.7749908472813273885293484e-01
0,4.4421337944193184377184025e-01,9.9033166092028723781481858e-01
0,4.0388767397856595309235672e-01,9.9270398830428152603388980e-01
0,5.3363195032521670846392681e-01,7.2620638287705718827425017e-01
0,4.4540103250755891384216056e-01,9.4496145444167423121939464e-01
0,4.2726532784929593944411863e-01,9.0208058615544683966902539e-01
0,8.4254282683731773762048078e-01,6.5552705949072032076685446e-01
0,5.4706703492525288190506672e-01,9.7400726471795340266623953e-01
0,5.9210114939758096141986243e-01,8.8512308141450746212797185e-01
0,6.1523070254055345351673623e-01,9.1741075315875764140116644e-01
0,4.9465020467589021491150447e-01,7.6990814803780005526334662e-01
0,3.9429934803666927267684628e-01,9.8474815080299493708082537e-01
0,4.4197218588421721685577381e-01,9.9243003313824507127804964e-01
0,4.8425246537485622244645356e-01,8.5321421126945951041165017e-01
0,3.7586520935288142419850033e-01,9.0173380869687369543186151e-01
0,4.1348100074646554347168603e-01,9.9176953419110958076743145e-01
0,4.3097595416345901853105715e-01,9.6398252841545095659370190e-01
0,1.8760094215662115324505521e-01,5.9787293736473023919586467e-01
0,4.1178239923152548662699246e-01,9.8537087968860515019287050e-01
0,5.7555249627272941914668536e-01,9.9012020674072986903269111e-01
0,4.8122597801781658022335364e-01,8.9917404229523789638278686e-01
0,3.7094454597259690631361195e-01,9.3059523301869961908749929e-01
0,4.3337207669163180234761512e-01,9.9526466106086586282941653e-01
0,4.1912233210431321106526070e-01,9.1693544465069887205999066e-01
0,3.7967076066176774773452962e-01,9.3603564267626770956098881e-01
0,1.8364165766991771833183122e-01,6.3307378580214024310635068e-01
0,4.0576561393417159839813735e-01,9.5913679574720434040102646e-01
0,4.4098653027833062401086295e-01,9.9900120762972977050964118e-01
0,4.6920599616132163678372535e-01,8.7336613623697401109780003e-01
0,2.7666483844745570763734577e-01,5.8140242784798124020539944e-01
0,5.3300543168158176499105139e-01,8.9034231739254898752022882e-01
0,3.2727115323247202294254521e-01,9.4962716373666067326553275e-01
0,4.7939612051040003670721035e-01,9.1800931004018160308532970e-01
0,4.4080636694606878389635085e-01,9.1775068443310481303143433e-01
0,4.6045137308315930990687548e-01,9.9866687485596483675465151e-01
0,4.3381926193425135451775532e-01,9.6864671558384507488170811e-01
0,3.9357084910179496173299185e-01,9.5279934618647199595642405e-01
0,2.5590700946229316681268529e-01,9.2349236052067718016900244e-01
0,6.0410272156847932834011772e-01,9.6730197463247424849441813e-01
0,2.5756846163494506729563227e-01,9.8769051144524122598511440e-01
0,7.2594887281624997932283350e-01,9.4750746041634625882466025e-01
0,5.6388451857396992838999950e-01,9.8556791881342786787456589e-01
0,4.2954790293248201749065629e-01,8.7556052916185445056385106e-01
0,4.8217600970991714159907815e-01,8.8012785213263444727971319e-01
0,4.1093360404491308113250625e-01,9.1731962644918929594695101e-01
0,2.9779080734689100662393457e-01,9.2509583446815812912689125e-01
0,5.9271000293817854842615134e-01,9.1781477243496667473010575e-01
0,2.9283573830149728367544526e-01,8.1854631550743539580849983e-01
0,3.1263522946190031026603151e-01,8.1951806975899310625521821e-01
0,5.3186262999862132794248737e-01,9.2401206992270257245536413e-01
0,4.6213113575523523390842229e-01,9.9797847431875286172697770e-01
0,4.5424232025800254097802622e-01,9.3381891960316321110724402e-01
0,3.9008368108688046271836924e-01,8.5779296012709527197159787e-01
0,6.0551801275976058214212117e-01,9.6938356816450088615511049e-01
0,8.2183527008627965670939375e-01,9.6060064811524681349652610e-01
0,5.5596442787550137687446750e-01,6.4756994836435965989807073e-01
0,9.2241381363530505765879752e-01,3.3104457798421593750504144e-01
0,3.5868881527735563263803442e-01,8.8002615288691066197657165e-01
0,3.0451945625169368758733413e-01,9.9236621606472175116664403e-01
0,7.9608133649840029377742212e-01,9.2649131728966838128513928e-01
0,9.7639067374109156371986273e-02,8.9854709738901339388661427e-01
0,3.1798591854620272822984361e-01,7.5027056349645127042435888e-01
0,6.6388354889196943275919693e-01,8.9447281056485583583537391e-01
0,7.5637521498223780902492308e-01,6.9118298046142334634112103e-01
0,5.5457020322187799976632050e-01,8.9686053523167930112691693e-01
0,7.3001129730774438897356049e-01,9.6238868281309253305266793e-01
0,8.2877393446663871756641129e-01,8.9358859019649927724060490e-01
0,6.2909258157318570514604517e-01,9.9670513335267174603870899e-01
0,3.0634622681076828509816323e-01,8.0861117519426328748011201e-01
0,1.9905160766921153880915085e-01,7.0606844954450109774768407e-01
0,5.2845452193103381599570412e-01,7.9527885405924791939469287e-01
0,8.4852338525543447023125054e-01,9.3449454141641474791413202e-01
0,6.2849943923778572862914871e-01,6.3095454097351599820342472e-01
0,4.8085032677471439832572742e-01,9.8705667671486208014641761e-01
0,5.8513176849100867471520360e-01,8.8746503147988187176764541e-01
0,5.0310984467885100368533813e-01,7.9015596847557589832433678e-01
0,5.1806009295339738862651302e-01,9.9295555146413727598542209e-01
0,6.6483160067330693276943521e-01,6.6725741220390921704108678e-01
0,5.3026895117735695084348890e-01,9.1598674279354441729594782e-01
0,9.9941618304455293042565245e-01,8.7890519366655572852664591e-01
0,6.9214788755318013002693078e-01,6.6618495113880538127659747e-01
0,6.5710335124089636060773501e-02,9.5960812307021858824640503e-01
0,4.3915173856385752992892435e-01,9.3630610780495959755143076e-01
0,1.8272025779546252621798885e-01,6.2036971070532975769395989e-01
0,7.3596892126849389192955186e-01,7.4068660491836613157801139e-01
0,4.3112807068747133198982624e-01,8.8202319238452353555857144e-01
0,4.4781103580096026650636531e-01,4.6377836601807276295517113e-01
0,7.5193926538433764061863940e-02,6.2190091100244737631896896e-01
0,6.1309740792403344400440801e-01,8.3991984429407373635712020e-01
0,2.8036886067439986680582820e-01,8.8684014937272326317696525e-01
0,1.9032159850234672826552185e-01,7.5069465738630247741980384e-01
0,7.1515799632838239485721488e-01,7.3144594337046098253551918e-01
0,1.0285052379658043975041437e-01,6.6561311337846573721321874e-01
0,3.5532311731724119940878381e-01,3.6804034589538553445819957e-01
0,1.3586595921501493089422752e-02,9.4415682510045906283835393e-01
0,3.5629900729010732796098182e-01,8.9705649412930932307119747e-01
0,8.8846137402600411370201527e-01,8.1971853928910065612001290e-01
0,6.9488226872572567138774957e-01,6.8309641849293645243790252e-01
0,6.7294081312417131091052624e-01,8.3644949139301116858291607e-01
0,7.1798756812930897286406662e-01,7.6668092354390715570389148e-01
0,3.3067831636847855314442768e-01,3.8811702928373154053431904e-01
0,2.7365247824553962097127169e-01,8.6292912472956495584242020e-01
0,2.1463130802464713831056997e-01,3.4272427437313868203716538e-01
0,3.7490534741020875575401305e-01,8.5269732927063313088211771e-01
0,7.6441185626000396347023980e-01,7.9047573966233997122543542e-01
0,4.5915919308788166741663872e-01,8.3119624566185346115076982e-01
0,9.9067127906021446026585409e-01,8.7618876691943758938663223e-01
0,7.0726284383014270673584178e-01,8.9097023754017268259985940e-01
0,6.6230485565666463720901902e-01,7.2204420220952902909061777e-01
0,9.0830980254395110584653139e-01,7.2429399308983044569743015e-01
0,7.4436342833387170170311720e-01,8.8551606217932921083502151e-01
0,9.1652642435855335989458581e-01,9.3760323916145116296405604e-01
0,5.4011082160065626567302388e-01,8.9660548251801275299044391e-01
0,7.9560828833771513046713153e-01,8.4957692787878935636314282e-01
0,2.5193456427567567645908753e-01,9.4620471718471399480421269e-01
0,2.6837976147722830688735485e-01,9.8221026799199873114076809e-01
0,9.5284145081254223441646900e-01,4.5743997259785257325503949e-01
0,1.5885874429634350146756105e-01,5.0361538576608111394961043e-01
0,9.0970480459350033797250035e-01,6.5762706941853521502849844e-01
0,3.9067280147250127431135525e-01,8.0701148315674320343759973e-01
0,3.0396247067177045719787998e-01,7.4541431805750435479751559e-01
0,2.7595272742816528976916857e-01,9.8910214139738694694159449e-01
0,5.5560993759218157972412655e-01,6.9452360967028747840146252e-01
0,3.4658083733623729072448327e-01,4.5166327727875654751699130e-01
0,6.7546679118019414822526869e-01,8.7558633493476023534896058e-01
0,3.8412519542992223930966134e-01,7.7004758305231801873702580e-01
0,3.1155448710255040367655965e-01,9.2074417856494439327263990e-01
0,8.4516277965891423162858587e-02,8.9396699065538709483291768e-01
0,1.0630033574153124886763067e-01,6.3957366808080728937113690e-01
0,3.6484631137408640721986330e-01,9.8815481369540159040099070e-01
0,3.0862985369344481112463541e-01,9.2844060441912557024579655e-01
0,6.9908907857322155621204729e-01,7.3718401788578047373334812e-01
0,4.8019748929455463581916774e-01,7.6276592012871324843814591e-01
0,5.5577880206201824009326629e-01,5.6625691262420230209784222e-01
0,6.5534317011892295745667525e-01,7.4008739340806484197088366e-01
0,2.5925745914014985959994419e-01,9.4164484018975636026027587e-01
0,2.4828879125384784032348762e-02,7.6477325279344354758137570e-01
0,6.2176623220142968051504795e-01,8.7437970607398929345777105e-01
0,3.0755045849370338251205226e-01,9.1497169764524688417850484e-01
0,9.4082278711167932616632470e-01,8.0651671058534957214902761e-01
0,4.9764063481975512326371813e-01,9.8731238715920688342464473e-01
0,5.8757581771109712587275453e-01,8.9229517019732651483820973e-01
0,8.2473630821146282077194201e-02,6.8752801732822155234003958e-01
0,1.2129128247418391461920351e-01,8.1255740534685050313612464e-01
0,6.0674923701993888069949890e-01,5.9900499308257659780707627e-01
0,7.8529101797136813267741218e-01,4.6107670689258928309328667e-01
0,7.8157285285721522782864668e-01,6.0025510681446636596092503e-01
0,5.2584444284322562346289942e-01,8.2017560250587628889462621e-01
0,8.4882407131799841870645196e-01,7.5753190556525118459774149e-01
0,7.2908877841946906350756308e-01,5.3011588934853826060589199e-01
0,5.2326868737411424969963036e-01,7.9954549800886332011629065e-01
0,9.5013333318684511930030112e-01,3.5949949170090855776749095e-01
0,2.7385429133651817412697937e-01,8.8515916127304361538108424e-01
0,4.6518923444529741706432446e-01,8.6054516675675762904518251e-01
0,5.5102575857487023913705571e-01,9.4102751215976920828865104e-01
0,2.9227386853241932307412299e-01,8.9795077693095182169713553e-01
0,7.2420029303343680382454295e-01,8.3860456178705811147722216e-01
0,6.5213283753192319291969170e-01,9.0915912515620767031521154e-01
0,1.3633568890752834068536004e-01,8.3600657936708522299795732e-01
0,3.8364381342374415106988295e-01,8.9753223099456980182964116e-01
0,8.6410334742294514498439639e-01,7.9796349014033440827375898e-01
0,3.1967835354125395674884658e-01,9.9919988225764744260715133e-01
0,8.1322429546401442390646253e-01,9.4075670572385083900712743e-01
0,4.2056806367518961842222325e-01,6.6851354550757691175277841e-01
0,2.5801320774474695296518689e-01,6.0515726903866173813639762e-01
0,6.7458541811249261854754877e-01,5.3479265266878095452796060e-01
0,7.0512062808273867631214671e-01,5.1431775764318266030983295e-01
0,6.8538764269880203539031527e-01,6.0527285746344794414852686e-01
0,1.4495754746614894492573455e-01,5.2625594095230243674166104e-01
0,3.1413464456768447341517003e-01,7.9791983957991396980702348e-01
0,5.3079411672057386084588870e-01,7.2907702236107063686887386e-01
0,4.0319719799273073812528878e-01,7.6214586780183846137504133e-01
0,9.9259752405921575224567732e-01,7.8705789863243980075679929e-01
0,3.5745083462364601878391568e-01,9.3402049081774207728301462e-01
0,6.5268566616085765819121889e-01,9.1803751497603691689164407e-01
0,3.9311625016606271953989449e-01,6.5480576635147191844055214e-01
0,9.4209875168534507050566162e-01,4.5951016755658868895295655e-01
0,4.7223445307935685288924788e-01,7.9005093763989109323375715e-01
0,8.3025808893109731556592124e-01,8.8677126644101345043225137e-01
0,2.9045771993459507109847095e-01,7.0415753798496549809016187e-01
0,4.4484436651908565441004839e-01,7.7337426258659391908878433e-01
0,8.3938957237002009836857042e-01,9.6038205221007677536704250e-01
0,5.5289660680707031215064262e-01,8.5368325637549857809460718e-01
0,5.3814089914721874308156657e-01,7.6628963983204867460585774e-01
0,4.2537061100149725634267384e-01,9.0520538812663431382787849e-01
0,3.6202382530433724339147261e-01,8.3017428872206666667921127e-01
0,6.2884173596098291714184825e-01,9.0364415900990380237089994e-01
0,8.6222045724379903219869448e-01,6.4772821987147977118581821e-01
0,7.1611430992091384961639733e-01,9.9514439517558428427435047e-01
0,9.5856261628170535971094068e-01,6.4413816994299366580634114e-01
0,6.9357799112368456739829981e-01,9.7563858479577270088611840e-01
0,5.6259664594258051995012693e-01,8.8244976937095920277442929e-01
0,2.1923498825058124195308551e-01,7.9713920782776315210327311e-01
0,6.6656912474762597398125763e-01,8.2912520761494967747040619e-01
0,6.2032837402815022009860968e-01,9.4003898336337698982134725e-01
0,9.7432465708169579965414187e-01,5.1568296560530280103762379e-01
0,2.8559951858515508771318991e-02,7.3385212048705839027462616e-01
0,4.7273148942546527884189800e-01,8.7467503117045097837944923e-01
0,3.1867155088483661851128659e-01,7.9626825760990471714251271e-01
0,4.5943025508952045621313687e-02,5.7428532551257727156723831e-01
0,2.9383783021288906178725142e-01,6.5849775214061867512072013e-01
0,3.2966382810917921331039793e-01,8.7314122690680018301634391e-01
0,9.3938878366108091721997653e-02,9.3695359020378887748847774e-01
0,3.5169427570168643182313417e-01,9.2592967612397392151990516e-01
0,9.7573636979513800326913042e-01,6.2656692152990578481563944e-01
0,5.3487877316124543547459780e-01,6.8928609521102590651508990e-01
0,7.4557543624693378703227609e-01,9.6016401799804218519795995e-01
0,5.2438607685112603729038483e-01,6.3078737549004282314513148e-01
0,7.0781844415987471563767031e-01,6.7041392544208566750540967e-01
0,1.4143786787699655360661666e-01,7.4350742257978186255940045e-01
0,1.1599186751469514611301292e-01,8.4973870951804231221871078e-01
0,6.7564874764389037942180494e-01,9.0757214598247315517909328e-01
0,4.1215118468429212672532458e-01,8.7403463094997080329306982e-01
0,8.9868554718524251700983996e-01,8.1116688375470913374698512e-01
0,5.4594662372642410730350093e-01,6.5531292838135579703617850e-01
0,3.4053073003798001172626186e-01,7.3867936023425884162207922e-01
0,6.2244493059135042045681985e-01,7.7495388894216898911793123e-01
0,7.6700883763840965734459587e-01,9.2460956919253178831752393e-01
0,6.2658197827179440420053425e-01,8.0363712803328513079037521e-01
0,5.5626083695103523130143230e-01,8.8695302893095318008676031e-01
0,3.8004313477802437182262452e-01,7.4524146792074019707285970e-01
0,2.4774534493351063613175711e-01,8.6267888752518018247172904e-01
0,4.9177916522209319527547677e-01,7.6932390187047117180441091e-01
0,5.4544975616684243657772413e-01,8.0822542247300022122402652e-01
0,5.9578728751222231885265046e-01,8.7768803358805802528053164e-01
0,8.0172688473702069522630609e-01,9.7940691771257237796532991e-01
0,6.3728680859554609483552667e-01,8.4265131279373806094667998e-01
0,3.7728463066570550044076526e-01,8.8757438507755548329214434e-01
0,4.9658314021446930963676891e-01,9.1235849726545692472967630e-01
0,4.1302302250485622980846756e-01,7.6593597339372299082072004e-01
0,6.0340108123996771816166529e-01,8.2659184436802801698718213e-01
0,4.1863061309407995080889009e-01,6.8648416407387258253436357e-01
0,4.7813833381875225914114935e-01,8.6926088302089166148789445e-01
0,5.5859717329942648600393795e-01,9.8781013232183811911824023e-01
0,6.4303040179721404623336412e-01,9.4897748673738691049805993e-01
0,1.7069894040197652884671697e-01,5.7119738914710316279865765e-01
0,1.1878784685057944270347718e-01,5.2101932987593846391405350e-01
0,2.4643314016842826630337981e-01,7.6163609780902863377605172e-01
0,5.8913267689420978356906744e-01,4.2042472959245058561350561e-01
0,2.8705164334495802958002741e-01,9.6914891553646098643071127e-01
0,5.6097451887678118076507872e-01,6.9309365803292299901272600e-01
0,2.4021970227173000678178028e-01,8.4478317189967444544862474e-01
0,5.6699442582526060618874908e-01,7.8771861869308612558171490e-01
0,3.2225378277090210854538554e-01,3.2752187416867362124150986e-02
0,7.3304492296649537141917108e-02,9.6333024111643605902344234e-01
0,1.7532732971430153856573497e-01,6.8979316210093633010558278e-01
0,2.3622241553963124749415670e-01,3.3374714800682381277141531e-01
0,8.4544139055628653167673292e-01,7.0097655007370096580388008e-01
0,9.6830863687072432632874097e-01,5.9297110930842988896216639e-01
0,4.7683717037894590706770259e-02,6.7302686440461290118264515e-01
0,2.4902786029961743174965250e-01,8.1156291759613941039219753e-01
0,1.5664015801661018700841055e-01,6.4062856903929976670752922e-01
0,7.1285285563373701478440125e-01,9.3711895171313441821325796e-01
0,4.1658451867412521485434240e-01,7.4277408080448537042173029e-01
0,6.8642703128346316265862015e-01,7.1729483282477313199620994e-01
0,5.7489904446905959467528646e-01,9.3534030517700006424064441e-01
0,6.0874571988317305315518979e-01,7.2620236533439230797171149e-01
0,1.6904710744789777643326545e-01,7.1699534496959249629810529e-01
0,5.7166990129084593874608800e-01,8.5754128217105474174530855e-01
0,8.1911812124715877025948885e-01,6.9686414426226173102207895e-01
0,5.6648699592028006755128899e-01,7.3332470613238776024900289e-01
0,7.3855476570176215034280176e-01,8.4133234432612458153499801e-01
0,1.1716822914839997160640905e-01,9.8612704940290174526751343e-01
0,9.2416057146744234884749858e-01,8.6953737360002947287540565e-01
0,2.8651833426662687287489462e-01,9.2954510347863861241535233e-01
0,5.5311693350027024695947375e-01,9.7861533808533429645848400e-01
0,6.3418783950007207028676248e-01,7.9257348214843248435101941e-01
0,1.8371512552539354112823844e-01,8.0766319455074553346207722e-01
0,9.2758144530273756167559895e-01,9.2006559063246773355615460e-01
0,5.5392522891384232686107225e-01,8.0595839949946301850047803e-01
0,8.0946316915381200107759696e-01,8.5398307247748761472649903e-01
0,5.7500489190839632058782627e-01,7.1181895147073270813109502e-01
0,3.6713083771119359166590357e-01,9.2661675289783462794446223e-01
0,7.7897842862145982856247883e-01,8.1282489888352760232237415e-01
0,9.2945740009200417119927806e-03,6.2730502921654696102393700e-01
0,2.4242733584148939973701431e-01,9.5098430739366157649072875e-01
0,1.9240008720337334335859225e-01,9.0572861284900718636947659e-01
0,7.5114489073256862639027531e-01,9.1903379675170049356580648e-01
0,9.9574460911914675076417325e-01,7.8856080809500794792654688e-01
0,1.7678633173408764278633498e-01,6.6627380619101206349341737e-01
0,3.3312138682898773112128765e-01,8.5577832001963571872948933e-01
0,5.4362648806200020157319841e-01,5.0731229222072149465105895e-01
0,7.1054509257375453312732816e-01,9.8068074447550812600127301e-01
0,9.8291859265070480322634694e-01,7.9351288964670607661844315e-01
0,7.8996692863471529300056773e-01,6.5679508006588782631496315e-01
0,3.9353796151272213421634660e-02,9.7161368526420233138196636e-01
0,4.5516404271785332324995466e-01,6.8959140153002285167360697e-01
0,9.5758455730916669512708950e-01,8.2555524353156872763292995e-01
0,7.5940479299735041962549076e-01,8.7954532786919159548233438e-01
0,9.5805872166732153338841727e-01,7.1989306124482543847165061e-01
0,2.4096103646888544780324537e-01,5.3429573814817032939572528e-01
0,8.1645527621474078827645826e-01,7.4640391749220369455031232e-01
0,7.0081493599870459121348176e-01,5.7314243873803660811461214e-01
0,3.1928572817446077003467053e-01,6.2238606073445112976116889e-01
0,5.1002497534554225300240660e-01,4.7702134763170872533422084e-01
0,8.5206710858386680573772765e-01,8.6162226800808849880297657e-01
0,5.9152312217291558305021226e-02,7.6645276392248384844663178e-01
0,4.5882424583211384172543035e-01,6.3852189026409622574220748e-01
0,9.1189461879628075369197404e-01,9.3666288016026322260643155e-01
0,6.1625048287820749504106743e-01,6.9933304218127378959479756e-01
0,1.5373736479177910196902701e-01,9.7492048461063662845305089e-01
0,5.0331583005704760847009993e-01,9.3389480553232684378883732e-01
0,3.0900566470864848644950484e-01,7.2743001119875128068770209e-01
0,8.9363147051232116879759815e-01,5.9749942137183398305211313e-01
0,7.0195553676700273015853782e-02,8.4455818429937301594634391e-01
0,8.6676022188051204953040951e-01,4.5871458775151530140590239e-01
0,9.7115377483251530410512942e-01,6.6196436659887603060070660e-01
0,7.2315006232810086217455137e-01,2.8101846852243572705276620e-01
0,1.9458142487689203403711247e-01,7.9446469067961911214581505e-01
0,7.5634835304732961347440323e-01,4.6334673038820217705335835e-01
0,9.3838778814660417371129597e-01,4.0286809871745526967501405e-01
0,2.1348487724995274250616717e-01,8.6817108843114831895348971e-01
0,5.4539369978503671188008184e-01,7.7205329516662635214174770e-01
0,8.8686396699009639732480537e-01,6.8678423078139017032839320e-01
0,3.1284972646120512429490645e-01,9.1659145487205839764044413e-01
0,3.2309554189502109888820769e-01,9.4602116460654139817876285e-01
0,7.8039130484191987502384791e-01,9.3777641802020528238870156e-01
0,3.0359478457979249821363510e-01,7.8833331174886012160385462e-01
0,7.0363911237209642024481582e-01,6.1225763400880806042181348e-01
0,1.7389188098319174891059902e-01,9.4704340438137846192034885e-01
0,3.9507583268215246130594664e-01,8.2878687880797585751935230e-01
0,1.3559943510124525256621553e-01,7.8643378691502796584700263e-01
0,7.3100723495393737927372513e-01,9.8935418312799239259902606e-01
0,1.1361755966577022358698912e-01,3.1229670394776876118925202e-01
0,3.3867636736139461461903011e-01,8.6004636759051844574486267e-01
0,6.6334840323073407386544886e-01,8.6284555763822923246664232e-01
0,9.9124553985278474055320430e-01,7.3618584582080726086417144e-01
0,7.2167012336966207541877338e-01,5.3391585003304431467086033e-01
0,2.1288453708727680946388716e-01,8.1424208335949455062063862e-01
0,4.0969582908759505368578857e-01,9.7127063760614729126530165e-01
0,2.0628240245750517622980169e-01,6.5508778167316550344878578e-01
0,6.8719354741394489405337254e-01,6.7111891064949091845193152e-01
0,6.9478918532815814312897373e-01,7.1857643510389601626542344e-01
0,1.8535702979651047517251072e-01,7.7216840520375418233101072e-01
0,4.4402892846745400934338477e-01,8.9040353631860225114280638e-01
0,9.7188961190111344823350237e-01,6.8004365664925991996625498e-01
0,8.6550256007558656889955273e-01,5.9635533594921608102623622e-01
0,9.6887050450486167374464230e-01,7.6455964747168336792526588e-01
0,9.7465847735877331192710926e-01,7.7505492973989298377546220e-01
0,7.3193837620657042908334233e-01,7.1401566464573695824924471e-01
0,1.5230917424602519183451932e-01,8.3486332854420230997760655e-01
0,3.8916359876577039100808975e-01,6.6610005293976515261533677e-01
0,2.1497433650248853886921552e-01,7.6931296638817026067869165e-01
0,8.5265049129341374811730248e-01,6.7778370233299578551111608e-01
0,8.7817971073790845881745781e-01,8.3595284127967550702464905e-01
0,8.1008019041186740683002654e-01,9.9068613758726253859521194e-01
0,6.8459007547872785526266171e-01,3.0635075721464299913776586e-01
0,2.9733605293084730547548133e-01,8.3445562890463031990861964e-01
0,2.9016452231609912715271093e-01,6.7730798385955570672933845e-01
0,5.8200585456356979108250016e-01,8.0549494863771053942969047e-01
0,2.1736771130147311548164168e-01,8.3136480882031393857545254e-01
0,4.4271284454965176280438754e-01,6.6413310785849244410883330e-01
0,9.1497140359465289893847739e-01,6.6989976396685968484945306e-01
0,8.4895769418023103725090550e-01,4.9313396215595806104659005e-01
0,2.1125379926693715892938030e-01,8.7609355927253507179131020e-01
0,3.7708036433785618868341771e-03,7.7753714435330312237937278e-01
0,3.8803327976635704210650601e-01,3.8743301196906654304541462e-01
0,4.4622708298056634745876181e-01,7.2307484454022130648809252e-01
0,1.3346900719005128088667789e-01,6.8787332724576899511959027e-01
0,1.3648336395182325553321334e-01,7.2928744170972448213063899e-01
0,1.0836556814168427087530233e-01,7.2951721433991756349257685e-01
0,6.4187173593550528316598047e-01,5.4608840511127487715725692e-01
0,4.5058164467426387034265645e-05,5.9920481491062893564247815e-01
0,9.2108817784000274198064062e-01,9.3223043116036574673444193e-01
0,9.8507457100704109986821777e-01,3.4574008222702878878607180e-01
0,9.3701411748103347054694723e-01,9.9431637594513799793816133e-01
0,3.2661082926076945298632381e-02,5.8112160913649602012043260e-01
0,3.7879705655557122101484424e-01,8.6387368893826577131989097e-01
0,1.1932649867327560500029904e-02,8.7916250670666296063160416e-01
0,5.1971192051205616913023277e-01,5.8757058405688489255425111e-01
0,1.3376956624093921943696728e-01,8.7819074143803532717100779e-01
0,7.4540842946674790159278245e-01,7.1702438314486294235194919e-01
0,8.6488886795918762384616230e-01,9.1755028166470775641272439e-01
0,5.0527719899046386053953483e-01,4.4202915986799051761835244e-01
0,5.8880534640330350892867273e-01,9.1900897057666619538451869e-01
0,4.6541032567250867346686505e-02,9.5951225637714032679070897e-01
0,5.8729968868022264238959451e-01,4.9621203995434753908355674e-01
0,3.7715422579419632942432372e-01,4.7111128587424722091725471e-01
0,5.2020265734557558090500606e-01,2.8089570413243647450940443e-01
0,3.7514406109093867414117085e-01,5.0685772744690582580773253e-01
0,3.1096353582085844990956502e-02,7.2693334230124784234305935e-01
0,6.4496415755621372412065284e-01,7.8854994138425194005748153e-01
0,6.1872896135352606350465976e-01,9.1269191225263024414005031e-01
0,4.6011051109406037040727711e-01,9.9387357737255843659340826e-01
0,4.9716286256819164357523277e-01,3.2835855686899456662430907e-01
0,7.4986335802160475338951073e-01,7.0363614397104434772245440e-01
0,1.4032592469630908449396145e-01,9.3077857128535324005014218e-01
0,8.5296035275297132915994780e-01,7.1096092622182616160841917e-01
0,5.9473407221430441005338707e-01,7.7792432822675694481517894e-01
0,6.1375302546561338878916558e-01,7.0368363456110250009345464e-01
0,7.1278676390438810983596341e-01,7.6493389492479990643403198e-01
0,7.0513254612641562690811270e-01,4.8336388056766271814623792e-01
0,5.3348575969719647105193872e-02,8.3439433691513620328095158e-01
0,2.2109785653018287909787887e-01,8.2042222384390817158106302e-01
0,5.4591678434085866289393607e-01,5.1528977044537283003222683e-01
0,9.8923541075517906762115672e-01,7.9899058506601039475469861e-01
0,3.3184807025926543744276387e-01,4.6550419150980204552325858e-01
0,2.9709950026870235451070812e-01,8.1677582062490006187260860e-01
0,3.9112443340423674875694360e-01,6.7271624132713769839142515e-01
0,1.3784633197923057412737080e-01,7.9987267861511979205602074e-01
0,4.1713703603801466357481331e-01,8.4156338712904699139727427e-01
0,9.6688997080680583184886245e-01,9.2106824213467108908304226e-01
0,9.2911397026351238981334291e-01,5.8422005145774569268013465e-01
0,2.8480202244660990373859022e-01,6.5255372114735488153769438e-01
0,4.9452720146546530477493775e-02,8.9184223641797277792875320e-01
0,1.8202739480652282977324319e-01,9.3227831794365867423834970e-01
0,7.6954816512163626285314422e-03,4.1948878885155782558769033e-01
0,7.1027933545306032314670119e-01,8.0103758641789757355411439e-01
0,4.2496990971180315099786640e-01,8.5865756226178546750560372e-01
0,9.6173826114659122232808386e-01,8.2914641936899868834842664e-01
0,9.7155273006380782341295799e-01,9.5980772916531242877624663e-01
0,1.5253377473306040101874714e-01,8.6044823463366415516873076e-01
0,4.7710903521369418811559626e-01,7.7525259979459870685047918e-01
0,8.7744727718381754222320978e-01,9.3079220545703844624796375e-01
0,8.7092447936157757482078523e-01,7.6876028614726110710364537e-01
0,8.3739085006735425320556487e-01,7.2921635457128786139691101e-01
0,9.1277903613204003363534866e-01,8.4944979322338209914988738e-01
0,4.7026874269120422233925183e-01,8.2294295969959663228365798e-01
0,6.0907592997423998237849219e-01,8.8881262003195748988559899e-01
0,7.3910331122084360622181975e-01,7.4323639046737677293918978e-01
0,8.0188006267229627876957920e-01,7.5052589524779744767357670e-01
0,2.5422653473049533490168983e-01,7.5228750161282442743271304e-01
0,9.6283433031409615399098811e-01,3.4007304259036186255826806e-01
0,1.0832190629807475490409274e-01,7.4068376770801691577617021e-01
0,7.7389211110783129310419781e-01,7.5638132106846989177739715e-01
0,1.7454256915944887929015295e-01,6.6672093888769434766317090e-01
0,4.1119809597396228539878393e-01,4.1211581130972368969267450e-01
0,3.1118662036922367652991284e-01,5.0364217769170060989836202e-01
0,6.6904553755195206310446565e-01,7.5663048241572927743447963e-01
0,4.5659586641891891645173018e-01,8.0240651358666004178132880e-01
0,7.7944457625657259658424891e-01,7.5963690514755277671810063e-01
0,7.7626650251638196209569287e-01,5.6667687300092239865989541e-01
0,5.4572608188191706890535215e-01,8.7125797764786683252680177e-01
0,8.1728398804666269050756000e-01,6.9225263652448187912114008e-03
0,6.5713961202342807688125959e-01,6.3026258277090185799806932e-01
0,8.7310407544348578312565223e-01,9.9967190067329680935870329e-01
0,3.9472965613845611976273631e-01,8.6163003497937828978336938e-01
0,4.6962924918023668530153714e-01,6.6508379138343287628742928e-01
0,1.9073514175626776756544700e-02,9.8936183317999715214341450e-01
0,8.8110220420591467416215892e-01,7.0601197249045954951185422e-01
0,1.6041570053572939968944411e-01,7.0352396798276695122353885e-01
0,7.9112023441298973125412886e-01,8.8821519090482903280303617e-01
0,8.9567615145399681608751052e-01,4.8619088433605428534178827e-01
0,8.7102460292499683802702748e-01,9.4300458335291226230623352e-01
0,6.8660362721748191550119600e-01,9.1491248995836460533581658e-01
0,4.1038109433364633460428195e-01,9.1404125756645537848044114e-01
0,6.6950824983931878087162204e-01,8.6497650049534924310279393e-01
0,4.4352697802186669129298480e-01,9.8410882892062656601694925e-01
0,4.7577242779067796529801626e-01,8.3625002780164114923877605e-01
0,4.0845812340815368379765005e-01,9.8098222151545111380244180e-01
0,2.2187569316266575469853706e-01,6.8072825111276968890194894e-01
0,8.6290400248659304693887862e-02,9.0243261032847688074554071e-01
0,4.4277905644062676149275148e-01,8.0558413353386271182898781e-01
0,8.0753975996920901447850838e-01,8.0769864596712981352766292e-01
0,4.4859780626285150617604813e-02,9.3308408022958588823314585e-01
0,7.7178823767400372979352596e-01,7.7834254542317404812479253e-01
0,4.2345513528463607499929822e-01,2.2622948830805128528353976e-01
0,1.1099671770782981727876404e-01,6.8038726831398932404226798e-01
0,8.3881574446957785085032810e-01,9.7631153107461698947844297e-01
0,2.3121005767257565843841860e-01,9.3231274573363009938731238e-01
0,6.0078393472244684403449355e-01,6.8151969323057226546325182e-01
0,5.9363216016116593376494848e-01,7.4950968000387319101207595e-01
0,6.6783870681534429625259008e-01,9.0544811255412394057628944e-01
0,6.4522383451135523202424338e-01,6.6290357077479589165136531e-01
0,6.8870773286860753614746500e-02,7.3910987126612381903356663e-01
0,4.1179939813716115448727351e-01,8.4491104700468899757481722e-01
0,8.9459167319054766487340657e-01,6.4689475590828726669911930e-01
0,7.5893726596326860356356292e-01,7.0861876171144155822645416e-01
0,2.4668499339078753251897069e-01,8.6967749094313118174426336e-01
0,1.9809435612361792067304123e-01,6.8611134514722793564800440e-01
0,9.7116837315439341615785906e-01,9.4794559805287548215346760e-01
0,6.0770881060256909389494240e-01,9.1693503218994731884805560e-01
0,4.0516784385574899918225356e-01,9.6456851532101395285678791e-01
0,1.0848161843811945925786233e-01,9.3975266785740996233755595e-01
0,6.1292410321395866812377307e-03,3.7946051601588504098572230e-01
0,1.1712210208021067714412311e-01,6.1322455813242349176306334e-01
0,1.8126380935378680336889090e-01,9.1052962317061147956565037e-01
0,8.1159187695570245146825528e-01,9.0359900931737491269757356e-01
0,6.9116203014263799531136101e-01,6.7642428648350017006407597e-01
0,2.0719703749127960090703482e-02,9.0300965002713318163785061e-01
0,3.6794147053663883717433691e-01,8.0865719138627156770127158e-01
0,4.2821539564150690182486869e-03,8.9396336599110781673260817e-01
0,9.3358713444932561742461985e-01,1.4555622333940476664793096e-02
0,7.1058180770806589343635551e-01,7.8260437033596130795842782e-01
0,7.7546931489718429197921523e-01,7.5119068236043995412387630e-01
0,4.9045861127796930301059319e-01,5.9506624620328196773044738e-01
0,5.7059499702194438341962268e-01,5.3546562349929371915635556e-01
0,1.3043546221646598604060330e-01,7.9093649504496998936531327e-01
0,2.0466595183398211821312884e-01,7.4527271538568973241467575e-01
0,8.4423545229601082429127246e-01,8.1389164867387553403688116e-01
0,5.5621780087202488118691690e-01,3.2610950274928574010857574e-01
0,6.4989045429764757955126697e-01,9.3246695082182773361978434e-01
0,5.3414491147924625380483121e-02,8.8935736324034997402065983e-01
0,1.1149134799389620598120132e-01,9.1455890062987099664582047e-01
0,5.6707551024626379199133908e-01,8.6859647614957302685922969e-01
0,2.0324565059622862195354287e-01,9.2792932391525861923753382e-01
0,8.6996364198749975837898774e-01,5.4276586644183000274210826e-02
0,9.0543494042531436072351880e-01,5.2534542138372686270741951e-01
0,2.9373850810960566715124287e-01,9.4228247209438931175640164e-01
0,8.3637333329186980268588059e-01,8.3829812320746743825594649e-01
0,3.1038772046475943122700869e-01,7.0420825636787176549091782e-01
0,3.3042366303750725364807295e-01,9.0623893447659353839185314e-01
0,2.7916433188112454999441070e-01,9.3602112122873282196167111e-01
0,5.8938436209845868063439411e-01,9.6358407223614250813881199e-01
0,7.8478353343588880264292129e-01,7.2683847797943723634261914e-01
0,2.2976175856915437289984538e-01,9.9760598878129247424340065e-01
0,4.2423622060890509022357264e-01,7.8860340439830667325082914e-01
0,1.9041602618417019510133059e-01,9.9198696872414737768508530e-01
0,7.5909375410665114181085755e-01,6.9150669660543206962444174e-01
0,9.7328797870253724866529410e-02,7.3528111645128158002648888e-01
0,7.2102795186985413344871176e-01,6.7040605924397744797005316e-01
0,9.5583145284052495327387078e-01,7.9914938677467783900709719e-01
0,8.4130396304823984454657193e-01,8.3230889724164813792128825e-01
0,6.7542964467829569308321425e-01,9.3809209604695453776912473e-01
0,8.5085442713621828314529694e-01,5.9329066208651803915330447e-01
0,9.2063554759550192407857594e-01,7.5806862066395208632485492e-01
0,5.4484294055585735794267066e-01,9.0184503899255485936947707e-01
0,4.0458646924732910576949507e-01,7.4506620621275954086115689e-01
0,7.8982075585810207485337742e-01,9.5329379189336815869637576e-01
0,7.0902109576661531686880835e-01,9.7841033697301005300772658e-01
0,4.4233842686110380615360782e-01,7.5268998640412654310694052e-01
0,9.5794546450329864928363577e-01,1.1568357096125581051637710e-03
0,4.3201171466649113117597381e-01,5.6561916287895142030350826e-01
0,7.5398707956956600995113149e-01,8.8893599805213407982762419e-01
0,5.7716556484728909204307001e-01,4.6112816595894501325858528e-01
0,8.0011205910379601391468896e-01,6.9329750269333856316222864e-01
0,7.4722900908312650525289200e-01,8.0652102928250757329919907e-01
0,7.5627100839205174676038723e-01,7.3958485200703649731224232e-01
0,2.8339698848603123160216910e-01,7.4647315411798420559108536e-01
0,1.9332864177669240035584153e-01,9.0418560969020855822009253e-01
0,7.8409764508324919507487039e-01,9.6233135804711111838116722e-01
0,9.0810966669081505386884601e-03,5.6813090825764211988513352e-01
0,4.7385145874820355782475190e-01,9.1967418312297755100814811e-01
0,2.8265161321224896440185148e-01,5.7455484945209756020290115e-01
0,8.0361638088246944988668474e-01,9.2312877102228652059778824e-01
0,3.5178876146365545274363740e-01,6.2085911215066891255531800e-01
0,7.4077208084704460056002517e-01,7.7459456518021796433970394e-01
0,4.2024053945777872787203933e-01,9.9108245517723092543604935e-01
0,1.5982115454537071386198477e-01,1.0278550671771746749527665e-03
0,8.7156107786045533547536479e-01,9.3461807329917756526072026e-01
0,9.0326857426600570821761949e-01,7.0923312789876447048698083e-01
0,9.5443582116623026934121299e-01,9.3593734208415491071519909e-01
0,9.1490781797941167496901471e-01,7.1351236382856952911168946e-01
0,8.0474069392323921423582078e-01,6.9393700333183239159495770e-01
0,4.9207391387213095246266903e-01,9.9475108740038342691747175e-01
0,4.7135644859533032402509889e-01,9.6403214483061527850793482e-01
0,7.3716264248911023138077780e-01,8.5363220808371964576366508e-01
0,6.7252502876902831019378937e-01,7.3873705842530978937787722e-01
0,2.9559075143972896038135900e-01,9.1362001247815460835965951e-01
0,2.0633224944411687751255613e-01,9.7257884671099137374739030e-01
0,6.0063568119270616119109718e-01,7.8724307033231744057388823e-01
0,7.3930732981657987235024621e-01,8.1613750329749767953302353e-01
0,2.7779232004093756813745131e-01,8.7216828219680331280017072e-01
0,7.1397086807143783637741308e-01,8.3420262293566938005540123e-01
0,1.4894585872045695840171220e-01,8.2641522095051356266992570e-01
0,6.2209761192186285860827866e-01,8.4718849872405899148475328e-01
0,5.5322252246620262638998611e-01,5.1839222373792992470953322e-01
0,8.6166431321416647737265748e-01,7.1820905286271397027775265e-01
0,6.8351130232474799353070694e-01,9.9517251930659444969506922e-01
0,1.6716824336126157035664619e-01,7.8612150408896575015660346e-02
0,3.6506380560476481278442407e-01,6.2758854593821489231686428e-01
0,6.7195313723337568578841683e-01,7.1503960895205997960744071e-01
0,4.3063291376582624181423853e-01,8.7078898729175202575447656e-01
0,5.6833316927696153619820052e-01,9.4409999314882864229758752e-01
0,5.0854973921849322415766892e-01,8.8421297960396949555672563e-01
0,4.5225989275067779438188609e-01,7.8754169431768561437934295e-01
0,6.1992400875492048584192162e-01,6.4466593895772006383992903e-01
0,1.1804054589892309934384684e-04,5.5691714134345615683230335e-01
0,7.4438113114696236038980715e-01,8.9056397921488028579517504e-01
0,8.1434758929179040798373990e-01,8.6234780403466515519284030e-01
0,5.7837514134891776507174654e-01,3.6710205993852118577791543e-01
0,7.9941144886521298129622437e-01,7.0153480966244941008369551e-01
0,4.4991415860393452197385500e-01,9.4320707745835252744370791e-01
0,9.8348217161229378735498585e-01,6.5209750638362562469296790e-01
0,7.3442036582354786045101491e-01,8.0354412380529594006617344e-01
0,7.2044822997241309003868537e-01,6.7694995792919665511533367e-01
0,6.0575473400435453363854776e-03,9.8484779200028582657466814e-01
0,7.8107137496675071997032092e-01,9.1576615005563866134252748e-01
0,1.8530816702530739092935619e-01,9.3468248623064364988266561e-01
0,8.0100724411110468814456453e-01,9.0378032468288460599126211e-01
0,3.8623614702823694244671060e-01,9.6536567134293160830083025e-01
0,6.7579551700200912733862424e-02,7.1273093631862849406388705e-05
0,1.2863339159416753432196856e-01,4.4515637846552102985242527e-02
0,6.8666474256322329594581788e-01,9.7552266349256122612843001e-01
0,6.5594686696899984212905110e-01,9.9173357527731520466574011e-01
0,5.0927953801326497629275991e-01,8.7644747196573336012193067e-01
0,7.6603074092680079054673570e-01,1.0715424449941490792070908e-01
0,3.8982509977501400566524126e-01,9.8939935205530205042379066e-01
0,1.5646005228414816556892220e-01,1.3130299166601644422769368e-01
0,4.1698241886362441555036185e-01,8.8619219195379173026339004e-01
0,9.1918394413369131079605268e-01,8.0797782911631732538637607e-01
0,8.0164714186172347787362469e-01,7.9278102268667260954515541e-01
0,4.7473425569336663576436308e-01,9.3090081258133861030756862e-01
0,2.2363042048294223818061255e-01,4.8863287906073527011585611e-02
0,4.7703802652257176752925716e-01,9.9749082458284565877448813e-01
0,6.9999039906995841331394104e-01,9.3828776172554828605143484e-01
0,3.6929428428336796841335854e-01,9.5622086980332732242260363e-01
0,5.2278432239975392015196576e-01,9.7100785852597981673284266e-01
0,4.0629848344352875733065389e-01,9.7839435868826130082709369e-01
0,8.5412430916802617453242874e-01,7.6658833084669897317553477e-01
0,3.0447407306617818578686752e-01,9.0263218441421066984275967e-01
0,5.4469010285942631721667340e-01,8.5153261558980852807820838e-01
0,8.6010573430846259945781185e-01,8.0241709295191732120855477e-01
0,7.0155101154393173512602289e-01,9.5560173245584301149335715e-01
0,6.0964962484943863163522337e-01,8.2264475167983286407746846e-01
0,5.4560095837132671636737768e-01,9.7901324995716654253641309e-01
0,7.6556218355002558784150324e-01,8.4143889482193667817000460e-01
0,3.0487577907675122990127647e-01,9.8808108014135176411230077e-01
0,7.1433956052502267652926093e-01,9.4703009959034378795195153e-01
0,4.3155635914882051196173052e-01,2.8138876943119983664587380e-01
0,3.8837079797561951943762892e-01,8.5021788436743950256868629e-01
0,7.5149829169362369896134624e-01,8.8392063569899315123024053e-01
0,4.2217652305555386504920534e-01,9.8968081833495913368636820e-01
0,9.5611247537620180914075263e-01,2.2897115346502072696921459e-02
0,6.5622357184999879908815501e-01,8.2301396755511657676862569e-01
0,5.5584182972510953746336781e-01,9.4880209244197466489367798e-01
0,4.2808368464373725004179505e-01,9.9717208616943453503012051e-01
0,9.9301633835827651797245608e-01,8.1505111725990786464279836e-01
0,5.9703206362853000754853383e-01,8.6649312396113042922252134e-01
0,1.2991704706210560615886607e-01,5.5254514458342041116623022e-01
0,6.2260506808410953638599494e-01,9.4240946157908400682146066e-01
0,8.2422099735229803485481170e-01,6.5704264480031215889255236e-01
0,2.0714046857360068898401551e-01,9.9964912000081640464088650e-01
0,6.3059354184803828591299180e-01,7.0069594639338150798835159e-01
0,6.7122341705609622763972766e-01,9.0915462570411631482159009e-01
0,4.3827658910991201812734630e-01,9.5307337460272822937668025e-01
0,2.9415041459560087311331245e-03,6.5656196407564160200109882e-01
0,1.1888310433920867836832258e-01,4.7441223194381043626322025e-02
0,7.1597534479623858860719565e-01,1.7833322330327838756147685e-01
0,3.6905740248212709486708150e-01,9.9845789559487152509120733e-01
0,4.2377510246961114237507218e-01,8.7833102913792082677701956e-01
0,8.5403269909791379443930737e-01,9.8702905022323705885867184e-01
0,2.2553634596417859725647759e-01,1.0246371125147346603512233e-01
0,4.3151111706074551932488248e-03,6.2711971898917118206639998e-01
0,7.6898408046375477109535268e-01,6.8205310175281796958302039e-01
0,4.3999448069321522858388107e-01,9.4725627578016169394459212e-02
0,5.3297647683244864236229432e-01,7.5414683231154255871331316e-01
0,3.1031474259784874725198733e-01,8.9720234922708441693828263e-01
0,9.9225985340902855824651851e-01,9.1898472844088674449380960e-01
0,8.2310533112419814738558443e-01,8.2313249502882013253213245e-01
0,7.1098757352394481578983232e-01,8.4553527960141505737112766e-01
0,6.3293755449145727709492348e-01,9.8942130244759551871425174e-01
0,2.5324793506374443374795646e-01,1.2875723114545190028934485e-01
0,3.8372857871894794357103819e-01,9.3813532991261372462332702e-01
0,6.8828344268255658988664436e-01,2.7709313449711281407417118e-01
0,9.9175899627929264834591550e-01,8.3097286224316446734405872e-01
0,4.6258554216890868104883339e-01,7.4590691773077510973166682e-01
0,1.8808793800056866629688557e-01,5.9413085138199583923324099e-01
0,9.2573373952327653313432165e-01,3.1896242186952417085876732e-01
