Species Id, vx,vy
0,-7.3198770170189608741395659e-01,-6.8734871172319078613810461e-01
0,-3.7702812080239372916068419e-01,-3.1606477461263393635704233e+00
0,4.0721760455871341966016530e-01,-9.8363234719536718486665450e-01
0,-8.7247083932659308391777131e-01,-1.4476496498370978738279291e+00
0,1.2804948027706819502213875e+00,-5.0161852591001754309019134e-02
0,1.0487367857979110752353336e+00,-1.3068955448899219895508850e+00
0,-1.2815476102807513147929797e-01,-5.9608226139181974545522280e-01
0,7.4850149629486983915427345e-01,-3.0782015345894275792915096e-01
0,3.0501840897939108687708654e-01,-1.3003962925677414741443272e+00
0,-1.2738671462836104186777675e-01,-1.0262169756375911777723786e+00
0,-2.4551147604163053861370258e-01,-1.7260388702388262949227737e-01
0,-2.2061755764239716626207155e+00,-1.3581883955603837321746141e+00
0,8.0861800149483287203366899e-01,-1.6704412561003481041410623e+00
0,9.8586422454264777126553554e-01,-2.5410848677729236388955769e-01
0,-1.4309586951753048289504022e+00,-9.2123755328909551209903839e-01
0,4.6937871857853902257673440e-01,-3.6573091245400879412130735e-01
0,-1.1793976932028287230025398e+00,-1.9721682904057635798977799e+00
0,1.1402568307763127908316392e-01,-5.8703438287093157033069701e-01
0,1.8770661837021174189743533e-01,-1.4182332753068271902208153e+00
0,1.7473973750423492656835833e+00,-1.7810070378863698259408466e+00
0,-3.0334824173772992339515042e-02,-3.0581088772790432361858848e-01
0,-5.0345080008644960134489565e-01,-1.0400464481655249393554641e+00
0,-9.4564346378212971178101043e-01,-1.1413194256970997653155564e+00
0,1.3106761769605943523941960e+00,-1.2101804240966038683779971e+00
0,1.3799327917511885477352962e+00,-1.3936486990212322290005886e+00
0,7.8146535785286064257348926e-01,-7.0529779207719367484230588e-01
0,5.2459068217652915500082145e-01,-1.5840578599116592606321774e+00
0,4.7563283143311879674897114e-01,-1.0943752983954802004973317e+00
0,8.3731306557357132458463411e-01,-1.3345836265215433869002482e+00
0,2.5151788590628737507515211e-01,-2.0199195354240329081108030e-01
0,1.4799888609621569823815435e-01,-1.9889666703299420102979411e+00
0,4.0529963948599223577673456e-01,-5.4975909817341239715915435e-01
0,-8.7226033736526764617025265e-01,-1.8394828077736009586118371e+00
0,1.8487318620476950181696907e-01,-1.6917035171832894846488671e+00
0,5.6961014581308189175246071e-01,-1.5045716752680551309140355e+00
0,-2.2155416394461407980642775e-01,-1.1582677704668575824342724e-01
0,-2.2341815341729440724805045e+00,-6.4297195518994820773173160e-01
0,8.2211830687297626774068249e-01,-1.5090304283198814339073124e+00
0,-8.6528482103289283688951627e-01,-3.9792839936143209467189763e-01
0,-2.7733910728206572215981396e+00,-9.9695378326071792951523776e-01
0,7.1777718674027379819335692e-01,-6.8179032410036222167093456e-01
0,-4.7027336567601420169726367e-02,-9.1976224751381852051679289e-01
0,2.0169524008240877210873521e-01,-4.8684965115690903569856118e-01
0,2.6850271719837326411806089e-01,-9.1584554045081367767977554e-01
0,-5.0269133427384304901863743e-01,-1.1079686127431023212608352e+00
0,5.5613328955032970135619053e-01,-1.0378439173459361732909656e+00
0,9.1767596914134508256921663e-01,-1.1436620961771706284082484e+00
0,4.7938456875405355273045416e-01,-7.6733225667650151180509965e-01
0,1.0774622055453970947969111e-01,-1.8827612477350772479667285e+00
0,-5.1928962034151138205118059e-01,-1.3557762837044846637724049e+00
0,-1.9158519300081457981121957e+00,-1.1457490958589835461367556e+00
0,-1.3245278963911784053664178e+00,-1.4151188764419360133217651e+00
0,1.3189664438973252025277816e+00,-1.6100130804014260998968666e+00
0,-5.6462995930690829116116447e-01,-8.4440664560219369505489340e-01
0,-3.2107686530854823159231159e-01,-1.0784432006688415839334994e+00
0,-5.4243770481309916409173866e-01,-6.1946552043945912746636395e-01
0,-6.4628100188851433927084145e-01,-1.1126966942939309213045362e+00
0,-1.3918717201213853806862630e-01,-1.0067161435115761225489450e+00
0,6.9724800504867578965217945e-01,-1.5282527440307613897374495e-03
0,-1.0769561013387787262729489e+00,-1.1359920489041053226486611e+00
0,2.6394450024198290449817250e-01,-5.6880024672079276815139792e-01
0,1.1509255601209309460841723e+00,-2.7917847965722031311486262e+00
0,1.7923238873889568711916809e+00,-3.8727421572301384822267778e-01
0,-1.9502149974652636110761250e+00,-1.4942159618503438878178713e+00
0,-1.8899357560528216026796144e+00,-7.2937258821591444135634674e-01
0,9.5904184615695142746005786e-01,-1.3109007214221690684752275e+00
0,-1.9993865933992771566352076e+00,-6.7918195967148609071273313e-01
0,-4.5637699666257264263791171e-01,-6.3312680606620830303654657e-01
0,2.1363899444228984236815450e+00,-1.2062409060578045405520697e+00
0,3.6690954565791644714778386e-01,-2.1681501692089152899534099e-01
0,1.3204771784773405851609596e+00,-1.3208777225023606849418911e+00
0,6.3414948858371622542051682e-02,-9.5905691358220312991988976e-01
0,1.0541392991915212729026052e+00,-8.1752476371610460770256168e-01
0,-1.8026955272373019756315671e+00,-2.3752355884443854261434126e-01
0,-9.8347596865723485581867180e-01,-2.1726040820529441965902606e+00
0,1.2245753739145510685659701e+00,-1.6167206389247508191431280e+00
0,-6.8520881726146076751149394e-01,-5.2231807974969512997631682e-01
0,-1.2328756201024992922299361e+00,-1.1476201120742823835740865e-01
0,5.6821866301079243521954254e-02,-1.0242147739536930917125801e+00
0,1.1597866515960941757867886e+00,-9.2092503471201392351019877e-01
0,-4.5684468028780067516692043e-01,-1.5329231148345949797828780e+00
0,-7.9279206669090995784898723e-01,-7.9411891324700611960452079e-01
0,-4.5475727936627130532087904e-01,-1.1927086985657600060051209e+00
0,8.7909764717282248835950043e-02,-6.4262580951612835455932782e-01
0,2.5049841861195729642020069e+00,-1.6084529840936621081226576e+00
0,4.3919038424964379485615495e-01,-1.5481011815319678515123769e+00
0,-5.2104078545543575096132827e-01,-1.8258184369760379617275703e+00
0,1.7840227686837162313082672e+00,-3.0037382614765193444839042e+00
0,6.0822828621929947434665564e-01,-1.3379768457305991624650687e+00
0,-4.1813534256492768115265335e-01,-3.5164136795823153214257673e-01
0,-1.6494451876806251466867081e-01,-2.2666972386139283557326962e+00
0,-3.8154837229979177148919689e-01,-1.6839983990501021793306791e+00
0,-1.7355185773326158304996625e+00,-1.0992491820881602482273820e+00
0,-8.5439987689819840710470089e-01,-2.3055889134754852243247569e+00
0,-7.9855480266315757159611977e-03,-3.2077740460793735532973869e-01
0,2.7673745167346558426757497e-01,-2.5606719585314963172351099e-01
0,-2.4431767413318955517453901e-01,-2.4016726890999309240726234e+00
0,1.7389877762868777288929323e+00,-1.0969547646718174060964657e+00
0,4.1362481789625998862547362e-01,-1.1926492861602786543784305e+00
0,5.1860926142174013087071671e-01,-6.3826853527030891211069275e-01
0,2.2896920333765127808511863e-02,-2.0060286683406793883932551e+00
0,2.2932691190381207513304673e-01,-1.8030765034390885404036453e+00
0,1.5675436702429517143997373e+00,-1.3634322079065153143773159e+00
0,1.4708412825527419354187941e+00,-6.1617861477797020164359765e-01
0,-3.7263381768451170339417899e-01,-2.4455703343167449759221199e+00
0,-1.5261063342477794169127492e+00,-1.6610721985519802945674428e+00
0,-1.4654636299677606392499740e-01,-9.0541788316694538085727118e-01
0,-6.4310158301118069967827751e-01,-2.1584214098361971245765289e+00
0,3.2604980133596717095656459e-01,-7.8039210494612121227220314e-01
0,-7.9877954761644198722336796e-01,-6.0343212285164971042661364e-01
0,8.0401930979326616255598026e-02,-1.4053298492195398505799631e+00
0,2.2340732811592323159288753e+00,-1.6536347422194193068634149e+00
0,4.9016519562449217817245994e-01,-3.2612254129466428098638175e-01
0,4.0069001399670373109174193e-01,-1.7554295880583061784108168e+00
0,-3.5131270861864499766014092e-01,-1.5751132414297368544708888e+00
0,4.5344068967009515391808350e-01,-6.6661044778058975435186539e-01
0,-5.5663308793621835146581134e-01,-1.0305047394620165945866574e+00
0,7.5243895117742476408295715e-01,-1.2540064392869363363303137e+00
0,-4.2749517877655468511832737e-01,-1.4232106476388348692552199e+00
0,2.6668027265369795841820633e+00,-1.9976956743916725045551175e+00
0,-3.5040160908186700206012887e-02,-5.1470243391157477486075322e-01
0,-8.3306871194793075119378045e-01,-1.2830979109895623846426815e+00
0,-1.4850968059113773822588200e+00,-1.6842496582494306256450045e+00
0,1.7085592968010290260139072e+00,-6.0550635194524993210052344e-01
0,-1.0288381707202109982546290e+00,-2.9352334433704982963320163e+00
0,9.0297626934353392158527640e-01,-1.1619675475584831936259889e+00
0,-1.7202581023112695213228562e+00,-1.1332638281277331859797641e+00
0,1.0624555204364958260754292e+00,-1.6147256838911776544165377e+00
0,-1.2274451503357101944668983e-01,-1.2462124023558400764954968e+00
0,7.0358343878734252996309806e-01,-1.6801315224362363132115661e+00
0,-1.1875025954209845746589735e+00,-3.5161314223370815357228025e-01
0,3.4073000498525446433362163e-01,-7.7595124185854436049680771e-01
0,-1.1900281033276545183952067e+00,-2.9317599072482658506544340e+00
0,-3.7136418511740165726564555e-01,-7.9883722069320450831497737e-01
0,1.6647896131317296841700681e+00,-9.0247779874320011028743238e-01
0,-8.0854460187602872345280502e-01,-1.4792200629391956123726004e+00
0,7.3614052957181574932121748e-01,-2.2002934847342490165544859e+00
0,3.0626998259457000051142472e-01,-1.7806185774949547795387161e+00
0,-6.1153499607349059985494932e-01,-8.6043259029198349008282776e-01
0,-1.2439638728056743310901311e+00,-7.4849662714970099930411607e-01
0,-6.1157682459436735200597468e-01,-1.7465812573636390059306223e+00
0,5.7255146167082238140011441e-01,-2.3524143128800889535057195e+00
0,1.8805014055260989014328743e+00,-1.5799608581172093213496055e+00
0,2.8291475889662454079598319e-01,-2.1306485877138974238675928e+00
0,-5.7058292511140151770376860e-01,-1.6149262266674180299474983e-02
0,9.2861515532903460279356977e-01,-1.2583334762911289050890673e+00
0,4.7591144505108859408260003e-02,-3.1064423774115494936154391e+00
0,-6.9309221389943553859325220e-02,-1.2234785652035005121263112e+00
0,5.2712910711903530891486724e-02,-7.3730154804124703460388446e-03
0,-1.0259958077621107452870319e+00,-2.0650466653387185012036298e+00
0,-6.3947811935871601285441557e-01,-1.2623626507053253842371987e+00
0,4.8863164399738195919908890e-01,-1.4696255269630233986077883e+00
0,4.7444729202500990350443999e-01,-2.2220082136502350422802010e+00
0,1.0478118187968823438183108e+00,-1.1406341351563775710076243e-01
0,3.3698363560730337784576705e-01,-1.0534170138429146401648495e+00
0,-3.1728898458308107954906063e-01,-4.4559697477623549932701508e-01
0,3.0673414320287806233977790e+00,-1.3779941449925878771409771e+00
0,-2.0994256320597109999326335e-01,-1.3764642061674097206491751e+00
0,-1.3693453991190365770513893e-01,-2.2578260338745455015896368e+00
0,8.2119954268170802791360074e-01,-1.7065961041566666267499386e+00
0,4.0919381785096570203208444e-01,-1.2823414128576162696049323e+00
0,-1.5019048670978374371287600e-01,-3.6003074038079191376837684e-01
0,9.6772297106538107680506755e-01,-8.4734946256115439844336379e-01
0,8.2689536037055944017737374e-01,-4.7998926665294983084919522e-01
0,-1.0008810038190081304065870e+00,-9.5896624170748656634799545e-01
0,-8.5586496402751802148323179e-02,-6.5134052482002169348618281e-01
0,-1.0377281612587359038712975e+00,-2.0556077447463052543241702e+00
0,3.2470688210740927814867973e+00,-4.7826977519156282925294477e-01
0,7.5978779604609567033257633e-02,-1.5083462527553275212000017e+00
0,3.5738437370491421551932376e-01,-7.8031363945702814088889454e-02
0,1.3245678187659686297905637e+00,-3.1709127663525960016954741e+00
0,-1.6294833311410619192116656e+00,-5.6649178448123316265139238e-01
0,1.9126656155292379168919581e-01,-3.1570236257903222520937447e-01
0,-1.1102098291221502990300252e-01,-8.7004481135206479525123768e-01
0,-1.1160604720280065116355672e+00,-1.2967603879946667522204962e+00
0,-7.7678985437465875030227380e-02,-4.1229400019868717164328586e-01
0,-3.1573993057772371806368739e-02,-1.0515547903224276016231897e+00
0,7.2336302303618005282714876e-01,-1.0640329602395692809579941e+00
0,7.1621629142481424423749559e-01,-2.1178864790616197533168474e-01
0,-5.9581515327627077027727864e-01,-4.2597973287217560933726190e-01
0,9.7445726374159047367129460e-01,-1.7909221070438774425781503e+00
0,-1.4880841972220066882215406e+00,-1.0938489182124349063940372e+00
0,3.6372641280352285830801407e-01,-8.1564010916424178887496055e-01
0,-1.3904624117059665167062121e+00,-1.4722509256331970384223951e+00
0,2.1283865501939952524779187e-01,-2.1760652882340028035912383e+00
0,8.9478136388469964312974980e-01,-3.8443508850894031469991319e-01
0,1.4903007023201060299300025e+00,-5.6294786995669432450029035e-01
0,-3.5287224255164750807978180e-01,-2.3334010724916836032605261e+00
0,4.5206298656381826983619021e-01,-1.2394479302301530942997942e+00
0,-1.3512234137174976567052909e+00,-7.1520557889013891550433755e-01
0,-9.4770173262082174625575703e-02,-1.7526209849306886301434361e+00
0,-3.3932680344564841723453696e-01,-3.3142880873310631706374352e-01
0,3.0706752081155869182893525e-01,-1.9370503277800983354950404e+00
0,2.6927526029291022346967566e+00,-1.6306934928827538922035956e+00
0,-1.0455745872307335986306498e+00,-9.2301234767558215654759124e-01
0,-4.9645149359666540522795231e-01,-5.8463174054487554442971486e-01
0,-1.0560646606700310190518621e+00,-1.4122328768488958683491319e+00
0,2.0887455068229937582557909e-01,-1.6497336717530481919880003e+00
0,6.1642953875510220207445400e-01,-1.1232609013852765666996447e+00
0,4.2055050570621699268514249e-01,-1.0493200330307115297756582e+00
0,-1.1160920648354706319338447e+00,-1.5755602614362449465090776e+00
0,4.9076018460839887502800138e-01,-6.1401994358651779126745396e-01
0,-2.7157183664483114382548479e-01,-5.0107716730159368445640666e-01
0,-4.5567105587309392200623392e-01,-1.3864245362091192070863599e+00
0,-4.8079021863049180296467711e-02,-1.9576419392238060268596200e+00
0,-1.1029904761727153950090496e+00,-1.0793045339920266378896940e+00
0,1.1093046667227859924942379e-01,-2.9372456784653577788191114e-01
0,1.0792805595416574693246048e+00,-5.0263236911829323183553697e-02
0,-2.2187263435123618648958654e+00,-1.8640481775896708960260639e+00
0,2.4156058803961300007756563e-01,-3.2845413106337922881650115e-01
0,3.9538492716225304146604458e-01,-1.4673137714838093703662025e+00
0,-8.5145257695464937608420541e-01,-6.8709915630585416401743259e-01
0,-3.5895767611611451020081631e-01,-9.7330932036438833065972176e-01
0,-1.4409242458651507767797284e+00,-7.5841626694020281007624362e-01
0,-1.6230037097460232597967433e+00,-5.2760411384540240042895221e-01
0,-8.8614211727797531636952044e-01,-1.2928598571750311574390935e+00
0,-2.0629439434105472095382083e+00,-2.0535586197081651116391754e-01
0,2.9032010006482478203793107e-01,-2.0153737168672800628144159e+00
0,1.4463676944573586879982940e+00,-1.2404379569192931498378130e+00
0,-1.2730904299716556682398050e+00,-8.2747288679642283515391910e-01
0,2.4084414327476367373437327e-02,-1.1812308269252671522053788e+00
0,-1.1820275554161750741766213e-01,-1.1517143538308243222445526e+00
0,2.5963510828450497847086353e-01,-1.1710280173271438997062432e+00
0,-2.2715930926076777218725056e+00,-2.0990613755909888205053448e+00
0,1.2546955923073079830487586e+00,-9.2527290495272185300024148e-01
0,1.2024106748437635161508297e-01,-6.3582740551593497357885099e-01
0,-1.4278118593450008777523408e+00,-8.1889975109046564405446134e-01
0,-7.7271906277441770871661220e-01,-2.1098529974278554810496189e+00
0,3.7486419364952050514716575e-01,-1.4057616118451765618857507e+00
0,-3.9705971946876311706731144e-01,-5.7464523923454524645393349e-01
0,1.9805937392939398922209193e-01,-4.9698164507927761190941851e-01
0,-1.1725864191378061462955884e+00,-7.6994237425546119268915390e-01
0,2.1861733059523585920302935e-01,-6.9234905371036437049525603e-01
0,5.4608746882027314750729374e-01,-1.3024310219485415451856625e+00
0,5.8836661539217338656726497e-01,-1.2190771074092761061535839e+00
0,-6.0204986842464780494310617e-01,-8.8250302007534053849724387e-01
0,5.7398463789540454804694036e-01,-9.3305070881130514059975667e-01
0,1.1791044764528806343406586e+00,-7.5418408573567008446048021e-01
0,2.2176670998804332013421003e-01,-8.8077987966176629619496907e-01
0,2.6433824590403611765054848e+00,-9.2784451496189457309071713e-01
0,4.9986196276524258452766958e-01,-9.8416652925030523313409958e-01
0,-4.8607778581063415535012950e-01,-6.6325457961796330241810438e-01
0,6.3393120845861750112248956e-01,-1.2634765907492253589339271e+00
0,1.1252581733506259453747589e+00,-2.9824608039259914438190435e-01
0,9.4083659643795547466993412e-01,-1.1228693603986465987532029e+00
0,8.9129831456468011641192106e-01,-2.4802671467528663029611380e+00
0,-5.6220659858980126521998955e-01,-1.0819319967381202385325878e+00
0,6.9299170417565869595222239e-01,-1.1750590222592980360616366e+00
0,1.8695673401690129367125337e+00,-7.2908107523913712189056469e-01
0,-4.9890032218592522683664470e-01,-4.8431004295249757696240067e-01
0,-9.1251271811739609329805489e-01,-1.2536020265099470094583012e+00
0,9.8115258834689716982424557e-02,-6.2643653094514339940701575e-01
0,1.1191823262170432773388029e+00,-1.6448544619022813506603597e+00
0,4.1137061572208399873318285e-01,-1.3379339873291384854780972e+00
0,-3.7287563564695630491385714e-01,-1.3513429159778851396112032e+00
0,7.8585038709264587453162676e-01,-1.2703568201144981308914339e+00
0,-5.1508302236093217452150839e-01,-5.5830330609322076362843745e-01
0,-1.8565238248576483304219664e+00,-9.3875032246719603001849919e-01
0,1.5889691854926462077912674e+00,-6.9869454292589139310365454e-01
0,1.9809033665478714691943196e+00,-7.0754338598885235800395321e-01
0,2.7013816070116186685012849e-01,-6.0342494986917316612817785e-01
0,-7.6769810962288653755081214e-01,-1.4008258390335279752747510e+00
0,-9.6474078530693618827029923e-01,-1.2792337775336772853762568e+00
0,-3.8003064070706782384689859e-01,-1.1476588366450024558673704e+00
0,3.2304429346556157165437639e-01,2.7646551762463211776577054e-01
0,2.5973017615784130818212816e+00,-3.1282012147998528028836063e-01
0,-5.2441285692195818701755172e-02,-5.3721911783390341454946793e-01
0,1.2117814154743652976797819e-04,-1.0142383092850706383103443e+00
0,7.3080848576455165188647811e-02,-1.3022138033083945352075261e+00
0,-3.5648839485733685439328156e-01,-7.6975184665696638752763192e-01
0,-1.1957798519964062400333660e+00,-7.6860968330640411227960840e-01
0,-1.2558659172762787203936341e-01,-6.4522670048184449509420801e-01
0,-4.0508309207429132881017608e-01,-5.7932323085241277382806402e-01
0,5.5066003834987653497989868e-01,-4.6864718941874272672976076e-01
0,-6.9725148879670539869835011e-01,-8.8440496121078826519124050e-01
0,-1.9095700622886100372710416e+00,-7.2796056173079637385825436e-01
0,5.3552902339398322784091988e-01,-1.3772669247686930571461517e+00
0,-1.9603710755266039456046201e+00,-1.3454000236807173163100515e+00
0,-9.7722479537925477366400173e-01,-9.1368473333320521234668377e-01
0,-1.3602240859410770212889474e+00,-5.9227766628924183311966090e-01
0,-4.5912761361333997989220279e-01,-5.6121377184981047214762384e-01
0,5.7980224459430951267080445e-01,-7.3794885540891252961870350e-01
0,-1.8390371585379625130052261e-01,-1.3614375494747652517446568e+00
0,1.3254076847083384738112954e+00,-2.6772210364637216706285017e-01
0,-2.3972997135230036391817521e+00,-1.3516001851055368110365862e+00
0,-1.5199881960723712892580295e-01,-7.8234870004889134342818124e-01
0,-1.7150470985191823558579927e-01,-1.6839532429959092052484948e-01
0,-2.6854699291228162350009256e-02,-1.5298748919214422148371568e-01
0,1.8703696756815577084687163e-01,-7.1892681817237302777101604e-01
0,1.6136440840175354793917251e-02,-8.0382276124901874680972469e-01
0,1.2762489450535137169850941e+00,1.1455324556382850964553199e-01
0,1.5741043399438006678003887e-01,-9.8387336959628091115348525e-02
0,1.2179268765089537041035328e+00,-7.3532800531276254485391064e-01
0,-1.3176481306202216803313831e+00,-1.2884658401268174188203375e+00
0,-1.5529568795725257057682711e-01,-2.0875343550741842779672197e-01
0,-2.6086232870620951196372062e+00,-6.4264603970459432957795798e-01
0,-2.3615435934113607197026852e-01,-1.5524453246616287671599821e-01
0,3.5166352689392088581854523e-01,-6.4222482284145321340673718e-01
0,-8.2524201699981314384046982e-01,-1.2790766091628400502600016e+00
0,-1.8300342379417360305637885e+00,-8.8970458230076188144153093e-01
0,5.1201476287264069409133072e-01,-4.7986135300166765649265699e-01
0,1.7478171520424536922178049e+00,-1.4705551757024082348834781e+00
0,8.4068559407392773330514046e-01,-1.4636937492407975369701489e+00
0,-2.8668798778322440723442810e-01,-2.4119622560651832188227672e-01
0,-5.7821202765974388793068783e-01,-5.2207296926046742324700745e-01
0,-3.6059687550306018799517460e-01,-1.6866762215665063173730687e+00
0,-6.7112008612095164217237198e-01,-1.1302292845338439697400190e+00
0,-2.3224816402841588214300828e+00,-7.7485318371480083055047317e-01
0,1.7351198832881382649873103e+00,-1.4593724774035830016316595e+00
0,4.8374538838563585496643782e-01,2.3611579646828051437523754e-01
0,-6.9156365950445675139235391e-01,-1.4769946326829526128676662e+00
0,-1.1998270070976881918056733e+00,-2.1841353056698409318414633e+00
0,1.0337330661263204323319087e+00,-1.0790441657901914673800547e+00
0,-1.4989893833593397332037966e+00,-1.0486462816962476285453931e+00
0,7.3482939200303618032528163e-02,-1.5810446760453589210015934e-01
0,-3.9606447618577589331323452e-01,-8.3840588240528424179842659e-02
0,-5.9435356880074030616611935e-01,-2.4256009048629578739308954e-01
0,-1.7817867579374746522802297e+00,2.9272750240356693041121616e-02
0,5.0316634546056193677543433e-01,-5.0784860875258619472560895e-01
0,-6.3627740401347376852925208e-01,-8.3293183259322223221943204e-01
0,-1.9184870720747455585808439e+00,-9.6963316986816139309013352e-01
0,-7.1808595780868611502256726e-01,-3.6890503467633772860523322e-01
0,1.3891329600081558925950276e-01,1.3217377458090884267960519e-01
0,-1.9637298515133911891439311e+00,-7.1999414081512991270273005e-01
0,1.1385360413275960045353941e+00,-1.2658567131988676113252268e+00
0,-2.9554241915331919132725602e-01,-2.9649296859939033854658419e-01
0,3.9315763345908139037021556e-01,-1.2982871287114006175755776e+00
0,8.5894861168232461423599489e-01,4.6309962467842136213391768e-02
0,4.3776509986458611578541422e-01,-1.1848899264965990774101101e+00
0,1.1723117011266208642439324e+00,1.2882006947502400162619551e-01
0,-1.4282682224405907067676935e+00,-3.7773454860813915345829628e-01
0,-6.5377092001116809960592491e-01,1.1419117845397941390928054e-01
0,-1.1859103621079067902854831e+00,-9.2223853447381232140145357e-01
0,4.8078201656953833964536216e-01,-7.2221062715065253989621397e-01
0,2.9291041862455358124606164e-01,-1.4887777618375670485306728e+00
0,7.3753685422608669663979697e-02,-4.2336317180978133567492705e-01
0,1.2769616771502487750922228e+00,-9.0361696232815558182949189e-01
0,5.7689280278829624393210906e-01,1.6592200073367313617467289e-01
0,1.3494270580140115267653300e+00,-6.2985972311802740364328201e-01
0,-1.2157535822289839977372594e+00,-1.3944676637018760256836458e-01
0,1.7702638446762581914128987e+00,1.2157083497207049616051222e-01
0,-1.7213733889233495677473229e-01,-5.8111202893050339923775027e-01
0,1.0108405122587997837513285e+00,-7.6278679975651897393618128e-01
0,1.2581038034963251681652707e-01,-9.5840203702712511990569055e-02
0,4.8393760205523939088578800e-01,-1.3055313953252958292239327e+00
0,1.8219331411551555888195253e+00,-4.8196621214961965495859886e-01
0,-1.0504630784880926164248649e+00,-9.3011784301749989012364495e-01
0,-2.4794078757867148432580962e+00,-4.1230421434290043247727908e-01
0,-9.9633609292200042695242246e-01,1.9685347161510602376210954e-02
0,-3.2803541317399043109048762e-01,-1.8862849056034514116930723e-01
0,6.4832085936908950829504761e-02,-6.1134624842250873122395660e-01
0,1.1650672864638316195140533e+00,-1.0188178393549431888231993e+00
0,-1.6228651182781663742105138e+00,-6.5588689199020289155583896e-01
0,4.1898819946772297706516497e-01,-7.5238214839485895168991192e-02
0,7.3421658531061029240305515e-01,-1.8929413965902786021189286e+00
0,-7.3254711069329492278967564e-01,-9.7648384443643787555799918e-01
0,-2.4960574704089133479811835e-02,-6.3190863456529688946261558e-01
0,2.6997045330951658925755510e+00,-7.4686935923674113713133238e-01
0,1.1680000060700233832644557e-01,-2.3993209418136030031121209e-01
0,-2.1714838025444760383209086e+00,-1.0119195788742789687830737e+00
0,-4.9813732428382362371621639e-01,-7.4001702837736549334124447e-01
0,1.4059399805324193089006712e+00,-4.0056778765489953197942441e-01
0,3.8606274694132303171301146e-01,-8.0088745472580757933656059e-01
0,1.0039607829692573925939314e+00,-9.6347873269213524238807622e-01
0,-9.6690151696134141179328481e-01,-4.5917302913865365443513156e-01
0,-1.3213396856347503494077955e-01,1.6905971762036420269481596e-01
0,-7.5135929860909805855229138e-02,-2.3574886495033087197015220e-01
0,1.0695997318565603206863557e-01,1.5580075308010743473374760e-01
0,-1.0251692413541766413231926e+00,-7.9971510798943901132673773e-01
0,-2.3391638034210213703545378e+00,-5.3031330267811194190130664e-01
0,-3.0117031332531374321348494e-01,-8.4639379009601467540591102e-01
0,2.6787920049534577060512675e+00,-1.1521436810750076418230492e+00
0,-5.2902991235503682432295136e-01,-8.5896806059830299595603265e-01
0,1.4699174752839823110406314e+00,-7.4351529162600982214570422e-01
0,5.6338345322599825415466057e-01,-7.9922376641722625567609839e-01
0,-2.8055300172419744830776267e-01,-7.7212204371045256579009219e-01
0,-1.8406144863757276652904693e+00,-1.7720758123010900142446644e+00
0,1.7290248978849938055191160e+00,-9.3596382409894918197323932e-01
0,-5.7010923253373646524266860e-01,-2.0414419791828575245773436e-01
0,-2.5267633539626754846096901e+00,-1.7885248497107857357235616e+00
0,7.4805754055112727574083920e-01,5.9791852424475600003006548e-02
0,1.0422075523167925736878203e-01,-2.1921609613748787026565878e+00
0,-6.5649687124024369566654968e-01,-4.2559725885070665007958723e-01
0,2.7942345439548521568440265e-01,-1.9774434078700087180635592e-01
0,-1.7587520187849474684327333e+00,-1.4656119299093717245341395e-02
0,-1.3788386812205684073262546e+00,-3.1748222445177476380706594e-01
0,-1.7944362209502262572868858e+00,-1.7295500325968671262444332e+00
0,1.2476945152520788617778180e+00,-3.4712914475411649206648690e-01
0,2.1937129660875194225866380e+00,-1.5692864218659163810798418e-01
0,1.5293619718969306275901943e-01,4.9190804963950451877963133e-02
0,-1.2635025845243026410003040e+00,-1.0063794826939505000495956e+00
0,5.2084610693075483744962639e-01,-8.9827828687345356861726486e-01
0,-7.2691756728871814718928590e-01,-2.0802542538465673693792723e-01
0,-1.4852182140795731069005114e+00,-1.2854926149462198026185433e-01
0,-2.1349173931718441465932301e+00,-1.3081654679213234881984818e+00
0,3.8593224040932044838214665e-02,1.9939686877239914952752997e-01
0,1.1201343087964301670211853e+00,-1.3319166535455051469938326e-01
0,3.0642758554625698641515896e-01,-1.0610218193535556618911642e+00
0,-1.4783943147921496663599328e+00,-1.2533804834578687881219139e-01
0,-7.6363834134383301588400172e-01,-5.1026781291518741312529528e-01
0,-4.5345268016220019458017987e-01,-6.5289139663193362927984253e-01
0,3.1498367535276317052961303e-01,-6.1042021807939772504170151e-01
0,8.6444228840079229136961203e-01,-9.2727765126351169300278343e-02
0,1.8969731089577709925997340e-01,2.5741116482286274802504522e-02
0,-6.0326598955183746708641479e-02,-4.3369272927074176138262374e-01
0,7.7505674518365441638678703e-01,-7.0721334853394790531666558e-01
0,2.4164414011934279291615724e-01,-1.4971952723263903806127928e-02
0,-1.5191479412114148317414219e+00,-7.4612649265263430997663363e-01
0,-1.1772571018521138519474789e+00,-2.0573440624179617497446770e-01
0,1.0164623953105742515390375e+00,-4.7992098896945667441116257e-01
0,-8.6020532487347289851697951e-01,-4.4775350673533598211406570e-01
0,5.4116162553535562818041171e-01,-1.6834809706091526937399294e+00
0,-8.8065603636266309717228751e-02,-7.5331657393081341567153686e-01
0,1.2727353973584559776455194e-01,-4.5717796171232838453590830e-02
0,-1.4321090671079701461820832e+00,-8.7442402165986665707464454e-01
0,8.5576336486170689887842400e-01,-7.0507353920360227306218803e-01
0,8.1064213000848872603398831e-01,-8.4493243174096399616956887e-01
0,-1.1741710904597857378917070e+00,-2.1739049147500455472226122e-01
0,-2.1299954624859074314713325e+00,-1.2582871717276251644079821e+00
0,2.3881505346202969164437491e+00,-6.4136948012188277346012910e-01
0,2.7575639334758533793845459e-01,-1.3879487655150382074964455e+00
0,-1.7450581610631905604691383e+00,-1.3929198877840966996899397e+00
0,1.0831144952748612553250496e+00,-8.6796576476257736310060409e-01
0,2.6434837122177357038310674e-01,-1.0066603810378127459301822e-01
0,2.0534022957001552001088385e-01,-2.6181989389498527831534602e-01
0,-1.4328569436654774449380056e+00,-1.9945472224477933664843476e+00
0,1.3939684388641506718187202e+00,-1.0881104261664114041252560e+00
0,1.3023119410591583733349808e+00,-4.3446998696620509061716575e-01
0,-1.7823835759887490803876631e-01,-1.2639890047374253700951385e+00
0,-7.4767714109036653713502574e-01,-4.3261510734293351365664648e-01
0,1.2863103631114845004645986e+00,-5.7445819173966516935081472e-01
0,4.6801479872911289081827135e-01,-2.9049647468055084242877228e-01
0,-1.2876367921094717949870301e+00,2.3225425275157307591911149e-02
0,-7.8908215812144977263642431e-01,-2.1136880468461038962146858e-01
0,1.3629392024060899002435576e-01,-1.2214380213841555811171702e+00
0,-1.2441498445985061938046101e+00,-8.8294056925930819446080022e-01
0,1.6587487483303462454387045e+00,-5.0274246738493477693054956e-01
0,1.0902788837402638266738109e-01,-4.6874856327022940138959939e-01
0,-1.3106636713310400033094538e+00,-5.5303140048527232863762038e-01
0,-1.3214034543766031148948059e+00,-1.1597468787918541188730615e-01
0,-2.5612544271706303433688845e+00,-2.3253612320994676565533155e-01
0,2.2772506890674443225108803e-01,-2.5581043170763706484649447e-03
0,7.5242830953937267501885344e-01,-1.0864963804793470458776028e-01
0,-2.5970210917063391020676022e-01,-9.2151034327723857497716153e-01
0,-7.0045870521408670761331905e-01,1.7567605695249688402270749e-01
0,-1.8876339696310742155560547e+00,-1.1891202698070104659677781e+00
0,-4.9381725590314884399845141e-01,-6.1648313812373112252629426e-01
0,5.4353946556207921592118737e-01,-5.8861463424592774806853868e-01
0,-4.1782323148409811208736642e-01,-3.3770680489104987209714182e-01
0,1.4214015773213293236665322e+00,-1.1268411733817251807465709e-01
0,6.6427757016596977734934626e-01,-1.6156853227988343668641846e-01
0,-8.5046648728252760562895674e-01,-8.2455937479008112322986790e-01
0,-3.4986865895239804835625819e-01,-2.2420932080979616429772250e-02
0,1.4910767539157059324850252e+00,-8.8007954986122016727279060e-02
0,-5.6358376107185903514107395e-01,-6.7653463011445669206267439e-01
0,6.2233196517490030341690499e-01,1.3328853272583718325705604e-01
0,-1.0829843239809540111906472e+00,-3.0984931112588520729644870e-01
0,-6.2829109024032592234476624e-01,-7.3178556355613433304085902e-01
0,1.1276366471513696865258680e+00,-1.0684005548717923073098746e-01
0,-6.7428708893915889621695214e-01,1.3909493887602319972529585e-02
0,1.1303682289513930503410677e-01,-2.2319026450412593476357870e-01
0,-1.6482093693490629249254198e-01,-3.0916388177882769827675702e-01
0,-8.2870744495048542788140367e-01,-6.5547632770412833647100115e-01
0,1.9771327622955077174538019e+00,-1.1572664726553485436966184e+00
0,6.9742964508895735620264134e-02,1.5848557364228144095363859e-01
0,-1.2059297713701828680399331e+00,-2.1221274313194482541433672e-01
0,1.1319612428773713208585150e+00,-2.3894917268606852278622910e-01
0,1.6082328333051745250514841e+00,-2.0191546837289089388889352e+00
0,2.3450558818311345588014660e-01,-2.5452481645941538168642637e-01
0,1.2684875476161021623511260e+00,-4.9596991894131270406376188e-01
0,1.2458290306005545544643098e-01,-3.6996986249140162428261647e-01
0,9.1467868203021462925050855e-01,-2.5867984156903767178903308e-01
0,-6.6690537073515721022687330e-01,8.3767555060035747693802932e-02
0,-1.0162670190136176007200675e+00,-6.8946437505815760804495085e-01
0,1.7314888930335032846130616e+00,-8.1151852842548866107108552e-01
0,-6.4805661671302616788636897e-01,2.2401545834218716812813454e-01
0,-2.1608907925518833215150494e-01,-7.5384822547085994504101336e-01
0,-4.6722546288570848682653036e-01,-1.4956790334374834294806078e+00
0,-9.1549247584199000549176617e-01,-2.7861073544804171309152707e-01
0,-9.5549512872646208405669199e-02,-2.8038829147211219439128627e-01
0,1.5401967721080502826680458e+00,-4.8712942472033160523636752e-01
0,1.6922052605215218701317781e+00,-9.6581375976576067099443890e-01
0,-5.7867475711757587752970267e-01,-1.6539179216743638001219097e-01
0,-2.9833399176676778097316856e-01,-5.8596387690566043016104913e-01
0,1.4279980035700479135130081e-01,5.3228771396608420829466013e-02
0,-1.0065034337420997179179949e+00,-2.2029443136030329997154809e-01
0,-4.5767283495094474021769315e-01,3.4141876514862024016849773e-01
0,-6.3972415537128834994717863e-01,-4.5027421839443193540830634e-02
0,2.0094900296601534428475588e+00,-3.7241580431069798429177808e-01
0,-1.6499700417893570225658095e+00,1.8612582049536252615240528e-02
0,1.1293310509246368145142014e+00,2.0190220947134085438534612e-01
0,1.6210789544853589916328929e+00,-1.3751925572030698763370538e-01
0,-2.9683435265907540667740250e+00,-4.5868190089886795579587897e-01
0,-1.4310565793389011801650668e+00,8.5153981387964261529077703e-03
0,-3.2080065561063818291298588e-02,6.4511395592848030933197379e-01
0,-8.0373875782474546447531338e-01,2.0359732097874438938589492e-01
0,1.4657788274589063082231633e+00,7.3197180804076722449025283e-02
0,-1.2717593952440646720702944e+00,1.6169995796567188106607205e-01
0,-1.2273979030824286873269102e+00,-2.1853355688012998658820152e-01
0,-2.0009954459802576920424144e+00,-8.6431653612388825713708229e-01
0,1.4873266984202251350666302e+00,1.7232385539262656815040486e-01
0,2.0012300161125380348892122e+00,5.1753404835441219056235695e-01
0,-1.5062630294258432250842361e+00,1.5432060033398395382242541e-01
0,-1.9737559674736382397952639e+00,2.9038659488513007822518830e-01
0,3.8665881929889858725779561e-02,5.8459028171874671819807645e-01
0,1.4689389214188344201517111e+00,5.5491178740206814623547871e-03
0,5.6239630565297807351932136e-02,1.2050197173255827731708223e-01
0,-1.3845714210248766251609709e-01,-2.8275594225382794100198680e-01
0,-5.4076760099668785830573370e-01,2.8633588430587653128611691e-01
0,3.8770626305216282503351977e-01,3.2417302457870300624875881e-01
0,-1.3701294851437506583380355e-01,6.3843941399631587430008040e-01
0,1.1334089538169922484200924e+00,3.0171442211925914023140649e-02
0,-1.2613581104883404560013105e+00,-6.6264494219033465149948370e-02
0,-2.8376878930466170602997522e-01,2.6430561652713746578768905e-01
0,1.7961601768674713142104338e+00,2.5740510617251166625152337e-01
0,1.6715559527215479995732039e+00,8.3408080076545676462274059e-01
0,-1.5071662376865102572764954e+00,-8.9435577659328469035671105e-02
0,2.2438510382674814458425772e+00,3.7748090164413383718056139e-01
0,1.4085643111562435869643650e+00,-2.6902133996784149960745935e-01
0,3.9939214447554471920653896e-01,4.5686812235970086781833288e-01
0,-1.5669894044117771425561614e-01,5.0918627799144300372091720e-01
0,1.8768020422505788946665461e+00,2.2234192915789260935888194e-01
0,-2.3851635042070280512405134e+00,-4.6600274417272435911741013e-02
0,3.0209373283116194852659930e-02,-2.4399723993699862223394348e-01
0,-3.5999666743477809482953944e-01,-8.5392344534532593769426967e-02
0,9.9398731790803429575476002e-01,2.7487673689326619363981763e-01
0,-1.5241991023466920918139067e+00,-2.1345293675490911722292253e-01
0,5.7539041221146322580004551e-02,6.3452642155948180135993653e-01
0,-2.0148648527048229617264496e+00,-2.7817921526273270416140804e-02
0,-1.2286105401198623710001812e+00,6.1546493965894094602120390e-02
0,1.2294605795053246133363700e+00,4.4867096744344808767479549e-01
0,-3.0944695511653519393036049e-01,2.0725152475885677549882757e-01
0,2.1391749205832102931346128e-02,3.2557644630354432013774613e-01
0,2.7940359060268271651494842e-01,5.9946274423111178819567613e-01
0,1.1183156433406007401742954e+00,4.4105652989428789645387496e-01
0,-8.6803887786532674120110187e-01,-3.3972134698731143442884672e-01
0,-1.0133699231991568634470013e+00,9.7598621811728403230290496e-02
0,-3.9650064644590712892302520e-02,1.8453175206053684664908587e-01
0,1.7889294619732247770826916e+00,-1.2229103493290777171509376e-01
0,-3.2459995513370962783028517e+00,8.9622761360149705289757094e-01
0,-1.0146561053988736311737284e+00,4.0221956902366762243161702e-01
0,-2.9577699943213359157212494e-01,4.8285087514414060105849558e-01
0,-1.5820960978848055411560836e+00,-2.0416692242313300154066269e-01
0,2.2832529591528651913279191e+00,-1.9804856332402737129072534e-01
0,-2.2894081483129666843012728e+00,1.7542665404983770471858406e-01
0,1.8675573684911350724746626e+00,2.7067261416107490923366186e-02
0,3.7769559989744760919450073e-01,7.0347388973853741678254892e-01
0,-2.2689238320782662006180885e-01,4.9164573042355974585859713e-01
0,-2.9901254204900540312195290e-01,4.6363277533208102632045211e-01
0,-4.6605788295864586379124717e-01,1.4311089170380375534818995e-01
0,-1.8816204995472513017418237e-01,4.2901383039137952479791238e-01
0,1.5009984445147817044841076e+00,5.0177852370439923745948363e-03
0,-2.0120860097764863283487102e+00,-2.9701925118970318173694523e-01
0,3.9344125002171786986693292e-01,-3.1335570312668892256624531e-01
0,-1.5819115858061152390945381e+00,-2.0616640025685528669896485e-01
0,-2.0099499116255694630694961e+00,-5.1450697745435092222976436e-01
0,1.4648220021299649395984943e+00,3.1695892342423587217936642e-01
0,-7.6404160881533411675547995e-01,4.2114153146708810382392585e-01
0,8.1198388574698798780815423e-01,3.2264707996175301385477496e-01
0,-3.0950498035374685024123664e-01,3.2372795373246887606910605e-01
0,2.0211371132559570185094344e+00,-2.7699842984198391748762447e-01
0,-3.3038488871639565269688887e-01,1.8259761833791032792362330e-01
0,1.6595397559266314435610923e-01,6.3009766554625867840400133e-03
0,1.2667926605057449052083030e+00,1.6282522357003670343544854e-01
0,-1.4929918030259763384037797e+00,-8.4220616754456911756676618e-02
0,1.2693231408685974326289170e+00,-8.4305598299042605603403899e-03
0,-1.0112008089488657702759156e+00,-3.2394484944379486890397857e-01
0,-2.2741468847640309292046368e+00,-6.8592086150147568712753809e-01
0,2.8060907695244902138043130e-01,5.6797553877916662212754773e-01
0,-1.0355009027200594573514536e+00,-5.5390386169038086094928985e-01
0,1.0507366725088731485016069e+00,5.2778067028495911916508021e-01
0,-1.6824241385381861757508659e+00,-1.4619043991651847758106442e-01
0,1.3867822534999898476115732e+00,-3.7114942827215680054564473e-01
0,-5.5171800145330984754821202e-01,4.1827004674846701703927465e-01
0,3.0656090369726922695292615e+00,4.5429008724639174943149555e-01
0,-2.4751619389888235289731711e-01,-3.0882001689600224736409473e-01
0,1.6421875390491231794243276e+00,-2.1207131990425009959722047e-04
0,-1.5078958793772110347219950e+00,2.7740811649167272656679728e-02
0,-8.3184603648040533752094916e-01,1.1169745955792842462273029e-01
0,7.7203903438168200445979039e-02,3.3201553310640830041222671e-01
0,6.8197923126100812307726073e-01,6.7530367677203451126644040e-01
0,-2.3678134994281757608192152e-02,3.2284049254508906390270795e-01
0,2.3536109388979209455783348e+00,-5.9292375120382412312380893e-01
0,-3.1055633503043211796068590e-01,5.9818930987559570944256393e-01
0,-2.1419889648681600391455504e+00,-6.2777359460827597548160384e-01
0,1.1486870280606444882920414e+00,-3.6368332418934601335536172e-01
0,-2.4570826327195298688366165e+00,-1.2020953636330513614183246e+00
0,-1.2589659932684691412418942e+00,-6.4567489520848986295220584e-01
0,5.0558656739490803744274672e-01,1.7250748297705809086721729e-01
0,-1.5683572967477548143477861e+00,-5.5275515201690161859460204e-01
0,-1.0029864658020821721606808e+00,3.2758630917978159846626340e-01
0,1.0694106406653065555190096e+00,-3.2936822018259814814911124e-01
0,-4.5657612740650765914551812e-01,9.5091237246129933780025567e-01
0,-7.7383837201579752651525723e-01,3.2834691695431517111103403e-01
0,-3.4185254551229671271528332e-01,6.1163489865748632556829989e-01
0,-2.2397578003669171842204833e+00,-6.9084004679670640847177765e-01
0,-1.7497388111434766244656203e+00,-4.6671090038752360840135225e-01
0,-7.4974734863652336969153112e-01,3.6577120325679546297692468e-01
0,-1.3693745923564089039814462e+00,-1.1251678468634562779726593e-02
0,-4.7063037912103911075689666e-01,5.5368178827935266017590266e-01
0,8.8967873628239124705885388e-01,1.1786761935203338147459817e-01
0,-1.3812838890405865210908587e+00,-7.2199408232162476384274896e-02
0,3.3699450452605100858605169e-01,3.8724383170676968113355088e-01
0,-1.8359958994224183648213966e+00,-5.3358328080231598455895892e-01
0,-2.2411266851623481421995621e+00,-1.1156359379092879446915276e+00
0,-5.6616716139941702934379464e-01,4.8323529830223510561637568e-01
0,-1.5250597178724425440066170e+00,1.2648863436518442693312636e-01
0,-1.7762534196601422742389786e+00,-4.4231459071052142695279485e-01
0,1.9377258835112547430412633e+00,6.5009277064627002395980071e-02
0,-2.2038991404633740955887333e+00,-6.7493175168301522415248428e-01
0,-1.5860588532614909862417107e+00,-2.2402543831976162724828328e-01
0,-4.0970339726293636406495580e-01,4.1895772657576169084592266e-01
0,-1.4885936067928100534629721e+00,3.5038000279968006811515124e-02
0,-7.2174157480847012102742610e-01,2.3955416458636735743681356e-01
0,-1.5905019335879506670039518e+00,-3.4395512105836689720206323e-02
0,-5.2351056718494681785358580e-01,-8.6001794803225672936264345e-02
0,-1.3617833869539810454085682e+00,-7.4841910560551661024675241e-01
0,1.0209777863973803491148828e+00,2.8464195552491544649598154e-01
0,3.0263127080970888549416031e+00,1.9635509950446550231362153e-01
0,-1.8035772992642851164646345e+00,-7.5221106755737410232143247e-01
0,-9.5006307410293444615234648e-01,-4.4349683337448264630609174e-01
0,-7.8900201594965024831651590e-01,-2.5874628058784510109546773e-01
0,-2.3655693277397880081025505e+00,-6.5330459457130873879293631e-01
0,-1.6631617267145959448981785e+00,-1.4175216219821987206906044e-01
0,-2.2162804231386932229952436e+00,-9.1120644090027380634921883e-01
0,1.5325232680917777461360174e+00,7.2012994596052770646110730e-01
0,1.3958358015489511494422459e+00,7.8616356188319524989083220e-02
0,1.3171474413247159507278639e+00,7.3035203500450895930384831e-02
0,1.6967498590665361923868204e+00,1.9830469621210655706278203e-02
0,1.6074544135271184863711369e+00,1.0076536617928466554872102e-01
0,1.7006245191069241373682530e-01,5.4531153348682648296374964e-01
0,-2.6822030057191383889403369e+00,3.9588590694214964571528981e-01
0,-5.5516953487899112218428854e-01,-6.4085709044833594205670124e-01
0,1.8186787429052664322171040e+00,-2.5428306940699418881024485e-01
0,2.2112729485867674839028041e+00,-2.6708107130485414515419507e-01
0,-1.0555389055413710863717824e+00,1.5043129838200236525480591e-01
0,-2.5486996726642958677189199e+00,-6.6945769591551906874116185e-01
0,1.6366966156961837430827700e+00,-7.3740403546340427265448625e-02
0,1.9402895136156632638346764e+00,9.0836064701316471259318064e-02
0,-2.8668338842833673840715392e-01,3.8779658728057442296233148e-01
0,1.2307951897044173694695246e+00,-1.4717269658849257973898261e-01
0,-1.5771250452893483817717879e+00,-2.8662904941640698908145168e-01
0,-1.6616154961532882960995039e+00,-3.4641315307549536139930524e-01
0,-2.7145963554743390844237183e+00,-8.0528803159450501603089378e-01
0,3.6526052435126765693951256e-01,3.4255294029239879982640105e-02
0,-6.0326187001207376425782059e-01,2.2202067576209272292686592e-01
0,-9.1515943061990678852879455e-01,-3.0554674799399889062456737e-01
0,5.7489650437810360661394782e-02,5.2503166296091796638734195e-01
0,-1.5605311045449097306914155e+00,-4.6511373832638674974404580e-01
0,1.7521270398578621119156651e+00,3.4093035925560233323494685e-02
0,1.2016233185132376704018498e+00,2.2401930166919470366337919e-01
0,-6.5585721402611918406933000e-01,-2.5831324108554754026556566e-01
0,6.3558734022092733262354614e-01,5.2871184605148469071167483e-01
0,-1.4297848293435708733056799e+00,-1.8406538530987393009752395e-01
0,6.2068707502399345088406335e-01,-3.3951719150074888275980811e-02
0,-1.0455997692257430475848423e+00,-1.4612708784109229576131384e-01
0,-3.8763987340606770315432072e-01,8.0277600571217044844729571e-01
0,-1.7380631516324336338641388e+00,-7.0210900759582028918259766e-01
0,2.2001274984036869319936613e+00,2.1030468775097110878391504e-01
0,-7.8926477478845447066646557e-01,1.9430476421255518659769734e-01
0,-1.3488746865055234458452560e+00,1.1639596898544737335612353e+00
0,-1.1353256161722165007432750e+00,5.6551105162271242399185667e-01
0,1.6261744971743588017432103e+00,3.6095135507487113857294503e-01
0,-8.9483376673646897181413351e-01,-4.8398255526237492218921687e-02
0,-5.1026623034920504107248007e-01,5.4452268479852694582632466e-01
0,-3.0725630115106099538024864e+00,1.7974566784951095943512200e+00
0,-6.3573686277314256365400524e-01,1.5980447793789209764980797e+00
0,-1.0038040269905914581016759e+00,1.3659162088124059408755784e+00
0,-1.4072783887092672472363120e+00,7.9481615934092253450415910e-01
0,-9.7581195089904970707550547e-01,2.6572601480528645900847096e-01
0,-6.0553618624405214365680195e-01,5.2863142710389532386017208e-01
0,9.1571482169272722106967421e-01,8.3368720252944161774877330e-01
0,1.6849787896666321707073166e+00,2.8724850434669768617368391e-01
0,-1.1603310217904820589307491e-01,1.1755984861403614427644015e+00
0,2.0108376523016087134010377e+00,7.7642861607246649313651687e-03
0,-3.0030007463167107673029932e+00,4.6395447961822877669391119e-01
0,-9.9484948044265077982117873e+00,6.1806901162900462765037446e+00
0,1.9948851161903393691687825e+00,2.6555626246678736279704935e+00
0,1.4642016103557222717057584e+00,4.0315008494515169878980032e-01
0,-1.2257469336034456652839708e+00,4.4564373805219675839239812e-01
0,-1.5212357666627069896492230e+00,5.3818211227576195909705348e-01
0,-8.5850214486307385719499052e-01,5.3184188870465531895348477e-01
0,1.0721031761948951466223434e+00,4.8770408981236273993076225e-01
0,-3.9045411523720057189734689e+00,2.4496860023493698399477125e+00
0,1.0323543432252111351488111e+00,4.5481744961734249521612128e-01
0,-2.5710761840935849598110963e+00,6.0797262511943572782513456e-01
0,-2.9780186771566476977568527e+00,-1.6352770362467911047232860e-01
0,1.4958858484603632099663173e+00,3.0193104936581632857794943e-01
0,-1.5833650027438916918498535e+00,3.4890597821491864394261029e-01
0,-1.4021450765083709466551909e+00,4.5942553641434086264538905e-01
0,-4.0480263637480042859806417e+00,3.5856837239806509387562983e+00
0,1.9160818781050725778669630e+00,2.5870584007320034380938978e+00
0,-1.8908067788870703829218201e+00,1.9464218741201304574417463e+00
0,-1.6438285821355020921430423e+00,4.9425674803823477221342841e-01
0,-1.1039000181687719237544343e+00,3.5815964667891014849843145e-01
0,1.6624799444161726391655520e+00,8.7100074629398593906159931e-01
0,-5.8970817687450172162044737e-01,-1.5542648837262773575673691e-01
0,-1.3523879057994590002778068e+00,1.9545751321068710604222929e-01
0,-2.7728673206333148693047974e-01,7.7067656277493912231335571e-01
0,1.5729288568733357234208370e+00,5.9162620700463142142666584e-01
0,-1.6207810221568026420868591e+00,4.7095041041017998706408321e-01
0,2.9758695139459874212661816e+00,1.7624448590317116636327910e+00
0,2.8920453073133387533744099e+00,1.0281661883275770019707807e+00
0,-2.2447071394805542254857755e+00,4.7246494509376968373715044e-01
0,1.1645266702248042722800392e+00,7.7703912420379450676222177e-01
0,-1.3745276764131824087655787e+00,3.2706862688211257861325976e-01
0,-3.0254227568465954512078042e+00,1.2878387922814393817816381e+00
0,9.7744062396647546364647496e-01,1.5477879327983536938972975e+00
0,1.4975168471175852591414923e+00,3.9606264436189508870711506e-01
0,1.8111854161840104104896909e+00,4.4716711799148556316652048e-01
0,2.0086274935055209445167179e-01,1.7495353319220399157529755e+00
0,1.5969893213353141270260949e+00,1.0186096725521283090643010e+00
0,7.2859977198868919323615501e-01,9.1560010520726697880178335e-01
0,-1.7873849188507306973150435e+00,1.5671608314764817748709902e+00
0,-1.4588677839909225397718728e+00,8.1245578341749791206893860e-01
0,-8.2254731843263084734019230e-01,2.6244812697813568735938361e-01
0,-1.7007716506086043573020561e+00,8.4899235845513265630302158e-01
0,-7.6113492943454708061779002e-01,9.9895248193459773577984606e-01
0,3.7186130073129319839608797e+00,-2.0922504209879791425841233e-01
0,-1.0664594435381431480891479e+00,5.9912989759735779671245837e-01
0,-1.0829017201572650741514536e-02,1.3451406249723318886424295e+00
0,3.9259438876009591368188012e+00,-3.7418556717493678398511747e-01
0,1.8696982804826647317497645e+00,3.2904222350028572430247209e-01
0,-1.3665712516103742935058563e+00,1.5768073089895334737420285e-01
0,-1.2262912804007591871524596e-01,8.3246247745668922046746729e-01
0,-1.0521634911938679834975119e+00,1.3991932200025991583913765e-01
0,-1.7408864825375407470176015e+00,1.7815738832812150205242574e-01
0,-1.4502546337890389605007613e+00,1.0975506202519814957785371e-01
0,8.4526415302130908369093731e-01,8.4846489041998895963558880e-01
0,-2.4356454097138605097150332e-01,7.4746736762774468321168797e-01
0,8.8193516079816558494997025e-01,8.2486367250997352784658290e-02
0,2.6282419236993925792944538e+00,1.6284771432518170275471903e+00
0,1.2548599394053636668644458e+00,6.1371333230120972412890978e-01
0,-1.1277560405933950704593371e-01,-5.7985687045845901721463633e-01
0,-8.5936189782956551308501503e-01,3.0326401584455531246220517e-01
0,1.6161860843753215188911554e+00,3.1192912978748216223934264e-01
0,1.1350506844970893460811112e+00,1.0302566700673307931168665e+00
0,2.3489771122062093056115373e+00,7.3721297642226890634020720e-01
0,-1.2480986143840286928252681e+00,1.2692171699924981176366146e+00
0,-7.7856303215421096552972813e-01,1.0548754161823414854382008e+00
0,-1.5877126673356833919115161e+00,3.1332607227740449928887756e-01
0,-7.5978002593841165168697671e-01,7.1558760614333594141101003e-01
0,1.0069859240908045627804768e+00,-9.0643947163002752676064233e-02
0,-1.4533037995369326722538972e+00,2.9733436545631830583147348e-01
0,1.4972913040039603771447219e+00,4.9085878349647510399123007e-01
0,-1.2688221599798077399157137e+00,4.3236410910214251313021805e-01
0,1.6550854169693556272591195e+00,3.7810588262166872075553670e-01
0,-8.5339195984075555401204838e-01,8.7926880905183124603752276e-01
0,-9.6327000919515037846707628e-01,1.4540150612619044956375092e+00
0,3.2205172965910451310378448e+00,5.7482371100687901233072807e-01
0,-1.3802030511935774459431059e+00,5.0365197025661745389157886e-01
0,2.2418316184065507634670666e+00,5.7405913911485273448676026e-01
0,1.1806204535371185304626351e+00,3.1492457108597882164957582e-01
0,-1.3181390548375735427555355e+00,5.2267053622510140087342734e-01
0,-1.6970533875284876668132483e+00,2.7041889304593014209388002e-01
0,-1.2000746012475644874939462e+00,1.0053574787715926497355667e+00
0,1.7963282577709311915725721e+00,7.9441590891694491283203661e-01
0,-1.9167628452898027857642660e-01,9.7965332890792156117498735e-01
0,2.1129977577424865486932504e+00,8.4052847057908508521251179e-01
0,1.4097088221781426398138137e+00,6.0671426838933339986681403e-01
0,1.6196724460707530024450307e+00,3.7964687722379042433828999e-01
0,-1.1930585209511153088612900e+00,2.4338510914957239839040426e-01
0,-1.5642070868203505895621674e+00,1.5313524388048049829080810e-01
0,5.8566695558307158009370141e-01,1.2895208991951320753877042e-01
0,7.5348174325303007847765002e-01,8.2226052932736581890793559e-01
0,-1.5969890991288244741497238e+00,2.2482439046159408135849844e-01
0,5.4054554979303066630791363e+00,3.2557495898442985193810273e+00
0,1.2101505500332727649492881e+00,1.1973152392705457836008520e-01
0,-1.8159190643403215759121849e+00,9.4803307499606637165356915e-01
0,1.3396873070386479120941203e+00,5.0556088143109800814301025e-01
0,1.4139393570579896763916850e+00,4.0222279155003476391883055e-01
0,-1.1746563716298126234249821e+00,2.3069821833568754376742049e-01
0,-2.5329635099577583190466612e+00,8.8400076624896639643225171e-01
0,-3.4575025177916562935109823e-01,-4.6001531998326894434825363e-01
0,-6.9006143028203681399901370e-01,8.4785882921482008667268815e-02
0,2.2442852066220533302498552e+00,6.0305243643708328349362091e-01
0,1.0067669166889725573810210e+00,1.4723294992146338522331916e+00
0,-1.2608733240213800819162770e+00,4.3264590466333319174196959e-01
0,1.1561616779872677107654511e-01,7.5197233223055270912027481e-01
0,6.9114917681320298115110745e-01,5.3966128805959767689159889e-01
0,-7.1052851799784311204177811e-01,6.7223142242522138101179507e-01
0,1.0007280756757501727349791e+00,1.0915977225424071395121217e-01
0,8.4877082789051011557646120e-02,1.7323620306484426301096846e+00
0,-1.4298442024338386957538205e-02,-2.0406125036773459235917016e-01
0,4.0598705889765662746526687e-01,8.6404483345803817506691757e-01
0,-1.5415274652674386679507279e+00,8.6343555704794949789970815e-01
0,-2.6321182545151655673976165e+00,2.1514472654725280698073675e-01
0,1.9228924271165372950065375e+00,1.2492469570884481844252889e-01
0,2.6961869244605582984775083e+00,1.4673818696348013279617817e+00
0,-2.5368859533121295157798158e+00,7.6809872731684991631340154e-01
0,2.6581923684576880262397935e+00,1.8203753351088494127907325e+00
0,-2.8391480168307570153274355e-01,2.5044811265424626878228764e-02
0,-8.9592271629392439269423676e-01,5.2947071739328155359771699e-01
0,-1.8718834601737359690787343e+00,1.7428139347811804071852748e+00
0,-1.1415703934782155393179437e+00,7.8398661834578098339676444e-01
0,-9.2599082227940388012399353e-02,1.3716471485435204336056358e+00
0,-8.7606615114048724812789715e-01,1.1512456684800722594985700e+00
0,-9.8816818438380171762958071e-01,4.7683347761216349214308252e-01
0,2.0628428449104805331160151e+00,1.1006212802240789017105271e+00
0,-1.3743955547398565286698613e+00,1.1405043893242736707804852e+00
0,7.6500989339746361395100394e-01,8.9004838576566103203191460e-01
0,-6.3394781537336020171835571e-02,4.7218522140296870226450210e-01
0,-8.6881925599769393997462430e-01,7.0995903397741333407111597e-01
0,-3.0112026988871087862520426e-01,4.2463740835903518444638394e-01
0,-7.9985343800251729184935812e-01,1.3318926100845178694953574e+00
0,-1.0023171729807256458144593e+00,9.1439333497130725891821612e-01
0,2.1922063189549207962159016e+00,1.0593782493875278927220052e+00
0,-1.4077794113324593183733668e-01,9.6078410392798629935384724e-01
0,-1.7479884866122799014220845e+00,1.8976671252066978912154127e+00
0,-1.4668324710901419205555385e+00,7.8753464927804328610250195e-01
0,-1.0554911364277144159018462e+00,8.3665370512549730452889207e-01
0,-8.4679984543818931364000946e-01,5.3194214392886585152098178e-01
0,1.5788105318884473327045725e+00,1.0849430556464580988063062e+00
0,-1.2677323727198761549317396e+00,1.0277908595335167873940918e+00
0,6.2530361984971805089372765e-01,4.6266179154876607704238722e-01
0,3.7965760987778890411803445e-01,1.2329874609915900673939859e+00
0,1.2142852048718915103364679e+00,6.2772238194460960869491828e-01
0,-1.3517564140381470583207602e+00,6.2331462440393659019122197e-01
0,5.4319790793530575712111386e+00,1.1690904762833156382839661e+01
0,6.8816999135533030163003332e-01,8.6151084730137172940089840e-01
0,6.6001059968342445927191875e-01,1.6096303360457784314974106e+00
0,-9.9837246980561689113642387e-01,4.9641194482360723183589357e-01
0,-5.8947591164212576053671455e-01,4.3782668545859559916522130e-01
0,-1.0846975399561460395858603e+00,7.1591882117459149093008364e-01
0,-5.4375729207872580683869046e-01,8.6704117895646359848171869e-01
0,2.3381167335694277298330235e+00,1.6188050598272643032515816e+00
0,1.6771253530060499237208660e+00,1.4899375343938165983104227e+00
0,-5.9805735378930169332534206e-01,7.3068095933599652713752448e-01
0,-2.1376815308017995675982093e+00,1.6152657900128981616205692e+00
0,-2.1238210683795815114649486e+00,1.3298104040587344076840282e+00
0,-5.7433664562703223843698197e-01,1.0741997789265762541788263e+00
0,1.9557260570282974931899389e+00,1.0641822705719095054632817e+00
0,-1.0229118070401688189718925e+00,6.9941814186877393488828147e-01
0,1.0799032411119124930110047e+00,5.4980203523836279622116763e-01
0,3.6987309260004108679709134e-01,8.0238027685531376764771494e-01
0,2.5360381336145612074517430e+00,1.5386238424561151649783142e+00
0,2.4424103192487001123822665e-02,7.6935423783102940831213346e-01
0,-1.4785000132666787919788476e+00,8.9179448999862998004317660e-01
0,2.2522039004380678406391780e+00,9.5254341242159523694965628e-01
0,8.0874279365491497095774776e-01,6.4697705800098559425492795e-01
0,-2.9012270067568382003742045e+00,2.2789177119489214540237754e+00
0,1.1967808257461962639922604e+00,1.2198807137478184792200864e+00
0,-3.1811978024801712550129196e-01,1.0141706107419694582461034e+00
0,-3.6598615365015172429252743e+00,4.7479820535482886167955030e-01
0,-1.3843758508373866789042950e+00,9.1756835824403482071431881e-01
0,-1.2484583889631375441808814e+00,1.5192159596711078961561725e+00
0,1.7073223442295666352208627e+00,1.3291477153474875461114380e+00
0,2.3641877171297212001377375e+00,1.7247174001498826179101798e+00
0,3.9782018790864248636296452e-01,9.8114066228754803766776149e-01
0,8.4671489700060298400074998e-01,1.3368182669295574083179190e+00
0,3.7350867477506755065519428e+00,5.5708191277683134501330642e+00
0,-3.9197707867144773175027694e+00,5.6143878053545970274740284e+00
0,5.1307336178208684529522543e+00,-4.2571080315894777035268248e-01
0,2.4506417317194001403990455e-01,1.0913576053367182172593175e+00
0,5.4712987968342097211404962e-01,8.0978846692531347706278666e-01
0,3.3053826719829859648314141e-01,6.7284904812357371195474798e-01
0,-2.4421911723525915327570601e+00,2.5669872815080205796789414e+00
0,1.2193712256733431065214290e+00,1.7466142061674927443704064e+00
0,-8.2254440377244131266110116e-01,1.0924634229027800902400713e+00
0,2.1267386126869629592306410e+00,3.3801889480818991806643226e-01
0,-4.7076252342703545084034999e-01,1.0259875267147156030489441e+00
0,7.4870088888346331135181799e-01,8.8103372580992744822481200e-01
0,1.4501135549240236954915417e+01,7.5779741155861293222528730e+00
0,-3.1997926624614572155280712e+00,5.1883101059291529821848599e+00
0,-5.0639725464629359308332823e-02,7.4148926961192440643344526e-01
0,3.4552741551120593754831134e+00,2.1087318474046385929909775e+00
