Species Id, x,y
0,4.8471029289494083069911312e-01,9.0696310383839595647970100e-01
0,3.9138680656525148826574423e-01,9.9372214983876872018697668e-01
0,4.6218007700635466150629327e-01,9.1972653804080251038755023e-01
0,2.7852470450678573632430357e-01,8.9577719334100669446030452e-01
0,4.2682016812827522356244003e-01,9.4181825198779012264793664e-01
0,5.7061535482739489388848142e-01,8.6195285037553170948143588e-01
0,4.0368406761804642712831992e-01,9.3831139125752427432303193e-01
0,4.4330870140292860659414487e-01,9.6515374097952733034588846e-01
0,4.2879201107133785297875761e-01,9.8748842495977839917031815e-01
0,4.2898528756986364918191157e-01,7.9424472622737452009999970e-01
0,3.1755643498973867844270558e-01,7.8360367079505754972501563e-01
0,3.0928700990973545525974941e-01,9.6186694216682566693776835e-01
0,4.1582091316706665251601294e-01,7.6362741620861429581168522e-01
0,4.6384373236081366531635695e-01,9.6168001309928119457737239e-01
0,5.0881199286750311561178250e-01,9.5471682923123180053437409e-01
0,3.4477890506763253508637490e-01,9.8136412401812334049822084e-01
0,4.9166336948162003839257750e-01,8.1270946744253691473858225e-01
0,4.5225013161764116009777581e-01,8.0453586950537003819050597e-01
0,3.8016823611758704393182029e-01,9.5061273123918310634650197e-01
0,5.8870768142069784811809541e-01,9.2678716179152642595795442e-01
0,6.1943889702268850605548778e-01,9.6604384067509407874041472e-01
0,3.8800292815038334159893907e-01,9.1869121653365592994333610e-01
0,3.5940357999887939666194825e-01,9.0141951818489307601822702e-01
0,6.7524813266376948472924369e-01,9.1930162978107177185194132e-01
0,4.1251241866970916882806364e-01,8.0701935880575326187624796e-01
0,4.2185967940149959876094954e-01,9.4564413687221859916576250e-01
0,5.2440734514896469864453366e-01,7.7755250121476615632332141e-01
0,3.5184629982854420671145590e-01,5.9383431591177471275955213e-01
0,4.0972418873471722067236556e-01,9.9929642516173011745905796e-01
0,4.1271370256783734831174115e-01,9.0128724804829496441982428e-01
0,7.7259217926215895122510346e-01,8.8338986800354479811403507e-01
0,7.6310424113802788337324046e-01,8.7566055943615173084992875e-01
0,4.1462609009412393357152382e-01,8.7237478387953193426085363e-01
0,2.7524101998061067941847568e-01,9.0136133213110691819736076e-01
0,4.1721818836248630857355124e-01,9.9874654333299972552850932e-01
0,1.3016714721133260113106189e-01,8.0375796817035571883991452e-01
0,2.3493707460484894444796566e-01,8.5899774361651659582150842e-01
0,4.3820837408213036967552512e-01,9.8587285625195231197892554e-01
0,6.0415581075077706696419000e-01,4.7585078398868496662998950e-01
0,4.9410856587231433145745996e-01,9.3598166404903804238557541e-01
0,4.6735726181824849279067280e-01,5.8716980488255920977991309e-01
0,7.1344642795443169447366927e-01,8.8476764551676934100754579e-01
0,3.1925246327821676928238048e-01,9.0895714640546187990111093e-01
0,6.4820535082117991532157930e-01,9.0310507975825837778671712e-01
0,7.8047419893493952258722857e-01,8.8192506017551908215068579e-01
0,4.1361484272055837330128725e-01,9.5259995196370406134178666e-01
0,4.0436084471572597554001050e-01,8.3620395267770086800140916e-01
0,1.7039270841617293328340565e-01,7.9304446777498194265376696e-01
0,4.3681384756971392002711241e-01,7.9789603376954087998740306e-01
0,5.0535683097643691041866987e-01,8.3057358380610335490956686e-01
0,4.7445361410891151443536273e-01,8.2678505798990054032060470e-01
0,4.7223918351069271714948172e-01,8.8437325174053593723755284e-01
0,6.5327764253771969382711404e-01,8.1650002945994648584360220e-01
0,4.5405397664147345571095116e-01,9.5385793967492160660981426e-01
0,2.5926541546669323867746471e-01,7.3955984815171404989087023e-01
0,4.3119625774546738172787741e-01,9.9387309352457309241657413e-01
0,4.9051481111044115124286691e-01,9.4659152950111580260283972e-01
0,4.0519039986521521168327808e-01,7.0867896555221321364115283e-01
0,4.2444010111607782809173273e-01,9.7525199899168846240371522e-01
0,5.7809995055314700174164955e-01,8.7321418261687833162199013e-01
0,3.7358624372235560429089674e-01,9.2667968652203547286205776e-01
0,2.2858007438085789497783651e-01,6.9622457376559676589522496e-01
0,5.0665251700370594889477616e-01,8.8512421790564721479910304e-01
0,4.3552502907291917866317021e-01,8.2099341517577795190874212e-01
0,4.2777351895002285742108938e-01,9.9689856886476513331274418e-01
0,4.1396208834062553361121672e-01,9.4950406958502353571560661e-01
0,3.4131165196395391037142986e-01,8.9234442440122041517724938e-01
0,3.6949909532292429803490563e-01,9.8570023625112324072716774e-01
0,4.5212933442287239760304374e-01,9.9697011563003046230591053e-01
0,2.6907035466685352842475254e-01,7.3213708621448225777328389e-01
0,4.2562493403328249819139728e-01,9.0072219218031679410785273e-01
0,4.6505084887784298164348229e-01,9.4795238096823475348884358e-01
0,2.9187720033267355868034088e-01,9.8307138617382638923203331e-01
0,3.8932100802832209085480031e-01,8.8249511150560588923497107e-01
0,4.9214567794421104629520869e-01,9.0922683446666319184714666e-01
0,4.8749359241748713156283657e-01,9.1872605014946795431995952e-01
0,3.7106068089708049706487714e-01,8.0525982670805418273118903e-01
0,4.0658955634339660756282342e-01,9.8096295955325019111370466e-01
0,4.3813828117954911611775515e-01,9.9355884866680954647932822e-01
0,4.1682036033664376928342676e-01,9.9496513408349152030041296e-01
0,5.3259422381232257581729073e-01,9.1293204880728351380270169e-01
0,4.6205425452700710220454994e-01,9.2445229371445236665749690e-01
0,5.9944485060009322641150220e-01,8.5216868627971775751461792e-01
0,3.8060572395958375269131579e-01,9.4752293297579959219234524e-01
0,4.6209230445872306880517044e-01,9.7050819807920585269300773e-01
0,3.2332515556611685081378482e-01,9.9403570914792982460284065e-01
0,2.9788106417098492162409684e-01,9.3367303381447452892416550e-01
0,4.2427845555631477081348635e-01,7.9181312918649371379586910e-01
0,4.6362160401141128129864910e-01,9.9156347158676005903998885e-01
0,4.5623752443335929829260067e-01,9.9653894655039232386428694e-01
0,4.1594184450944354791701585e-01,9.0257270948943135735476062e-01
0,4.6636261909474463482894180e-01,9.3495924372356076226253663e-01
0,5.8398105146169521084686949e-01,6.1052354345699977322681207e-01
0,3.7664284374147205536331739e-01,8.9089548639502358362562973e-01
0,4.2708466879751255662611698e-01,9.1492929896763053321251391e-01
0,5.1910092984098032964368485e-01,8.4450160647302296990091008e-01
0,4.6296387260213733849667506e-01,9.3887522073842843983726425e-01
0,4.3085635733857863272078248e-01,9.0023725066632309665948242e-01
0,4.5891607159157776774094373e-01,9.8645395047996176085547404e-01
0,4.5804311435396033447275954e-01,9.9424326949313357459914187e-01
0,4.4088877083589711469713279e-01,9.9189777969029813142753937e-01
0,4.7768864305061869979240896e-01,9.1808657911432112186389531e-01
0,4.8171600042834228361243731e-01,8.0941827279485245583146025e-01
0,2.9554557718747176409124222e-01,9.1149748419872889115822545e-01
0,3.6714162181344356383760896e-01,7.6495393946977985333290917e-01
0,3.9969057306245803218303081e-01,9.6280020936127852504426983e-01
0,4.6710494843141275866926776e-01,8.7843523656259503429311053e-01
0,3.1345499861036019151327991e-01,9.5755328600015832130054605e-01
0,2.8472868229700598607934126e-01,8.3864800014361484681302272e-01
0,4.7383736873986453952412035e-01,9.2044286144569142926741279e-01
0,4.1457611851686448911635807e-01,9.4347269738667494110018197e-01
0,4.1293631050718032637902866e-01,9.0699422834228660139643807e-01
0,3.3154554033500749365970250e-01,9.5128982336545342413103299e-01
0,4.5533620599232993431115801e-01,9.9984411580841303646138840e-01
0,4.2900758388265819442963789e-01,9.8984467340625703624112930e-01
0,2.9918596279729148257331417e-01,8.1220088762728936959689463e-01
0,3.6404191514354972136757738e-01,9.9360801701018341969273706e-01
0,4.3141814434244268872120642e-01,9.2201037386330897405173346e-01
0,3.9549703956802068072207135e-01,9.0859405153854155834380890e-01
0,4.6336663619094120569741335e-01,9.1134369543734183860550502e-01
0,5.4323920641157597000159285e-01,9.3751592629666791189890773e-01
0,4.1810962669834705884852610e-01,9.7125051353975011547703389e-01
0,3.3450538496087378614873842e-01,9.4784237192258924409316023e-01
0,9.8892918754093095401458413e-01,9.7268166782240117473889995e-01
0,3.9542763394034224910811304e-01,9.4684233177067567144291615e-01
0,4.7903288760764189957441772e-01,9.6659524455291323530303771e-01
0,4.2207601764281738043749215e-01,8.4356560821135828653893896e-01
0,4.5246100229987024077260571e-01,9.6454450650893430729837519e-01
0,3.4783314049147773250325599e-01,9.9529509113858560809262599e-01
0,4.3371865137988052651962789e-01,9.5571597106738048754692727e-01
0,5.2650684881185083607846309e-01,8.3029051007290499697433006e-01
0,2.9130947121290562407125435e-01,9.4043139965426403303894176e-01
0,6.1453942032594333078066029e-01,9.3823926818879799238715123e-01
0,4.8001349872756099435022747e-01,9.2374145147878017336751100e-01
0,3.2216168883763174335399526e-01,8.3224231887744259950068226e-01
0,3.2098242785585950898052943e-01,9.0554631632715509859110625e-01
0,4.3654466188834856188449862e-01,9.6998881672018333333085138e-01
0,3.0645236159560940158996800e-01,8.5623577998073030492776070e-01
0,5.5434514955771563293751569e-01,9.4349020213625123254530536e-01
0,3.8922232063417605552047007e-01,9.1177020890296889277237824e-01
0,5.2592042192626697882928966e-01,9.1982317675810032486793943e-01
0,5.7242155508763503668490102e-01,7.8440896368687496043037299e-01
0,4.8950457180342010765627947e-01,9.0137582174794106393278526e-01
0,4.1055579532828234690100544e-01,9.9914082146532900985391734e-01
0,3.2517609870666791538340590e-01,9.4241185953459982727054012e-01
0,6.5785228394479033919850508e-01,8.3088439266294933371881370e-01
0,8.2171834798477971784080864e-01,8.4205244664198963810974874e-01
0,2.6522856615561929416458042e-01,8.7787000062972919689485707e-01
0,4.6163172054656687048890262e-01,8.7518070381896273524091612e-01
0,3.8774335080394806141157460e-01,7.9321988698261436390168910e-01
0,2.6293897230291679578684239e-01,8.5938836043053634661248452e-01
0,5.9425765692881593604823820e-01,8.3001336577880535649853755e-01
0,5.7387601146248401473570766e-01,8.5903813781540661054236807e-01
0,8.8274563228995039931845668e-01,8.9336534015496860128280332e-01
0,2.1074750468353509180730043e-01,7.6308025917653266034790249e-01
0,3.9217071071603248899606342e-01,7.0039303626048865503150864e-01
0,3.7576114640412450196294003e-01,8.1799172446287427007405313e-01
0,5.0321867482850402009120216e-01,9.3180375189862929552475634e-01
0,5.6000505290308077999128500e-01,8.4155858725146392984584054e-01
0,4.6826467609356831056643955e-01,8.2210392966990830654339106e-01
0,5.5627797710028281663596772e-01,8.0895535203729496132041277e-01
0,3.4235500455129774799445386e-01,9.8020669101792168298459274e-01
0,5.8737229954722169900094286e-01,6.5184355381412251162487337e-01
0,7.7941468385128831464214727e-02,8.1266046072368902652982570e-01
0,4.2900044426829314625493339e-01,9.2790168168836895112860930e-01
0,3.2643483319938948472582751e-01,9.4029930637834457929358223e-01
0,5.1623510439334185928572651e-01,8.6634430551495600347777781e-01
0,4.9365232264250230587165902e-01,9.4416669068397340858211919e-01
0,5.2708769400140398353471483e-01,9.5026973993799424000883391e-01
0,5.8364869116990325537130957e-01,9.2268701690812060522972615e-01
0,3.7585969364752325194700688e-01,6.9628879230066464955939409e-01
0,3.7783376200797014199395107e-01,9.8626133170414143069848478e-01
0,3.8894462263149731651168395e-01,9.3068484814516339032053338e-01
0,4.3810536022692547764023629e-01,9.8914271154452559908776266e-01
0,4.2768843082803309485484533e-01,7.0451672282085464615875026e-01
0,4.5019411477734777582426773e-01,8.7185969923299477812861369e-01
0,3.9577693598399343866134359e-01,8.6002732387758507037744948e-01
0,4.5593533446265616104753349e-01,8.8431343111495563924506769e-01
0,4.5470175421111314051358931e-01,8.8717531014703665537268762e-01
0,4.1330292127594564499659668e-01,9.5587793252935726595609367e-01
0,3.0449325530266008188462479e-01,9.4901074289426157193361178e-01
0,5.0451445418922802321759491e-01,8.8356380699336312112279757e-01
0,4.3278156759344738047090573e-01,6.9184197564692739845781944e-01
0,4.3702570137075508194257623e-01,7.9857805380714397269770188e-01
0,2.9895018954006880029794502e-01,9.1752943813764376024266767e-01
0,1.7081364037045668191616699e-01,6.7526790219654553304451383e-01
0,4.8742892332476256411766258e-01,7.1733071092947786606686122e-01
0,4.6893562893397255919580857e-01,8.2408236583540250830282048e-01
0,2.2553875909244353037408359e-01,8.7544404716926726983672324e-01
0,5.0838825091115491527915538e-01,8.9981109315679830285006346e-01
0,4.0493401134612044822702615e-01,9.9810209734819577143127844e-01
0,4.1071795932535481998826299e-01,9.6176202657197973344693764e-01
0,5.9122463690104076761144825e-01,7.3529511438285810598358694e-01
0,4.0838822186930706648055889e-01,9.7061557351680838312546484e-01
0,4.1666276056763801305393713e-01,9.8999892854100157713048702e-01
0,4.2952925940428665629866600e-01,9.0304062682559027575024402e-01
0,4.6539150466632794866939093e-01,9.9388368124567461059370999e-01
0,2.7127586995549030079999397e-01,6.7129855157286089095691750e-01
0,4.0275530806729170629765235e-01,9.2636134310803630587116686e-01
0,4.9302872781874551577629973e-01,6.6794370145923531723042288e-01
0,3.0586211877567526240540019e-01,8.4748011749880480802943339e-01
0,4.2731045932786004826198223e-01,9.7310549678841706811027734e-01
0,5.3782656760541835971878299e-01,8.9557070941111149853242068e-01
0,3.3544820431779842628827737e-01,8.6658898911756576666221008e-01
0,4.3438592343547577367957047e-01,9.8489157759721934759511441e-01
0,2.9880092781335487739369228e-01,8.0864335966278289014042002e-01
0,6.6374977508174304308141700e-01,8.4173933074288542766083765e-01
0,4.9105016199437340196354285e-01,9.2834386270172186694793481e-01
0,4.5428255451145127530310219e-01,9.9825274042577927247066327e-01
0,4.5059622520473702200760613e-01,8.3356136499704625020257254e-01
0,3.5920553643667652021775893e-01,8.2532255594225945038999726e-01
0,4.1014118296917806416601593e-01,9.4733375170475164761541009e-01
0,4.1860746961142825117718758e-01,9.5679918039597200429824397e-01
0,1.7395070322368560988834929e-01,6.4043342067323816291235516e-01
0,5.3385366263962263921882823e-01,8.3040395380852638496094187e-01
0,4.2248060171175544352806241e-01,8.9671421895778447019864643e-01
0,3.9609355210505808875254274e-01,9.1796231361757951727753380e-01
0,4.2978850821914954538627285e-01,7.5743797740161267206815410e-01
0,3.9689690320757148311869855e-01,9.5108054557005883289377834e-01
0,3.5363088909257256453599894e-01,9.0679625256777973696387107e-01
0,3.6226403546669683208847346e-01,9.8919403845911435535498413e-01
0,4.1067265511047434944913448e-01,9.6607024149783704558558384e-01
0,3.4458724669634616111224545e-01,9.5480034955682102637553044e-01
0,5.4316038996899451696265260e-01,8.5071437448977904605129652e-01
0,3.7540250408885661448366022e-01,8.5395370081602639533713273e-01
0,5.2803772383610292351363569e-01,8.1284766179654865947412645e-01
0,2.6050390335492890070412386e-01,8.9709956363475074070379378e-01
0,3.9143547948359058707978875e-01,9.6283011809657148560859241e-01
0,3.8636852824822276453176073e-01,9.9446299855327480177180632e-01
0,6.2821949896621509523697569e-01,9.0847743950635206910959596e-01
0,4.1127760535160312604929800e-01,9.4116175626029185963261625e-01
0,4.3231639504039048871320006e-01,9.0435597261161349003089072e-01
0,4.4280993143491281793799885e-01,8.4849508561360631464509652e-01
0,4.3259335095537487791972353e-01,9.4883951917517705965110508e-01
0,5.7280547916155022392104001e-01,6.9062538246040450218288242e-01
0,7.4966831931803090682819857e-02,9.8743243144381476206206116e-01
0,4.2603092651885005048839616e-01,9.7507014734244012998942708e-01
0,4.4459192866984487135795234e-01,9.5052953172600296305461143e-01
0,4.0995517209778603584524603e-01,7.2763442215590989903262198e-01
0,3.6406234920859747994370537e-01,9.3820691744668271994100905e-01
0,2.5671796741170715971946947e-01,9.8939008482557155854664188e-01
0,4.4427328042260344487246471e-01,9.9789521085619381501885528e-01
0,4.0377601821948094773517823e-01,8.6497858998386556450554963e-01
0,5.4600765720857769025542439e-01,8.6608621255221940327118091e-01
0,4.6945566100147861909874791e-01,9.7730458250792973107223816e-01
0,4.6658442512848974370598398e-01,9.8080960891587387617818194e-01
0,4.5191215965728737113948910e-01,9.8990044200451920985983634e-01
0,4.1154821663349933080766618e-01,9.8670920736248679538960005e-01
0,4.2783183263381791006096933e-01,9.8074462220838620751806047e-01
0,4.8360599140371224313739162e-01,9.5941591664447944953764136e-01
0,3.6852826480633704697709163e-01,8.1787872518666115961849528e-01
0,2.4423198453725900036737073e-01,9.7635781242736474627719190e-01
0,5.4567563411113606530733477e-01,8.8968223906665633293755491e-01
0,4.4105377726018246686834345e-01,8.9667788830732875204887478e-01
0,5.8003276785356716604979965e-01,9.0417063692973886901427250e-01
0,4.1033311509220932178365615e-01,9.9386368074085473800494128e-01
0,3.9646044062338225977271122e-01,7.6856664325740697840672055e-01
0,4.6872975107619324619534495e-01,9.2960954637363524266646664e-01
0,4.3723416152708488580103108e-01,8.8933143689041138646445006e-01
0,4.7721548301656713242380192e-01,9.5141238017753881894833512e-01
0,3.7602780479289182880009434e-01,9.2294723918066501333612450e-01
0,3.3125397587646082664392111e-01,9.9024143084937132908152080e-01
0,8.6004582514564875683760192e-01,6.1560031335880105451963118e-01
0,5.9950128177941131024653032e-01,8.6741061298475230501026090e-01
0,9.7433680004741773927889881e-01,9.2027052606058712402870015e-01
0,4.7224174359797732591914610e-01,9.5587850930792450654394088e-01
0,4.2904027204589961774772178e-01,6.5895495431359818461203304e-01
0,3.9966361745031397934013739e-01,9.4771409057136157816358946e-01
0,6.2468915211309694601737874e-01,8.4419647643421225069459979e-01
0,2.1997571993554587699293279e-01,7.7260880800560960413037037e-01
0,1.8818019516014145020577075e-01,8.8289357436965587577759607e-01
0,6.3478129443556996491793143e-01,5.5721488685372311255861177e-01
0,7.7026442453246946051592658e-01,9.0846097624183974605927006e-01
0,7.6459717407688221335604339e-01,8.9475849356252568078673448e-01
0,3.6226408115591840486402475e-01,4.6420492331406892905221184e-01
0,3.1066580621732542422108736e-01,9.7259131803752940648166714e-01
0,4.6988580101323834670168367e-01,8.6560026871414985638608641e-01
0,8.1325953441612225391921243e-02,7.8657237591631745665665676e-01
0,5.9259551950583655433035801e-01,9.1397102282890541058435474e-01
0,7.6957411193694591489133927e-02,5.5219081662124325227125610e-01
0,3.2204652578850168076485261e-01,8.4425883682673519281536301e-01
0,1.3674054934867119204255914e-01,5.1234540235720504863792257e-01
0,3.1287782159674448756447873e-01,7.6549568663088918274439720e-01
0,2.4292140085046515229905140e-01,7.5693887470185838850511573e-01
0,7.7739002970819948146186107e-01,9.4933149724496224131087274e-01
0,3.0203438127549553371409274e-02,6.8405246528293406349519046e-01
0,7.9651136589361715145685139e-01,9.8231828030839607457380680e-01
0,4.7384895367961066270368065e-01,7.2581354477886039777700944e-01
0,5.9596648519465700299946320e-01,9.6038338546020041164297254e-01
0,6.8391690606898558613124806e-01,3.1174678531046573493057394e-01
0,4.9237766587124132122710307e-01,7.5087972658536061842937670e-01
0,9.9127426886260283644958236e-01,9.1370184923853681180361264e-01
0,4.7644643110822487708233552e-01,7.1491929834546152910945693e-01
0,6.7784503261145623298489227e-01,6.8312183943237791972080686e-01
0,8.9745264870865559814205881e-01,8.2720551812981601980112600e-01
0,6.8170213772076215796857923e-01,5.8499473910713528645999304e-01
0,4.8561873947642852922257362e-01,8.2123352336905286463775155e-01
0,9.0575912750517062477229047e-01,7.5638101792764944608649103e-01
0,5.4966449579439824457693931e-01,6.6615773384239174159660024e-01
0,3.3862660146016843043526023e-01,1.8566461442158638250887748e-01
0,9.7875032175678389201323171e-02,9.5351640433303364030592775e-01
0,1.2102910402971711611996852e-01,2.9654272762629974025117008e-01
0,2.9070370781850329855444670e-01,5.3412071406695993402991007e-01
0,2.0811454951476768271412254e-01,7.8822611540528675355687938e-01
0,7.2395212964735589089571022e-01,4.3750346220454855439285780e-01
0,3.9438192982700137623197634e-01,9.1469769603418782377701746e-01
0,2.0875427213976255336191912e-01,6.0829561156500777663325152e-01
0,6.5830380972274171735847403e-01,8.6504886556594906554806812e-01
0,9.4054088448756245632864648e-01,8.5211952366867560471064280e-01
0,7.0417078766969887215765311e-01,6.4786180799928161366807444e-01
0,4.8650314244848014144650961e-01,7.3323792011112010058582200e-01
0,8.2069411229914779326577445e-01,9.2174817799561870046431977e-01
0,3.0336128456366096006746602e-01,8.4018839807956313681103211e-01
0,4.9808741141769491411750437e-01,7.6326423864530201779388108e-01
0,7.2929381210186772221959473e-02,4.5779457053162969648596459e-01
0,1.3737456253735197408971658e-01,8.8093641794541899248116579e-01
0,7.1452556653847143497415573e-01,7.0389314683685844098448570e-01
0,6.3368454049455658072531605e-01,4.6033622865267637136454937e-01
0,9.2155821147660366143838928e-01,9.1509692046716506474979269e-01
0,6.7042056386741899487446972e-01,8.6157366019822134717287554e-01
0,6.6879820208308571327648906e-02,5.3832691187496162221748364e-01
0,3.7184632271738127240467975e-01,9.7588587965146078584410816e-01
0,4.7570335624107451533149060e-02,6.0425800462104906074500832e-01
0,6.2563380401396828656146454e-01,9.0241329386469593121233856e-01
0,2.8663678139814541268037829e-01,9.6833050583957835932835678e-01
0,9.9815725243072273009659057e-01,7.7787345614686631556367047e-01
0,3.5078811363671991152557439e-01,7.2447905522183275728309582e-01
0,2.4518851814835546099047292e-01,5.0637925056770305420883460e-01
0,4.6578604425712882841636997e-01,7.3308377969456661737979175e-01
0,3.6874989235217559002677490e-01,9.6287428508283445793836108e-01
0,7.0532065668367893707113581e-01,8.9668047220843349887076101e-01
0,2.0063189394272099019822519e-01,5.3690561380326840001941946e-01
0,2.9257731398701747327351086e-01,9.2350692674354772915279455e-01
0,2.6265553596290375226729452e-01,7.6464241840136759620349949e-01
0,5.3051211596069047793378104e-01,8.7144280524989070624286569e-01
0,9.6237691611084896781136422e-01,6.1392436809827455324040102e-01
0,5.5650339038089757792704404e-01,9.5843882708114935820020719e-01
0,5.2297755483303909329606540e-01,8.4385192762120486698051991e-01
0,9.8596339641504715523012692e-01,9.0938807590744707987084894e-01
0,5.5408711922338693689482625e-01,9.8452162003169796378188039e-01
0,3.5544333858340715348589356e-01,6.3354595548970071838823515e-01
0,4.1947244736089539518530955e-01,6.7201460280896052612575886e-01
0,4.0358499716776774501880709e-01,7.4877647034659022828861907e-01
0,6.5648645201068833721080864e-01,8.4403049852396383467834085e-01
0,4.1151070976065734496884829e-01,6.8043995425695902312668295e-01
0,3.3211649835457790480575113e-01,5.5566810406759259421960451e-01
0,3.4179012604424985344309107e-01,8.6279969880940599047391970e-01
0,2.6439975164702522736348556e-01,9.4369807789330706349062439e-01
0,3.5972680162252557156676858e-01,6.2834553461164222021295700e-01
0,2.2373242389401276630778170e-01,8.5455284272597098471635491e-01
0,6.2926619310168174781239259e-01,6.1161301123187516992629753e-01
0,4.6000989067681069544235584e-01,8.9545360672108920141454291e-01
0,4.4297689415446656058250596e-01,8.6015627063912658556432689e-01
0,6.4483586732871434055169857e-01,9.1401210990332992789575428e-01
0,5.5477070014584850543570838e-01,9.4907209894901489732887967e-01
0,2.9979590881366591226253604e-01,8.2977291684785048353489856e-01
0,5.2783078479914102842940338e-01,4.7258849615304399094384280e-01
0,2.5430166997901282321947747e-01,9.2672978420413021360957373e-01
0,9.9572048415339442506422074e-01,3.6170082336581349524706752e-01
0,9.4822153520531715642505333e-01,6.0342604836067981199931864e-01
0,3.7065633163767186530890285e-01,9.8777039628979101948402786e-01
0,1.0428385470291262615560868e-01,9.7089569063509562063529756e-01
0,7.2814247819793370686269895e-02,7.5726421941550225991335310e-01
0,4.6692835369253066213346415e-01,7.8703433002056177869576459e-01
0,3.5502774834336947584745303e-01,4.6417614635175696857771754e-01
0,8.2088814510405172519824646e-01,6.3595282349739190586035420e-01
0,5.0388036141547798418827142e-01,9.8501507449070224708975729e-01
0,6.5381470669030661291287743e-01,9.2321050880139254868339549e-01
0,7.1063099334366752746205975e-01,6.0686459734454900605271632e-01
0,7.3620711228003932191654712e-01,9.6871489052344195158639195e-01
0,7.7988602855441002681402551e-01,9.7981995362238472058180605e-01
0,5.2821156913596245541242524e-01,8.6467106685124783815865612e-01
0,6.2931764497674003155935907e-01,3.7837461974794844854486087e-01
0,4.9218381253876974934513555e-01,6.9956441606961183854451747e-01
0,6.2456260859057055601084585e-01,8.6277260030618674324642825e-01
0,5.0793546473182327183337748e-01,8.6465187137364496461344743e-01
0,1.7257491595479973467419654e-01,4.6932443193236500489362584e-01
0,3.6815935878394828728588095e-01,7.8462261195684779302439438e-01
0,1.0517219755154932903096210e-01,7.5381584925337841163184294e-01
0,8.1604657101993849366294853e-01,7.9373303227293401373998449e-01
0,4.9733688284826260694870825e-01,7.6016942314960100901544138e-01
0,5.0930410217036381492761166e-01,6.3507528582720418341978075e-01
0,6.2615405146709690598072484e-01,4.3465893965888163785749043e-01
0,3.3116175763568744816467415e-01,8.2529490252401127570180961e-01
0,6.9501707091401143667752649e-01,7.4331733178900993852522561e-01
0,7.3696571089253248842965149e-01,8.2881292664630612510023866e-01
0,1.1881333689428294486667426e-01,9.8371247017996121808636190e-01
0,2.0034745930184638673665631e-01,8.6933782379691659780718282e-01
0,7.2748202353536850495174804e-01,8.1589707715819992372985325e-01
0,9.7522168361286953874866867e-01,8.1867422797064914874454189e-01
0,6.9919103603920473855026785e-01,6.8629751671105876376088872e-01
0,3.4593297968913139239788279e-01,5.0884202998394412187366243e-01
0,2.6998629252548428381075496e-01,8.5222754167519965129429238e-01
0,3.4703596372106282341718497e-01,4.9004458539940937145118482e-01
0,7.3287037040849167812694986e-01,8.8081943118822680904855815e-01
0,9.0364811646083120777461772e-01,8.7626877545347547915355335e-01
0,6.7435079250564644581800167e-01,7.9053078129573350896208694e-01
0,5.3034260980572178745262590e-01,8.8631811902030666061591546e-01
0,2.7208820369270469985423233e-01,3.9092813499096967788659640e-01
0,7.5941982195937218769188348e-01,6.8473443335754624605726804e-01
0,6.3869216417426022402992203e-01,9.5569410018930989192398329e-01
0,4.4668330925372240480797359e-01,7.8918839177882471602742953e-01
0,7.5661886840056946645916014e-01,6.3271981699248591723971913e-01
0,6.8669748380988548941417093e-01,7.9020505310841127055709876e-01
0,3.4246926272820488179604581e-01,7.9948358545477682390867358e-01
0,1.4344769438011800710697230e-01,7.7569310170745420229820866e-01
0,4.9664886878460229313603236e-01,8.3485430172287899974747916e-01
0,2.2949671775130095485728532e-01,4.5787326332975902820621172e-01
0,4.3375644542645380719037007e-01,9.1239719572228428212667950e-01
0,9.4678810084898390453389538e-01,5.1488879690242228548413550e-01
0,5.4816679278266777775030505e-01,8.5362457825976600922501802e-01
0,9.0869788872108736565991194e-01,8.8273358734872897635170830e-01
0,8.8665977651752481136782080e-01,9.8540269157886317685779431e-01
0,2.5193595728199291716720154e-02,3.3109319688007027293608076e-01
0,4.7805775801444583272825639e-01,8.9491624263248437110007671e-01
0,6.1329472286859199048336677e-01,9.6997611860306620634730734e-01
0,8.3242469208508684808123235e-01,7.7127567532923202442418642e-01
0,5.6997289284428620526057330e-01,6.3472007114635731195306789e-01
0,7.2838198521752717251587228e-01,9.6986275808859923053262264e-01
0,3.8375638427168046185045114e-01,8.8075780818539395333743869e-01
0,7.6494361286589651616196761e-01,8.9202185298423342096896249e-01
0,5.7206157689259828913463934e-01,4.7051156641522912105202181e-01
0,4.9042834129727763681216857e-02,9.9028114955315216239029041e-01
0,1.3391478220644020824536824e-01,3.5745138916028523778933845e-01
0,2.3426437855752102468187559e-01,5.4647374442333485067280208e-01
0,2.0048435099103387169172663e-01,7.5148943259441713937718532e-01
0,5.5457126028587322430496442e-01,8.5001777526743305113399174e-01
0,2.9128368569963469791872512e-01,8.6488211373495083034157460e-01
0,7.1589562998831279827527396e-01,8.2387493370021580574302789e-01
0,7.2562186786988214226568061e-01,7.2643620143123377452809564e-01
0,1.1541900670944649220928113e-01,8.5566961317916723217535946e-01
0,7.4264721028540414682339588e-01,8.0871496513990770438340405e-01
0,2.7614075757831835211675298e-01,1.5857975008987407194993580e-01
0,5.4759983473633222494925121e-01,9.0815809574000960768813684e-01
0,7.9638750934721036500718583e-01,4.5017392767148467491722386e-01
0,7.5144765376910960252843097e-01,8.2627424666806625896953165e-01
0,8.9772475083793712435920042e-02,8.8001900257220300183291783e-01
0,5.7979517961803517245300554e-01,7.4624469731587672605144235e-01
0,4.2446149820092488047507118e-01,9.7131759846023613125254315e-01
0,8.7006043971446311857675937e-01,4.1554077417569801333740998e-01
0,4.1559028078913884396428102e-01,7.9987034468745421555979647e-01
0,4.4193491067253976023465611e-01,4.2478406407579655246209427e-01
0,4.8566701028229181114070911e-01,8.4517985585201016451861733e-01
0,3.3699714679083569990325486e-01,3.3929802112162682492524368e-01
0,9.8703190007734553645946107e-01,7.7785545008841749936578935e-01
0,3.1174808266802100931158748e-01,5.8089360542993895286656425e-01
0,4.8335011775844094472631696e-03,7.1939102279188604782689254e-01
0,2.2426473156995696545124019e-01,6.1454724811953198582159530e-01
0,1.7460391718330856014596009e-01,6.0091044493424394801195376e-01
0,6.6136944612220593953111347e-01,9.7502078122262536563624735e-01
0,5.1038288714958168768021096e-01,8.9439472722534119064619063e-01
0,1.2923050814709868827634409e-01,8.0039465802820342066326020e-01
0,5.5926919351915549416531803e-01,7.8766887316123002094059302e-01
0,3.5060031713695155586307806e-01,4.7804954719809156227228186e-01
0,5.8395622490778931190646972e-01,9.3665168350100813654535159e-01
0,6.0864518813108670070022299e-02,9.6680794272548842283043768e-01
0,9.5037004189808427234709143e-01,4.9284460587402656450706218e-01
0,5.0825014671323209825004596e-01,8.4913773633609956892343007e-01
0,9.5433161252241993643963269e-02,5.5353568984749157433356004e-01
0,4.4771164585622530429631638e-01,5.9437320363769041708934537e-01
0,4.5880776698001013436112316e-01,8.1042579902489431109557927e-01
0,3.4126156828373088725214757e-01,7.0845801135592689767861430e-01
0,8.5367142507619120372908128e-03,9.9987547341513416387925872e-01
0,8.3870357847445964338817248e-01,7.8321038442196688755814193e-01
0,5.5772665874768700966512824e-01,5.2063292495740509657764505e-01
0,6.0940824516567215773932276e-01,9.7814711069311899294120849e-01
0,6.0687103584698620650783596e-01,8.5326998173217316612237937e-01
0,2.9099609873258736048029505e-01,2.5314790114883550797841849e-01
0,1.9327649483354300552484517e-01,9.6088375688077598546499303e-01
0,4.5782153196292846297765777e-01,9.3356234284498618158920635e-01
0,5.8091941207364239385668725e-01,8.8302555477962962893201393e-01
0,4.1571716062852098749758056e-01,7.2640463881788974731534836e-01
0,8.1053164925512422023246017e-01,4.8240437342534359110857167e-01
0,8.0366923757604935563136905e-01,9.5468449314743819567041783e-01
0,2.6457833971858180088787549e-01,7.6151717635552929053233129e-01
0,5.8500137429350818063511497e-01,5.7212242001467128460490130e-01
0,3.6560820296210522206692417e-01,7.9387565178312535785210002e-01
0,5.6810539217038424908423622e-01,7.3038212247140055222160981e-01
0,8.2881423725688052606130896e-01,8.6309836214508206531093037e-01
0,3.1436836095594578033285416e-01,4.9238319096568489152687675e-01
0,2.6284856365775466358059020e-01,6.8233965343733871122822165e-01
0,1.1276612492497301021288081e-01,5.4782729019271780845912190e-01
0,8.5537511491850559686156430e-01,9.0083052301323285337986135e-01
0,8.7337452663465542368470551e-01,9.6996225484667519811665670e-01
0,7.3116440456030984407220785e-01,9.6856499719220257027529897e-01
0,1.0236420107332899753771471e-01,8.7435446624179025132406196e-01
0,9.3651386640520928317243943e-01,6.8021243531954056482646820e-01
0,1.4899599307144573145933464e-01,6.3181294259958231673834916e-01
0,1.9771420892022284476752247e-01,4.7203416067485592932939653e-01
0,6.7099843610834020157795976e-01,6.2237776920783871581477342e-01
0,7.0252525966661916179134550e-01,7.1468260460144017454098275e-01
0,5.0769271851090969072117787e-01,9.0913774976050554244011437e-01
0,1.5218984047554201533003493e-01,7.5465748255354936357974793e-01
0,5.9222188945026021933415450e-01,3.0753521728041544047727029e-01
0,1.5918392960982441497463924e-01,8.7849141957384879741965733e-01
0,9.5900448959800432824351901e-01,4.7743701686226747149532912e-01
0,9.5383718758676705462562495e-01,5.6187465727751373378850985e-01
0,8.0424381500660269139757474e-01,7.7256565644830943462295636e-01
0,2.3545331581818401689432108e-01,8.5779143293053372598677697e-01
0,9.2392931838864766902474912e-02,5.2031553006238162595309404e-01
0,5.2512493238895030511770301e-01,4.0959737667637330371661619e-01
0,6.4148976872850305142037541e-01,7.8148042317616750462860864e-01
0,9.3365968622404849064366772e-01,8.5420363534177301545469163e-01
0,2.5519402587826595096842652e-01,5.8265726091037794986959852e-01
0,2.3142581532372363817273708e-01,7.7532826547240585313147676e-01
0,2.3435426745847309781822787e-02,8.9952590152092193331867520e-01
0,5.7477733734793945430396889e-01,9.6141230163922719587077381e-01
0,5.5944119749344622949394079e-01,7.6587708580020386062159332e-01
0,7.3878190614896155352653295e-01,8.7965139708246675720459962e-01
0,8.5856064358657646629069404e-01,6.3121963230424271706908712e-01
0,8.2523204936895855343692574e-02,6.8938200212393685450962266e-01
0,2.6894776810456122451142846e-01,9.9762636639694701745639804e-01
0,4.6527634648915316972761502e-01,4.7667643446655727501592992e-01
0,4.4648406431370823987947460e-01,9.2019509425377066236251267e-01
0,4.5069004873338952554817638e-01,7.6069267231104586990397820e-01
0,6.7379833625080887138381058e-01,7.6070526275318395281743733e-01
0,3.3802279753211389445866075e-01,9.1663842236797377083235006e-01
0,1.8461035369790546045720703e-02,6.5213277648925227492071599e-01
0,4.7863621612258289150787505e-01,6.5160349045995846761769599e-01
0,4.9356434165117224477370428e-01,5.2141845141870102331438375e-01
0,3.3864610285273855083687522e-01,8.0702702380573099194549513e-01
0,4.2431800284440712722755507e-01,8.1715829610412982209055599e-01
0,6.4352709055876766708337300e-01,9.7030564844442246386080342e-01
0,6.2136861349303262880283683e-01,4.8063256731912779029514127e-01
0,2.6734936565018152521133743e-01,7.7718102673009259451220032e-01
0,2.2842524720839968432883893e-01,7.4315950726798185588251044e-01
0,8.7755953086247984185064297e-01,7.3362457377110168454947825e-01
0,4.7754422053739742359823595e-01,3.1204243177169344036769871e-01
0,4.4919983718129441463418061e-02,5.9644185910384162063735403e-01
0,8.7163111620064626094972482e-01,6.2960843526184195884098926e-01
0,4.6481213874463023216776492e-03,6.8233296020961797800907789e-01
0,4.9980134242603091454526520e-01,7.8414679669497078240425481e-01
0,8.1490453177254307259858024e-01,8.1991158236716488172390882e-01
0,3.8786956817851325762802617e-01,8.9719421695955725581939078e-01
0,6.4751192355794362498500050e-01,7.6264809755990159434446696e-01
0,9.3197176019323957341100595e-01,9.3408214733672290108756897e-01
0,4.3619621867123897773765862e-01,5.9700350990255390826177972e-01
0,6.8098012375413818908498342e-01,4.2795309108764956196324647e-01
0,7.4699099140075997382837159e-01,9.1161753904334230647066306e-01
0,2.0828676138721569088829710e-01,7.4874689678595895969692720e-01
0,2.0173094016935411154634039e-01,7.6119922139195350663243289e-01
0,7.7656084066637154350587480e-01,8.7470592201203223314820434e-01
0,7.7469878843522721467707015e-01,8.9321133516325734724716767e-01
0,1.3214932103649182359994541e-01,9.3070157293987587632244640e-01
0,8.4819693016370234506240422e-01,9.1205165440018765021790159e-01
0,2.1764150011067626144800613e-01,6.6183007981026698018922616e-01
0,7.9004818142895039123629886e-01,5.8239070102995393884981468e-01
0,9.0730846159077072066168057e-01,9.9472237756044512568820437e-01
0,2.6219892132219557723260550e-01,7.3844440208063633068746867e-01
0,1.7806064734784443626125494e-01,6.6986164959638794247354099e-01
0,1.2840413901996344803180250e-01,8.7522643064242999777491150e-01
0,5.8681927532465949504114633e-01,6.9311640435360188927660374e-01
0,9.5754129785297881216621363e-01,8.4585127955849648273556340e-01
0,1.6390102072386006359927535e-01,9.9870622912878181942630818e-01
0,8.9770630068132051260221260e-01,8.3266024041259534271830489e-01
0,4.1050865714883510992905258e-01,7.5876908951222798993541119e-01
0,7.7821359640499843113303768e-01,6.3210008440047649180826284e-01
0,1.7231586860341052691580899e-01,6.9405449528661133928864047e-01
0,5.9659013200096433493513359e-01,9.8129192490551364613793339e-01
0,8.9973098249276284299469353e-01,6.1620231700322136703107390e-01
0,9.4091344161601087048296677e-01,6.9842813612730081374024849e-01
0,7.0636450669234118748818219e-01,5.7042828420801305888687693e-01
0,3.4604242026119069741696421e-01,7.8468221910709190503041555e-01
0,9.3073389806624295950143733e-01,4.7154624843075609863518594e-01
0,8.4393505789555434137838574e-01,6.2529060048788998038560294e-01
0,6.8445758005097456777576781e-01,4.0191819065816014600045492e-01
0,8.7877937849264053937758945e-01,5.1848514351244445741428990e-01
0,6.8759562958892428419233056e-01,7.7319522844325938581988567e-01
0,6.8876257476350355446470530e-01,6.6250579286150790281340051e-01
0,2.2717234650581574761929460e-01,8.7169048338404442333171573e-01
0,8.5280459649552342593636922e-01,2.8275612116724302413928172e-01
0,3.1061321663832641704061643e-01,9.5568615866766837285695146e-01
0,7.2943301963999385151282695e-01,8.7764632411837628644946108e-01
0,2.8363530572780581984204673e-01,8.0202272314187550428243867e-01
0,3.7035851338181724479170498e-01,5.4355197147524525469464152e-01
0,4.6443942149616074255291664e-01,9.3913413017859359577244049e-01
0,8.2270630251619747408398098e-01,8.8574840423619649598663273e-01
0,4.3822518713941527312982771e-01,9.1588804775773213773248926e-01
0,2.0918899830521664462423814e-01,6.3208511210694040549640249e-01
0,3.5268610849700676723728066e-01,8.0188799949443845260788066e-01
0,5.5496304827568121442737947e-01,5.3275426027485695001928434e-01
0,3.5848166320028035380929055e-01,9.0516038323049796687769231e-01
0,7.4882438101474768643583957e-02,7.3123085091677808566856811e-01
0,6.8919517167189447981456851e-01,4.7999875481040804592325344e-01
0,9.1343409661984908964882379e-01,6.4302769419316052612600743e-01
0,4.6843769754021630236096030e-01,6.3238381030235568669439772e-01
0,6.8828497615289030431284800e-01,8.7737015087296932325244825e-01
0,3.7276067042219351854726028e-01,6.7716868680469355368245488e-01
0,4.9370461956852818019569895e-01,3.8597165337106276172818298e-01
0,5.6407549392585920600140525e-01,6.4085203359629649977335930e-01
0,4.9287605055277289300974530e-01,9.0242373874819570289673720e-01
0,4.4208866176235772638136723e-01,5.0441198411418142200091097e-01
0,7.4853054707270394452223172e-01,9.5996155938549621033928361e-01
0,9.8087113591126706690914716e-01,4.7268402408610465936789069e-01
0,4.1286616886263249881494630e-01,9.5071966776796235087942932e-01
0,1.0201580699410550678862819e-01,2.8415967107894291032721412e-02
0,6.9003504387655678620205890e-01,5.4320061814105302655519836e-01
0,8.8969301389869959173495317e-01,5.2093979983779625797524204e-01
0,7.2056062839055778912467076e-01,5.5194592548576615342881269e-01
0,9.7662294235980928736040596e-01,9.4688533124364915316562019e-01
0,8.0532454644469031457276742e-01,6.6935739899496027316416757e-01
0,3.6016295509315532363814327e-01,8.4196946677429218564014946e-01
0,5.8897040057261262901988630e-02,6.3102626568297204290303171e-01
0,4.5322508934564070814943193e-01,7.7881297029328178105345160e-01
0,6.4289611462003437569734388e-01,7.5510308697719885628885095e-01
0,5.7678640416474713514816131e-01,8.2954693801230461325246779e-01
0,6.8975728938982339144558864e-01,9.4328838212024956888512861e-01
0,6.7296330642430712831725259e-01,8.1133497930228881678260677e-01
0,4.0594397137646182072145962e-01,8.9477129117314124773230333e-01
0,3.4856915832117008058332885e-01,7.6775239016030250027711190e-01
0,2.1122076163017361460916277e-01,9.1087714319766244219778173e-01
0,4.3934166316900014059854129e-01,6.0742937988809808658174916e-01
0,9.1988372912460181218818889e-01,9.8561851549268308936291305e-01
0,3.9110965211352272108413786e-01,6.7432950228621291177688590e-01
0,3.1446821002022101732009673e-01,6.6931967270965286864736754e-01
0,4.2955411681545424551487145e-01,7.0220769552488382370114550e-01
0,9.2720176222286831979602084e-01,5.9109101375154182722582163e-01
0,2.8811656375410032993045206e-01,9.7911579103020951464486643e-01
0,7.1647845591632952633176501e-02,6.7130557184854677821306268e-01
0,7.6153802992130426030570334e-01,5.7369948096462808351247986e-01
0,5.1930192798867169656773513e-01,8.8378147297620601730017142e-01
0,5.3182686593784556094988147e-01,7.3667845978959201058700046e-01
0,8.8831473689459794496059430e-01,4.5918437848078941243556983e-01
0,8.6972552557459503752568253e-01,7.6984901691709883841951978e-01
0,2.5958002834595972352360604e-01,6.8193693946570621555736125e-01
0,9.9256631227565317310279625e-01,5.3046898155152921727761850e-01
0,1.0179005340964117354296548e-01,5.7301534733022108092370672e-01
0,6.0284755795043498682872496e-02,9.3394415948950648687088005e-01
0,2.3268528755792949880287779e-01,8.6616755270945777755997597e-01
0,8.4347937023452435045811626e-01,9.0503098183366148532513762e-01
0,3.5950758234754975894986728e-01,6.8717399858771099907528424e-01
0,8.1250591597620314132655039e-01,7.6419987892096641335371032e-01
0,6.4843935335125824082069812e-01,7.8702599013657414950273505e-01
0,3.0780093135444985819049180e-01,9.6689621356819221986711455e-01
0,3.5427128224917137089278185e-01,8.9750941788206062277311048e-01
0,1.8454688789733753040422926e-01,6.5020494247976601265293084e-01
0,5.6191403941430528856670890e-01,9.8401239810792262563410304e-01
0,3.0995977632748916708038678e-02,8.9560886281744500614365734e-01
0,4.1420849730586772885487790e-01,2.6412492092880646143981949e-01
0,6.5540266574107675090488101e-01,8.2796518050736445104575978e-01
0,6.8364557820247962016679821e-01,8.0401848193619729343595282e-01
0,8.9523995434513203850457330e-01,8.3961456909707488094340988e-01
0,1.7437861838986168372400698e-01,9.6836721129315161959993929e-01
0,9.5239342623245704100298781e-01,7.6524104667486370079387825e-01
0,8.1157904158424964968787663e-01,8.8316577144960628498182587e-01
0,9.5211427464407538678869969e-01,8.8977972354539769384018655e-01
0,8.6302391943719347633390271e-01,6.0797822716070271109600753e-01
0,8.3611366640974549291343010e-01,5.7786878270044617078582405e-01
0,2.5832633374926217140199469e-01,9.5636921720935452739809080e-01
0,6.1222032218935407144044802e-01,8.6095736221776208996203650e-01
0,3.5148342360215356627861638e-01,6.6892593503189867742975139e-01
0,2.2390131439450566830373646e-01,9.3654847155593912155779890e-01
0,6.1691054743369955204457256e-01,8.9160275023205881606003231e-01
0,8.1598489320925637890979942e-01,7.3712929654377157273614785e-01
0,5.1282670234906357897841644e-01,8.5658395907753770437409457e-01
0,8.0683584933720520204758486e-01,9.8563830038371957886766950e-01
0,6.8261946122842254158769038e-01,7.3067204088733861411242287e-01
0,1.6438516000286595986068505e-01,9.2846796023582967016807288e-01
0,7.2834832932806836680583729e-01,8.4642106730619581789198946e-01
0,1.1605118714088202835910124e-01,7.8031971406139444269456362e-01
0,4.1118564289450154625171763e-01,9.1434410865952864266859024e-01
0,9.6378857790681571326985022e-01,5.4785676614754608149127080e-01
0,1.9318832308734512626102742e-01,9.4432669052878681625884383e-01
0,9.1627650077540345741056171e-01,7.9162487124349456557581561e-01
0,5.0655781979513025969907858e-01,8.2317247875490351383120924e-01
0,5.3455448758325496694254753e-01,9.9483709119983443347479124e-01
0,1.6956292339404299696070666e-01,7.6213638450713494520982749e-01
0,5.2957542207663499400638329e-01,8.3939607657150461239581318e-01
0,1.2148996281770271798983174e-01,6.1730844271533291678366595e-01
0,2.5031855996248325579855987e-01,9.0234201534437308289682278e-01
0,8.8135330483957674552186745e-01,9.7254111465435877370566686e-01
0,1.6382337589494133656131680e-01,9.4227671344413133081019396e-01
0,5.9418398429389529535882275e-01,7.8679486847451740594294733e-01
0,5.5487003984639415854474009e-01,8.3775745066201601218836004e-01
0,4.7490997778472693324758325e-01,9.0005384931061971354182560e-01
0,9.4922316777751092331527616e-01,4.1779361314546070715891801e-02
0,1.1543934284324741668115166e-01,4.3542912717073783968046996e-01
0,2.5740544687449773419984922e-01,8.4664792567011948332122984e-01
0,4.0637207127766922232225966e-01,7.9011493195516668830435947e-01
0,8.4913425958818777861125682e-01,9.2075612525562944288282097e-01
0,6.9242649006226164587474159e-01,9.3664761043202660051321118e-01
0,2.1908654935460569745941939e-01,6.7146365994160694956605084e-01
0,5.6588387436510301231606945e-01,7.9389851245719389449817527e-01
0,7.4439145575897192053105300e-01,7.5106741494969009309556895e-01
0,4.5572147939594620513759082e-01,7.7096938507180934330165201e-01
0,8.2066573816910226568666076e-01,7.8983890668203116103285311e-01
0,5.9828868683396874139646116e-01,5.0361490471155601067465568e-01
0,5.0653533623470670121946569e-01,9.4046505174460148790416270e-01
0,5.9017623170662614207060415e-01,7.0779442000848269422874637e-01
0,5.8215606118711249461483703e-01,8.4932287180106913471178132e-01
0,3.8352280654218873223726405e-01,6.1276402469807544903801499e-01
0,7.1931993515435077579667222e-01,8.4994226152560858889017936e-01
0,8.2648481269132623161510764e-01,8.1814899389618056524398071e-01
0,4.0169853933113675026334022e-02,7.5409047937673023831450791e-01
0,7.6216750774582897598463660e-01,8.8443314990309818135472142e-01
0,5.8890154242951453511523141e-01,9.1953417602935705321698379e-01
0,2.2824876107777469780302226e-01,9.9980848368346730836719871e-01
0,8.6658857900715213773423784e-01,9.1408162943877369066569827e-01
0,3.5445123110085297035709573e-01,7.8435269303496579773593567e-01
0,6.7730261315840456504133726e-01,9.0654136521109729418554934e-01
0,9.1780349964111718197301570e-01,8.9947953808488867455395166e-01
0,8.0591769286173220443458831e-01,8.3960879562108003959508551e-01
0,1.0717249310909160442406574e-01,6.8612810832874782107637657e-01
0,5.1150904421990661674612966e-02,9.0652864528192877990875331e-01
0,3.3421587589687856700848556e-01,6.0043334084673549710942098e-01
0,1.0743356598079989439042947e-01,9.4226162122559653511189026e-01
0,7.4601497309347553077429893e-01,8.2503664377419705378002845e-01
0,6.1266123143132300565838477e-01,7.7875449858881073961214270e-01
0,9.3596632485780606458547481e-01,9.7054301036655832302102453e-01
0,5.6165965541492057777617219e-02,6.8723696609989526340456223e-01
0,5.1468635570231147102759905e-01,6.4206811967597243739902524e-01
0,6.5930362700317990398701795e-01,6.9995436597961990798921761e-01
0,4.3846233248420241057630165e-01,7.2526632128932477794336364e-01
0,4.3855147377684139398112961e-01,8.8466597976036620565309931e-01
0,4.2751856354289158312909080e-01,7.2703746472381458598732706e-01
0,7.0051721381390918974574333e-01,7.2782649157405931994446746e-01
0,2.6786582816207382684581262e-01,6.8668959383598049406316477e-01
0,7.1120903377656996546818391e-01,8.2890343409507571958982908e-01
0,5.5264242038595801087552672e-01,7.1912364865435696170692381e-01
0,5.8109858746074993796071340e-01,5.4156745418113816370464519e-01
0,4.4655484744654172502009715e-01,5.9826938966021581123300166e-01
0,5.7857989178892088588668230e-01,7.9838692161316404671822511e-01
0,5.6619256539248996595858898e-01,7.7176712978687211919037736e-01
0,6.4428569882354524978040899e-01,7.1644074597932139170097798e-01
0,9.6458192736652959009546748e-01,1.4489604332341032844055917e-02
0,9.4685861521994763023712949e-01,8.4805786052510045980312725e-01
0,7.4085726584346778267331501e-01,8.3667579522222690346922036e-01
0,6.4923829395007481846135988e-01,9.3280039764964339799035997e-01
0,5.8427908192496924577596928e-01,8.4821891650460290446034151e-01
0,1.9869499503946608243154515e-01,8.9494501532507320096243575e-01
0,7.8462114923217851636394471e-01,6.5077250623054361255981348e-01
0,3.1726675623430422579218657e-01,9.8055663408133031389013468e-01
0,7.6928413870566147991780781e-01,9.2261024085039866626800631e-01
0,2.6380083042040625151969380e-01,7.1338837962970780282034866e-01
0,9.6164640353731423161320890e-01,7.3056567683168815996452850e-01
0,3.0177207467029765197708002e-01,8.1445407384889878521505580e-01
0,7.4736783568663789356634197e-01,9.6207673942181193282863205e-01
0,4.0399428631312178650247802e-01,9.1014005262376995730733142e-01
0,9.8214997786861346629194713e-01,9.1788896817345622114459047e-01
0,7.6423671572543527830134735e-01,8.2840500395336225114562012e-01
0,7.0890310817980994873011014e-01,9.1729970541503202952071661e-01
0,9.1127634153817416162723930e-02,9.6200239567675405183422299e-01
0,8.7451037570630707485008770e-01,8.6505072932458126899746276e-01
0,1.1520441270468162464624129e-01,8.3345997723715092853069564e-01
0,8.0263163872614284866102707e-01,5.6945566333246266932377466e-01
0,4.7456019005431043789045020e-01,9.7040612326987396585309398e-01
0,6.5443796046805857713479782e-01,7.1117287402305873200702990e-01
0,6.8924938858608442160402774e-01,5.2198310033552608455664767e-01
0,8.5903293644973288678556855e-04,9.6400376846216029314007301e-01
0,7.3290836111532353669417716e-01,8.6823468424335792370527543e-01
0,7.7653743782210349344552469e-01,9.7082263161705051324190663e-01
0,9.2990194686034921556228028e-01,9.3489735081006819505944350e-01
0,3.3076508260618808776598598e-01,6.9335984276578144225311462e-01
0,5.7482815003947396181871454e-01,9.4657443749455072445897486e-01
0,2.0602695878385812733313287e-01,8.2209741548942316669013053e-01
0,3.0933950592403086643500387e-02,9.8426807694391804659517220e-01
0,8.8995172668496835832740999e-01,9.3115551020808950966056727e-01
0,8.4414654163649727180995797e-01,8.5746310981196338651955102e-01
0,5.8226269832981847329733682e-02,9.7000125341644594101353505e-01
0,7.9665416321910986763299434e-01,7.8909086766031155679712583e-01
0,5.9003283858467392430924292e-01,9.3606562992600905737106132e-01
0,9.0085622553045241467373216e-01,7.1955732963405949487167845e-01
0,9.4682859969855903692348420e-01,9.1081357810346597059236728e-01
0,2.5701833208597801849748521e-01,6.8538398961106639095675064e-01
0,7.8859339167688424776514466e-01,9.6088180233912834360410216e-01
0,7.0319724493037494283953492e-01,7.2930357021951475182675040e-01
0,3.6067230624891588597336067e-01,7.9610798335931720615121776e-01
0,4.1486697865404470464412157e-01,7.7622316925850887159299418e-01
0,1.9432956150075320067571738e-01,8.6375854723110379040917906e-01
0,5.5163123456063234417712238e-01,8.7132985958902586798302536e-01
0,8.4087763266566240005772670e-01,7.4634951357962475704255212e-01
0,3.1750967102490457172336846e-01,7.6879909398577717105638385e-01
0,6.4821162419722822001233453e-01,9.3977836894705002457328646e-01
0,3.5097834939382399621621289e-01,9.5075898089015253855649235e-01
0,6.9477355768061799246027022e-01,9.6950318239245536489079313e-01
0,9.2555429819269319224872561e-01,1.7355562556174985999746241e-02
0,1.1983731940545605532122408e-01,5.3906794542672753500767158e-01
0,2.7773995844490029227813466e-01,2.0966374388628805647272202e-02
0,2.1109452831407243822425812e-01,9.8248232642573063433388825e-01
0,8.0009920534112177747942951e-01,9.2035971037021957474877354e-01
0,8.0948268149184232633785996e-01,9.9344928617380945379267132e-01
0,1.1731550558514169946278116e-01,9.8216412883159087687801048e-01
0,3.6418214571713797278462721e-01,8.2751503231300249652235834e-01
0,2.8270649086466881350077074e-01,6.5625985136805486952482624e-01
0,5.5072910021092746912785287e-01,9.9953458939707673369667873e-01
0,4.3044229735640082701308984e-01,9.9479446540114002672794413e-01
0,3.8409902066709189494275734e-01,8.8399086496488665787296668e-01
0,7.9563759023517721669094271e-01,9.1273674901854429108993827e-01
0,3.9377752562105527989189113e-01,9.9064141690284368557684047e-01
0,4.6305664916288935550880979e-01,9.4902916439648199453671396e-01
0,6.6650185437188769199678973e-01,3.3566756279447051980469041e-02
0,7.0213061119270958609916988e-01,9.6471470069118414603082101e-01
0,8.7958239168236374005971356e-01,7.9263305740203526816856083e-01
0,8.2863160595031193356163612e-01,9.1268592757612321264559796e-01
0,4.5220312445831800651774302e-02,7.4565012518636875071820214e-01
0,6.4484224220363395296828912e-01,9.9650438385989015266375191e-01
0,7.7468755291326951706309956e-01,9.9607974578122959741222076e-01
0,3.3191987605541006800535797e-01,9.6653047100846767314408226e-01
0,5.9348547774390558728896394e-01,9.5796005214877499867043298e-01
0,5.1326924487230096705303595e-01,2.3688618255815674373820912e-01
0,7.0848223112129504741574237e-01,8.8080738684588744114023484e-01
0,5.2345252664127606134769621e-01,9.7677759489075310916916806e-01
0,8.9978212436698257192801975e-01,7.2766897445616085526864936e-01
0,1.8103913612322131143628212e-01,7.8114977298011711859260231e-01
0,5.5924239423719968034021122e-01,9.0972784377990223436682982e-01
0,3.2510540862233172632045353e-01,1.1756204905574296759596109e-01
0,9.0951716505559265790736845e-01,6.7466872471571903702169948e-02
0,4.4132533899643999752981927e-01,9.7478243018603472069827376e-01
0,5.1932752437110007992515648e-01,9.7432810879459053055029472e-01
0,4.6870238210114356647295608e-01,5.8520933063419189323894898e-01
0,3.8243618938378265426081271e-01,9.8721901438569259479294260e-01
0,7.2202030608894052221558013e-01,8.9184770371824340084998539e-01
0,2.8471691826183143092521277e-01,6.1847549057224093793649899e-01
0,3.9365064571281799254975908e-01,9.4142398884350042553847970e-01
0,8.5526510534892796755457312e-02,7.2410679875652239623207151e-01
0,9.2515985621023888452185702e-01,9.9121809532572302536834741e-01
0,7.5280213679261032133638309e-01,9.3524936844696915372310286e-01
0,6.7139023130463248989485692e-01,5.3022469259245141870451334e-03
0,7.2998073705923260945382935e-03,8.6607843494283187624205311e-01
0,8.5033710661317563062056024e-01,7.0299129374847169060558372e-02
0,7.1689116059844737449679997e-01,2.1047819410493096015102310e-01
0,2.2088560375454946438367188e-01,1.6869378940233881181143261e-01
0,5.9504245961380464180479066e-01,7.3143435835330139482834966e-01
0,3.3162354365624557850367182e-01,4.6445485169797340319064460e-01
0,9.5537629834840931408734832e-02,6.4124291764701979445817415e-01
0,1.3419308046242603427167239e-01,7.0680068400638429437776722e-01
0,7.7405382092882990541227173e-01,9.8424077960643474582980161e-01
0,4.8812495229630092907768812e-01,8.5311817131867795360733453e-01
0,7.3128281556879193292530772e-01,8.6813296567959341576425913e-01
0,2.0029909743036888869482937e-01,3.8145919307540410159163002e-02
0,3.9561756436148254323370566e-01,1.7635500579837515289227667e-01
0,9.7989655624574079073596522e-01,9.8798783221899821871403446e-01
0,8.5325083357183584276128840e-01,8.6374198712331207161696511e-02
0,8.6014039310570256091637020e-01,8.2772848130910625652489898e-01
0,6.7737842483524124403970745e-01,8.8934070239651363820598817e-01
0,7.0863804587300327497700891e-01,2.8570308132838606596237696e-01
0,3.7123998678383562932481254e-02,8.4059547031133541317160507e-01
0,6.8497058692171974847440197e-01,9.1570401646444987697748275e-01
0,3.6921832467725668180946741e-01,4.6393156813100744351174853e-01
0,9.0904540264779365443814640e-01,7.0757675483622417544893324e-01
0,1.2380874487944470985212320e-01,9.0917322926640897762240456e-02
0,9.2264654766618769965447200e-01,9.5288734583030676450476903e-01
0,2.0922377213973097909160970e-01,8.5753297007861140066609096e-01
0,7.7420951775026902730303391e-01,1.5842376095556121029517271e-01
0,2.6394035856083508662095483e-01,3.8616887530680843454433671e-01
0,5.4009879848737663010638244e-01,9.5032879370901246485203728e-01
0,3.8970352506691074978562028e-01,7.0138924833684113124832038e-01
0,2.7008560915896850929129869e-01,5.5857501315289415089182512e-01
0,8.7454404168283739195999260e-01,8.8714585398047063335980056e-01
