Species Id, x,y
0,3.0578737263874233853755413e-01,8.6965438946043960299903119e-01
0,3.8107443704668408912539235e-01,7.3854771812402497666028012e-01
0,4.6681911308944418204092131e-01,9.8686872798349911661830447e-01
0,2.6239161456357018575857865e-01,7.2662035571809735490234061e-01
0,6.4301439924151959637299569e-01,9.9277854718441105319470807e-01
0,5.2774616390691997391826362e-01,8.5729141868421432359781420e-01
0,3.9960722324036401786884198e-01,9.1795110393262568937444712e-01
0,5.2845084308276124573922061e-01,9.4956330666337818158240225e-01
0,4.7121515624811088907009093e-01,7.5715401568879314719850981e-01
0,4.5133879188546405236692749e-01,9.9459517879729608669236995e-01
0,3.6476631483613852768854713e-01,9.6790556640675007304963628e-01
0,1.3395964618624928155199427e-01,8.1055591238992852343159257e-01
0,5.0815682224111236031660610e-01,8.3100971482646757149126415e-01
0,5.9669256964685601918318980e-01,9.6105475747528745777970016e-01
0,3.5685466414596112016965890e-01,9.4188662546015611276573054e-01
0,4.3421034778602018988635791e-01,9.9906177155397102307432533e-01
0,3.8763105150876975280027636e-01,8.9018270331352011837111604e-01
0,4.7240789638972441322195550e-01,9.2710881338402872930970489e-01
0,4.5657983668711821234609261e-01,7.5445022626510493957141534e-01
0,6.8448973375694754928133534e-01,7.1467560679479047447415496e-01
0,4.0146456839947403105739454e-01,9.9462160972418478532830477e-01
0,3.7019609395363028969683228e-01,8.3176000668212901612008636e-01
0,3.2755456571924429498565701e-01,8.6370044409681479002927063e-01
0,5.3215291176776013948312993e-01,8.8031768750286543134819794e-01
0,5.6385972531344841218725605e-01,8.9029972457446993061580542e-01
0,5.1248387856356003577928959e-01,9.2030829515776946259109081e-01
0,5.1344951296887408886959747e-01,7.2905966545075795437469424e-01
0,4.6225225366324368403425638e-01,9.4293626829503474073845837e-01
0,6.0628108855806606136695791e-01,7.7180660186962124491572013e-01
0,4.6635489858574596944151835e-01,9.7847731042014318703081699e-01
0,4.0962036835440451820744556e-01,8.7871641423834545570059618e-01
0,4.8841898172370640240913531e-01,9.6116455424158808718004821e-01
0,4.3606791827420010587701427e-01,9.5420096882782312608384245e-01
0,4.7785274666525590081533892e-01,7.8257173096269672107894166e-01
0,4.9550072421145252565821693e-01,9.0510881331727721654800689e-01
0,3.8649000121649479400076643e-01,9.7967189221396511200623536e-01
0,3.9342471051472055476594392e-01,9.9492630622367739245959228e-01
0,4.1547884629754427976422448e-01,9.8962420860704214398140266e-01
0,3.4665622243975197092069607e-01,9.4755632597153671703438249e-01
0,8.8711565995589436450785570e-02,8.7778453432673209100300937e-01
0,4.7687748656552542136921602e-01,9.6853437324757729598445621e-01
0,4.5126432491483947639920871e-01,8.1658806110305648395808475e-01
0,4.3453307293028253788236270e-01,9.9476924269194788585934930e-01
0,4.3659612319376112088420427e-01,9.4221562459129060140838874e-01
0,3.4053272024810604667877101e-01,8.3122815947609862696765504e-01
0,5.2080590879064625475791672e-01,8.3200330247833043095795347e-01
0,6.2082747913567870590156872e-01,7.9330094578420118356376634e-01
0,4.9638853142674999041616957e-01,8.5397414268659566083385926e-01
0,4.6728019278358029486852843e-01,8.2604330425826244521658737e-01
0,4.3560822977666374677951922e-01,9.7010906498324700475421878e-01
0,3.3643593805464677704009091e-01,9.5349013606489940730881472e-01
0,3.6605952267484320739043824e-01,9.2146144855338474322081765e-01
0,4.7554645139977397283459482e-01,9.7097502618819953035256276e-01
0,4.1010027288551298418894930e-01,9.3983167573852988141425158e-01
0,3.6727329454048163182022790e-01,8.8387966954026842003599995e-01
0,3.1844968054052114059260248e-01,9.0642701818367132915454931e-01
0,3.4118750753105009376753287e-01,8.1133990834590896668032656e-01
0,4.4707851046756286184091778e-01,9.6184429203536769836802023e-01
0,4.6256849629005047930263572e-01,9.9994178392491062101754551e-01
0,4.0005160147823232152930473e-01,9.7860407805979510165172996e-01
0,4.6256773169526638200821367e-01,9.9843531696661269592141252e-01
0,6.5281353999159152934339545e-01,5.1824968082564626392638729e-01
0,5.4572338069227988022191767e-01,9.7450410482891003383087991e-01
0,1.1273642152284901740699752e-01,7.7593044326043192349118272e-01
0,8.1381881374049891419986125e-02,8.6057041049326898907168015e-01
0,4.4083515904200271107171716e-01,9.8129848947887243770793475e-01
0,7.1366879398330140826800516e-02,8.7741201011260017139647971e-01
0,3.5404217373500368459815490e-01,9.0818891825140068974064889e-01
0,5.1030553955435764557080347e-01,9.5321859042468926048741196e-01
0,4.6108002296126510133333909e-01,9.9791225008358019898935254e-01
0,5.6209573694858983028410648e-01,8.8501598577725648642200440e-01
0,4.2935324921382878038400577e-01,9.8947508427262242935995573e-01
0,5.3419565239579380744316950e-01,9.3706539486755724421840341e-01
0,1.1330885337641510846040660e-01,9.5736377880951317731472727e-01
0,3.0055633144552684754557959e-01,7.6382421783735698905815070e-01
0,5.0961850746391645916588686e-01,8.9153362588822449019687610e-01
0,3.3377221952258584458661517e-01,9.1335436857719176639847092e-01
0,2.0647590056659784196746443e-01,9.8136718707070991207785937e-01
0,4.4037140256144313710251481e-01,8.1136300393989402301997416e-01
0,5.6824871831595713533857861e-01,9.0293514066541880058736069e-01
0,3.4454775283095068205696521e-01,7.6620403032435757673113130e-01
0,3.8571646217364990993914375e-01,9.1985205592027863286119782e-01
0,3.6364360448383192814247877e-01,8.1037228219846146881621962e-01
0,4.6742425220084460324443398e-01,9.1534358261461890027277377e-01
0,6.2841002686132640953076134e-01,8.8531037947621693540156684e-01
0,4.8917082372612141760725990e-01,7.6956076291810959766337419e-01
0,3.6412142057828622565551768e-01,6.8429199711483335022421670e-01
0,4.5762184873678424246179475e-01,9.6381475936962257566875678e-01
0,4.3668899204337252584195994e-01,9.7284235308880084858174087e-01
0,4.0398424361039314556265367e-01,9.9510401534710091198121518e-01
0,4.4675620426296802634169580e-01,9.1687024992706356307792248e-01
0,3.8141183954199292527320608e-01,6.6425781107432269045887097e-01
0,4.5488492274898273404204474e-01,9.9888501860118128483634337e-01
0,3.2108980954269961127778288e-01,7.1066622089509157156328456e-01
0,4.6586848170621431020066439e-01,9.8625268726583481537772968e-01
0,4.9873620432734017127174297e-01,9.6575535179840765742653730e-01
0,4.3828063822391061243877175e-01,9.8985454817353468737195499e-01
0,4.1732044931443301738482887e-01,9.9092368007525666318002777e-01
0,4.3759683821172828954715328e-01,9.0053956712196026046512998e-01
0,4.3689543684457687877653598e-01,9.7945307220551880433845326e-01
0,4.1092489045531560565294171e-01,6.5545476220432141722938013e-01
0,4.2191063692860508727022761e-01,9.6177087119323612096621900e-01
0,7.3909121323782378532030179e-01,7.5949263515488896203464719e-01
0,5.8656115922084217650933624e-01,9.3022847278161369111160184e-01
0,3.7354900273516022934927605e-01,5.8810775363048151120892726e-01
0,3.6571044926691975707200299e-01,9.5569225198330520765210849e-01
0,3.9354706020625246365440830e-01,9.2698227135470878668144223e-01
0,4.1169578868165274121437847e-01,9.7022534128728443736378040e-01
0,4.9171943679019519679584960e-01,8.7551422148447610727117763e-01
0,3.2851301605757177171085459e-01,9.2011455761355376292698338e-01
0,4.4601038111188556767316982e-01,9.7582796339104793670315985e-01
0,8.6699027522297478220991707e-01,6.8863214677720185896703242e-01
0,4.6953072074312895978209781e-01,9.6933863627498562109963132e-01
0,4.8684822622859713625587119e-01,8.0304666991453010904677967e-01
0,4.3698802691676119636099429e-01,8.7007516333440892974948611e-01
0,4.8896468822945360344078836e-01,9.4752433667482738322007663e-01
0,4.4224395982651676373365035e-01,9.6106392778754745620517497e-01
0,4.8900650836288556133624184e-01,9.3809125071485732760834253e-01
0,3.9848870107715622657096333e-01,8.0196624489660139900593094e-01
0,5.7392280470429823946432180e-01,8.9901319776961285956673464e-01
0,4.6018759773339334984143534e-01,9.2475658973619812019961728e-01
0,3.5919727374585352919211800e-01,8.5762612560634021718897202e-01
0,2.1274230596495813383484119e-01,7.7881391154226198292320760e-01
0,6.7341888081379863706388278e-01,9.1811992496684768916281882e-01
0,3.9694852434105881711090547e-01,8.5544019992306130628634264e-01
0,5.0351156028437515921325485e-01,8.6930849886760686029418821e-01
0,3.0738974095675603015465072e-01,9.3610569079159067218398604e-01
0,4.7132885653947304005484398e-01,9.3736935646527708154707170e-01
0,4.3485210952944503004502508e-01,7.9624498012124633739006185e-01
0,5.1037121774739313551094710e-01,8.5808866069876721383025142e-01
0,2.7434366254224928916016779e-01,9.5601361880936608361736262e-01
0,4.5509896676266242687702857e-01,9.2851089880635628848182250e-01
0,1.8752712815889358011212096e-01,4.1784224163068872659465569e-01
0,3.8031602409917714124887311e-01,8.8785153335198219171076062e-01
0,6.9497223183632927945296842e-01,8.4699550592595040932053507e-01
0,3.9869706474725458145158541e-01,9.3705879125832580722743614e-01
0,4.9040953785115465324295769e-01,7.8367895716737068223523011e-01
0,4.4165069226649955602681530e-01,8.7377750712326218707204362e-01
0,3.8000141587629893136224268e-01,8.9403059153499864208924919e-01
0,2.7450582165651438160125508e-01,8.9560521662039982437875096e-01
0,3.8785924454067166600168548e-01,9.0991356109714516264830309e-01
0,5.3179728962668282310488621e-01,6.1215821392194658123742101e-01
0,5.9359548023840247310545237e-01,8.5377542219565549785897929e-01
0,4.5145110858447684565319946e-01,6.2080094469081159580525764e-01
0,3.9648473167083969626034445e-01,9.9883524246904575871752741e-01
0,5.1467669440344943065923644e-01,9.3478541168898243718388130e-01
0,4.1974037977082129247108355e-01,5.3645987865318500720235306e-01
0,3.9576619976783455889801644e-01,8.7754907547890725894035313e-01
0,4.6061474945336577935250943e-01,9.9875247409315504043547662e-01
0,3.6834682017820929988971557e-01,8.9387464523900361790254010e-01
0,4.5468382457436062882294436e-01,9.8546776179658657213167317e-01
0,4.8562584924871393665668506e-01,7.9894124377503039635683990e-01
0,4.5295624036388321131951784e-01,7.7899912863273557128707125e-01
0,5.9430456520907681827736724e-01,9.7900037324688127249316949e-01
0,4.5408782331724728553723480e-01,9.7935985485880372447553555e-01
0,3.6155181194943147859888199e-01,9.1187108969866292884631775e-01
0,8.2489180711747722707372077e-01,8.2376424862596875353659698e-01
0,3.9406648136562760775802872e-01,9.4484144708435169324189928e-01
0,4.2313516674462947619872466e-01,8.2226898824031935397727011e-01
0,4.6030499810321290343750888e-01,8.8958947409680755313843292e-01
0,5.2871878227701940566873873e-01,7.9900823569622836384240827e-01
0,4.2153079002410814846157905e-01,9.6619783589089724973320017e-01
0,4.5376884157432290090028459e-01,9.8946163622684102367799142e-01
0,5.6204899824756637816136617e-01,9.3314725541161436250803263e-01
0,4.1171029348426424476770080e-01,9.6621641747015474255277923e-01
0,4.1765617372466035117639649e-01,9.1977852052371733559965605e-01
0,3.9495850906769658372752474e-01,8.8211702626470311905393373e-01
0,5.7887074189751297481620895e-01,9.7965613853715094450080869e-01
0,4.3680809442793233632329475e-01,8.4968346305206821078570556e-01
0,4.8495618368539783471504734e-01,9.9515957427746171148896792e-01
0,6.0827133836449764903164805e-01,5.2568695741825854916839944e-01
0,2.3571353713305259747201603e-01,9.3412068455536945155159856e-01
0,4.2715113970782397911918338e-01,9.6478289704730701981105767e-01
0,4.4612407746187454637976089e-01,8.6054398776608953536282343e-01
0,3.6539013360306049627013181e-01,9.1306101699318631403912150e-01
0,4.5342545877404766274665349e-01,9.6264236441178441250343667e-01
0,4.5033052521196931250457851e-01,8.8516252558054697718858961e-01
0,5.2142739735466636652461148e-01,8.7138131447692568354312925e-01
0,4.5852908740879438909132659e-01,9.8540336407426476483806255e-01
0,3.3126623701351559647676481e-01,9.2150389865397008826164438e-01
0,4.6725714478815744135076216e-01,9.0558195153707632396589133e-01
0,1.4968448532861311495167911e-01,7.8166543472946925508182403e-01
0,4.8345526194940457997972771e-01,9.4082411576452940060732999e-01
0,3.0338301270791456776265704e-01,8.7375632279004866731497714e-01
0,4.4222342939436204423131471e-01,9.8404166275795168505879928e-01
0,4.5589024315146403631970884e-01,9.9544862340777640064004572e-01
0,6.6284962101200162187808473e-01,9.1617213187914847694059972e-01
0,4.3299150855712831287291920e-01,8.9539276242969845220898151e-01
0,4.6688936105915807006638829e-01,9.4254729392700353773903998e-01
0,3.1273290440304929438397608e-01,9.4714904793627119339305409e-01
0,4.6287778957604147622717505e-01,9.7810487271392576591466650e-01
0,3.9754201077643558370766641e-01,9.4438819908090787524912457e-01
0,4.1623522294521281272849933e-01,9.4842712971667830768041085e-01
0,7.0334669265911020641368623e-01,8.5330417492048549199523677e-01
0,3.4051373171615778590037849e-01,9.4613275854335432413222406e-01
0,4.2561041946084249287807211e-01,9.5403835347736698491161178e-01
0,2.3283541776270061385289978e-01,7.4516022290522609949903199e-01
0,4.5487275362184226290551692e-01,9.9954769262648612837551809e-01
0,4.3502378377586509161645267e-01,9.4166578519514410050561537e-01
0,4.5798961418849415405674108e-01,8.6116572911184896543801415e-01
0,3.0619955608741300512321004e-01,8.6644354464996187203951195e-01
0,4.7576501430087397848112118e-01,9.5396144833013052366510465e-01
0,4.2283981940746273586739790e-01,9.4761932168506601836810432e-01
0,3.3496178217596123127819396e-01,7.7213449613011619909741512e-01
0,4.0600375705131636072664492e-01,8.3817591202391572569041500e-01
0,2.3985532396498149276808931e-01,7.8895801829408362948470312e-01
0,4.3290651729504298073081259e-01,9.4734976273433701976500743e-01
0,6.1553633256307249688177308e-01,9.9098520272724532897967720e-01
0,7.9583013131409696683249422e-02,6.7975826964098384763701688e-01
0,4.3279771511557979524198458e-01,9.7674756211443802822458338e-01
0,4.3397660127944553964951524e-01,9.9171756394692001101986989e-01
0,3.7083487389655217514317087e-01,9.7602298134651765959546310e-01
0,4.3025699922687449250346958e-01,9.6224924614304097048034237e-01
0,1.7819224072483830223490031e-01,8.7288378574114622310275990e-01
0,2.3179369168661267952558092e-01,9.4056317999628291648406275e-01
0,2.8894042717448986667960753e-01,7.6090910654470356178080692e-01
0,2.9769414705311492141959206e-01,9.8895689450398904796202260e-01
0,4.8275729887806284601481366e-01,7.2902491621695042489648131e-01
0,5.8912031293628064343437245e-01,8.7715651139517214485152863e-01
0,2.0941502046024251804112737e-01,8.6231769680937897515349277e-01
0,4.3217647955478899479686561e-01,7.6415125733962518950193044e-01
0,3.9198743266528596196351941e-01,8.1040431540718260716715804e-01
0,4.0996118844016843363320390e-01,9.6148051691550784347839453e-01
0,3.6379753741628390040219188e-01,9.2253224586590154565612920e-01
0,4.4590000305587906836990442e-01,9.8659062537682129523375352e-01
0,4.3411219744424622835055061e-01,9.7262208846178066501408921e-01
0,2.7412835441410277059759437e-01,9.1191774237560330185203838e-01
0,3.5157155406393869601089364e-01,7.2207059289345976171858865e-01
0,4.8342119630310742550705072e-01,8.7253894929285824577647190e-01
0,4.0182041946889257566510878e-01,9.8374498174656543891813953e-01
0,4.2750183983745138061038915e-01,9.3540256673956856392493364e-01
0,4.0167092297122586330715421e-01,9.9530046061672117208019017e-01
0,4.4726692006052853889386256e-01,9.2967796406356562055606219e-01
0,5.0268353232597096091893718e-01,8.2412674835531674055744134e-01
0,5.0205269859432588575032241e-01,8.6400721221098553126438446e-01
0,3.7934367530629542475395510e-01,9.1648228049728341915169949e-01
0,5.2770652149966201793773735e-01,8.6763689184775050211584357e-01
0,6.3289408421964432616135809e-01,8.8547224798855828087340569e-01
0,4.7485321821608567072203755e-01,9.5105021395896249813972645e-01
0,9.0394600804219804590644571e-01,8.4108413826376582367316814e-01
0,4.8272025273654034505099730e-01,9.1327450374041752034770525e-01
0,3.2616168234056558405953297e-01,8.7866821590683408249589093e-01
0,4.9650389788666510204606652e-01,8.7618264830903769269099257e-01
0,6.3598888977431344837754068e-01,9.4066619000206985745649035e-01
0,4.4507737293581833837308182e-01,9.7354557815978060020256635e-01
0,5.0844226115506152563483511e-01,8.5359965980024965492845013e-01
0,4.1183927941565739994089768e-01,9.1132694665915903176056645e-01
0,4.1959677397913464069745260e-01,9.6737069074412940228313573e-01
0,7.9678005281984232155423342e-01,8.6646830275990338599001461e-01
0,3.8624228336175303599731023e-01,9.7079162148913400454119937e-01
0,2.5459201017639365716149769e-01,7.5725444081542059304723580e-01
0,4.3488010876843785634804362e-01,8.9332289734364622724172023e-01
0,4.8802252412896052202739838e-01,9.4599814828315409442893724e-01
0,4.7158931796881631282047920e-01,8.8738611880751216975937723e-01
0,3.9958241531067467677829086e-01,9.6024561027008414892947030e-01
0,5.0641870913266295861632216e-01,9.2784907782591807823280305e-01
0,3.6507127145367435083755936e-01,9.0069669293222054395897658e-01
0,2.0768170365980787028803434e-01,8.6923936855689687419612710e-01
0,4.8933215412155622869860849e-01,9.7498188803660468249034921e-01
0,7.1618527115812702366071107e-01,8.8850270172830303483380021e-01
0,4.5670884956805818388758667e-01,9.2682931906456200721322602e-01
0,3.9233898803944228239615200e-01,9.8587771835319848445777779e-01
0,4.2711822501502499926928635e-01,9.7911266151076326025304297e-01
0,3.5365182965094965616970057e-01,7.8004233361705532789898143e-01
0,5.3874561864778569564293775e-01,9.9237730275922131362165146e-01
0,2.3843163368804143331658452e-01,8.3054261266970108579243970e-01
0,4.2057779836159664421657567e-01,6.3683552260753861773423523e-01
0,4.5540621096032052328439477e-01,7.0725759505188068310133076e-01
0,4.6663222951953842176919807e-01,7.0926506152527724058387548e-01
0,3.6516388051186576824136409e-01,7.0548391891746864423851093e-01
0,1.6616878231933868148573197e-01,7.7216039223362609167367054e-01
0,4.1515244325597200347743865e-01,8.2809076672615011815992148e-01
0,2.9853268899978235850767305e-01,7.7647725307590054200090890e-01
0,6.4529745454470821552916959e-01,6.5613790838524610471438336e-01
0,2.3442169637496551581890003e-01,5.8541429939396516513028246e-01
0,9.4788395863700469767820778e-01,8.0333581657500996442422547e-01
0,5.5097756068172287768902606e-01,6.4770360693998840773133452e-01
0,8.6480480188568165100804208e-01,2.5419893365696277776066836e-01
0,1.7530401222162983465580055e-01,7.2446379091552270956810844e-01
0,5.4356226762527104501288022e-02,7.6202372293453601859170021e-01
0,2.8798300367962803569810148e-01,8.2738873268685331208160960e-01
0,6.0230392109182351312313131e-01,7.0153928712565816194768331e-01
0,3.7581355424893697625421396e-01,4.3719428738406534984406449e-01
0,8.1226047370777609835101885e-01,8.5035335830285141422990591e-01
0,7.8232049047982754608199230e-01,5.6949180893630657607218382e-01
0,3.9438412428781810525890705e-01,6.0373067231120425280010977e-01
0,3.6107862529226797398962390e-01,8.0667517468119620538402614e-01
0,4.3088914536040923142223846e-01,8.8536643564456030119913521e-01
0,4.9832724826810859131143161e-01,8.5100763156363734562859236e-01
0,4.2536611021976539204203505e-01,8.1451393869136712311274096e-01
0,9.4770666962981020553513645e-01,9.3278123938660839620240495e-01
0,4.8729748583066301304000945e-01,9.3215626831652431683039595e-01
0,7.1701883508452168847213670e-01,8.1995745263952546366681418e-01
0,6.3963196142245826170125156e-02,4.4377797742766017519144839e-01
0,3.9339886846051635993504192e-01,8.1677132054979673103645155e-01
0,8.9976139249774633732670281e-01,8.5664208542756714592769640e-01
0,3.8192932545980018410602952e-01,9.6112430784546509787702462e-01
0,5.0442431618270133775183695e-01,7.7503050672013784616609655e-01
0,1.8957003210905354340098938e-01,6.2066326297275686840748676e-01
0,9.1715176457751901306636455e-01,6.5572480374179242801346845e-01
0,5.6265518784198276236452330e-01,8.3160727920926036382809343e-01
0,8.0428802763481943571832744e-01,6.7410581039392303281942986e-01
0,6.6116819158324990901576257e-01,6.3951406740099359105045096e-01
0,3.2696755000198118867871244e-01,8.4072649523168385687910131e-01
0,2.3122449860987637215714585e-01,6.7920661330169762592845473e-01
0,3.2923304557034444028928988e-01,5.7491753149368596265134101e-01
0,3.0015800041040208157028246e-01,6.9081208358986534445733696e-01
0,8.6912512257066221188495092e-01,7.8797152267277303927528465e-01
0,9.5848101410827735158193263e-01,4.8149691932187638210294267e-01
0,6.3445864897573089891125164e-01,9.5696838062051481355041460e-01
0,2.4119737943525645929021550e-01,4.9040402336773430969074639e-01
0,1.2504403783117118420520342e-01,3.4036517381423736505752231e-01
0,6.8618470401657261081851402e-01,7.4757732801479581663528506e-01
0,9.7297428078194148071133895e-01,3.8026458102945648320769578e-01
0,4.7924291302259708347222045e-01,8.5665221766212584775246341e-01
0,3.5536338132367362163677171e-01,9.3461422568854068959609549e-01
0,2.9215715832319999467614480e-01,8.9343320777773671537147493e-01
0,4.2067506975581148154219591e-02,9.8622789005347311075411199e-01
0,6.0218327778010616313508763e-01,6.6893909659379768850584469e-01
0,2.5006054533918053994767661e-01,7.1780524939094270120421015e-01
0,8.0051496166532443155006149e-01,5.3589132463824773466853912e-01
0,2.5847325938054999117099442e-01,8.2739742104436964087454953e-01
0,4.8248180914093652393859202e-01,9.5063612207977377099865635e-01
0,8.5806635329277947121795478e-01,7.2256389983322044656688377e-01
0,7.7110209406477325799755818e-01,5.4326039135137182967127956e-01
0,3.3947572521986507654290222e-01,7.3656718462236470124082643e-01
0,5.1345779582132189400311972e-01,6.3850452253592138163185155e-01
0,6.8721053318536740039945698e-01,9.6032859827981564837529049e-01
0,5.2503913545682734387298751e-01,7.6128483841761340755738274e-01
0,7.4875071036024709592027193e-01,9.9452410135718327666154437e-01
0,5.0169251197624276095154983e-02,8.3731562963531824816953986e-01
0,1.9631474799457657165469016e-01,9.4631088933127893714214451e-01
0,1.1805521588555997758440697e-01,7.3335662458691919241005053e-01
0,5.9991934711984740147272532e-01,6.7212446482062260244561003e-01
0,4.6621694506703170723938001e-01,6.9894852029060028364426671e-01
0,4.7518098299351174684801435e-01,8.6929586529298419339539805e-01
0,8.5901599723908250716419843e-01,5.9021075485007634675582722e-01
0,5.8196637503023285198366921e-01,9.9749877913536877382938428e-01
0,8.8074951558076419733112061e-01,5.8321395310569712489012772e-01
0,9.8344470047539567225669543e-01,8.6451833300740610344092829e-01
0,2.6118283078156778742595634e-02,9.5868481606570832287417261e-01
0,3.7823190922427490923141136e-01,7.7415046864028214113062631e-01
0,7.9987267934853611972556564e-01,5.2736861439598359257985294e-01
0,4.6822756998373821213377255e-01,9.6466674959465192884522367e-01
0,5.8507037881055179440181746e-01,5.7283318927193893621563348e-01
0,9.9045516269105626783186835e-01,7.6398383956588311605173658e-01
0,1.7008483783944391976028498e-01,7.1475014238922895959404968e-01
0,8.0909624116801137638788077e-01,8.5750902653073890480328600e-01
0,8.0407439190596008415923279e-02,9.0130587021114350054773467e-01
0,3.1018605128697829265149721e-01,8.7020285375957506790456364e-01
0,4.9545462243361004794905966e-01,5.8551220174492013548217528e-01
0,7.5517775188731040003631279e-01,7.0805848221015876831074820e-01
0,2.5395865601936462585541676e-02,7.8335323814943780273978291e-01
0,5.2210517762427333110508698e-01,9.8165347280240211613744350e-01
0,6.4989039433412643109733153e-01,3.0791752525986448851824662e-01
0,2.4039486389640699059988549e-01,7.3404826234028308640233718e-01
0,4.1655067604649081980383585e-01,6.1199668117248173793143451e-01
0,2.3495818317051853085786206e-01,6.9812517154893538595672453e-01
0,5.0383456813839821997191848e-01,7.7123777783692160081585598e-01
0,7.8811445894984266669069939e-01,6.2055730246013618423006619e-01
0,2.8346924533570755366795879e-01,6.4493557835199843975004796e-01
0,7.5980094556699928620702167e-01,9.1084619902152297310493623e-01
0,5.4752698526102272502669166e-01,5.7782785474214193310871224e-01
0,7.0304261632460218756079939e-01,6.6206795211279645396729165e-01
0,2.4154926469542853384453451e-01,8.9508808056152833199092811e-01
0,3.7390656352098916581638832e-01,9.3398941989493877713357506e-01
0,4.4444544728467222372003675e-01,9.5235494476364257465661467e-01
0,4.8410804035892407437557949e-01,9.7750605224832520789846058e-01
0,1.3934282796008293225931141e-01,6.3620968383138909452156895e-01
0,8.4370611193367461844161426e-01,8.3253507944243521077254400e-01
0,3.7184522564510896769363058e-01,5.9031107817479444577202230e-01
0,3.1778230543608421143630949e-01,4.0774472328336880400101450e-01
0,3.0819074164712995100856574e-01,7.5499591623574158205656204e-01
0,8.5709859290956447175346966e-01,6.8162853610143536720045176e-01
0,5.5637066697176629226362365e-01,8.2823943943596745054236408e-01
0,3.8294752383933478023791963e-01,8.0007753333457665156913663e-01
0,9.1646586933388052287341452e-01,2.7812135191305714654319559e-01
0,9.1078831871032805977961289e-01,6.8291060081643173429455373e-01
0,2.3426034263016831671322393e-01,8.2460883721809741242481095e-01
0,6.7585649038360762208554888e-01,3.6376947738533094156565539e-01
0,6.5788586062317144786959489e-01,9.2593374167195496848847824e-01
0,4.7744918192662938460912869e-01,4.7131301439363793015502324e-01
0,2.7599505799289647534067171e-01,9.1115629794973174160332974e-01
0,5.0737521637946314534417525e-01,9.3620278327787509464741333e-01
0,9.5240262476381121192758883e-01,9.4890812496714893597982154e-01
0,1.4714247784908374150347754e-02,8.4038810385748985432030622e-01
0,9.1147487879481237094125845e-01,4.3832263767143575527995836e-01
0,8.9698157412273826771809127e-01,7.5105579490189466884686453e-01
0,1.7664444963875869376579431e-02,9.0617539752125109142610881e-01
0,4.7658199878974416563437444e-01,9.3792372435291926358047476e-01
0,5.3252566801679224184340455e-02,4.7974637980327139441527606e-01
0,6.2831568429793316354903254e-01,5.6789312929321333900389845e-01
0,2.6593691550548387292352004e-01,8.9266889102522850585330616e-01
0,9.5122406366964984414380524e-01,9.0197729907429602391744083e-01
0,7.4034584164203010026028551e-01,4.6282049275985986946935213e-01
0,4.3824976035792506667831958e-01,9.6556795721298649404218395e-01
0,7.0392724025609032523220776e-01,9.5549206575042266997854767e-01
0,4.9237732777656517679787385e-01,7.1852205879472053062784198e-01
0,9.5792021485646250411605251e-02,9.4109121191785083393455125e-01
0,2.1516287461964811456027746e-01,6.9415278632120536173033543e-01
0,2.8202057317322132279358016e-01,7.4056614910273566021459146e-01
0,5.2569953080558839975111596e-01,7.3417780013773603631221931e-01
0,7.1697378172776871085858374e-01,8.8408899893219594634530267e-01
0,5.2363907896646011419505840e-01,9.0595765543907491590402969e-01
0,4.1773590191438991769956601e-01,9.0224752080643444429597366e-01
0,5.9745577113794745560682031e-01,8.1706764395018316449181839e-01
0,5.2091746114081982632626477e-01,8.9498893877917140571298660e-01
0,9.8004540207265522511193012e-01,6.5788167021050791838376881e-01
0,1.4165501015116005456562220e-01,9.3007829506075045955526548e-01
0,6.2663625229077868361571291e-01,8.8249584403711511804146994e-01
0,1.1798961422216727723544238e-01,6.9197673643242985086487806e-01
0,5.5265034088535036627121144e-01,6.3796847501205067310081631e-01
0,3.8554068787909884230558077e-01,8.1918263473222341364277099e-01
0,4.8809099457430837887272901e-01,9.7007393722715573591841576e-01
0,1.6377153767471175349612622e-03,5.8439143371807622528990578e-01
0,6.6645581448788504541624889e-01,7.5392308511373773427521883e-01
0,6.3102089987286491545859235e-01,7.5108665176001143670703186e-01
0,4.0088414854314247115496528e-02,8.4245704539357302298441255e-01
0,9.3789820913299926097295156e-01,6.8246058958462874066697168e-01
0,3.3170646151717009253445667e-01,6.7614274655328543417454057e-01
0,4.6187062958804436796356185e-01,6.8538963067583180688302491e-01
0,9.1960805652187038727873869e-01,5.1319074276246423593761392e-01
0,6.7784758038931181012287652e-01,8.1986568448489127725054004e-01
0,4.9026566138057414701023617e-01,9.5689997370029100665078658e-01
0,5.0735834157448433945347688e-01,9.3297652819293486192719911e-01
0,1.1065655738248975081816639e-01,4.8601108289792227523662405e-01
0,7.5121629094857778063953901e-01,6.9770195640461452057934366e-01
0,8.8292185002865575249586527e-01,7.5698888943419373465104627e-01
0,3.8445174163251594201540229e-01,7.0738201612645079663366232e-01
0,2.5279058358231842884578100e-01,8.4867340818516978639962645e-01
0,7.6129482695060257668728809e-01,7.8459864583528327042216688e-01
0,5.7405312713728762208376111e-01,8.0886216801920951535720405e-01
0,9.6706484273378223726069791e-01,9.3943712376825516674472283e-01
0,2.0187710860304899918027388e-01,8.3061094496848619783690992e-01
0,4.8025594139625116252290127e-01,7.3221026036216840804371486e-01
0,3.9546217052732063335085400e-02,5.1002469220626378554328539e-01
0,8.9935354463161931715120545e-01,8.1272177772737030920779944e-01
0,4.8790160653248632049994171e-01,8.6246859681051724066946917e-01
0,5.6033090674251051499510368e-02,7.8806395605332513198959532e-01
0,8.2232654316468922761629301e-02,9.0882642278873415619955267e-01
0,6.8053326169756211960759629e-01,9.0043673650060940261141695e-01
0,4.6454432106877519004228816e-01,9.9849246616957976208084347e-01
0,7.3192967998590163780647799e-01,8.3349603010655570756171073e-01
0,3.8068764410598743275215838e-01,7.5535165732210518552136591e-01
0,1.5040891432397734961412539e-01,9.7078633510259437766620749e-01
0,9.2163579799326500463507728e-01,6.6074820958377089574753427e-01
0,3.0212440395958883865290545e-01,6.1114278155348866761187310e-01
0,6.0875666566005737223576944e-01,6.5129652586632280630851710e-01
0,3.3221189568949782700002515e-01,8.4930358391833327136311027e-01
0,8.8794946500358151730836198e-01,8.9451853560728922243328043e-01
0,6.4129273474717274350354046e-01,8.4628026571178893711078217e-01
0,2.2579311685394509723323608e-01,7.8166617630184531684278681e-01
0,3.5462396136281582048610517e-01,9.2346492595863305385961439e-01
0,9.7506367049682096670437659e-01,8.3896353931155254191054382e-01
0,3.0388125281330252702716166e-01,7.8655628974759461691235174e-01
0,6.3378865111387616693150449e-01,9.6925975790819296484812639e-01
0,8.8289032208132306456249694e-02,8.2285433201974411687729116e-01
0,2.3828905136600245229239192e-01,6.9228178353595781757690020e-01
0,7.9540572517495600202153128e-01,8.9541586167428699472026210e-01
0,2.7855742591051396717105604e-01,9.8450857062835739341721819e-01
0,4.9713408320500207526748682e-01,7.4941652694387372868334296e-01
0,4.0008357639767977431688450e-01,8.2189710198220433667870566e-01
0,1.9026930569764333167626091e-01,7.6730228773498421190879526e-01
0,6.1191922089862682554439743e-02,4.3225957918896756870807963e-01
0,4.6273741321728195652340787e-01,9.7704772107546822290657929e-01
0,7.4456150213932231762825609e-02,8.5524928868031546702610513e-01
0,7.0246013305902854639839461e-01,9.2602368939133672398611452e-01
0,8.3029254028428067790912337e-01,5.2259051351302709953472458e-01
0,4.7712812345738797592531455e-01,8.6194726281449862703709641e-01
0,8.7553752204259371882955065e-01,6.7164540124727145631311487e-01
0,4.8313940146569817057908836e-01,8.8852217731181715176802527e-01
0,7.1289288673514139560438707e-01,8.2851405345931661283742642e-01
0,2.4401439199481092523491554e-01,9.7609558902919746348203489e-01
0,2.0543414932996914568086311e-01,8.5618501087422382855862679e-01
0,8.6374436689457301241645837e-01,7.3872285585212738023841439e-01
0,2.2381088283378949843616113e-01,9.8098104320146484180753532e-01
0,4.0296980098192547448121559e-01,6.2407220231203608395986748e-01
0,3.5290734825711056465991078e-01,6.8506981774310404809114061e-01
0,1.8322777153956845697102551e-01,9.0900207080971606732333612e-01
0,4.3931899180105071778257297e-01,7.6234953514526804241313584e-01
0,9.3661708617944539057020847e-01,7.4762470445311879352345841e-01
0,6.3096038786791819319432761e-03,4.7281620941558732962306522e-01
0,2.7446318327388008473377567e-01,8.5511828000364176194381116e-01
0,3.3719428079759861116571074e-01,7.6206232467904166938410526e-01
0,5.3224208690402541321873287e-01,7.0814628474843210881317646e-01
0,7.5158526193796515446621243e-01,7.7368325460645614999322106e-01
0,2.8321832509169470037946326e-01,7.7221994177471309228621976e-01
0,2.1273792397260368747247128e-01,6.6204565355225386547033395e-01
0,1.6977648520513843877211002e-01,5.3053609646890242945715954e-01
0,5.1921635771967056260933759e-01,8.4637919390304650057998970e-01
0,8.9761259469472154393088204e-01,9.2418843186976595838189041e-01
0,7.0076924339259161200743620e-02,6.8327090418275915340018400e-01
0,4.7896888743674836952379792e-01,3.8154077736279112809114622e-01
0,9.3454349435923633748757311e-01,6.1866186585018012600301063e-01
0,4.5918368220826127901190716e-01,9.9527823667765447090971520e-01
0,1.0570389636909763297900611e-01,8.5659436452729931232852323e-01
0,5.2091309725766921090439610e-02,8.9326290529843155319156267e-01
0,6.3282951455776215166082466e-01,9.3261839575396332513435027e-01
0,6.8033032132516568779578847e-01,7.6144049886480069666561121e-01
0,8.0372325852279069557937419e-01,3.9191883227194673766646815e-01
0,3.9960819879385783837122403e-01,9.2161861607149586639309291e-01
0,7.4558468573646408117383544e-01,6.0030470862689688793523146e-01
0,7.8419891842643618673491801e-01,6.0540360636274215266894316e-04
0,1.9843443543015926167072394e-01,6.5767112399104943332162065e-01
0,4.7462393773250705075739120e-01,9.7332081528715530538420353e-01
0,4.2019058163709210873548727e-03,8.6622083332932242605295414e-01
0,4.9328825269597281755196150e-01,8.4204949467660583639627703e-01
0,4.2516446642063776550912735e-01,4.9633910847297568746938623e-01
0,2.3926154719182898822360528e-01,9.2116505374740365041930090e-01
0,6.2266149128073589036347357e-01,6.6881872966826128035222609e-01
0,4.2640122913956107764121839e-01,6.5753666770648888650896424e-01
0,8.9953635742179804957174838e-01,7.5151243100959819187778521e-01
0,9.7898714574889611483854424e-01,8.3607196636016645197031494e-01
0,3.6044688591178347669696791e-01,8.2065851881472884343793339e-01
0,2.6863656759732679191188254e-01,1.3696291256956039106285061e-02
0,3.2920403509815177045538803e-03,5.5443389781306828822948773e-01
0,7.6631175224841707738221430e-01,8.1921888746185211882533395e-01
0,7.3014280919687779558557850e-01,9.2547815235162900204812786e-01
0,9.5876800862400601843660297e-01,7.0006929277151075385887680e-01
0,6.1312517637437324857785370e-01,6.9813437030198755017806889e-01
0,3.8487201835254297721533590e-01,9.8667997056747358541883841e-01
0,2.8056479403342016176736706e-01,1.6418350953545379766751466e-02
0,6.8201276892777640270537631e-01,4.5589330447894110820428182e-01
0,4.6987638815427329452845129e-01,6.9676920793991181657389689e-01
0,3.2271305742890116219356855e-01,8.1846499323424315441855015e-01
0,8.7288063739411703156889644e-01,9.5026263928281773374351360e-01
0,8.3274137559697458677021586e-01,7.2259548115304006454806540e-01
0,4.8435232543299511220880049e-01,7.9885086263559912378440231e-01
0,3.0197724120856062057782765e-01,6.8676240655228282250277516e-01
0,8.5466405069721029796880885e-01,8.6355037388338640180762695e-01
0,2.0049555658326667639812513e-02,4.5640330999550116075624828e-03
0,3.0134123922692729324879224e-01,9.2139012495772742994404325e-01
0,4.6812658511831956031912227e-01,9.1584458374617783160687168e-01
0,5.7103425880147884452497919e-01,7.7660863912654143348390789e-01
0,9.5651216691605966957467899e-01,9.6557723273873974356718008e-01
0,8.2549818177702150023833383e-01,7.3838996902018938506273571e-01
0,1.4212443776926558802742306e-01,4.9489006206331820347799066e-01
0,4.4363593110345012071604742e-01,8.5064689902582490965698980e-01
0,1.5001209416514704741985042e-01,8.1680285262102736432154870e-01
0,5.4000369158926664336917156e-01,4.6550713454170450367186618e-01
0,8.3964882322392353497519935e-02,7.5066549396072046462791150e-01
0,3.3753748945196021535863906e-01,9.9922958275954409934627165e-01
0,7.7956615656815475556840056e-01,6.9420894968360036259014123e-01
0,4.5592679279150960525157643e-01,8.6678674232077967953813413e-01
0,4.1173802839013584620175834e-01,9.8720100448926506597757680e-01
0,2.4679653688126457211637899e-01,8.8259882278893908580386096e-01
0,6.5549704913556627872139870e-01,9.9293283014543476383551024e-01
0,3.8001208881130754679844586e-01,7.4365538873220959903420635e-01
0,3.5381443123802891470575105e-01,7.7327984521391945893498132e-01
0,2.9150620186444342607501312e-01,6.2536260575868951594458167e-01
0,3.8071711348125203411285611e-01,9.2134025594286961258205793e-01
0,3.9113533420989998745653793e-02,7.5154559752089156177135010e-01
0,7.3294998191143112542533800e-01,5.2441599666200622298362077e-01
0,5.8112686548020486831944709e-01,5.7189658689473299446603960e-01
0,7.8788088277744761089849135e-01,7.4066160381209766860877153e-01
0,5.1272457564514839489788756e-01,7.1907822014195377224865524e-01
0,6.3082945425900316394063339e-02,1.3432304654943605370931436e-02
0,1.1817768149843940750365334e-01,9.1176877796740607440284521e-01
0,7.3841719685552842378228888e-01,9.7223441043361491509244843e-01
0,3.2499205613014348070777260e-01,9.1763801095248231920464832e-01
0,2.0864384672590685632087570e-01,8.0286174813305022368581376e-01
0,3.3710308043023046176145385e-01,6.4858811252606984876223351e-01
0,5.2446459727822436480693113e-01,8.0697885071553532299049039e-01
0,9.8937774548472823266109799e-01,7.9600514688049162081995291e-01
0,5.7585244185130890492985145e-01,8.1362891155240069096521438e-01
0,9.5626955782253064697329137e-01,8.2010951551671984471880705e-01
0,6.7591617801176340218916039e-02,7.2598670491598393805787737e-01
0,6.9257280498009821112503914e-01,4.1688914455587533502978204e-01
0,5.8557051125583436945731819e-01,8.3399939722821370136074393e-01
0,9.9671578220909717860109822e-02,4.8532335382932789702437049e-01
0,9.5256570162199594165031158e-01,9.8534826412160847475263381e-01
0,7.4104151598244616394595141e-01,8.6510160075510644794860582e-01
0,3.6749994215525078056217012e-01,6.1479718442980924031360246e-01
0,2.5684500518650671407883124e-01,7.7634136926288377367200155e-01
0,4.5549074935123701202144275e-01,4.9323518450303371896126237e-01
0,6.4801442087167204775255414e-02,2.9568105598782634668708624e-01
0,4.3257370516893950407322222e-01,8.4185370400946846203282803e-01
0,6.8161784511375667072741180e-01,9.5733722965285794614942461e-01
0,1.0224257342873777076874831e-01,9.2686970503166232759895138e-01
0,5.0954740475272564115272189e-01,6.6290327296832762815625983e-01
0,7.6850079779873503582621197e-01,9.9815954281013463678107200e-01
0,4.5963896635801304579871385e-01,7.1482040711961103429672448e-01
0,3.8068980595755697038384824e-01,6.1888422781247087733902390e-01
0,3.0560679382738648035555684e-01,9.4868221791277618226700952e-01
0,6.1766893703064562615168143e-01,5.7254842745946699089643062e-01
0,8.1891934532886656583627882e-01,3.4318146184069431292584795e-01
0,5.9777089210420442100257787e-01,3.7137516339547210764138185e-01
0,6.9749868939102976916899479e-01,6.0140783078924830995504180e-01
0,6.6997447840268598007185119e-01,7.7356488097194275876944403e-01
0,9.1215288140833850061284238e-01,5.6475543164896935266483524e-01
0,8.7778771406414990430278067e-01,3.1136239419775835202131020e-02
0,8.3531072201628853157728827e-01,7.0304104437885872602720383e-01
0,3.3291032072103587946543257e-01,6.5228754256033372183054553e-01
0,1.4215637445679507600004854e-01,9.9392352965427710476120637e-01
0,3.3075593744233600101978254e-01,8.2687909307217766219366695e-01
0,6.7622247243797339866233642e-01,4.1555603720116718324817384e-01
0,7.4779627161491846187857391e-01,6.0836761297890973310131812e-01
0,1.1337311773355709942912029e-01,9.7173126438934442905548394e-01
0,7.7371278265142340302418233e-01,8.8227962071485865891418143e-01
0,2.6465134822921321244848514e-01,8.5579479824727600068001721e-01
0,7.8797494051486283161978008e-01,8.8165702597194883782805164e-01
0,9.2369786175820078888420994e-01,8.7082742783955457976929893e-01
0,6.1205972133604213958335549e-01,8.8466632582858184541407809e-01
0,6.9065162681686598222796647e-01,6.4193334563839710149579787e-01
0,6.3097728033595912311426446e-01,4.7008426341702536088718034e-01
0,1.8860615011782028149767143e-01,9.8131396778976776040792629e-01
0,4.2663077488597117570279238e-01,7.5046833917463717789075872e-01
0,7.3338543592942784243859933e-01,6.3239345651760847655253883e-01
0,2.3535345376255278893040668e-01,6.5071233177431964112003016e-01
0,5.8784055436701843078139973e-01,4.9055238352191349315845059e-01
0,7.6383196448865353644919196e-01,7.2202320806584840973130213e-01
0,2.5014900656352645480495767e-01,9.4028137737860129075073701e-01
0,8.3157937869762510452176230e-01,9.2362487011793814595250751e-01
0,1.5786376863646595092305347e-01,9.7706553424513975514287267e-01
0,8.4506579149785432392150142e-01,6.3616434738913207880273148e-01
0,2.3480978632760868274331756e-01,8.3299925251665185577110151e-01
0,6.7039554616150454080525378e-01,5.7281694099662461283628545e-01
0,8.2759679844613120991425603e-01,9.5714484181419912101063119e-01
0,2.9893662821637079218817235e-02,7.6033204991672442840666690e-01
0,8.1860891547231273701612508e-01,5.5355139762589777863155405e-01
0,8.0637228676561112372667139e-01,7.0139784650297798407336813e-01
0,2.0710280620609133883647246e-01,5.6568749563839859639813312e-01
0,6.1874997592304448179589826e-01,4.3544714854367694290004920e-01
0,6.9487047137340285374307314e-01,8.8804849909817606956607960e-01
0,6.4916299455969173060054800e-01,4.4259937026961915229605893e-01
0,9.5856367938859088351222226e-01,5.4372105675185589124254193e-01
0,9.8529800445219795079765390e-01,6.7178459551116120884728389e-01
0,9.9817163366779926292338132e-01,7.8270651451062633885413788e-01
0,1.5630862779939436180143275e-01,7.8926597793225283794527058e-01
0,2.7101223017980125007397874e-02,5.6691821616397441996326734e-01
0,5.3132655494761216186105912e-01,7.5881237507932952635059110e-01
0,9.8818840946603203612141897e-02,9.7349012031538717515388726e-01
0,2.7908785186983064985355441e-01,4.1905014623860686873157988e-01
0,7.7517982880526137279275645e-02,4.9464898002574542168474636e-01
0,2.8012844690128257951755586e-01,5.3791158706744313100500676e-01
0,1.1427650817194157095713081e-02,9.2963547803934765134670215e-01
0,6.0377510293609260028091512e-01,3.8479486777668003849584011e-01
0,4.3702876385079858501114813e-01,7.9620875772064914066561414e-01
0,3.5246134803413653457937471e-01,9.5936000221693373823939055e-01
0,3.3421830645141525906183233e-01,8.2824994792476580585116608e-01
0,2.9811322023226616284574675e-01,7.5840303182786450442165460e-01
0,8.1977410216029977796381445e-01,6.9037390733611703197425413e-01
0,7.1886717435510094631467837e-01,6.9574202783159444507532498e-01
0,4.8975617482337718833207418e-01,3.7559153166572600834882678e-01
0,5.8831670894757115419793081e-01,7.8246514629823715747392043e-01
0,2.1205129989612558905065498e-01,7.5620467608371377821185888e-01
0,7.9207087032624057254537320e-01,7.3509858634928215703752130e-01
0,4.9799326321071546441743294e-01,8.3106405666549221233907474e-01
0,8.4706648819210750289698808e-01,6.4169619878584094330165044e-01
0,3.1982423911040624986412695e-01,8.9573159207484853716607631e-01
0,9.6443000915526844174507914e-01,8.2060945150500042011287860e-01
0,2.2745877743929907022213399e-01,7.3290071738357198682933813e-01
0,7.2022835694638720482885219e-01,8.5331668994679255035862298e-01
0,8.8283117644150954639314932e-01,7.7115725270503654442677544e-01
0,6.9545113644909317685005590e-01,7.4191209979649508365895372e-01
0,5.2996641196190602540738723e-02,7.4373222828528395833558307e-01
0,3.5354049602399967300314643e-01,7.0443471946185076681956616e-01
0,8.7033700812500347510081156e-01,5.2274107701636374212483815e-01
0,2.3957248150939913777790480e-01,5.7784110819150114046749422e-01
0,7.9022570155335769559457049e-01,8.7435312345433024994179050e-01
0,4.0844341979324449987132084e-01,6.8717543619414445110749057e-01
0,5.2578707648697231569201449e-01,7.5682961749657529093582298e-01
0,1.9604990120579146584134378e-01,8.3946198973399588361132828e-01
0,8.0050214978523226427853388e-01,8.5246811147687129306405041e-01
0,6.2691905689670079926401058e-01,8.4656136713119412018357934e-01
0,8.5476577116890817276129155e-01,6.8539687706044494230894770e-01
0,6.8596939062525918995305574e-01,7.6510225195366177164402188e-01
0,3.4729220526606957575310730e-01,8.1699765187079587125396074e-01
0,8.8352616780794090978190525e-01,8.5963853437722526074082907e-01
0,6.9651671482731758455742010e-01,8.8670988336696032749983942e-01
0,7.9985375234135225319676010e-01,7.5053399158237332766674399e-01
0,8.9510608632982879839801171e-01,9.6342761804457066610041238e-01
0,2.5750612966236419154597570e-01,8.3076683027738185138844074e-01
0,4.4486845782765205292719202e-01,8.1803386043123160753509637e-01
0,3.8907453741560438231772423e-01,7.1779891534169681932553431e-01
0,4.6120853521882232417539171e-01,8.3244276068891553954642859e-01
0,4.0129582201400504359867227e-02,3.3595782067857005159794426e-01
0,1.2595758813586144242435694e-01,9.5000212887107438053391206e-01
0,1.1429223237276708857734775e-01,8.1398282018789913649925438e-01
0,4.8851907909110864336454938e-01,9.1849342380751131109661856e-01
0,2.6077970634981656461448551e-01,7.6159843390620307612692841e-01
0,5.5808515721209728255303162e-01,9.4146110763983525959730514e-01
0,2.8489727738971670767398336e-01,9.8488016187058291528444443e-01
0,6.5340205292522435254198854e-01,7.9177926678077559241586414e-01
0,3.6060020886654320371178528e-01,7.6440613019076042444766017e-01
0,6.2742785122013033927146353e-01,9.5134428640839829860453847e-01
0,4.5668359302609795591365582e-01,4.4336137058377839137435217e-01
0,1.6721226594995752812167211e-01,9.1431077529551951776909391e-01
0,3.6661249776673554556793988e-01,7.4977739470047954917220068e-01
0,8.1852648386395820967464942e-01,8.6141249472112557672431876e-01
0,9.6244172987157916576705929e-01,9.0780735752622043754911374e-01
0,1.9055635863458530998570950e-01,1.2999596681561920163971990e-01
0,9.0775397076113706340549925e-01,7.5208090610259348274269087e-01
0,7.6593834294927143346853882e-01,8.1416514680521501201582169e-01
0,5.8759213581539548876264689e-01,9.0316852628465671415369798e-01
0,1.9640152693118961835239134e-01,8.8538143036474992175755006e-01
0,7.7348092620746067282766489e-01,5.8090365596431747796657419e-01
0,8.3450740254058430878103536e-01,8.0555209902017399503648676e-01
0,3.4852430183998700519154568e-01,8.6973960007797435078913395e-01
0,6.4498708873406807029482479e-01,9.3405765552585173772115468e-01
0,3.0697482145798909991540881e-01,8.2214412841667505738030286e-01
0,8.9483138344103718697652994e-01,9.1198428922893071124633479e-01
0,1.0708990412206609299516913e-01,6.5044667574554904110328835e-01
0,9.6408268615970127424219527e-02,6.0636982346771450824718386e-01
0,9.6359609949518776339516535e-01,8.5919178234533499782799026e-01
0,4.2713712054770958115312851e-01,6.7660625439096577782294162e-01
0,5.2036319665512120735684221e-01,6.8757403570800068592916432e-01
0,8.0993265534027381047366134e-01,7.9280586843890199499895743e-01
0,2.7818615320098061260978284e-01,9.3931034491491638416249543e-01
0,3.2416496672882000318338669e-01,8.4963724838007326223277005e-01
0,5.6787504223159013250210592e-01,9.9944106622905293235703539e-01
0,6.2836723326758991969853696e-01,7.7454815204285198948497282e-01
0,1.9959494732552493512223180e-01,8.0791238657225927788374520e-01
0,6.2286272501679063040569417e-02,8.3633661623966337739233268e-01
0,9.5914356198951522536333414e-01,7.2189672864676823760277102e-01
0,7.6026487982955370803495043e-01,8.5076216540441662594673744e-01
0,2.7647166572602055456542303e-01,5.9343620840796518223214662e-01
0,1.5370428984561046448220623e-01,9.2826270704540925216008418e-01
0,7.4120922877425599040179804e-01,3.9024270626745577450478208e-01
0,5.4983922883833324934954589e-01,7.9127561027424608841585041e-01
0,4.7785419726313826949137820e-01,9.6296030853632330614999546e-01
0,7.4919801621249138001701340e-01,1.9721581614362612699942190e-01
0,3.1203896818967846726877724e-01,7.9270463561322479506543459e-01
0,7.5815546075355289001862502e-01,8.9467140996101490735270545e-01
0,4.0997501241752148937180777e-01,9.5662852670739606519845211e-01
0,5.8695335915656676739615705e-01,7.2441895314950621731497904e-01
0,7.7204837427908779012852847e-01,6.9086840119572689999927206e-01
0,7.2224079008392738643351549e-01,8.3516457790353904044877709e-01
0,7.8652057348432624639400501e-01,7.2917665228302586122310913e-01
0,3.5056942371063853913781827e-01,9.4906559071274343430957288e-01
0,2.0515408987385630457112029e-01,7.7298499609338455762497233e-01
0,3.6484085040410096922869343e-01,5.2270349794765480488933918e-01
0,1.7070100774375540630956039e-01,2.8191559700501134244632340e-02
0,9.4492973023116688668920915e-01,4.4710431985101761753753635e-01
0,6.5389639575962865691849402e-01,6.9830736399184512031013128e-01
0,2.8390396629294878394489388e-01,8.8227524859683159608181313e-01
0,4.3549433194615516651282405e-01,7.8587961785561566419033852e-01
0,3.7339178164680730809266151e-01,5.3904759849807659666254267e-01
0,9.6247276417670324377695579e-01,9.7161038596188109561779811e-01
0,1.5417762744350890780076213e-01,9.2992068500251356955033089e-01
0,3.9041599025571471770490461e-01,8.4097990618543450036526110e-01
0,1.1174371189111029223361982e-01,9.6713114474967276645855918e-01
0,2.1159616776694101236699908e-01,7.9019436076559090853521639e-01
0,7.9895691659610346135877990e-01,8.3375314246538734241909196e-01
0,1.7053565509924384357987037e-01,5.4878590923717707195095272e-01
0,4.4662426182523362605536477e-01,9.5838481779568307494798773e-01
0,5.4193135839282213783718589e-01,9.0231693883953123513919081e-01
0,6.2104422813704374117804718e-01,7.2253214236503027212421557e-01
0,1.3090117883421142908062507e-01,9.0155229746425302739254448e-01
0,5.7299674427288982414552265e-01,8.2479987489382722287700744e-01
0,4.1656291963686808976774500e-01,8.1143182089342102969453663e-01
0,8.6694015051164008411888062e-01,7.8041987785292787904722900e-01
0,3.0303350838753362328503727e-01,9.2884670154398463193246016e-01
0,7.9556871675604912130808088e-01,9.3134989684985147739837430e-01
0,8.2505103664162882104449181e-01,6.9066756293178466208360078e-01
0,2.8230562551893462197583062e-02,8.1296355130373476605143424e-01
0,7.0475921140665853670270735e-01,7.7765882618928006131397979e-01
0,3.9896402681427334258046358e-01,9.6932523081618848781459974e-01
0,8.4105741094891262044086488e-01,7.4753888922289102314522324e-01
0,6.9391450553945688284329663e-02,8.4487249124013963363921675e-01
0,5.8990693783765091318116447e-01,6.7589299483305342874928101e-01
0,6.1206761300131529157653176e-01,9.1819666811597899780394982e-01
0,8.6133338057246366936681170e-01,6.7071639299293972502624683e-01
0,1.4198976084819875387310617e-01,6.7965420140664067893965239e-01
0,7.8553217039084322070863209e-01,9.1192177338044722034737788e-01
0,7.8976168879482711027151254e-01,7.6132615631518107957020902e-01
0,8.9352719923939405433088723e-01,3.7138529285128640822222224e-01
0,2.9600978470577821166642707e-01,8.4835046416826853654669094e-01
0,2.4519593183438048722422309e-02,9.9315219241480057199567000e-01
0,4.7279826989944945259125575e-01,8.0869316144264180579170898e-01
0,2.2927576403917426794976109e-01,9.8340611761641205657014098e-01
0,5.6830195037116382206221488e-01,7.8138658572721209072398096e-01
0,6.4755705911332683832881685e-01,6.4052859738943146439282827e-01
0,9.3056173797546526405000122e-01,5.7462552608605244053308070e-01
0,8.0107983597247645057848331e-01,7.4552494727426754650423391e-01
0,4.2246076450829428416966493e-01,7.8889651422849416118054933e-01
0,8.8812770702369703279543955e-01,9.9683188106494124980372362e-01
0,7.8219672807069406950120083e-01,9.5155828756186644490355775e-01
0,5.2131184317044210185798647e-01,9.4920827683955144582483854e-01
0,4.1375278667158249534807624e-01,8.1041804635465553019457730e-01
0,2.0768743901188466138840738e-01,8.0259137189580098681318532e-01
0,2.0627040104151672661458861e-01,8.6899889346778969034801321e-01
0,5.1346761205411461936876094e-01,8.9062299220675267275026954e-01
0,9.4901922199946742164655689e-01,4.8776808844717589597195229e-01
0,6.6749217258254356366364846e-01,9.7884763051588086213428141e-01
0,3.4825701087459581817284970e-01,7.0174808903615670807596416e-01
0,5.7613484958034544280991440e-01,5.3629037802336032569883173e-01
0,3.3494131831416740219253825e-01,7.5124603215923557719690962e-01
0,1.6281422260442601768204440e-02,7.5867215681130617532801352e-01
0,6.1945906223177804594826057e-01,6.5565572306746788822096050e-01
0,9.7598996825687178713337744e-01,8.0325230390521895618149983e-01
0,9.0252673317327192226144916e-01,6.0707380846845304667169785e-01
0,8.6847441514931755790485113e-01,6.7240590620307738589644941e-02
0,5.3956822722759478772047714e-01,9.8196325068588408147007840e-01
0,5.1037468356150827997197439e-01,7.7679381312253736879824828e-01
0,7.2842587340979647603234071e-01,9.7920331926119830168175895e-01
0,4.2053233417660695891981959e-01,9.9014644499232495888918493e-01
0,6.5328310610191975271732190e-01,9.5201594225251906511431343e-01
0,8.3311380591739570000697768e-01,8.9820361776145141163851804e-01
0,1.9723634808585666089442157e-01,9.9910416321213535439937914e-01
0,4.6267468713337434049748254e-01,9.2704254891166648633316072e-01
0,8.2820595493757243055199524e-01,8.1640868387884701906642704e-01
0,5.1420613213047539069577851e-01,9.9015916931187120120227974e-01
0,7.7952409580887127571457995e-01,8.7367492010832314974777546e-01
0,4.1173836918790851502336636e-01,8.9916345774204831098330715e-01
0,8.8833468010949290238897902e-01,9.7361476488384557370636685e-02
0,2.1919587432857756681414685e-01,7.1808110436243799412636690e-02
0,7.2179087545297193617699349e-01,8.7937055039001699174860960e-01
0,3.5300086763550625468255362e-01,9.3111406618293557357901591e-01
0,3.7106483416346536241547938e-01,9.2398166367008871535659864e-01
0,5.9289340508524679407287294e-01,8.3082496724646770491773395e-01
0,7.6646842696739148070861347e-01,8.9800297847524079841718958e-01
0,2.4604144252130466519190577e-01,8.7470666949636122211586553e-01
0,4.8882148450670920292182586e-01,8.4521876353338798448788793e-01
0,9.7695340452472745340628535e-03,7.0322015701502016415957996e-01
0,8.1007614294552943157157188e-01,9.4582709168670442423376699e-01
0,4.0563495841945351738644376e-01,9.3442239469971177800999840e-01
0,8.6255620777028485512971656e-01,5.7912886425959231306848096e-01
0,5.0571249617070712645272579e-03,3.8549926211912977080942255e-01
0,4.1235435955371202432218070e-01,9.7381542088994565986581620e-01
0,4.0553886795346849591936689e-01,7.7397030913136477536795610e-01
0,8.9781866092786077881982010e-01,6.3526265695536654476427429e-01
0,9.4735797558599887935315564e-01,5.9388448074920319186276174e-01
0,5.6473212839733322176982711e-01,8.1227572420980520551125892e-01
0,6.1507330184253850013931242e-01,9.7405327185659340560874853e-01
0,8.7934561999600346915428872e-01,9.1226703876297388084992690e-01
0,2.2365992785266985976022625e-01,6.1672464781413305345836307e-02
0,6.1886566057175840249726662e-01,9.7259498373091701761694594e-01
0,1.7595175041136174032274653e-01,8.5404852565118249962949903e-01
0,1.4543084903640202121266611e-01,7.7736534621238506659324230e-01
0,6.4119025703134602256483277e-03,8.5278573704552596002059772e-01
0,1.8906404976247070948147666e-01,7.7451536477703530891858463e-02
0,6.4951152480843887815353810e-01,9.5060641246700050555062944e-01
0,1.0786160122273269479364899e-01,7.5503299205721052800299731e-01
0,8.7185476814634643716317441e-01,8.9282087374616692088125092e-01
0,3.3805836452276416537188197e-01,8.7568875552638036907637797e-02
0,2.4287105668470079788967553e-01,7.4310182065594121425533558e-01
0,3.8487358186955705763310220e-01,9.1971345154848849201556504e-01
0,4.4711595182055074992888422e-01,8.8119649963817714422020799e-01
0,1.6768583964668556940402766e-01,8.8223301453404623373444338e-01
0,4.4071258551721148588597998e-01,3.5948280421870193457323239e-01
0,4.2849767022662121895848486e-01,8.6045354455248002079059688e-01
0,5.9115211274362511328916980e-01,9.4813670158961949052667251e-01
0,2.7398876946025363388059759e-01,6.8386570391665524315527591e-01
0,8.2703914236848485863617952e-01,9.7425067979715940236218330e-01
0,2.2348983519680837295240394e-01,9.9981281389879539389653473e-01
0,6.2303580750350651129565449e-01,9.9769097078190993599378089e-01
0,9.5111266107490277654790134e-01,8.8703184287748237935034012e-01
0,9.7528038065771482933996595e-01,7.4587086935141011512229170e-01
0,4.7505112785785730267207327e-02,6.5192111909009087256094972e-02
0,1.9140765679936988519216357e-01,1.7290472151453584181979295e-01
0,7.5694302108875233248141967e-01,1.4098587935850326324782600e-01
0,2.2231843548335472604549068e-01,7.2175131521683388857724140e-01
0,8.0165018148671363107382604e-01,9.8768177837528092766206100e-01
0,1.9673942198523558522182952e-01,9.5909402794736375863493549e-01
0,7.1245934817192643762062687e-02,9.1701886986185943140270638e-01
0,5.0320326375992652234714342e-02,8.9990949767690597838054600e-01
0,6.1063954555707822269283724e-01,7.7143288130313891759470835e-01
0,8.8766886838605618681441456e-01,4.6677670787526714946125139e-02
0,7.4512285020466528795424210e-01,7.9666288367680349047361688e-01
0,8.4066767535908748509854149e-02,9.6818519187492879662926271e-01
0,3.6254369590691704061669043e-01,9.8221119309097493221827335e-01
0,8.2609312795735601042679264e-01,6.4510317824259355568017327e-01
0,8.1120901641607190413196804e-01,2.4651979189489536814505755e-01
0,6.9317866042109252400216235e-02,8.8930821619687117074448679e-01
0,8.6070881421084466378346178e-01,9.6599704712388989591431709e-01
