Species Id, vx,vy
0,-1.0081283867196499937080034e+00,-1.7120981605744005626945636e+00
0,-6.0270959018665815065673996e-01,-1.8644359339421530119551562e+00
0,6.0112022729200832726892401e-02,-1.0874962250099302618622232e+00
0,1.4673315211243422861997487e+00,-1.1662370311076166728980752e+00
0,-5.5786956941494192374619843e-01,-3.3439785967273030209412354e+00
0,-6.4498685066178534919245635e-02,-4.7580300466419767069226054e-01
0,-2.3268133167271800587627695e+00,-1.8670680592523586360798049e-01
0,-7.8299145546231951886539946e-01,-2.2396333318075898333177065e+00
0,-8.9205391032188108280109873e-01,-4.7268992194604242396138716e-01
0,-1.9109841714377873156394116e+00,-7.4636698933363343488878172e-01
0,-4.2170833198288876220161114e-01,-1.6577207281184360709858083e+00
0,-1.8937712789519356437750730e-01,-5.9159006543877279415966086e-01
0,-1.0082395112995534702804434e+00,-1.2883784856871907109621134e+00
0,6.3893547049526142056485867e-02,-8.8554420821711454792080076e-01
0,-1.9404362135333430572359248e+00,-9.7937200946088021069613205e-01
0,3.8637678213500431523286238e-01,-1.4437348399133749232703394e+00
0,-1.0902846170531648173351869e+00,-7.8392327368821379529606475e-01
0,-1.0805873640423513393216126e+00,-8.5425771323643329147046188e-01
0,1.4175126973841745137150383e-01,-1.7039921686145154122726808e-01
0,-7.0258079986290078444710616e-01,-1.3399730898104740273169000e+00
0,-1.5408122754818998068060409e-01,-1.6298084377582657822358669e+00
0,-1.1190619011603236340746115e-02,-9.9041480297619444161938418e-01
0,1.2997880007889439646362462e+00,-1.7116190873859136178936069e+00
0,-6.1339835672616827011438545e-01,-7.4971927676346550306618610e-01
0,5.8434733449092424173443305e-01,-8.9688149711899678440119033e-01
0,-4.7705092203904431169547706e-01,-1.2760081510491920742111915e+00
0,3.5733400359223133069264122e-01,-9.7982972289798087039969232e-01
0,-4.0475941115315078322467457e-01,-9.7185405802641999795099537e-01
0,-1.6419858854254676394646140e+00,-5.0542299742376517457387308e-01
0,2.7435508456864399207120186e+00,-9.5899315050800293391830564e-01
0,1.5278292532629056399429146e+00,-3.8504308166080614128645720e-01
0,5.6031182622839503792988580e-01,-7.1003760231250967471794411e-01
0,-1.9306394826143573606458403e+00,-4.9886533969956392553513069e-01
0,6.2557417650525948271678089e-01,-6.8261383416044774108399906e-01
0,9.4800366556836213050019069e-01,-1.6713154756488073360287672e+00
0,3.1911667647679065051846692e-01,-2.5311068738576808501150595e-01
0,9.2776284596511904290139228e-01,-4.1092092691189985309563326e-01
0,-2.0208692123149840647045039e-01,-9.9005582688911453193014722e-01
0,-5.0266740519066377412826796e-01,-9.4518026697584889284087240e-01
0,-1.3210883475582986257279572e+00,-1.3033743717392991534609337e+00
0,1.0423664899943112238656084e-01,-1.4751178909753648316183217e+00
0,8.8573349624202535324002383e-01,-9.2182959860417390540732185e-01
0,-1.6270257271262920095722393e+00,-5.6104803576514331031610539e-02
0,-9.2435428779657116682422213e-02,-5.3844362738760553899197703e-01
0,-4.0406860001384803382507016e-01,-8.5840149933056553166466074e-01
0,1.3077592495137437822450011e+00,-7.8763075232993351448840258e-01
0,2.3030122316003096005765372e-01,-2.3763779116255832057902353e+00
0,-6.9287611727490405755247593e-01,-9.1070599073776492549114892e-01
0,-7.5864353895818392725658441e-01,-3.8400544877965342438486118e-01
0,1.0752728794363297648573052e+00,-7.2064178789093857879777261e-01
0,-1.1718795272009844068983320e-02,-1.0399055905269283250902390e+00
0,4.2255589655783959424084628e-01,-1.2852726521254682623407462e+00
0,1.3260896160853776759580569e+00,-1.4839364078844219374531122e+00
0,-4.3450377980088006335535056e-01,-1.0460999019529562126251676e+00
0,1.0922927975789709087450774e+00,-7.7768021981058677027931481e-01
0,-2.4421991046359151078526395e-01,-1.1254260094393064850493147e+00
0,-1.3033447633309074298324504e+00,-8.0702676160653219472607134e-01
0,-1.1702760092667303659652589e+00,-2.0889055952930912773979344e+00
0,-7.6588307856320381183934387e-01,-1.3844329647450663856034225e+00
0,1.1067704042765851291107992e+00,-8.4321391203928441893111767e-01
0,1.9295174986791804871977263e-01,-5.3508442140920442486873299e-01
0,-1.1334262648293385034037328e+00,-1.1899817115319140103935069e+00
0,-1.3949712779087659608734384e+00,-9.2220328006603524695350416e-01
0,4.4508559004501202505110768e-01,-2.8949957199499065652048557e-01
0,1.4709141174401136886729091e+00,-6.3011592775470803839965583e-01
0,-7.6893412474648503707186364e-01,-1.2214199740414564132606756e+00
0,-2.7725081876369928046699442e-01,-7.2097565523575779522502671e-01
0,-1.3835549579605728176545654e+00,-5.4591863559283648754671958e-01
0,-1.5341690792216902683442470e-01,-6.9245573882051292269323994e-01
0,1.4301679943009133477715977e+00,-9.4548057330075041537753577e-01
0,-1.2182276911561065180222840e+00,-1.7221620419000251978047800e+00
0,9.9594709061696773400029770e-01,-5.1172029689100795302181268e-01
0,3.1476340053089013615306158e-01,-2.3900086677674865498488543e+00
0,-1.3593592543737209599186144e-01,-1.3717236915082655634989806e+00
0,-4.8557279101449957181557693e-01,-1.5241010276076700780123474e+00
0,-1.8075893063286472273176742e+00,-2.7619333274513696574459232e-01
0,1.6165631994364444423695204e+00,-1.0579080503875131213931127e+00
0,3.4836206007909459314575429e-01,-6.0003900339691007559395075e-01
0,9.5608861831351288351754647e-01,-1.3970262820705077189131771e+00
0,-7.8228145791811642961732787e-01,-1.5051363289105350595775690e+00
0,-3.9972140902203245893531403e-01,-2.7222130324234261600224727e+00
0,1.9132434509948278988922254e-01,-8.3673492825679163242824643e-01
0,9.4065218167070208110658314e-01,-9.5050589693789233614040768e-01
0,-7.1223416165581399095430015e-01,-1.2991151512202627760217410e+00
0,2.3366511886966989663960703e+00,-4.9451993380471914729668015e-01
0,-1.1986983976582898936413812e+00,-9.4003959543524939768133208e-01
0,3.2545264899152220872124985e-01,-3.7005624736762821047619809e-01
0,-7.2503351068682442281954081e-02,-7.7747471100547893563259549e-01
0,-2.4602840446140714081302292e-01,-1.1922987175574157880930670e+00
0,1.5865189025686103896362056e+00,-5.3530969351330004446509747e-01
0,-1.0320993797337343345077443e+00,-8.9289392733953432124138772e-01
0,-4.9918900532039950368456971e-01,-1.9087655656182873631365737e+00
0,1.0679323673243361625395664e+00,-9.1373291024040215191348580e-01
0,7.8732927759384369048589747e-02,-2.1970711760478254248596386e+00
0,1.6411611012840003898105579e+00,-7.8456907548439680510909966e-01
0,-6.3469712903097919021178086e-01,-1.0601435842882729332359304e+00
0,7.3399063753745863447619513e-01,-3.7486959170464295709734870e-01
0,-1.1653923747191889948027210e+00,-9.2631615883196305460955955e-01
0,1.6841697447220707051229738e+00,-1.3583843271864262103321153e+00
0,1.4354652941233185803326933e+00,-5.4928940591451336228345781e-01
0,5.2014350960262922818344578e-01,-1.3781383474375907827180754e-02
0,-1.7934719189327776867060038e+00,-4.3176157205178483655672039e-01
0,9.2637604322357547381727727e-01,-1.1724157348122390409628224e+00
0,-5.0077161309480588968767734e-01,-1.6546103554827216175482363e+00
0,-1.0020369243324660502025836e+00,-5.6550342002844922184578991e-01
0,4.1975368598581502821431854e-01,-6.2457869956201017558328203e-01
0,-3.8645596558815764609562393e-01,-1.2673826687304670102207638e+00
0,-1.1942297946390922902537568e+00,-1.4925191449471491011991020e+00
0,-4.1460729563896747684736965e-01,-1.8742300434503440520472850e+00
0,1.2565182398476388847541330e+00,-9.9954770093149669651921840e-01
0,2.8115375720145230342694731e-01,-1.4277725834800427673343393e+00
0,-2.0825356275550060969337096e-01,-1.1002501819128411852943827e+00
0,-2.9455196266874261734614038e-01,-2.1592332482935154835956837e+00
0,1.0884329850662930461169253e+00,-1.0766718409866580241640577e+00
0,1.8840223493047083547224929e+00,-5.7241937517009822133928765e-01
0,-1.1514068000124804136419243e+00,-8.4720120308974811162983087e-01
0,-7.9518429606840090873021154e-01,-9.1071958176450096278387036e-01
0,-1.2411455535389441795501853e+00,-6.6861804073621966537643857e-01
0,2.6240129364946057632934640e-01,-6.8451987347161313834931207e-01
0,-1.0530567862258954914267406e+00,-9.0455534252568547959327816e-01
0,-6.2472791943276240189675264e-01,-1.6695748565787527084580688e+00
0,9.0023048874605271496562864e-01,-1.0304622587000729083683837e+00
0,2.3040383548802294555457593e+00,-8.5085027397600909715436046e-01
0,-3.4948008866946722594803987e-01,-5.3349256816212997645010319e-02
0,4.3010656096369292988867983e-01,-1.3297155031830325544461857e+00
0,-1.3055608511399574567235504e+00,-1.2235972235846910294299050e+00
0,1.1084971863467552033455377e+00,-1.0310279978385286092645856e+00
0,-1.7586870063961432819610309e+00,-1.7789657859975434028854124e+00
0,1.6123296647718993179765334e-01,-1.7749696241420314102299471e+00
0,9.3546831856703716034928675e-01,-1.5809250360499851328910381e+00
0,1.3281488931037086498321287e+00,-2.2594024474451659401097459e+00
0,3.6315840142854655114845741e-01,-9.0404178265709211892442454e-01
0,1.7486086981009824059540847e-01,-1.6074429753279417809608276e+00
0,1.0750522203118140218691678e+00,-1.1383305592379835413652245e+00
0,5.8215378152422880830840768e-01,-2.5877468366362896823318351e+00
0,-5.4652938116176796867762278e-01,-8.5323304199675287229354126e-01
0,-2.0533117409514808904269501e-01,-1.9397690136087226697725328e+00
0,1.0365750279509493569918277e+00,-1.2896860639023570715977485e+00
0,-9.2975391098628867858622016e-01,-1.4607418593942202988955614e+00
0,-2.0873911882049597799060336e-01,-1.4024110706953976102084880e+00
0,1.0878180257566221200704604e+00,-6.9268540881257500974044206e-01
0,1.0844988080297404131613348e+00,-2.0896817246166543569074747e+00
0,1.4048338082535631876623938e+00,-1.1732426702895764059064732e+00
0,-1.1409736225897022521280633e+00,-1.4097112745122932775387881e+00
0,-6.2164618665918225381972206e-01,-1.8220086250675044947655579e+00
0,-3.7285613043196226545905603e-02,-8.7446407714195462101969269e-01
0,1.2235537860624021710975740e+00,-7.3874481433567162902420478e-01
0,-9.6026261964480530419763227e-01,-1.7459483574278611417440743e+00
0,7.7117524238559131966042060e-01,-4.1951861559622249941980954e-01
0,1.0935001423314918977958143e-01,-3.6228042250236658361473019e-01
0,-7.6055061994809902703451598e-01,-1.1418016011844316359713503e+00
0,9.0180097441200568475494492e-01,-6.1305925515127057678910205e-01
0,-6.6290550403428638581715404e-01,-8.9756764063812966014666017e-01
0,-2.4282907789390598130019328e-01,-1.2253992293636653543309478e-01
0,8.0701453662055167015410007e-01,-2.2535673545262278061329653e+00
0,4.5940954472355710613840074e-01,-2.2987440441705015992113204e+00
0,1.8541058740584053232680617e+00,-1.6887115579344162963337794e+00
0,-1.2549662193409516497411005e-01,-4.4704132902294480000904286e-01
0,4.8865224884724267617741589e-01,-1.4664993366587777412490823e+00
0,9.0282286622822938149113270e-01,-2.3583956828859831134082015e-03
0,-8.4425975379170470347389710e-01,-1.1059680703771421761416605e+00
0,-4.2667579247013076582106805e-01,-1.3132412749786877004254393e+00
0,1.0053940955534297341245065e+00,-1.3372722703415225176115655e+00
0,-2.1721749567045778306351167e+00,-5.3173444418413573497872449e-01
0,5.8968374772072229550445854e-01,-1.4439671694153959347062255e+00
0,3.0036371886966989341871681e-01,-1.4003124954383736611163158e+00
0,-1.0627380393153988968890644e+00,-7.7852256078082926471495284e-01
0,-5.1259317372033696980082595e-01,-2.2829397057078271160435179e+00
0,-9.3943948342996996814235899e-01,-7.4667787609084923516888921e-01
0,-2.1218708190960533510605046e-01,-2.9486002517416876056444153e-01
0,5.1798244332404186351936914e-01,-8.4222618558042150471720788e-01
0,-1.3531950785702744344263238e+00,-2.7430198250717485741745350e-01
0,2.3083657214473374263974392e-01,-4.9526164475637096673565907e-01
0,-1.2970458467452781192719158e+00,-9.0697953878542325600875529e-01
0,-2.0718574925427870603300562e+00,-3.4310102215061122343797706e+00
0,-6.2154359715710905120999996e-01,-2.0311307467725083775178518e+00
0,1.4085202692972338400778654e+00,-2.3707767504717423001636689e+00
0,7.5424293541301357102213387e-01,-3.9075850092865971330269304e-01
0,7.9716811452191815856593848e-01,-2.2518195562783285268437794e+00
0,2.1536769742847075015390601e+00,-1.1474949434423238336933082e+00
0,3.6368356837358367661394709e-01,-1.3968894226095609489846083e+00
0,7.2430182898723682871633400e-01,-1.2839568783253116901477142e+00
0,3.8788384527547903335431556e-01,-1.0074854840086375773466898e+00
0,-4.6068711317104310554171320e-01,-1.4440379033395196461952992e+00
0,-1.1109232353703430984381839e+00,-1.0988370692214255441854220e+00
0,-8.3462445527666195843607966e-01,-7.4839329283723143859674565e-01
0,9.3108677359756475411245447e-01,-9.2157058955128134947187846e-01
0,-2.7512315953475885432766290e-01,-1.0416055431549449128425522e+00
0,-1.1660215126084880754575579e+00,-5.1071460084461506312436541e-01
0,-1.3101536407149723117981921e+00,-1.2067966114211219341711967e+00
0,-1.1012753480889923007879361e+00,-9.4046121007413607806313394e-01
0,-6.3253650413211914838029770e-01,-1.0987745939746256240709954e+00
0,-9.1116214996665800818220760e-01,-1.8808969821316942616640233e-01
0,-1.1441309936269901115224457e+00,-3.2872144565425898132815519e-01
0,6.4946346798421678014889835e-02,-7.6569034104356192838025663e-01
0,1.1771604866644789222362988e+00,-1.4424452307349520108203933e+00
0,1.0100326854287557942768672e+00,-1.7264146580204720038409505e+00
0,1.4186821451286364403898688e+00,-1.8890342584147934434923854e+00
0,2.8924408108629406921608052e-01,-1.7896287525749889901760525e+00
0,-2.7375677853831988789456986e-02,-1.2891311460697238988615254e+00
0,1.0095923288254489147419690e+00,-5.0665634023734185120702023e-01
0,1.4703717788325600945853466e+00,-1.0639988645557135749086797e-01
0,1.0237151101166164224309796e+00,-5.3515876946871510089209778e-01
0,1.1873065918747849334380362e+00,-8.4625517058055943486749584e-01
0,-5.9529013714488909769784186e-01,-1.4252407260738504390928938e+00
0,-3.1306770911203063434413707e-01,-1.1124051494608022672139214e+00
0,-8.8063042851274064837241440e-01,-8.7134651727030099088722181e-01
0,-4.1955623387714019445482450e-01,-3.9574490767677483749054090e-01
0,4.5840100766096819606687518e-01,-2.4110965583050432137213193e+00
0,1.1546607787292038072024525e+00,-3.9146117695420057369659617e-01
0,-5.7277648978441841887132568e-01,-6.0303563246454816582087233e-01
0,6.9632930706419027266917965e-01,-7.2316650968864149007231390e-01
0,8.2458177185006042986259445e-01,-1.0742397484637153937114817e+00
0,-4.5714606868435603281852764e-01,-2.4200740212392348738035253e+00
0,-4.4989088039669056229286070e-01,-1.0616190608840621045771968e+00
0,-3.3543014185838215812651697e-01,-1.0202101434834001114637658e+00
0,-1.0136274689208881610857915e-02,-4.7477530634237891105087215e-01
0,5.9739296150062060064556135e-01,-9.2438089243269450090423334e-01
0,5.8092952551874865729786279e-01,-1.9751677599082069214375679e+00
0,4.1588615063822825801409522e-01,-9.6927544237496043866286755e-01
0,4.2880005032131929265659664e-01,-1.5514796603045424294720078e+00
0,9.8871757061439335956265495e-01,-1.3008635186353667556602431e+00
0,-4.6667952311805183107651374e-01,-2.2492354537309924289445462e+00
0,5.0632080684530011982502629e-01,-1.4737311613255001940814282e+00
0,8.4023487257391860083544088e-01,-1.1172207509541283165788172e+00
0,-4.0618991768117734819654174e-01,-2.3470598070291859293945436e-01
0,6.8078340925543545658626954e-01,-2.3861018568335734535423853e+00
0,4.7710878907646070423709261e-01,-4.0581444880812478359644047e-01
0,-1.4471303456902064876743452e+00,-1.0582125388914551677999043e+00
0,-1.4376672489844735669528575e-01,-1.8311391503092244725792170e+00
0,-8.8627711422120747375430483e-01,-1.7831116909296444994481590e+00
0,1.0458227966445046153154408e+00,-6.0656816194714402445953283e-01
0,5.3746306613353300729585271e-01,-2.6937086042867031121517130e-01
0,6.2098466114280148619997135e-01,-1.1657414618319485999364815e+00
0,-6.8534992331161204148770594e-01,-4.9475638647986258655819825e-01
0,6.8733777038343246701401767e-01,-1.2555437624498171356179910e+00
0,1.5159348024284600153777092e+00,-6.7482306829004501391722215e-01
0,-1.9401651074032046917494654e+00,-1.8986128269577409177770733e+00
0,-3.4519779862933908098909797e-01,-7.6156541260596033460217313e-01
0,-2.6370933631430193422318098e-01,-1.1578415518428142316764706e+00
0,-3.7287472061922344312989708e-01,-3.6315265402751550904980604e-01
0,-6.1229606905050537601908900e-01,-6.1428984944160247572142453e-01
0,-1.7183769589917552433888659e+00,-1.7777311496495171727616480e+00
0,1.2643711038043004002418002e-01,-1.3914433818598732628402104e+00
0,1.7219008483685424581999257e-01,-1.1041253547860323536156102e+00
0,-1.6234670689144306554574371e-01,-1.8099277854899082917938813e+00
0,-2.2889358301587964250600749e-01,-5.9169330401917319406379647e-01
0,-1.9340309657833321121955805e+00,-7.4823632914633120272185351e-01
0,-2.1448652801560936786984257e+00,-1.5389412846673033996580671e+00
0,-1.2292044892113353216078764e-01,-9.9597935222629552232120886e-01
0,1.2901436545114954856927625e+00,-8.4030535578184062384110575e-01
0,6.5513486349719418644355073e-01,-3.8433522464361944415145445e+00
0,8.6028520022418120127838392e-01,-2.9776958305268019788769607e-01
0,5.4367829497171216157624940e-01,-4.5733477750293627384081674e-01
0,-9.8361046800829154967971135e-01,-1.4077064922475486241637554e+00
0,5.5817813455663167765408161e-01,-1.6361519583840311575784199e-01
0,1.3138602367459482067602039e+00,-1.9145154066217773269897862e+00
0,-1.6379368399278202428348550e+00,-4.1811588334101812414189681e-01
0,5.2796969749203981336904690e-01,-1.4801603255495152655640823e+00
0,-5.0533535744603685913034496e-01,-6.4987604949711363921949214e-01
0,1.4649622924870342455250238e+00,-1.8192226465710192861990890e-01
0,7.6937992401841648337779134e-01,-1.9023368988196978079940891e+00
0,6.2937206548037283315721879e-01,-4.4999269882631809380768573e-03
0,1.3570838183754372341383032e+00,-9.0042606037855743572606571e-02
0,-1.2477077349821130702878236e+00,-2.4213004611196806692419159e+00
0,-3.3878927448723217263903962e-01,1.4310296914743003693359924e-01
0,2.2323724240631828696912464e-01,-8.9130296203989123338118361e-01
0,4.1597245634349083731606811e-01,-6.5101444975752154054049470e-01
0,6.3102459932980081713793652e-01,-6.8364229933794484761477861e-01
0,-1.0963111512525698376663286e+00,-8.6455026161591497224634395e-01
0,6.6341245623923084107076420e-01,-4.3696674585191264128525290e-01
0,-1.7185075165229649063469708e-01,-1.1603413682646439575307795e+00
0,5.8590097708678723353870055e-01,-3.7442660442388853159201290e-01
0,-2.9326434607423340628074016e-01,-7.3091542159938582834399767e-01
0,-1.6335787283217522158906831e+00,-1.0237637707912115025976618e+00
0,-1.1556337702700090197538429e+00,-3.4711828786688392334269793e-01
0,2.2445887096926814274766571e-01,-6.9701755376782104089983250e-01
0,-1.5840497932602177755256889e+00,-5.1770936519604071612832286e-01
0,1.1085276723508510343663147e+00,-2.9563014801206999315752455e-01
0,4.6805364129418458585263352e-01,-7.0466630960161147356757283e-01
0,-1.2997450652040054563940430e-02,-4.7733390204288450586744830e-01
0,4.5711122840606255302020600e-01,-1.6220184014462024624236847e-01
0,-1.1015426073888299196568141e+00,-1.8414093418952237612984391e-01
0,-8.8730747893186778796348335e-01,-5.6987599214413076076368725e-01
0,-1.2466799097130829565571730e+00,-4.1567475510061957510998809e-01
0,-1.6956314646999318118680833e-01,-1.7142123225081438153694080e+00
0,-2.2105180481887301557897274e-01,-1.6900915488490888538564150e+00
0,-1.5492836382299091102510147e+00,-9.1799782320318956685412104e-01
0,1.1792374172938864251847235e+00,-1.1836743067629624803771549e+00
0,-7.5061981278398559602749174e-01,-3.0337737099477934954450120e-01
0,2.6130539999509272419686567e-01,-1.5241474060897339803943851e+00
0,4.5950439425541611537795461e-01,-9.6340931044600397470389908e-02
0,5.2451680411176704321718489e-01,-6.6552117894816531507018453e-01
0,-5.7583958248465672014049233e-01,-7.8699529423327996280335128e-01
0,-2.2033697461974529469008743e-02,-2.0330911955020258830018065e-01
0,-1.0613358920754543124331803e+00,-1.0209761226964064739775040e+00
0,-1.7123388249719970755080567e+00,-3.0392441076204501637647581e-01
0,2.0341187008312924811015421e-01,-8.1878237769717610028408217e-01
0,-2.1592741533140484833097617e+00,-1.6533649548610025448169836e+00
0,-2.6588165739942981602439431e-01,2.2321629104568196932945057e-01
0,-1.2017445119987546497952735e-01,-1.4703561579835988659681334e-02
0,-9.9247458775588115464927341e-01,-3.3309106568153246108465737e-01
0,-8.4554577446883916191922026e-01,2.2335562183926205293005296e-01
0,-9.0549286837040110498264767e-01,-1.1547694396057517352005561e+00
0,4.3119675356363235119161459e-01,1.7271909131879392695907427e-01
0,6.1536675218300784795388836e-01,-3.8087498959899435124754064e-01
0,1.4987962219449786349656506e+00,-1.5700769565347303391433798e+00
0,-1.3068314703225264450381360e-01,-6.9931390545018912163754976e-01
0,-2.0818949212558441885789762e+00,-8.0911309079314031045271349e-01
0,1.1656772285704370961667564e+00,-3.2935465834006338869954789e-01
0,-8.5900453227583128956723613e-01,-5.9546843946690297677548642e-01
0,-1.0006536733975046615796600e+00,-4.0670459939715031261187050e-01
0,2.5898749761869499508293302e-01,-3.2165248204143193078152763e-01
0,-5.6787337319923236744756423e-01,-2.9761750465543335142371006e-01
0,2.3492568326654906379902243e-02,-1.1077173407667342264204535e+00
0,-5.9026631614735158848361607e-01,1.5262751400231133747098511e-01
0,2.0549902238701539536336327e-01,-3.2282591466532450930060349e-01
0,-3.1607940866430322968128053e-01,-4.5394564385953484197955277e-01
0,-4.4000079469799321940648440e-02,-1.7529283178708743307083751e-01
0,-2.6352324843317886937654748e-01,-3.0373670723111922953307840e-02
0,9.1178117916192247260909198e-01,-5.0809476482788462625705961e-01
0,2.3047712835220574012495831e-01,1.5031025053503510591212944e-02
0,-1.8819609450616081591789452e-01,1.3181071956621348562066487e-01
0,-2.4918147950521745137564267e+00,-1.3121699142624538847456961e+00
0,1.6545693375203758268554566e+00,-7.2812594632937799321581451e-01
0,-1.5960177119993898542382738e-01,-8.4237396416260201803538621e-01
0,4.1546760204010951822439779e-01,-2.8508745325497664158120870e-01
0,-7.8195570644576672947323459e-01,-4.3834320038548568732039712e-01
0,-2.4497733636808946555696309e-01,-4.9103677659729183524461860e-01
0,8.3421548207371221117512050e-01,-5.5082844244738649042147927e-01
0,8.7054210584713920262345255e-01,-4.8644314393301857357698736e-02
0,2.8307786506463372688813251e+00,-1.0844321101345864022391652e+00
0,-3.2809876225632572666057740e-01,-6.3248538313649060871313168e-01
0,-2.6265092102288889464034582e+00,-1.2540961579278897541911419e+00
0,-1.6043376031119854774331657e-01,-1.6499322075591873471012150e+00
0,-7.1195129846101129489355230e-02,-5.6204237459346328975584584e-01
0,-5.2464367236762488033718910e-01,-1.3519924118479242913792859e+00
0,-1.7056948391348061289107818e+00,-9.1128781942986070152556977e-02
0,1.9341895067678840369751470e+00,-1.3831726330241158606781937e+00
0,5.7261087011422973080954080e-01,-5.3523498293353966026586477e-01
0,-3.3233844191133865564324879e-01,-7.6144140089872436316653648e-01
0,-5.5701213744909527925130988e-01,-5.7439410208040397876061434e-01
0,6.7489742694392240718315179e-01,-5.0890999466083797209137174e-01
0,-1.1812745237604813652865232e+00,-3.4400488465609768695685489e-01
0,-7.9380237407715281694464693e-01,7.8517295419542443291049949e-02
0,1.2506605578364698994064952e-01,-3.3769310476970504364402359e-01
0,6.4850346174621464889753497e-01,-5.7683276205461220254022692e-01
0,-3.4432105278123437130943785e-01,2.4150184510552952232842472e-02
0,2.3877739368777679551669735e+00,-5.3257251329871557743445010e-01
0,-3.6456586738003887715464657e-01,-5.1584580773854649127230232e-01
0,-7.8827506583470308143546390e-01,-5.4478517883548727152032143e-01
0,1.0407021438982735350720077e+00,-5.7438345759936415557689315e-01
0,1.6101702362089667097677648e+00,-7.9803912749529049008856418e-01
0,1.0654886230663993540446199e+00,-1.0932778875960666997713133e+00
0,3.4136335937727280143150210e-01,-5.3070954252928592698168586e-01
0,-8.1720458623479630411168273e-01,-1.3610348487422307961480783e-01
0,1.2308092037365008231120100e+00,-1.2278710628152114114897131e+00
0,-6.0693389567057531852611874e-01,-1.2359968267141507869411043e-01
0,-1.1552180606713172150712410e-01,-1.1835125371347787748277369e-02
0,-1.4593543449145487400642196e+00,-1.0664527399993994905003092e+00
0,-4.4573896002270785299259614e-01,-6.3628778412694086963341533e-01
0,-1.2456620885251787900216414e+00,-2.6566145293957221795722035e-01
0,-1.5014768677475565095136290e-01,-7.9453769918992889209619079e-02
0,9.3271590157411132793185971e-01,-5.1164913686868984665778726e-01
0,5.9583808858669662367191222e-01,-6.0574824917189151740615216e-01
0,-1.6354283838251257865437083e+00,-2.0010791912244663137698808e-01
0,6.9327362892714983200193046e-01,1.3202828190270565755781718e-01
0,-4.7346125114327053395868461e-01,1.6300961067169777995999880e-01
0,-1.1187771918692031025699407e+00,-8.5172264267606712095926014e-02
0,2.3129282775384596426704320e-01,-2.9450559985194602052871460e-01
0,-1.0583034444657264394606955e+00,-1.9577236527755261796812647e+00
0,6.4046741052539624128314699e-01,-3.6288818052540394720750783e-01
0,-6.5911158489293508733197768e-01,-3.1767476261811422588721143e-03
0,8.4778673013173699857247811e-01,1.7893099466084977366975295e-01
0,9.9606365226690141145837742e-02,-1.4405217103682597112879193e+00
0,2.1818790123747300313539199e+00,-5.3518807108690369389591979e-01
0,1.0961593659185870919259287e+00,-8.5702981516696430386303973e-01
0,1.4518630283569514127783862e-01,1.0579735646758592348959382e-01
0,6.5420115068609929753762344e-01,-1.9218181001399781138161416e-01
0,3.5585231716143356228698735e-01,6.4167429280486687481754871e-02
0,1.1513368055161579128764515e+00,-6.0120475122730676620363965e-01
0,-2.3325815950177772317708502e-01,-1.3376040263195909663096472e+00
0,-3.3430250768793545734780537e-01,-5.1255697905327368690819867e-01
0,-1.3736024736391918565914239e+00,1.1969246665493260550761079e-02
0,7.8995754354495850702022608e-03,-6.2574703798811204258356611e-01
0,-5.6194959932067645169695425e-01,-5.3491414099390865999339439e-01
0,1.2585966727348707472344813e+00,-5.5383586035624643439945203e-01
0,5.0682473832394947521606809e-01,-2.0248135671709466265610899e-01
0,1.1195709965077030312308182e-02,-1.2634678355515882586246335e+00
0,1.1117186183815714883849068e+00,-1.3892052112078436820752358e+00
0,-3.2228888695551244358838971e-01,-4.8162361738248993248134866e-01
0,-3.9087197226062136978796957e-01,-3.4529906670369936438902414e-01
0,1.3160111200181263679809263e+00,-2.2594271453289982432011129e-01
0,1.0875301999169206812467792e+00,-1.5489811413113456772805421e+00
0,-1.5313247994436125498651791e+00,-1.0617094248571246062340379e+00
0,4.4179084008705057917687498e-02,1.7643510530506611999612687e-02
0,-4.9447642830488536258570775e-01,-4.4701821632494598279805587e-01
0,-6.3067015227658784759512400e-02,-9.9685071884691378585330312e-01
0,1.1179776576581317293346274e+00,-1.4044264840237297153890950e-01
0,-1.0550510151749754594874275e+00,-9.3874045250838655807257283e-01
0,-1.2947059671320326756926988e+00,-4.7719395970227385106454676e-01
0,-1.6284822052014347182335996e-01,-1.9294865048322362710564448e-01
0,1.3153670212351431523245537e+00,-5.4843383775625909049011852e-01
0,-1.6905449786029769221329389e+00,-1.4948628159769219436725507e+00
0,4.9050454495693579515247507e-01,-4.1849827045115206569647626e-01
0,-1.3901347643402726106387490e+00,-5.6640171085099655368111371e-01
0,-1.7484402654842552404801381e+00,-3.9676769631413755234916607e-01
0,-2.6351183856440585362435058e-02,-2.2203816344420346240440267e-01
0,6.5852132256370399243650127e-01,-7.2125436686904897953809268e-01
0,8.4694196157836498795035141e-01,-9.8466275515574075427593925e-04
0,1.4293235079859686886827319e-01,-3.6127136062602671628951612e-01
0,7.2825384059434739025817862e-01,-1.8656150646106572921212319e-01
0,-7.8787221912569149750993347e-01,-1.2717130748941385398609327e+00
0,1.6136389325765090330122575e+00,-2.1636582269193016525576923e-01
0,5.8655816213597600228268902e-01,-1.0272184370394383812197248e+00
0,9.8957735791988132856289440e-01,-2.2210566836968159698528780e-01
0,-5.6081402040817707188580243e-01,2.0632127716824588681276964e-01
0,-8.0842447493706437455784908e-01,-3.6588216400305062503406361e-01
0,1.2697828814955727239066618e+00,-8.3858604707386685817027683e-01
0,-7.9097984898426942912408322e-01,-1.7668806538574244324735218e+00
0,1.5283260879678603472164866e-01,-6.7099076741827534675621791e-01
0,-1.7010083994051774514133513e+00,-4.4851465451208438750541063e-01
0,-1.8240261260671211118733481e+00,-1.2810487814992583821549488e+00
0,5.8576975261191521759940315e-01,-8.9577714755110238176172288e-01
0,1.3492424319010651867500883e+00,-1.4889040530212194202164255e-01
0,2.9837291081824363070396089e-01,-9.4315298403025149553968731e-01
0,-1.5629579138841247498703524e+00,1.6832797720640219063525933e-01
0,-1.4788556179555971681338633e+00,-2.5360028071603613053497384e-01
0,4.0220404400240572506675107e-01,-3.3715245783392577827441983e-02
0,8.7990329294320757114178377e-01,-4.3333440619597074494606659e-01
0,-1.1137243965868928174955954e+00,-7.0579817792289278877149172e-02
0,6.3585317360232773697958919e-01,1.1999361966679145119485383e-01
0,2.3026757296605131486444407e+00,-8.6267150574952189412414327e-01
0,-1.6664411853965350740480744e+00,1.2227381905126516459247910e-01
0,-1.7031556483245908761858800e+00,-9.7480108844749235874616033e-01
0,1.0956435185640268914486484e-01,-4.3609802678248843488262310e-01
0,2.1342537251102924877876887e-01,-7.0965460884157871568334031e-01
0,-6.6922753393997697068940056e-02,-3.6995208457958672632059915e-02
0,-3.1402761702078629824086420e-01,-1.8298189941360520904822806e+00
0,-9.0212722320666494102425759e-01,-1.3703660765438709923103033e+00
0,-2.9888197587813571942660928e+00,-1.7810403054028351998994140e+00
0,-1.3725466327179489667287271e+00,-1.0927540246133120582783249e+00
0,1.3257200616709208240706630e+00,1.8878107223010509585492400e+00
0,1.5098535955383920459382807e+00,-3.1595806020492089860596252e-01
0,4.0129558857724997866789352e-02,-6.8078811157574892209964901e-01
0,1.1269683782431294538639577e+00,-1.4969997029032844348961362e-01
0,1.0704391075713399761326627e+00,-4.7040169163053291434550829e-01
0,1.3816385992055788545229689e+00,-4.0073254243242073524555735e-01
0,-1.1978430672265449885571797e-01,-7.2820150236561420609149309e-01
0,5.4313496833970291433058009e-02,-4.2225160896602109694697447e-02
0,-9.7821246159712371692762645e-01,-3.0470523772080781998994325e-01
0,3.3292507655970632329811565e-01,-1.8563548390759021522455896e-02
0,8.3591499016443326919301171e-01,-1.0268703246425894270998924e+00
0,-3.0048471557228256800797794e-01,-8.0242210528196777907794512e-01
0,-7.1810272462020918737835018e-01,-1.3771527984888443096878063e+00
0,-3.9824116240225138074748656e-01,-4.7688614775563353820331258e-01
0,1.4715914979432540565795762e+00,-1.1315284086304693289548595e+00
0,6.3742495308188595881659921e-01,-1.0104130960891855028904729e+00
0,-6.0274143046905848120076143e-01,-5.0155145679651180756764006e-03
0,-4.7906776759186009417845753e-01,-4.6449616519254766089375153e-01
0,-1.0874225403417563384778077e+00,-1.3061428809676334239497919e+00
0,2.2583771928035065168494100e-01,-5.9519330588247187918682357e-01
0,-9.5598233982582603296407342e-02,-1.0022619018287726166960283e+00
0,9.5357779128916186905939867e-01,-1.3793997617364026631037177e+00
0,8.1649006998101558707503500e-01,-3.7379188921064188111387239e-01
0,4.0257719153578025439443877e-01,-1.2346132786463499542151112e+00
0,-2.1977613812135709386863525e-02,-1.2158475359939244775375755e+00
0,-2.2359462250889153289712397e-02,6.8024606110211438547707985e-02
0,2.8687277012605121306876299e+00,7.6402852848320268464021865e-02
0,2.6683433328453038529959329e-02,-1.1410605250117449305236050e+00
0,-2.0238426071020150232016022e+00,-5.2493272740540564136324519e-01
0,4.8472959425585881998443938e-02,-6.4624304194397075296052435e-01
0,8.7511352922192442438387161e-01,-1.1523485821572849729932386e+00
0,2.1730053478839694847124520e+00,-6.4086229740813238642260785e-01
0,-4.9214916214681975192846153e-01,-1.4296377296431992398595412e+00
0,9.1565765014362654472535041e-01,1.1910896307281659822763231e-01
0,-1.5399008383257992704784556e+00,-1.2831534201073968581852114e-01
0,-1.5314496634307568356803131e+00,-1.8961362174007678760290219e+00
0,4.8019722761617950057555504e-01,3.2487037193268286650038590e-02
0,1.1110934878942737569218480e+00,-9.6600777764652723256233458e-01
0,-1.3063474996544102157969292e+00,-1.0044171016379515037897363e+00
0,-6.1250444494180233956370785e-01,-8.0638235252083767523600955e-01
0,1.3751611783968082924900500e+00,4.0089675850921158151152213e-02
0,1.1483818215594754352792961e+00,-9.6737632013282748300042613e-01
0,-2.5477029944334189659471690e-01,4.6565662229633908442139045e-01
0,-4.4275872319358383633058907e-01,-1.2102105857369283015145811e-01
0,-1.2027827159027963954684992e+00,-1.2866552109891071786762495e-02
0,2.8985866951681310554889137e-01,6.2931479170068893580491931e-01
0,-1.2824715271571354158197664e+00,-3.4404151480835087895115976e-02
0,3.6346547738904827484773818e-01,9.3481271661501441627706299e-02
0,4.1302006099332873034768454e+00,-1.9483383365792497077251255e+00
0,-1.0592118855433045876424103e+00,2.4756514075884539227700998e-01
0,-7.8478867560851162110679979e-01,4.3677325265661548492346355e-01
0,-1.5457574752223037783949167e+00,-1.8384515904174431044637572e-01
0,-4.0467370822996817647521084e-01,4.3678239362104176457535232e-01
0,8.0670029125204698039475204e-02,1.3090618168187351244569072e-01
0,-7.0407334976482349730986243e-01,6.4532372661979975347890104e-02
0,-2.7519038295015540995791525e-01,-2.3119142855221319621250586e-01
0,1.2837556093979565208229587e+00,2.9146643170113317733438407e-01
0,-1.0378214573029200806786321e+00,-2.7692218971224058510216537e-01
0,-1.9877356299372745951359320e+00,1.7168677753882533032481206e-01
0,5.8710992999880118325961575e-01,2.1666038872445059215721130e-01
0,6.9804892336682811126991055e-01,1.2156195895831456432745199e-01
0,-1.6557274663331524866549671e+00,2.7158654217306732459036311e-02
0,-1.6509746451086584340117724e+00,9.2458625479592576601461928e-02
0,1.5345698535784895177869203e+00,-7.3765579894998767329639122e-01
0,-2.0632340984622663526693032e+00,-7.2363421226662649754501899e-01
0,1.6097914077806192434394461e+00,6.1624632491497605135677418e-02
0,2.3225567699200377891344260e-01,6.5291593583962770352968619e-01
0,-1.3017524277942843502486880e-01,2.1075773075110693088873859e-01
0,-1.1783366132269532666754230e+00,7.7237945701895394101654801e-01
0,-1.5340547096117838066220429e+00,1.6732494239977768746285847e-01
0,2.6136563920827651230638367e+00,-7.1004103427141584958803833e-01
0,-5.4723373453327628368469959e-01,2.1471062500124904470766296e-01
0,-1.7542154959792605195545434e-01,5.7979378801742165183696898e-01
0,-6.8806970798972938441195879e-02,-7.9325320459739723233383302e-02
0,-9.9579939994009936121699411e-01,-2.2693100994285464455657575e-01
0,1.2072515620597779051337284e+00,7.9769312560238736509177215e-01
0,-9.8340058281800368789049571e-01,-1.9300262983194910182405124e-01
0,-1.2010645379361299944775965e+00,1.6713334798087722821158252e-01
0,-1.9190046201609898268714005e+00,3.3125344776395582169215004e-01
0,-1.7465111633888197317787672e+00,2.0896136572864612568345422e-02
0,1.9061147167318467920971159e-01,3.4697155229207343740682745e-01
0,-1.0774153027560608997248437e+00,-5.8056231171097594234709049e-01
0,3.5667431705623603432897539e-01,5.4092582686722445739491150e-01
0,-2.1015755849671711175119526e+00,-5.7964464270403126544550787e-01
0,-1.3449078556285687380267291e+00,-6.8947365681006511639594692e-02
0,1.7541885344889287523528765e+00,2.1010594079044231374808760e-01
0,1.7094285543226561685514753e-03,3.2730436107782645560604351e-01
0,-9.8155459415482004814634820e-01,2.4240699982796121147998747e-01
0,-9.4546751666542555581074225e-02,-2.4436244089841063775736529e-01
0,1.3885034062026774259734907e-01,5.9976346821127646258275945e-01
0,1.3503228384838403819401265e+00,-1.5128677856306532722996394e-02
0,-3.3757668663101314532326569e-01,-2.9653679333782045901557467e-02
0,-1.1623439741626824250886330e+00,-4.3931132356311097808543309e-01
0,-2.0531965861966807729288576e+00,-1.0652154713424599741244947e-01
0,2.8983570471763453468838634e-01,1.3962035043198195438662879e-01
0,-8.7322606954412518298624946e-01,2.9955555710815456871287665e-01
0,-1.3137138145777946807157832e+00,1.5698997317520674288360283e-01
0,-1.0719038634067623583234763e+00,2.8759037964417488719703897e-01
0,2.9956966649086902432230772e-01,5.9043664500049775067935798e-01
0,1.9472812847936318836339353e-01,-2.3319975520258351409097486e-01
0,-7.7784118635950139086787658e-01,-6.8447388452616708676146118e-01
0,-1.3494857303855467556275016e+00,-1.8219065799376898961980942e-01
0,5.3225061062562500913131203e-02,1.6376826948530032179718319e-01
0,5.9210424906223408925143303e+00,-1.0909548582681363182445011e+00
0,-3.6962915901714754607354507e-01,3.3814440997844319447551698e-01
0,-1.4600627439314737276987444e+00,-1.1825331684399492671033727e-01
0,-1.2304684256224543426050388e-01,1.5945225633980997237415522e-01
0,-5.3149982847371912697553853e-01,3.4864197441702271529351265e-01
0,9.0506980993290575554510724e-01,1.9954408737342554935878525e-02
0,-1.3731809923505080561767500e+00,-4.4659343325601774665756238e-01
0,-1.3417151829362419235280868e+00,2.5536806436208647763663748e-02
0,-1.9200946869407051753597671e+00,-4.9561112302401155726983006e-01
0,-1.2272958490915248930264170e+00,1.1166337415829868939809444e-01
0,2.2298903289107996350537633e+00,3.2880981222107830141965223e-01
0,-1.0915573095161668071284566e+00,2.3891586141409526522494389e-01
0,1.2859924907834892060520815e+00,3.7971422103102847600553105e-01
0,-1.1556435713373576223972350e+00,1.0828287400280411922892654e-01
0,1.8762257047249177865921865e+00,2.2808670445310602614696904e-01
0,-1.6145033241065134266278847e+00,4.4687171845209427978318217e-02
0,-1.2398751596133061880777859e+00,5.7116949985359516395178048e-02
0,-1.4471666547262307389587477e+00,2.5149119756704130246305340e-01
0,-3.1515191687548038679267393e+00,1.4214298190513696695802537e-01
0,-4.2923100194807706220245791e-01,-5.0903985355971070880798379e-01
0,-1.6640738679732502980357367e+00,-2.3264676236455694713356479e-01
0,9.4404489374776501264818762e-01,4.0834165123572285782671543e-01
0,-5.4317191229007910635573353e-01,1.4451386339564475935759447e-01
0,-1.6431736512605144007181934e+00,-4.4895430944855796440151607e-01
0,-6.8404892858877253125626794e-01,4.6269254791781466717992544e-01
0,-5.0180495295481741813148346e-01,-4.5678259757959005504801553e-01
0,-7.9528100656060007889180952e-01,-3.3052979044744190684212981e-01
0,-1.2096814310946455428563695e+00,2.5841645226193105111534010e-01
0,1.3916032908773614540365315e+00,2.9892471737423564892566219e-01
0,1.1349409578580369473144174e+00,-2.0006703822605764742093015e-01
0,-1.8261020423263556455850676e+00,-2.9114001010379952916196089e-01
0,-1.4754814426819000683366312e+00,-1.1162564072326741637652958e-01
0,-1.8960857897342225930614745e-02,6.3385088658364308056292202e-01
0,-2.1547130189084096052454242e+00,-3.1418421469287688418958737e-01
0,-1.1088509849202861090589067e+00,1.5262345765359330851396180e-01
0,-1.0032336553752414509688151e+00,1.7871512576285475404347380e-01
0,-1.1101264482086700691176873e-01,3.5220907107386911771840232e-01
0,-2.0790984336016729017160287e+00,-5.9638806689686707507291885e-01
0,2.8670540645259876555428491e+00,-9.7545185414668222900758110e-01
0,1.1217437637659297688941251e+00,-2.4931631733378112336652066e-01
0,1.0516355899050504607572520e+00,-3.2027752564783751321186855e-01
0,2.1854402422577962061822632e-01,5.0448995542660757251951509e-01
0,-1.2894889553360475709098409e+00,4.2654073905302070102152356e-02
0,8.4837395715644481342110339e-01,3.6801722713230455852340128e-01
0,-1.3105066938459972725183889e+00,-2.3038384953799428966902951e-01
0,2.4922482081244989871038342e-01,1.1117139453648450242440049e-02
0,1.2150261526701375824899287e+00,-2.7632670125571467956149263e-01
0,-8.4947101700752947195383058e-01,3.7184523319836193522291978e-01
0,-3.8922582655341358970346732e-01,1.4984795249465454602955106e-01
0,2.8189408021255939473803664e+00,-5.8279671637755003921199659e-01
0,1.4800790431754480280801545e+00,2.5706898506277486848858871e-01
0,1.8014724925665035470956354e+00,-2.3873220663702221511215384e-01
0,1.4856494016105858957388364e+00,1.9698913953536001386623866e-01
0,1.1641593419482507698603513e+00,-8.1781593322781898081075269e-02
0,7.2664907168870462861320902e-01,5.2959624134023375319202387e-01
0,-1.2208822772492911035158158e+00,-1.5643056100445469347448579e+00
0,1.8500700960078267365283011e-01,5.7285346478142329385008225e-01
0,2.0829623606223366394374352e+00,-1.5258787971174997410983565e-01
0,1.1144744827452965907355065e+00,9.6511394431144781336229244e-01
0,5.7777644992213189611973689e-02,6.3174086977160426314981123e-02
0,3.3580186699372749359326917e+00,4.1949092277927713112717356e-01
0,-4.1537943698811063963916013e-01,3.2784528426551196034210989e-01
0,-3.0795028283475722741258096e-01,1.3893838474951658579215064e-01
0,-1.8606950429643229760756640e+00,-3.5336292324478330018067140e-01
0,1.8715794351825063568384167e+00,9.4022157946608508893859835e-02
0,3.7829045229358232438343634e-01,4.6886698967266193793790308e-01
0,4.2139080118457844514878730e-01,-1.0426448507990837555325925e-01
0,-5.6627329836063333701190459e-01,-2.7282647272675475402792244e-01
0,3.6154725542030768936641039e-01,-6.8365706229911449298697335e-04
0,-9.5227876021851209920043857e-01,4.0118438363131969648378572e-01
0,4.3957280936779813407255801e-01,5.2841968936095706776967518e-01
0,-3.5260420546177645428898018e-01,6.0157627937285818031654117e-01
0,-6.5434443630609706588074914e-01,3.9105017941008612947229039e-01
0,-8.8853241491856915779123938e-01,9.5983084939881502251068923e-02
0,4.8232965164703260896317261e+00,-1.6081811341679714821850666e+00
0,-7.0361391499777481417510216e-01,4.3938531364146371505086108e-01
0,-8.3455190338916585002237980e-01,-9.6419170043365864941620202e-02
0,-1.2138191952565005049535785e+00,2.1555784604023953132667657e-01
0,1.4133429886990918067368739e+00,2.2554308797056488167243060e-01
0,1.5784935312900356674248314e+00,-5.5855966838275428187898797e-02
0,6.8763602184005823136914159e-01,-7.8419926687448349156284166e-02
0,-1.2000302881851028224957645e+00,-2.1202811476426597359079551e-01
0,-6.3456722113260100037734901e-01,3.9540058157215030032460845e-01
0,2.1905609603429780918304459e+00,-2.1034543079725270819935190e-01
0,-1.3729719552189956210952460e+00,-1.9490400553489983792587736e-01
0,-8.7565623401549963489287620e-01,-3.5985422632902253070596998e-01
0,-8.4039753139639139511984922e-01,-3.4960040967180927573565441e-01
0,-6.6801419276513063216782484e-01,-7.9443593571643522643910273e-01
0,-1.0452457630688885004133226e+00,-1.2710088934118740633394395e-01
0,-1.2070425098535899621765566e+00,6.8486548133521618630936700e-02
0,-7.7071576935381302941863169e-01,-1.9217735423049087106761590e-01
0,1.6434240430026872403779237e-01,9.9159711582961773679301132e-02
0,3.0316520862032323435641956e+00,2.7398455510786479116802639e-01
0,-1.6958541097155088728243300e+00,-9.8693881001555072707276395e-02
0,5.4640409455097593838246439e-01,1.4567210900627158842723929e-01
0,1.0082325476239910599929317e+00,3.2522908736591293887840948e-01
0,-3.4667520804621160257497081e-01,3.2921478179106289374544758e-02
0,-9.9601021667064526532442414e-01,3.2790027921280223699440626e-01
0,-1.6306398465371136907720029e+00,-6.8610647496639476372592981e-01
0,1.5869315304534986621476378e-01,5.5758382304449982669325436e-01
0,-2.1490537168330750006361995e+00,-9.1917298641777223089377458e-01
0,-2.2027585313189650406684450e+00,-8.4055222536207363503990564e-01
0,7.1445468978516252223087690e-02,5.6896677719545007967383299e-01
0,4.4493529243601026568200041e-01,6.2825253143770143360313796e-01
0,-7.2102463259925420047125044e-02,-7.7051511935971617184293336e-01
0,-1.4840407898965779498468009e+00,-3.8879968518348007044949100e-01
0,-5.0032385257174882831066043e-01,4.3014656068564527391373531e-01
0,-1.6676242873043172210145713e+00,-2.6717643347441411005860346e-01
0,-1.4688777767326630652178210e+00,-1.4745564538334496318405797e-01
0,-8.0628982338677313013164394e-01,-6.0218430400330902330097160e-01
0,6.7724305333602696777006713e-01,2.2316762879902429794753971e-01
0,-4.2558997431111211806609163e-01,1.2361578347184765114263882e-01
0,6.0830109772634188836093472e-01,8.3213547914404717431580139e-03
0,2.3007846372540523560701331e+00,6.6576652579533004971956700e-02
0,-5.5345641620381946790274696e-01,-2.2343618242339191581891100e-01
0,-1.0431194530953202814771430e+00,-3.3767083354601323819110803e-01
0,1.1708152446872055474358376e-01,3.0185711085660849040124276e-01
0,2.4184906904303263286415415e-01,5.1433850274176184935726042e-01
0,-2.7400044597950108382633516e+00,-8.6018213599783877043591929e-01
0,3.0197023420141400062988168e-01,1.5866770131903851215326995e-01
0,2.8964290472790710229133992e-01,5.1592193007218134503943929e-01
0,-1.6182670211343015420624170e+00,-2.8962637630180265713164545e-01
0,2.3468084990840867298800276e+00,1.6577885179710805108044269e-01
0,-7.4232659431094150104257778e-01,2.0133945491328875121439523e-01
0,1.3468221397051240995068611e+00,1.3178376506033651072158364e-01
0,1.2675599693061032624541440e+00,-1.4126915262057571087694896e-01
0,-3.1808419266381704471058356e-01,4.3114623548096342453561647e-01
0,1.5025628022838852793086062e+00,1.6524947397793193770709763e-01
0,-1.4216539387700133367786748e+00,1.0808645916627751537575364e-02
0,-2.3149240714954801845237853e+00,-6.7157479292374333557091859e-01
0,-1.2006584250620413456545066e+00,8.4517529032801408384045772e-02
0,-1.1547859574349135236559505e+00,-3.6520204044092596795678674e-01
0,-2.0372204190042961791107246e+00,-6.4130634104322958854993431e-01
0,1.5578480606473785741172833e+00,3.8072515743904511431594528e-01
0,-9.2637727087669707870531965e-01,6.8346276046955778404878856e-01
0,-2.1931602104699301492019003e+00,3.8366088680341481342850329e-01
0,3.6812025011688542797116952e-01,-3.6672285989857644761258371e-01
0,1.3671318091134283534415772e+00,9.4724922125052135601919190e-01
0,-1.4299718877108176240398052e+00,1.2548428571143104282015202e+00
0,9.5520387268364792543451358e-01,4.4057751661369687345981561e-01
0,8.1606725433860594076662665e-01,1.0270797091877170714724343e+00
0,1.0012465363870453050054721e+00,8.3091505977630808477130131e-01
0,1.6697704697448561006467571e+00,1.3249701406432012884550886e-01
0,-1.0376144406399741004776160e+00,4.1207193724765645015395421e-01
0,-3.0057992888331908076793297e+00,4.0062481126908011663800835e-01
0,1.2767737785317543330876333e+00,5.7264913173457199224714032e-01
0,1.8744073391710085463301994e+00,8.9648623064390653425448363e-01
0,4.6186157529225800588701389e-02,7.3184991793585962849277848e-01
0,7.5222535899690878835599506e-01,8.7763554450437364362613835e-01
0,3.1115407896546685151406564e+00,6.6137855652704768960603587e-01
0,-1.3203064446056156366893219e+00,8.9260645647001268798703677e-01
0,1.1451275586994120736505920e+00,4.3225032973849342177175004e-01
0,8.1656658225485179158908977e-01,5.9739387388116238497559607e-02
0,-2.8980355488040547840000727e+00,5.0401319645794695478713265e-01
0,8.1789607688339338587013572e-01,2.6647486918240709252714282e-01
0,-2.2226638987315388007459660e+00,2.2250297857200296292035091e-01
0,-1.3375248895417182204425899e+00,9.6358530722933477541403136e-01
0,-1.1677972701787586728983115e+00,1.0751688110862478442442125e-01
0,1.4142017019376122988205680e+00,3.1645711366615969506455031e-01
0,-1.1744515594258300161811803e+00,4.8052317719919157568142509e-01
0,-2.2309698182306978431199695e+00,1.3071493554639301848396826e-01
0,-8.9509907250767173358951823e-01,3.9813636211037400913781426e-01
0,1.4524212341644402446405593e+00,1.5392757960823606477873682e+00
0,-1.5601722128667536715340702e+00,3.6779664112830967592771003e-01
0,-9.3963093819109166915382048e-01,4.9390365254806894990124988e-01
0,8.6252859556655225858889935e-01,9.1364572691029821704944425e-01
0,1.2881637540894324001072846e+00,4.7083241762936522967208930e-01
0,-3.2761844855672865861606624e+00,1.4595850656647819665323595e+00
0,8.2287959269960164743196174e-01,8.4482752975121810923297971e-01
0,-1.4641120630802673119319479e+00,1.9649669655025205905474195e+00
0,-8.2818729854146466706765750e-01,1.9022596208060349454171956e-03
0,-1.2455667882578607130739101e+00,7.0259324215315621664501577e-01
0,-5.6981627396363765392095502e-01,2.8879592029482059611922296e-01
0,-5.6415466806440650593401642e-01,8.0763180251227728589924482e-01
0,-2.9350642856139674830018294e-01,6.7725084576928906709980538e-01
0,-1.0856183899946163506911034e+00,1.5353195023484436654293006e-01
0,1.4493053415571277575679687e+00,5.4664326027956899878290642e-01
0,1.1103012921648676147867718e+00,8.7334573091950384871040569e-01
0,-2.4923977800441550201071550e+00,9.1909057870322863337264607e-01
0,-1.2533739216953416750754968e+00,5.5961824545971350364226282e-01
0,2.8961344699458480000942018e+00,1.9808734261227429751528462e+00
0,-1.3119013101046417268946698e+00,5.8299892773725758843283984e-01
0,2.4836423647869159125889382e+00,4.7057185532628931223797508e-01
0,1.5792452057990777891660628e+00,7.1456290040585157541386252e-01
0,-1.6064991128638588246957397e+00,4.2113897845163544841895487e-01
0,1.3339063867297693555258320e+00,4.5887440052434780302093031e-01
0,-5.4908518117072369069120441e-01,8.9959691704471755890892837e-01
0,-3.3754496401802080995935285e-01,1.2279168329608438625655253e+00
0,-1.1324373612035829594901770e+00,1.3897015523790265945081046e+00
0,-1.5703026776932724750679427e+00,3.5153074255230493116997081e-01
0,1.9325460165590040428895691e+00,1.3363026949539749121953491e+00
0,1.7069275074850465134801425e-01,1.0385347135413469654707797e+00
0,2.5964643673986675942444435e+00,6.8625906799542235603439622e-01
0,3.2111934214644599627774824e-01,5.9367829722074794140951326e-01
0,1.1008391513450888066216748e+00,6.9934794274849787498737896e-01
0,-4.3933207188420242417237205e-01,4.0573477946941660654545103e-01
0,-7.1369515020992868592486502e-01,2.9580880602970677228924501e-01
0,-3.2123022224401713842212303e+00,1.9429035424164788903311774e+00
0,8.2249743586905910142093035e-01,1.0623571954390926830313902e+00
0,1.8556904444776858298382649e+00,1.1289986507391898129526453e+00
0,1.3770179482544369076180146e+00,6.2853184852099275303771719e-01
0,-1.2373978294023078028374130e+00,3.3655555117360402839210565e-01
0,3.1485986039821818316397639e+00,8.3878038389827591636560555e-01
0,-1.3332976297870187121219487e+00,2.4508545994214436802849377e-01
0,-8.9260135055669609371875595e-01,4.6403850566309012837251657e-01
0,-1.3550240538540196943984029e+00,5.3749879778399811680600351e-01
0,8.1285145146989323805541972e-01,4.6009439566465315518684065e-01
0,5.8390715971540863016286949e-01,9.3689029208324270392438393e-01
0,-1.4977548485240683717734100e+00,2.1011005175270308642510031e-01
0,1.0601007736832377403857208e+00,1.6110222047058599947888524e+00
0,2.0396978100598747718485981e-01,8.0140148895318341626392566e-01
0,-7.9823520778464451819189662e-01,3.7180882714176805015071636e-01
0,2.0481822682981567496085518e+00,5.9341575521024958472793287e-01
0,-1.3357410381648611163996065e+00,1.0445326788369087012142700e+00
0,2.3809408363526456398062692e+00,1.4672545734908548631381109e+00
0,-1.0677232738340922679753930e+00,3.6232914240719266141255162e-01
0,-2.0904988596339602047180506e+00,-2.4171516723619970723468953e-01
0,1.4628539894104282126363614e+00,3.6675557271301140183084044e-01
0,1.2387784374985535418289828e+00,7.1687562896592327277289769e-01
0,2.5175590027211995902689523e+00,1.0908636644756020128710361e-01
0,-1.2450642396372844089569298e+00,2.7913021381322677960667988e-01
0,-1.0692607337543538204016613e+00,3.5562881667136236885085054e-01
0,-1.0538517677243244285989476e+00,2.9716910271160883461050162e+00
0,-1.3849919106508550292744530e+00,3.8864426372157073741320232e-01
0,-2.4134862270448826926383390e+00,9.5119416063061545951740072e-01
0,-2.2629755535551412393147075e+00,7.6144234039545066750065416e-02
0,-1.0490256435808968937806185e+00,6.0654396163176205192257839e-01
0,-1.2942843271682629158192412e+00,1.5837414112511225550150584e+00
0,-2.5308177115933094825095395e+00,1.0077031638625162379696576e+00
0,1.9615219653662743226618659e+00,-5.0424149463651812830278232e-02
0,-2.6699158316190461093242448e+00,-2.9092291310806911441844136e-01
0,-1.3315991366861006373056853e+00,3.8085010972070221235696863e-01
0,1.4175053651230795637161464e+00,2.8450461003486376965199156e-01
0,1.2459826476555084795450057e+00,2.8400358097152356151582353e-01
0,-1.5863613105573253214686247e+00,1.1010253674638046383904566e+00
0,-1.1570732769648377491478186e+00,8.9641201170922457652778803e-01
0,1.0392889428558216291520466e+00,5.6063196771931778084052667e-01
0,9.7984592674016113278412377e-01,5.8725949276672817500610790e-01
0,3.5980909989847416063923902e+00,1.4085097617747779352725956e+00
0,-1.2685012847023873217011669e+00,4.3533674689803186774739174e-01
0,1.8100896278043077103347969e+00,3.1905318247692082689326298e-01
0,-8.0326267110380256131207943e-01,5.3083004926806975909414632e-01
0,-2.0069902977463356386067517e+00,1.0552070826825916682878415e+00
0,-1.0063264837164007658998344e+00,2.7844305900743288040288803e-01
0,-8.3312693019282357820287643e-01,4.0848024555923634348886253e-01
0,-8.1958132469985289780822768e-01,3.7366368657657689222872932e-01
0,1.4394344950702784302620785e+00,3.2166283727029515437934037e-01
0,-3.1738359928728132608455326e-01,3.0502505366642729267567802e-01
0,-2.0957473223311637866572710e+00,5.0424565190534709202552222e-01
0,1.7402265319403902310568810e+00,1.1630414952140988305018254e-01
0,5.7346589095794664459049272e-01,8.6424830997382096064995949e-01
0,-2.6706141042717601585820830e-01,1.3013045975112147445429400e-01
0,1.1870037326255935550278764e+00,6.0157576605300611127802313e-01
0,3.0296842852037424442812608e+00,1.3878992919977146680565738e+00
0,1.3643781694042786956089230e+00,2.6819646024489984803551579e-01
0,-1.1870205377426399362406073e+00,2.1998128576840308978646021e-01
0,7.1519936906102321572120672e-01,2.1503753814238470987163510e+00
0,1.8967915139853139816494831e+00,1.0945343614272882160065592e+00
0,-2.0094241977815747723923323e+00,8.9118556889785960350991445e-01
0,2.2898202855312668191345438e+00,2.6721105120612437255900318e-01
0,9.4106476096351232563108624e-01,6.9805786037826988987831101e-01
0,-7.0233824965914948279532837e-01,7.2751264207329469080320905e-01
0,1.0023439656954069576499933e+00,1.1833260540105217106798818e+00
0,-1.3357440598832330813650060e+00,6.6702684626306885107283051e-01
0,-2.2282423135998641328114900e+00,1.5096165564809600478923812e+00
0,-1.8940806706184085683730700e+00,1.0592714514390773050678263e+00
0,-1.1719518011365523957323376e+00,1.3250779563293009211122353e+00
0,1.8527842478786082924813172e-01,7.4937931596849027826579004e-01
0,1.8977727340694905411311311e-01,1.1502501132344218337522079e+00
0,1.0272262594961869552889766e+01,2.4070686047515033045840482e+00
0,-2.4737266894194220867575496e-01,4.7809949111912819486036597e-01
0,7.6039296729900218707598469e-01,1.1055948259907610875529826e+00
0,1.1405500731087547805486793e+00,7.4225997633518425722343181e-01
0,-1.3645527352215189864637068e+00,1.1631455310911715805843869e+00
0,1.3598618231272510126217412e+00,1.5395297522855129201957425e+00
0,1.5035790158976567454374162e+00,7.1184749578388772928150274e-01
0,3.7041441866256341608476532e-01,1.6733914713337183499675120e+00
0,-2.8119529741338928907623540e+00,1.6120559727252512516315619e+00
0,-1.4554812046627825239397680e+00,1.3633901181128265100994668e+00
0,-2.5712552106338586455080986e+00,2.5241436663695946407415249e+00
0,1.6392874449759320398811724e+00,6.8536566601453974278967962e-01
0,-2.2748789181368738177013711e+00,1.3386685202426571450473602e+00
0,9.6200177781895512829635209e-01,1.1245260701731463193198124e+00
0,-1.1401245701712403590732947e+00,9.1486426438110224346189625e-01
0,2.8006831335253246084704415e-01,1.3022403288844643931554401e+00
0,-1.9575913928725363621907718e+00,9.2391332859302044422378231e-01
0,-1.1639182369795728622108300e+00,1.1623391481064417884994100e+00
0,-4.9923502667714980685076398e-01,7.6920307507620877540688298e-01
0,-3.0196023275726839862898032e+00,1.5939406229142349946670265e+00
0,1.1470621670947780401661475e+00,7.0502564200500328350784685e-01
0,1.1991496961256593589695285e+00,1.1237888263813093914222918e+00
0,2.3368234497304603003442480e+00,1.5843999403299915407217213e+00
0,1.6547528310678822904833396e+00,4.6347447269121500035282679e-01
0,-3.9486070372308152975904250e+00,1.8128437007053139762291494e+00
0,-8.8756224696658014838845929e-01,8.8933407134651398795455179e-01
0,8.9459964095885646795380808e-01,4.7942933739703097462125925e-01
0,2.6201704940238084162729137e+00,2.2186656857494546635223287e+00
0,2.3610074126819400319732267e+00,8.2919202718142992480920839e-01
0,-4.8668684807034867656483357e-01,9.2974031152634917241073254e-01
0,-9.3362960958406127076614212e-01,1.0289635802063612501910939e+00
0,-5.1438364604048147921133705e-01,1.6063019009908523493379562e+00
0,3.0877353549927499809513165e-01,6.9330013164464354691318704e-01
0,1.4494683603534981308769147e+00,8.1594432931414684340154508e-01
0,5.1830845190178354009447048e-01,1.6093144131842871402682249e+00
0,-2.1283584446625858355162109e+00,2.1873037568050470724756451e+00
0,3.5012240060339721026139159e+00,1.7251084989334133368288349e+00
0,1.1338167230330054024989295e+00,1.1678286317804746907711433e+00
0,1.4116577484437713430054373e+00,8.6477228210722079104755267e-01
0,3.9029919843662591594224409e-01,1.1122198734105985806763783e+00
0,1.5785982628644033010090197e+00,6.1173021809686134453443174e-01
0,-7.1131618590638501231637747e-01,5.7472660410834364164145427e-01
0,-4.3705726549384360524186377e-01,1.4218809942831402981511246e+00
0,2.8785022508258704121431037e+00,6.3176804906218766433312339e+00
0,3.3723441006982506351619122e+00,7.2698180262963640885232053e+00
0,1.2502290146374570589671293e+00,1.2784346394908183697225468e+00
0,7.3761532624728030071992180e+00,6.9381374146933092461608794e+00
0,2.7388057402028329612164725e+00,1.6094670470781862192666267e+00
0,5.0983599105530141848419134e-01,9.0292924456447642977963142e-01
0,2.6739659474261814331441656e+00,1.9638668556380241003722631e+00
0,5.9073191820292647591372770e+00,1.5745290935035976431777272e+01
0,-3.1389731227042039218844138e-01,4.2842356306278284172606163e-01
0,3.4618760434187443308928778e+00,1.4041774500875799702725999e+01
0,8.2972907008004739282114315e+00,5.0641901462140497258701544e+00
0,-9.7995361169609598306351472e+00,3.1236906657336720449791301e+00
0,5.7980451213025032686232407e+00,1.7713261754098763134379624e+01
