Species Id, vx,vy
0,-1.3493969534868132179039613e-02,-1.9046247756199274903110563e-01
0,-4.4376678022163179582193493e-01,-1.5515427729597719430643110e+00
0,-1.9438449296049358228088977e+00,-3.2757368151940080558404134e-02
0,-7.4823260738924679547068308e-01,-1.4834146195713096005874831e+00
0,-1.0249377536521504516997538e+00,-3.2916989641548481948518656e+00
0,-7.8703189530548889329963913e-01,-8.5627435306302512874054855e-01
0,-2.1454739123123949262605947e+00,-1.3175714229352457618205108e+00
0,-7.0042868100155575294962773e-01,-4.3337083382567781475458446e-01
0,6.8990399342693253803560083e-01,-1.3216574264096481172714448e+00
0,4.9541882369140610720137374e-01,-6.0645047262266060794644318e-01
0,8.8404789001209460597152656e-02,-7.0827491687100430084456093e-01
0,-1.8439477811500051274151701e+00,-5.9388449687777555840995092e-01
0,-3.5592263910257604386799812e-01,-3.7942716500708160154431425e+00
0,1.9670663277066562368844416e+00,-5.3734523798574951314321879e-01
0,3.9903810100956538242655824e-01,-2.0519420109974024768462186e+00
0,6.5358570101552526665500409e-01,-1.1165201799800335002998963e+00
0,2.0752446640522306253728857e+00,-8.0151979253353300425288808e-01
0,-1.6348698752425838698343341e+00,-2.2458760805792925552282213e+00
0,-6.5035805218146591766270603e-01,-2.3866625799674032748498576e+00
0,6.3277356864227296551206337e-01,-9.4213982905602600137484615e-01
0,1.2521932591699189707412643e+00,-1.3378800315974244128369719e+00
0,-5.3957712086372677795509389e-01,-9.1926399262474156603985875e-01
0,-1.0670949127818916135623795e+00,-1.5947640212270413062611851e+00
0,7.0580301179273918776857499e-01,-1.5090706518723953077909528e+00
0,1.2868098102959484307916682e+00,-9.0087682048846950966236591e-01
0,3.2194345880378366642204924e-01,-2.9404886632653254308067403e-01
0,-5.4169493919795974612441114e-01,-1.3062654489119235323713042e-01
0,3.5661100195358114151034101e-01,-5.7446653004397019159910087e-01
0,3.4980896148745763141185705e-02,-2.4270646179438242207027088e+00
0,6.1614148738137475280751687e-01,-1.2595087573465058028432395e+00
0,-1.1858331080757396058800168e+00,-2.8674886011570674959614280e+00
0,1.7427940192075754011202804e-02,-1.8194243250250847765414619e+00
0,9.3051612757706847478544887e-01,-1.0524825396989165859906734e+00
0,-1.6858893330867135151862612e+00,-3.2229179744517422179228561e-01
0,1.2867335714554948289389813e+00,-9.1472594327043899031792762e-01
0,-8.0004457429296493842230120e-01,-1.7123071354901528984271408e+00
0,-1.2533448960424647955491650e-01,-1.7378058670079352676651752e+00
0,4.9304865890588739363309401e-01,-1.1321769823275638078285965e+00
0,-9.7457461343875950721127310e-02,-1.0261203391849329502605315e+00
0,-7.8096474893691025798148075e-01,-1.0576105238031994204561670e+00
0,9.7048396044045970310065741e-01,-6.7788231566750178913594027e-01
0,-2.1087694435676547222158206e+00,-2.4405421679483962904555483e+00
0,3.1124109077951256363547827e-01,-1.2714227925421106579761954e+00
0,5.0957810892204447039688375e-01,-1.8564598357761079583383435e+00
0,-2.1196911634934108015215770e+00,-1.0172628855870955444373749e+00
0,1.1566851041649541809164248e+00,-2.0676484093190090618463728e+00
0,-1.3732165546927697086232456e+00,-8.0439804795202385356844843e-01
0,2.1078853397720095919076755e-01,-1.6220500535698580968357874e+00
0,-2.0774977211926404230268872e-01,-1.3921932881728462660930745e+00
0,7.7420996679028419862333976e-01,-1.2406971857861974761760848e+00
0,-2.0106865408287161178790825e-01,-1.9547401397579580173413660e+00
0,-1.9332490202628958009256621e+00,-6.3973896050208522989777293e-01
0,-1.7501033593840440438782480e+00,-5.4888943596925798829033738e-01
0,1.3186676335337828014360184e+00,-1.9741483769134169357073461e+00
0,7.1039187116837099189581295e-01,-7.4317613365245593914920619e-01
0,1.5315204238982695894577546e+00,-8.5433271857383275005304313e-01
0,1.4551438806519836344222085e+00,-6.1827374132913215376561311e-01
0,2.0098830602678555146134443e-01,-2.5647884083212950656616158e+00
0,-4.3060285587645097393760807e-01,-2.0558980599928150523325598e-01
0,-5.4381822977427751730772343e-01,-3.9553766444087212761360206e-01
0,9.3178460474141999725361529e-01,-3.0682976286622604122911184e-01
0,6.5753834347417423542014880e-03,-1.2680776290975044329201182e+00
0,3.9952208083384183057162886e-01,-4.3452461339999304268388869e-01
0,-9.6142300472817754375398636e-01,-1.2597337624212614493046658e+00
0,-1.3918083123691085134510104e+00,-1.4896300314433568168226429e+00
0,-4.8533314545694578034940037e-01,-1.1298850003437261868555197e+00
0,5.1750117791562300073593406e-01,-1.3592514590971158661147911e+00
0,1.6109736744223446258672539e+00,-2.6883502667146546016851971e+00
0,8.7509547258181130668930336e-01,-6.9668507525384038014948374e-01
0,-3.8946696386823764779450130e-01,-1.2908009533934377000008453e+00
0,-1.0481966464108776193597805e+00,-1.0888963018598776244516557e+00
0,-5.7077041293843455704859480e-01,-1.8232227999555483677340817e+00
0,8.3684697381842654273498283e-01,-7.3308760621191715323163862e-01
0,2.4733035416550042118188912e-01,-4.3515120856527700343718834e-01
0,-7.6536959870557141893954167e-01,-7.9880241764976656071439720e-01
0,3.0773014132229625783310212e-01,-1.2823610596977694786602342e+00
0,1.0869996319086099312301030e+00,-2.3495288272104991600386370e-01
0,1.2002785400597459908311748e+00,-1.1849024127622245217139607e+00
0,-1.0738166188458524441529107e+00,-1.0245694937027183257782781e+00
0,-2.1271068208877583205484996e-01,-1.9642676224076455193667812e-01
0,-1.1484418111865406508798060e+00,-1.3488293719542219228912927e+00
0,-3.3453156005228734670708945e-01,-1.0225875782528409674299041e-01
0,-9.2177280430545360800920207e-01,-9.9086071277989584693557390e-01
0,-9.3936467320130848102088805e-02,-1.1407524535176363222888085e+00
0,-1.2821014470896105463815218e-01,-2.2692837745982505914810190e+00
0,1.1091861643565099904140681e-01,-1.1928974895164445868545045e+00
0,-9.7004305407688529161447377e-01,-2.8689055289744636034754421e-01
0,7.8177763301840019760646783e-01,-4.7710492002902349373272273e-01
0,-5.9184531137922802290773916e-01,-9.3248014505860676859327896e-01
0,7.1094051388832013582685931e-01,-9.7708922028266065318291567e-01
0,-2.0830473544152386389249898e-01,-2.8566128415572417109657977e-01
0,3.6255218359568280872551327e-01,-1.3755239972550425964215037e+00
0,3.5355357353371086315263483e-01,-6.1516149478750570267493458e-01
0,2.5885448822349488295913034e+00,-4.2293324771531365380283773e-01
0,9.9773674049510119310468781e-01,-1.2724384336758152169721825e+00
0,-2.7470195949168701998743813e-01,-1.4391958609506982913472939e+00
0,9.5446205364578284857657309e-01,-2.8218138882382270971049820e-01
0,2.6348170500199985522016277e-01,-4.0265898001560318508751379e-01
0,-1.6966961988773002212305130e-01,-1.7806938453826430812654280e+00
0,4.2517789935331423700759501e-01,-4.4245441504892879525101534e-01
0,2.0314082141018097171780710e-02,-1.2170184518161255571300217e+00
0,-1.4583804443026278097050863e+00,-2.2233088994797167714523312e-01
0,1.2896046026362031899914484e-01,-4.1023522644755783250758441e-01
0,-4.4970902587231298408454450e-02,-1.2228497995538265552539769e+00
0,-4.7645240210156519777839890e-01,-9.6146274635449002765597015e-01
0,-2.6409471756185620705537076e-01,-1.2389525927203828281619735e+00
0,-9.0106641077908666837004148e-01,-1.5191534923547189706027893e+00
0,4.5938058985852037174879570e-01,-1.3168628666109420954910547e+00
0,-7.7472320918675674494835448e-01,-7.7569949026249596091275862e-01
0,1.5318886384745806772400556e+00,-1.4438498052923174341799495e+00
0,-1.7317010580247960138677854e+00,-1.5575158995945637130375871e+00
0,7.1824728851031238718860550e-01,-1.7092226859557069218453762e+00
0,-5.3907667249111002050199204e-01,-9.0455354384000474787796975e-01
0,6.5067048286842676940722185e-01,-1.6171811196724068526719975e+00
0,-1.6859071120859700498861855e-01,-9.2574117016462720286540389e-01
0,4.0282140008880790160716856e-01,-9.6481068072428066706436312e-01
0,1.8956133788070425594263213e-01,-1.1990943872073176468262545e+00
0,1.3775604797376572729916688e+00,-3.0752623682145472372440054e+00
0,-1.9774026954029120251021823e+00,-1.4352308193619496279325176e+00
0,7.2205078122848420640877976e-01,-6.8571717838453016824473707e-01
0,-3.1779685907429766622556144e-01,-7.2191382945810911309081348e-01
0,-1.1989898510267343878510360e-01,-1.0122901151875161041004958e+00
0,8.5528437191732376021491291e-01,-2.0700234289979932422731679e-01
0,-1.2640330574138824992758146e+00,-6.3961458971211704316317537e-01
0,1.4651634021100463645126410e+00,-4.2783357605710603532855885e-01
0,-1.5518905822781354775230511e+00,-2.1711304241444597806776073e+00
0,-6.5343458790488606613422462e-01,-1.1462077463701341173418768e+00
0,7.5836590528740943639718353e-01,-2.6006489464963538082997729e+00
0,-1.1376932673565220976996670e-01,-1.7541617929977071366209884e+00
0,2.8632814058945310620174496e-01,-6.4738517116903937509420075e-01
0,-3.5553660774329653992964495e-01,-1.7939084176319393115761613e+00
0,-5.4358595853542701625826794e-01,-1.1411703696297642585122389e-01
0,6.4352479263093576022924935e-01,-8.4664117535263683222979125e-01
0,-2.9862709808822612833623111e-01,-7.9208817306612355757522437e-01
0,-6.5813648077411457393282035e-01,-1.4884945770864785874465497e+00
0,-5.0827060444707340691739006e-02,-2.3757438425847379193101006e+00
0,7.3869488586124798512599909e-01,-5.4577620607177246281338512e-01
0,1.6428216442499135041543923e+00,-1.2095713214787906508718152e+00
0,-2.2359882343649170599597653e-01,-2.1431350030981413112840528e+00
0,9.9994776238463034534476037e-02,-1.4297680593558528272524200e+00
0,8.2169637088230718102721539e-01,-1.8561720138600819041130308e+00
0,-1.6520262145558675115353253e+00,-1.2720115104468900923961883e+00
0,-1.5632711238880290238739690e+00,-1.7624371625976040789396393e+00
0,-4.5034900502653307796663285e-01,-2.3364309778324832134188682e-01
0,-8.4972148513965367611078250e-02,-6.7077818594838500843025031e-01
0,6.0519072033887799655360595e-01,-3.5506543269443024968268219e-02
0,-1.0457982480955342607931158e-01,-1.8520726654238059971646635e+00
0,-8.6967869900113603520708239e-01,-2.1450069484867935187821786e+00
0,4.7996672397474682281170999e-02,-1.2674269257512837949519735e-01
0,-1.2125222694491655239801275e+00,-2.2431715124479429945836273e+00
0,3.8797720101431237837985577e-01,-1.0072739215161014003641071e-01
0,7.1537323167452449013126170e-01,-2.4877342386090006698395882e+00
0,-7.1737112609550179875839149e-01,-6.6191097902664741692291273e-01
0,-1.2975408424436423171499655e+00,-1.3390140669143106855187852e+00
0,-4.8825375063453196888829666e-01,-1.5009462966300555208931655e+00
0,1.5562525636407789075832397e+00,-1.1005883157916094283734765e+00
0,7.4346425312579700328541321e-01,-1.3826342028141698214938060e+00
0,-5.9835679151327014757555389e-01,-1.1726651941110008969815226e+00
0,-2.1945190371830802789077097e+00,-2.3684050124550020122171645e+00
0,-7.8733912140567068049801236e-03,-1.5079724881282234871804349e+00
0,-1.3751821451829644438191735e+00,-1.1753939641225730206031130e+00
0,1.8073724481533132157906607e-01,-1.7633057301472039313239293e+00
0,6.0956433540497201306607167e-01,-6.2876225907882377086366432e-01
0,-1.4810970867816557472451677e+00,-1.4106312114052885764436951e+00
0,5.2532528340767503660657667e-01,-1.4426519484777735602420989e+00
0,8.0765681638268332909191827e-02,-1.8349649355121329108442296e+00
0,-1.1151865467611958848692666e+00,-1.3751444596897388628065073e+00
0,-5.0432555924816380166220142e-01,-7.1425123996175798879448848e-01
0,1.3563616401311144876729031e+00,-4.6727515474988007282419744e-01
0,-3.0571221356926076007098914e-01,-8.2803022768191636426848845e-01
0,1.3902675368562107394154737e+00,-1.7568520404876510898617425e+00
0,6.3148198345977191170419474e-01,-2.1574871080876802942327686e+00
0,-1.8955417780793501481007013e-01,-7.8867738972558876220375623e-01
0,-8.5163467117259535055229236e-03,-1.3453103807850850248684083e+00
0,7.8693212955198654778854461e-01,-1.0139304226010974474547766e+00
0,7.0673271031075268755472507e-01,-2.0426411117199676503730643e+00
0,9.7740922008793806874393795e-01,-9.1008193961467709343082788e-01
0,2.2179351416235301708290706e-01,-9.0087516023185476576884412e-01
0,1.8014290060507853752369556e-01,-6.0434364264344830885988813e-01
0,-1.8875959346422571671908486e-01,-5.2182783646339447880535545e-01
0,3.9321461998943429971831165e-01,-6.7665841095158285600774661e-01
0,1.8721406753983489412718200e+00,-9.3841728280154701469228939e-01
0,2.0766217759799718289848158e-01,-2.9927852644561618866703157e+00
0,-1.0144337187916334652726391e+00,-1.6250890735863059433086164e+00
0,-1.7533546174955931817862620e+00,-1.4008637389767510939009298e+00
0,3.9297782126502428523551202e-01,-4.3062803911084424068889120e-01
0,3.8171212249281205597384314e-01,-8.1460944440395288701495247e-01
0,9.5635532820791324670750555e-01,-1.2997370521247069152792619e+00
0,5.0264203168716803382665148e-01,-9.0406960018197146666807384e-01
0,5.6944330532985343307217363e-01,-6.6935717146954543110837221e-01
0,-4.1686787377136785837095090e-01,-1.1144986846846258732313117e+00
0,-3.0142554014584693744538413e-01,-6.5722176818530086972458548e-01
0,-1.3592203656092960439849548e-01,-2.0804965350262136780656874e+00
0,-2.3050332049824759361733584e-01,-7.3025819211253861773514018e-01
0,-3.2136309258498746421750525e-01,-8.6972069806505591937906274e-01
0,2.4024051795190346503261480e+00,-1.0358806340466650830478557e+00
0,1.8990620518709689507064198e-02,-1.3976348842269261663062707e+00
0,6.2765223878077924801743848e-02,-6.6325289519629726520122404e-01
0,1.8025541614343461027658577e+00,-8.8872976483636745292926662e-01
0,-1.5334581867239704955352408e+00,-1.6158884136491442617966641e+00
0,1.8928210528903191556260310e-01,-1.5074897197303926965616938e-02
0,1.3550873018355302779269778e-01,-1.6577227241663956558426207e+00
0,-1.1184258233158519413308341e+00,-1.3783388376938132680038507e+00
0,-9.4380731217705973734588554e-02,-3.2085155755269212374258814e-01
0,-1.3589683634731979378074129e+00,-1.6410298746147973236730877e+00
0,3.4477095119101299758312962e+00,-1.3930466609965399538140218e+00
0,-1.9389184262639769240621490e-01,-9.7206601041017082209805267e-01
0,-1.4623452529472966143764268e-01,-1.0453012765545244278087011e+00
0,5.4034115454033256054078294e-02,-6.3004496149161226536961067e-01
0,-1.0420663141600672307873765e+00,-1.1439591756453120208192331e+00
0,3.5290985736520452675790693e-01,-4.2246277712272661819525865e-01
0,1.1075453079804815914588545e-01,-1.4303590441984876946435179e+00
0,-1.2392178255086758742464781e+00,-2.4554497769895875514123418e+00
0,-9.9823885159038716619051002e-01,-1.5638742029839547420522194e+00
0,6.0958869179525931869534361e-01,-8.2003780755848398875684779e-01
0,1.0155835577869647412541099e+00,-3.7278279825422677706825425e-01
0,-6.6114712893310600971830127e-01,-3.6077760794060815818795618e+00
0,9.5991603081010778986126297e-01,-6.2477231569413238521093490e-01
0,2.4288599497826568462954810e-01,-1.7371013721960215647754922e+00
0,1.6638617623013840507439909e+00,-9.1805900193710487933174136e-01
0,-6.8154727215883903479465289e-01,-6.1646152833831824313648440e-01
0,-1.5284518450316855187054443e+00,-1.0369034504495335813345491e+00
0,1.0299413471274241338448974e+00,-1.6324886951554393732521930e+00
0,3.5104193628241747715534871e-01,-1.9116306864380758767651969e+00
0,5.7661242067812788075764630e-03,-2.2592647417552322863798508e+00
0,-9.5946146713250246573778668e-01,-2.1855405401630383366295973e+00
0,-4.1457087265112874119310504e-01,-9.1742696914298516031038844e-01
0,-4.1130150470507292892463624e-01,-7.7669822916809272417282273e-01
0,4.3211362606944153652577256e-01,-1.3871690004265477824674235e+00
0,1.5211583906669836618874569e+00,-1.0742306143055582179357543e+00
0,2.3947903410832691584175791e+00,-2.6326696084143214049433368e-01
0,-4.0277677527780886279629158e-01,-1.2127658626946402620205845e+00
0,-1.3655013336553520897354019e+00,-4.5735301849630549675396196e-01
0,5.1994810356968290676604738e-01,-9.4890545596562525521022735e-01
0,4.4944967035332722415930107e-01,-1.3701320297832346728483799e+00
0,3.4545017675586209282556638e-01,-6.8510933945419494328632481e-01
0,1.7128521242825358594785712e+00,-2.1874123132008316261476466e+00
0,3.1579003427539870108020637e-01,-6.7516035221357351137072556e-01
0,-1.7179184265542122300729488e+00,-7.3835234058647714050493960e-01
0,1.6019015041567734591865246e+00,-8.3029339904558385754285155e-01
0,5.9430974521184461167866431e-02,-1.4520379584471867495665265e+00
0,-6.8733383819193605290820415e-01,-1.9717242279109905567224814e+00
0,-5.5687913389959563248421404e-03,-1.5359880204103033563001190e+00
0,2.5530397428058326791955324e-01,-2.5277227747799424495411813e-01
0,3.3950935418554584188655099e-01,-2.1902004005873529912662434e+00
0,7.0469773573180805037452501e-01,-1.6121210130804999316467274e+00
0,7.5148177817876771200644725e-01,-1.1928159102220874387967342e+00
0,6.7148421870288388380032529e-01,-1.0515313233836283135502754e+00
0,1.3385397240549918862484446e+00,-7.3172554070172135531890945e-01
0,-8.6222164589553756952611252e-02,-1.9178073362380463340315373e+00
0,-3.4238259555853384208390366e-01,-1.2335824989715882260554736e+00
0,4.7269345026886500082952125e-01,-1.5424969285217293712975106e+00
0,1.3584952192632148912365686e-02,-5.6742856933390062312838609e-01
0,6.8596832071250490869829264e-01,-5.8351011838908029005779099e-01
0,3.6675919737105994178349988e-01,-7.3497735767237304393972863e-01
0,-2.9598593609851392427501082e-01,-2.5024549121617787328375471e+00
0,-2.3900546573308893982812151e+00,-2.1355779608160294635865739e+00
0,-7.5509015250490460480214949e-02,-5.7826761079005950527687219e-01
0,2.0483764266042556734248592e+00,-1.0195754996745398646140757e+00
0,-1.0881540120444597175008994e+00,-1.5420812361940015033923146e+00
0,2.9814591050218504086899429e+00,-1.1010314083221692804670511e+00
0,2.1913709140501818062318762e+00,-8.4232525446313499806194613e-01
0,-2.1729047630911041411039264e-01,-2.9436449737936754011968787e-01
0,4.0887096904726222268422475e-01,-5.1445531184150261605481091e-01
0,2.8514350786692759243123874e+00,-1.2623865869573203113418458e-02
0,1.2543266417390741551685096e+00,-6.2425830756990097203384948e-01
0,-8.6659612473666311482922708e-02,-1.6435468775853370182460367e+00
0,-1.1134279109098932369903423e+00,-6.8550789222728802929651692e-01
0,9.7600573683719160644756130e-02,-1.1602610301987339447293834e+00
0,-1.1505609898585833494877306e+00,-9.0335561072509917845962946e-01
0,1.5919451705146903108811784e+00,-3.6982643362820954990866085e-01
0,4.3121397756951196367225521e-01,-1.0822731879612490502040600e-01
0,1.1646377924049515772964014e+00,-1.1250280805779131476640487e+00
0,-1.1715192989442670956634629e+00,-1.1476331155204768652566827e+00
0,-1.7254924574584187269010727e+00,-3.9602823202486958642509762e-01
0,1.2928777530727562083967541e+00,-5.8392895677631750928071597e-01
0,-1.0148717506081589290189982e-01,-6.8687879412707186776998469e-01
0,-1.7497886228896826210643667e+00,-6.2580722717471826133106561e-01
0,-4.0054596725482533026152510e-01,-9.9237082195927173167149249e-01
0,4.5197541176323519085400449e-01,-1.2022705010483707432911160e+00
0,2.6449282785345573643098760e+00,-2.7334020348825494028943695e-01
0,-4.9151528113461256941363331e-01,-1.9671742916596368644377435e-01
0,-1.1454273508656558355767174e+00,-5.5548031232632633091839125e-01
0,-8.4082969239805838146395445e-01,-5.7032206827031139972916662e-02
0,-6.0433727733302933238235255e-01,-5.2484705687179411537357510e-01
0,-4.0652170725843977949764962e-01,-7.5230276110620808438511631e-01
0,-9.5980001084616839435170732e-01,-5.3868083515478049072555677e-01
0,1.6769109464515292717834427e+00,-9.3680842114674311993383071e-01
0,-1.3712613109833124980241337e+00,4.0719295712796754749263073e-02
0,3.1300895215333612853214618e-01,-5.5618428942083575350352476e-04
0,-1.7241219071157158904128437e+00,-4.2898783061446360553858881e-01
0,1.9083579883539965038607988e+00,-6.6233008340087706766752262e-01
0,1.6209654539607469825313046e+00,-1.6131410911424393095359164e-01
0,3.3664568678106843169217655e-01,-1.5381718438897542533538854e+00
0,-1.1564712018172538243732106e+00,-6.2381358497584860067775026e-01
0,-1.1687066448073730740020437e+00,-7.9583584521322625615624702e-01
0,-4.4110747034608915884135172e-01,-3.0812153749278214931450748e-01
0,-1.1499261316765738705214517e+00,-5.3458044284024153203205287e-01
0,-9.5572015840526725050096957e-01,-5.9163951168263695379323508e-01
0,-6.8845575091655586419392421e-01,-9.6549613860833949363637885e-01
0,6.3018523863181119537557606e-01,-2.4744848363278826308686575e-01
0,-6.3921307125921067449070279e-01,-9.0220630912829113956519222e-01
0,1.3552201091347151340471555e+00,1.9615953688921999864547274e-01
0,-3.8621587793389455800507903e-01,9.7153234693079237871415899e-03
0,-2.5964003289033472654523393e+00,-1.8624768711116999053700738e+00
0,-2.5945967919281436309120181e+00,-1.2005595046447161688973893e+00
0,-8.6533945688679014818234236e-01,-1.0042413272673214041930123e+00
0,7.2396339921639607517533932e-01,-5.9930533237075045427388886e-01
0,-6.2124053819727087510926822e-01,-7.3589005272685636960261490e-02
0,-9.2744815140223524352336426e-01,2.2500827451878613327806988e-01
0,1.8553824336464583844019671e+00,7.7058025093765025737013730e-02
0,-1.0486846433276264534129041e-01,-1.1489511893276482812353834e+00
0,-1.1477419933937929585887616e-01,-1.2930180035314253750300395e+00
0,6.7235109206688936644980004e-01,1.2901365081970495030105894e-01
0,-1.2799982141401711199790725e+00,-1.0397358394405116222003471e+00
0,-1.3849985654065966045322966e+00,-8.9431017767514431326958402e-01
0,9.7089700518176835775108202e-02,-4.3777553704740912454695945e-01
0,-1.2592321223631037785395392e+00,-3.2036775949556650644467481e-01
0,-2.2362273832668705386694796e-01,-1.1121699872152579491313418e+00
0,-7.2940067417559206752741829e-01,-3.5089264748150550410343840e-02
0,6.3694250873672308976836121e-01,-5.2083731752081663390896438e-01
0,-2.4462183591547543848321311e+00,-8.7320852557486849931933648e-01
0,1.0075859517389360586747671e+00,2.1012136322662300358388165e-03
0,-1.1057490092796653513573801e+00,-1.0333498088283328275593931e+00
0,-1.7033891983638960176961064e+00,-3.4783629580229247224565370e-01
0,-1.6383052360704444816441594e-01,-1.5907327365101258109802984e+00
0,2.6630968612889305280333474e-01,3.2348992147522614981625111e-01
0,-1.1472248310679942218115457e+00,-3.6947460964444833741993079e-01
0,1.3574775164219656797826019e+00,-1.0915377001680468538324931e+00
0,-1.2246102827497638010356695e+00,-9.9159488760747160895903107e-01
0,1.3407145902628259115374476e+00,-1.0526096426174444964374288e+00
0,2.3344948221369413166037532e-01,-1.5432163621564931599294823e-01
0,-2.4567084603779720808347520e+00,-2.3190910677730425248910251e-01
0,7.8319134397408252112882110e-01,-9.1170998955396642671189511e-01
0,1.2876497424515126466459947e-01,-1.4218758211459561202616442e+00
0,7.3209530004210343623327617e-01,-9.8809867028401254795966224e-01
0,5.9428069529527127734525038e-01,-7.8717767280126749174229417e-01
0,9.2299142252904464722718103e-01,7.0861741078696804940761922e-02
0,-1.9588073069386116031864731e+00,-1.8240458620584787396978754e-01
0,1.7960537352792757537223167e-01,-3.1106954690963362075706300e-01
0,-8.8025010404049053303054961e-01,-8.1172416928546720082948696e-01
0,-1.0005821580858421937509917e-01,-2.0421117279626888052490585e-01
0,6.6818573642003969981217892e-02,-6.5656587414608902353307940e-01
0,5.5655969353651613129585485e-01,-8.9783387372123490965947212e-01
0,1.7115426785423337729952209e+00,-4.6449082438608046974337640e-01
0,3.5045770023386246805330302e-01,-2.1357074186558060446827767e+00
0,1.9563356776330644848371776e+00,-2.8269963823182941986544847e-01
0,4.0949972646260052178135425e-01,-6.7422441771064300919391599e-01
0,-2.1686208913593746361314629e-01,-3.7005772444519546837682356e-01
0,2.0568920057318891281283868e+00,-1.0212012133075121234071503e-01
0,4.8357858769067296744736950e-01,-4.8376471952986666025253726e-02
0,-1.1492994376422189795050599e+00,-5.9362657567836230043667456e-01
0,1.0334493671285309712715161e+00,-1.8398507353876081271693010e-01
0,-1.5249977384913557809653639e+00,-9.6554515566860787956215972e-02
0,5.7851306805921620668442529e-01,-4.4026946934277566558790795e-01
0,-6.4055261219508086156793070e-01,-3.8389142741318937890326879e-01
0,-1.8201990752519316973945251e+00,-1.0753489875402899578205052e+00
0,-1.4380924469739997384465369e+00,-1.0367667350698681616449903e+00
0,8.8192958439124702341160855e-01,-8.3326232346857076471735581e-01
0,2.2238179808837403861332405e+00,-1.2735623843342080974139208e+00
0,-1.1109422310811210010683681e+00,-6.3725076838471061968505182e-01
0,-1.5136222049663594635404706e+00,1.0958766586908641471609371e-01
0,9.9369339664325462280203283e-01,-3.1973614354608437260196752e-01
0,-1.7302922113829442007926218e+00,-2.1003914756418642362234550e+00
0,-6.4978413888306729706556553e-01,-1.8175003303202375004588021e-01
0,-2.0145299341524813829806817e-01,-1.6487071772346739706449625e-01
0,-6.9432473270323369352041709e-01,1.1671610386528863401167655e-01
0,-1.4324998610812682553472541e+00,1.8495215166622225311243710e-02
0,-1.0896928425152062336334069e-01,1.8336648074333661284640584e-02
0,5.8813084749812416518466307e-01,-1.8264877792763773989292986e+00
0,-7.2413944819940256891754871e-01,-8.9277393816285877115035419e-01
0,5.9078902794058596459336741e-01,-9.6334596649094683673553163e-01
0,8.2017149596487837204250582e-01,-2.0933259920108895357770962e+00
0,5.3186493167365245238187299e-01,-2.9264052981755317439649389e-01
0,-8.6903599411249987660710303e-01,1.5821428283677269055473857e-01
0,8.3706352949845208577528410e-01,2.6908052137289539817999184e-01
0,3.2282957950434137961437386e-01,1.1913996367440837786944030e-01
0,-1.3190478049034441987430455e+00,-8.1186667102630361014803384e-01
0,-1.1152289912648863379196484e-01,-2.2612309453324686003838906e-01
0,1.2595373183524165572322318e+00,-2.9938001512441747564707839e-04
0,-2.3349364699124723898648881e+00,-4.4846214489016311688374117e-01
0,-1.0405770691406506234244489e+00,-6.6146015634084720513641287e-01
0,-2.1194013203510952969566006e-01,-1.5703110576393453090560115e-01
0,-6.6189177489798156628353354e-01,-7.7610286681214979420673217e-01
0,5.3242874819445473733026120e-01,-3.2485725920959229728879336e-01
0,9.6855591010022457076900082e-01,-9.7465367089147703083540364e-01
0,1.7692709450099569634673458e-01,-1.2210413876969590241117203e+00
0,4.6165918362863690715958143e-02,-1.3744468358068395730242628e+00
0,-1.1647495009362203166602967e+00,-1.1789974052412088845187554e+00
0,-1.8522869556393525836135439e-01,-2.9847620075267955463971248e-01
0,-2.6202041460920426629854774e+00,-1.3378054338806617540313937e+00
0,8.9946113454228970862658343e-01,3.5083635175435667896692848e-02
0,4.2739506800292031973853568e-01,-1.8822438647050510063252204e-01
0,6.3788736765651266047427725e-01,-1.1198709930204207019244222e+00
0,1.5013592993653046558932829e+00,-9.5341025549003899364208792e-01
0,-2.9649528320784748203209347e+00,-1.8398505763304398019641894e+00
0,2.3022774851969007858798477e-01,-1.6290869950983575265013314e+00
0,8.1440183492566853296068530e-01,-4.5184107806130135998046171e-01
0,-1.7240945214073974955937274e+00,-6.5891186233360155011240522e-01
0,-1.3925376687890385074553024e+00,1.5223291869066385428865829e-01
0,1.1468718289544246324851429e+00,-8.4591087014520582876286880e-01
0,1.5915619851220343949904645e+00,-2.3015863501623061715406493e+00
0,-3.0183141525534331467417459e-02,-3.3746220009306981957308835e-01
0,-3.5174820145986585018249571e-01,-2.2572196980882730521500434e-01
0,2.3095872805569750418897002e+00,3.7204827576099441799328815e-03
0,7.3921208017936435030748044e-01,-1.0256029928200716128117165e+00
0,2.2009694657920779725657212e+00,1.0749663235617212819761335e-02
0,6.9530490081696849635761737e-01,-6.4132179252850607387159698e-01
0,-2.5827473301410031059077710e-01,9.0167237320128434951982399e-02
0,2.2647870504478537223569390e-01,-2.5224947607489400791536127e-01
0,4.2653701655231812672752767e-01,-7.0082131154221993796227252e-01
0,3.3663514267220401299240962e-01,-1.8004695121248592837304159e-01
0,6.6062753661586592901500126e-01,2.0023224249151044817907064e-01
0,6.6797706725438915631443137e-02,-5.1940428516416958792945024e-01
0,2.7144902831204142934495849e+00,-4.9690137853471344486777639e-01
0,2.0163851750676292651220933e-01,-2.7806985129963557312748890e-01
0,1.7877834110416137569643524e+00,-1.1386575696643470578806046e+00
0,-1.5432974081299331015060261e+00,-9.6430555606214674035925327e-01
0,-2.1183585281199937000451428e+00,-6.1103814265307410114047570e-01
0,-2.0663362505077915720619330e+00,-1.6247572186494624313368718e-01
0,1.8102914420717688415152224e+00,-4.1321683810402753955770550e-01
0,4.3881568040280588549606477e-01,-1.2900814086644043499063628e+00
0,1.2636026779463421787497168e-01,5.0621007695083264366076037e-02
0,1.1143381481517993236707298e+00,-1.2828739202904619887135595e+00
0,-9.7271258165973617515476235e-01,-1.6057842882675741336129249e+00
0,-4.8313206953813053745605544e-01,-3.7376564249271926332340854e-01
0,3.5175423022988655530340907e-01,-8.7627529755087318896755733e-01
0,1.0265878638966070557358989e+00,-8.2376443153367617799887057e-01
0,-5.4786359623074543101495237e-01,-3.1828247978535284534729044e-01
0,7.4658569884053060938811086e-01,1.2522544069185770343466402e-01
0,-5.1045933520668718141877207e-01,-6.0007667046144419487063715e-01
0,-3.8243112886811125861186156e-01,-3.7739365669539481906724632e-01
0,-1.0104945521283756892927386e+00,-6.1887842919072277858560938e-01
0,3.8735027855821879683162479e-01,-5.0986369494125827195318834e-01
0,-7.9434798664841466120378755e-01,-1.1622265691102007245660843e+00
0,2.1577162221921519780210019e+00,-3.2017980475986929089771138e-01
0,-6.8448335757347811281192662e-01,2.1083724747057608350786495e-01
0,-1.5813633033714480369269495e+00,-2.7106498427544178930759244e-01
0,-6.6634971155407035636741853e-02,-2.3290571194764697615653404e-01
0,-1.5033751696836039624116665e+00,-8.7481175088167750786283250e-01
0,-2.2078224022453718511371790e+00,-1.4298703906610532587961870e-02
0,-1.3553000004170037695594431e-01,1.9230688383533056651231163e-01
0,7.1046110691401576087145031e-01,4.6045259622924161746482241e-02
0,-1.5968450591958982531792799e+00,-1.1236677943765347453819459e+00
0,-7.3644881953941698782273306e-01,5.4734827587380463498334393e-03
0,-1.6055311533147216263017754e+00,-1.3490325862141661072968191e+00
0,-5.2958894811581358474938952e-01,1.6543641048140877991556863e-02
0,-7.0220185513442512359461034e-01,-6.6671230115141510985665718e-01
0,-3.7141343874559995530404422e-01,1.8562885119918381970904875e-01
0,9.8875027614157479094458836e-02,-9.7105892166649987462534455e-01
0,-4.1209608901543953729529335e-01,-4.9489168060565025264452288e-01
0,-1.7394684827866996323919579e-01,-2.3709355582387980909686576e-01
0,-2.9793526821885896183061959e-01,-5.8731411897324914406226526e-01
0,-5.4887752485719321082768829e-01,-1.7591309990654773187657156e+00
0,1.1107439793602398303562495e+00,-1.0976563570653987689240694e+00
0,-3.5080390076343420657778438e-01,-1.0983407262750941590923048e+00
0,1.1381848931325273532877418e+00,-1.2684532394420977574611697e-01
0,1.2762658599024507832808695e+00,-1.0218560783248795686972699e+00
0,1.6016160145308597217983504e-01,-4.3222877224946198992938662e-01
0,1.2721712243093960537088094e-01,-1.8573389635708308365025232e+00
0,-2.2891719169017171742197547e-01,-8.6619129724192300834317848e-01
0,-2.3505316595647709476679665e+00,-1.3057218771293694903334881e+00
0,-7.1111333284243616326136816e-01,5.6677321027289506716329015e-02
0,5.3921193516629295494624330e-01,1.8366208724546334574156958e-01
0,-6.5473826954731073612947512e-01,-9.9993271347101053692085770e-01
0,8.8700556946192832263875516e-01,1.5087316477556533822479423e-01
0,1.7621885372073187170371966e-01,-8.6601647580686269556338175e-01
0,-2.1892243940744742225490427e+00,6.6312534436575198970587053e-02
0,-1.7036052254517239923359284e+00,-9.0972883186163266966417495e-01
0,-1.5209128098474129497930107e+00,-1.3153941243695432827820468e+00
0,5.2064055567444378347374823e-01,-1.7013364145036746766237457e-01
0,-1.4566938501501174307861675e+00,-5.8310528567298280933073329e-01
0,-1.3138626341808878894568124e+00,-8.1583873761849667882728454e-02
0,1.6159933952220408848177158e+00,-1.0203645499738582813620269e+00
0,-3.3930471175761095503631282e-01,4.2550939159035294778732350e-02
0,-1.9074525119527105387895460e-01,2.1631810836948106580024387e-01
0,-1.0113175855273373038301088e+00,-7.0314127063448050858340821e-01
0,1.0349251104033363457546102e+00,-1.6063098038455705385274541e+00
0,-1.7845693116739298478279352e+00,-1.0837623928843183040982012e+00
0,1.8454274696478573103419762e-01,2.2890427333786200758680707e-01
0,-5.4945671950861141308308788e-01,4.3649006650429367226706745e-01
0,1.5233275977049525184980894e+00,-1.3218214935247374341997784e-01
0,-6.0654204039131776049487144e-01,-2.3122302546278850066130417e-01
0,-1.7837794503847792526585181e+00,-2.3542733062783394171191276e-01
0,-1.0845095603934500338993985e+00,-3.5591934991419771350251722e-01
0,1.8035175414901414292501158e+00,2.5248714489785972769908540e-01
0,8.3766803814061985278272005e-01,5.1098074728792430843071770e-01
0,-9.0367854336356523425877185e-01,2.4800467824083816115177115e-01
0,2.4162494190583999609245325e-01,2.0948656631081929990756407e-01
0,2.5001488964822426996903459e-01,9.6121847030847917814355696e-02
0,-1.9078130601174805303088533e+00,-6.3585853811702774951442052e-01
0,-2.0892049868132400725073694e-01,2.1613383013002651633627238e-01
0,6.3706137030882648009111335e-01,-2.5065785784561533944270195e-01
0,-1.4402012000624713206065053e+00,1.0657274902501015501066206e-01
0,-1.4903753669107051571529610e+00,-3.0823332305455264368276858e-01
0,-2.2495678476207885410076415e+00,-7.2022274018794774086416055e-01
0,8.8573130208211692249165026e-01,4.9894410557911261783203827e-01
0,-2.4155077418360222374360546e+00,-1.2362029641578795025047555e-01
0,-1.3353095399258483322313396e+00,-1.9525828262445821259518652e-01
0,-2.8618397552512475634500788e+00,3.0292560613814378811525785e-01
0,1.5843058185156071449029014e+00,-2.5554853155770829165049918e-01
0,-9.6537706053072536160897243e-01,-2.3137303982318646600191414e-01
0,-1.2507960855711441894300151e+00,-1.5319868481423754014159044e-01
0,-3.5435555619184400111265631e-01,6.1589849884951652914111264e-01
0,6.0279691782908728647782937e-01,-6.3093431380845110822974675e-02
0,2.4365738082798547026186498e+00,-5.3765136683146230733854054e-01
0,2.4766625967591959778246746e+00,-3.4215139918075448965950613e-01
0,-1.6351227225645912355389555e+00,-4.2175950468270662074843358e-01
0,1.3843353849183621662177757e+00,3.0045315475036116215079574e-01
0,6.1548066874936868675405321e-01,-3.2922338093781822188077513e-01
0,5.5628685302041458449195943e-01,1.5777094343660813535734633e-03
0,-4.3520521165242498362601964e-01,2.9083485452204393961750384e-01
0,1.4539404962008409261109421e-01,6.0077121897428498176196854e-01
0,1.7314492820823002006136448e+00,5.7015797778482757429685535e-02
0,-2.4617317471290989239207647e-01,3.0010702685558499069884419e-01
0,1.3101229376091647615965030e+00,9.5180762477327052195619217e-01
0,4.7643462448223034000349685e-01,2.9985247677664739196501387e-01
0,-1.4563821026628369637023752e+00,2.1612617341727258235550835e-02
0,-1.4593740814142686090804091e-01,5.3740354318591221360890131e-01
0,-9.4303044908308630844828713e-01,-3.2921208610575203312720305e-01
0,-1.0722408599635335768596178e+00,3.4430359863685477961325887e-02
0,-1.3046841188019873136738624e+00,1.3949736516259991780941618e-01
0,1.8396108740808778669872936e+00,-7.6044741088477918466992378e-03
0,-2.2583076835888231670423920e+00,5.0624530659528366172139613e-01
0,1.0466462454239802148947547e+00,-8.6382732406719320294996578e-01
0,2.0250166454535296622907481e+00,-1.2184922864001807019107559e-01
0,7.5385846644793574888865351e-01,2.4493610529552944932163427e-01
0,1.1525865611095416074505238e+00,-3.3820951809227906004196029e-01
0,-1.5894665395953559983155401e+00,-9.4593737496229020333959880e-03
0,-1.8778755257798191991014392e+00,1.5181229333557477723104512e-01
0,-4.6276838233210093598302137e-01,4.7849583135389894827937951e-01
0,1.4920661394897107854262686e+00,3.9286644067800691182412720e-01
0,5.0043459393468459062148668e-01,1.2854598951624829350492973e-01
0,-1.1331601759833216380712884e+00,-8.6329981220001461572621793e-02
0,1.8298182309336302742153180e-01,-1.0852012628822604867195878e-01
0,-8.4717381117994150496741668e-01,3.4391997947220398490486559e-01
0,1.0160074667484124688598968e+00,4.4303283964492878865826242e-01
0,-7.2310368887182185915207810e-01,9.0503334922476641466460023e-02
0,9.2847401555094544178814431e-01,-1.5398360124025178841122852e-01
0,-1.6114249161196965154374539e+00,-1.8854110930165290938020917e-01
0,-1.6227227530137122712972086e+00,-1.5607471985036902584198515e-01
0,-9.2037182728940614140356047e-01,-2.3152749181017728830056512e-02
0,-5.4603556404287645342776614e-01,1.1130725817135134203539337e-01
0,-8.6112918454635445364431234e-01,2.6547404357801895891100230e-01
0,1.2444052483939156417136473e+00,1.8997995465807071546748830e-01
0,-1.4303589531757159303282378e+00,-6.6430378855555582973124729e-02
0,-2.5426187912748505759452655e+00,1.9045064694866264964900893e-01
0,-1.6853948559195448542169515e+00,-2.7830571189135477894183168e-01
0,-3.9965212143481931850175215e-01,3.4982742357775553632137644e-01
0,-1.3097669148001793715252461e+00,1.9335220330957586520881364e-01
0,-3.2835446644599510790385466e+00,-1.3667855844980065782579004e+00
0,1.7994874257957702567978231e+00,-2.2115135248188089178711380e-01
0,-1.3741593771238191923345084e+00,2.0019435381800859685696992e-01
0,-1.8394697194981100007993291e+00,-2.5991442133513181778070589e-01
0,-1.2967935440673525326893412e-01,-6.1939090049422840245085808e-01
0,-7.5607339239716453427320175e-01,-5.0321779881233874576196285e-03
0,4.6015313242289412887231492e-01,8.8111391194979971075440517e-01
0,-1.2549969913789089659417186e+00,-1.3996735426404383062504166e-01
0,6.3790915720033880553785366e-01,2.2437781384729338363115403e-01
0,1.3871705865189627449041154e+00,-1.4205648879620669244872033e-01
0,-1.1638256000388684796575944e+00,-5.0481114112267366778041833e-01
0,-4.2666617933428419018326849e-01,3.6035069298920263669572250e-01
0,-3.2350936025108517624104820e-01,8.0592085997671203401182538e-01
0,-8.0222940535514286608531620e-01,1.0510107368632426450005823e-01
0,1.9701584922822936718489473e+00,-1.3898682211353918791729711e-01
0,-1.2702318656098023907929928e+00,7.7631474218231966144543321e-02
0,-8.4639034338047514083314127e-01,-2.9158939638713288200477791e-01
0,-9.4324974023190688576789853e-01,-1.5739915442866025951929032e-01
0,1.9144946603988441946597732e+00,2.4592003119636701713446314e-01
0,-1.5140132975114539704009076e+00,-2.1596126896218897917023583e-02
0,3.1629387901644412384172256e-01,7.1957331679285418957192633e-01
0,-1.4313336092318098557996109e+00,-2.4041287894186813556274274e-01
0,-1.0938470486618168120429573e-02,-4.6639165412302752145023987e-01
0,-6.0865597901699630689620335e-01,-1.9687450075072254751518130e-01
0,3.7315532725699918081829765e+00,-5.4142849758072575383494041e-01
0,-1.4158521673863144751948084e+00,-2.5911620383080752327842333e-01
0,1.2275771750496033973831800e-01,-3.9376815004647203188881122e-01
0,-2.5666436509863510551099353e+00,-1.0510585811623098795308806e+00
0,1.1035682472487748917444605e+00,3.0754200402104681089099358e-01
0,1.0179432479564290758844436e+01,8.3532497615178407102121128e+00
0,-5.5782786966329878097781148e-01,-2.2185240815605877795491097e-01
0,7.5223824881341516679356118e-01,4.3664853301424211284853527e-01
0,-1.1641009389482075420119145e+00,1.1425482551623389326778124e-01
0,-2.3257819660320619981064283e+00,-8.5526951364757075602085479e-01
0,1.2929628058450253202948943e+00,-1.0341459774884278477458111e+00
0,-1.1445118712671047411788550e+00,6.5732643319127814773850105e-02
0,5.1585161209024068540429653e+00,-4.6925496395112720193765199e-01
0,7.6482959713415454849894104e-01,-2.3507152493784211344518553e-02
0,1.6896944337508568168004786e+00,9.8226767760818156638435994e-01
0,-4.5492323836740693465685581e+00,-4.4453574735030976228244981e-02
0,-1.2253009859570229700409527e+00,5.4877813206971670645373251e-01
0,7.2204434173940579277939378e-01,2.0331183575725753076568481e-01
0,-3.0045580882967852787146512e+00,1.5673290991957411488755270e-01
0,1.1039849825756364865014802e+00,3.8251863534573860015086666e-01
0,1.9040469472646130988380264e+00,-7.1590852270607607810148920e-01
0,1.2580323142578104800293204e+00,3.1477817979599370667997960e-01
0,-2.6345466335319658868208137e-02,5.5419818405438991959499617e-01
0,3.3844128223090375051640422e+00,2.7727608261110159304507761e-01
0,-9.2376937180035356700358307e-01,2.3492629910076312516054031e-01
0,1.1994001905830553589282772e-01,1.9268760023765096889292181e-03
0,-1.4065314601765066537808480e+00,1.6598664398045637202727676e+00
0,1.1138236748513052898346132e-01,2.0244614414696304738328081e-01
0,5.8491717531726183931795049e-01,-2.6729266013231778309489073e-01
0,1.0812450472484740338074971e+00,1.9935482284398009511505734e-02
0,-1.3227012296274001101892281e+00,9.7553817607018422641829147e-04
0,-1.0996017259244106334392654e+00,3.9488679947838889461309009e-03
0,-1.6056289986633065502985573e+00,2.5898713076423762746713919e-01
0,-1.3838404924113556493381338e-01,3.3424970227742589745645319e-01
0,-1.6035814646879198441808967e-03,5.3754195353110278965402813e-01
0,1.1391709329776684711532653e+00,1.3243196581489602436931818e-01
0,7.3579264467899502255576749e-02,4.5277809065484886374974849e-01
0,-3.7675964412369733480545619e-01,2.4797809605403153820901707e-01
0,1.9476541589316889169225533e+00,1.6166021354092752204678618e-01
0,-1.0118000123659687261579165e+00,2.4785820459004437310568392e-01
0,2.0399359975701645275592000e+00,-3.2544241513912430807664578e-01
0,7.7121451923171435716142241e-01,6.0072039361076634556013687e-01
0,1.7091749446293174052868835e+00,4.4588238268884938797498307e-01
0,6.4262937680174814225608770e-01,2.0705849729089698119111063e-01
0,-1.6956784264271780315880278e+00,-1.6838157347749072023646022e-01
0,1.2505786771254576716927431e+00,2.6800691459793701820757406e-01
0,2.4320999202511845993512907e+00,-4.3276645907416705361114850e-01
0,-1.2431724739515725985938843e+00,3.4140977887098811205390803e-01
0,1.1226453194132353097245414e+00,4.5837314067766110614599029e-01
0,5.5319652851167722129588356e-01,1.6421328761578979360535868e-01
0,-1.1067898399551112653682594e+00,2.6418964188275217974677389e-01
0,8.5275434989589615764060682e-01,-7.5791134828226236486159451e-01
0,-4.1008933925125456987359485e-01,2.4595071548473856903882506e-01
0,1.9992948665159113730283025e+00,7.1133674606193020295563656e-02
0,-5.1869209327272314258294728e-01,5.2016349237833003904540874e-01
0,-4.5827139714488140942449945e-01,-1.7106179246302155583236981e-01
0,-1.6667987495474205772438836e+00,8.0204328650782530374385715e-03
0,6.0742583431073993160964619e-01,8.6875227207601568579775630e-01
0,3.2884964653004089552013056e-01,4.5810125999083717296400664e-01
0,1.1111377350006099717916186e+00,-1.0628088555342563026329117e-01
0,5.0975474898785266830714136e-01,-3.1905500375801920664997624e-01
0,-1.0829659466246357446550519e+00,2.1686954926195589621329418e-01
0,-2.2942177397986598386125934e+00,-9.9461305444776915152260699e-01
0,-1.8498381082155732624272559e+00,-3.6427955284805180191654017e-01
0,3.7235688041765202527244583e-01,-3.7009088784041299646787593e-01
0,-7.1236846114751273262299947e-01,2.1676327767504288690503245e-01
0,1.8577643874207252494556997e+00,2.0702789450371517077087447e-02
0,-3.5516226658725207343536567e+00,-2.0530050063205269594845959e+00
0,-2.5416987018212604532152454e+00,-1.3754526959897894755613379e+00
0,-1.0386194372489647719248751e+00,9.0953553429060640667103144e-02
0,1.1673260520288633035335124e+00,-3.6055478108973249007362938e-02
0,4.4014026422002881788753115e-03,3.5583360897737381645100641e-01
0,-2.1901595657632405567127876e-01,3.9546608692890550251775039e-01
0,3.4487398083203828214049480e-02,4.9240142151814336735071720e-01
0,-1.6855377170692720234512763e-01,-1.1843546939207638679647516e-01
0,1.8763044375865056689889343e+00,-9.1021352605815009084722078e-02
0,6.1916825263722685690481740e-01,2.3607174574547284962022786e-01
0,-1.0934127509726102034370854e-01,1.1398380347866214901131343e+00
0,1.9863937253768743085302617e-01,1.2377640387447104153295641e+00
0,-1.1271609529446326991575233e+00,4.1679595679175995837084656e-01
0,1.9758373136603879505202030e+00,5.7522578251208733579602495e-01
0,-3.8391965501261609006178332e+00,9.1858306153754010203726921e-01
0,-4.1452611465235511545301961e-01,-7.6769718337195147483953406e-03
0,4.3661597014787334458674195e-02,4.1948096058170075695059609e-01
0,-1.5999058996435753243758882e+00,5.3716667055778422046330434e-01
0,-6.3449160363653764327374063e-02,1.0570926195507657219252451e+00
0,1.4049993523335504441718058e+00,6.5939687346084130403767176e-01
0,-1.9804380129862764192694158e+00,-3.4252870714206162805481881e-01
0,9.8647643000478102415229387e-01,1.9710684751987725404909213e-01
0,-7.6091762227713710675658376e-01,3.3096908164376076522117387e-01
0,-3.8856344693938327239379760e-01,-3.6411619484229812426789863e-01
0,-6.9276544921309346491966608e-01,1.6262087322062548366830015e+00
0,1.2291510881465821380942316e+00,3.4735202478458243602332800e-01
0,-3.4071551606615935181565646e-01,3.2395839465973752524519114e-01
0,3.8167828624276756155353496e-01,6.2666408509085380629244355e-01
0,-2.7896531233770733848587042e+00,-2.7297803762702677055074219e-01
0,-4.9585811972925347701490750e-01,7.4867882185656497995296377e-01
0,1.5696951450345770773253662e+00,1.4362205563933478913440922e+00
0,2.0518269256748560280811944e+00,6.2228983882395727533776153e-01
0,1.4746647341567653555216566e-01,-2.7993811479030272781898248e-01
0,4.1170786361426481292369317e-01,2.1765840197918806531163227e+00
0,-6.4697746706733921806531384e-02,9.0718583284598375282570260e-01
0,-2.8723925295969179316557529e+00,-3.6544529551700671854419511e-01
0,1.0927431219293282094184860e+00,5.1776558998346144946367531e-01
0,-3.3140604526285477593461337e-01,6.9955248683942028442572791e-01
0,-1.1671741097623102023650432e-01,8.8316521067014530643746184e-01
0,-1.5075413653808364955466459e+00,1.3079173294788861703352723e+00
0,-2.4448131203218186335845985e+00,1.9685175525296800813634945e+00
0,-4.7470718796591970800591298e-01,4.8299686309108036397219621e-01
0,1.1523702587831716748212330e+00,7.0177377910495075674646159e-01
0,-9.0172911371132746793932711e-01,8.6671286465017449707204378e-01
0,4.5703272160220027586774449e+00,2.0631731449868189187668577e+00
0,-1.8233057287946152769109176e-01,4.7851537225819984477936941e-01
0,7.3622263796222137122171603e-02,2.0310958657067512689309297e+00
0,-1.3739885879333479934416573e+00,9.0146755672046285923215692e-01
0,7.2953557472997254684798918e-01,5.4612122539983798397145165e-01
0,-1.6049014627930735521488259e+00,7.1972298211185348204566026e-01
0,1.6367062004935211128042738e+00,6.4316154867095776115348826e-01
0,-8.8890211181810319107654550e-01,6.1752992713724474960201860e-01
0,4.5837899902269274576838143e-01,1.4155351621332195044544733e+00
0,8.7983710742912413227401203e-01,8.3545393977920356931576862e-01
0,-6.9431843887865096753841954e-01,2.7791639333258338906418317e-01
0,-5.8914315275627526791168975e-01,6.4929589519904840066999441e-01
0,1.4900082802536580572905223e+00,1.8380776481757743479050760e-01
0,1.7283264560926907549287534e+00,3.2653721760041476418479078e-01
0,2.5054905065506445360767884e+00,7.7953368308049908463885913e-01
0,-3.4153886280587841817180106e-01,5.6917146800978257736858268e-02
0,2.8198912778657794220293908e+00,3.9785835647163170225582007e-01
0,-8.0162694033958636907755135e-01,5.7147115675761628317275154e-01
0,6.8470179586632284873815024e-01,7.1457367986717457153389432e-01
0,-9.4327501175525763077445163e-01,8.1033105733377963630914564e-01
0,-4.7795180486018573606799009e-01,1.0817481530742543149870016e+00
0,-9.5631260728614408961334448e-01,6.7363149849251269252192742e-01
0,6.1491786192644326547451783e-01,1.2141805830085663497897031e+00
0,-6.1581021110966793763452642e-01,7.7190976115291132231277516e-01
0,-3.4989246493688019867818184e+00,1.7411256626521859347533905e-01
0,-1.6826192440267186967162161e+00,1.4931989351626281936624707e-01
0,-1.5413238402115863046049071e+00,2.7203610773248909637800352e-01
0,1.0537158084638043042957634e+00,8.1633231125939875738595219e-01
0,1.4139367158788491707355206e+00,5.1335648074708828403345251e-01
0,2.5751107963073414097721070e+00,1.7315560138976271442601274e+00
0,5.5311231950211425800745246e-02,7.2599838428002161361263234e-01
0,1.5747247492695317649946674e+00,1.4560743277430345798961753e+00
0,-5.8970715022655340042945227e-01,1.3004833040249055842174641e-01
0,-2.8114720986379744260830194e+00,1.7824469355681109572486776e+00
0,-1.2538536409014202632761226e+00,2.9588751449805172910600959e-01
0,-1.5519518682163262468520770e+00,-5.6977676075825323120938037e-02
0,2.1058778697292970250032340e+00,4.8868263114319421269726718e-01
0,-9.7258696067916339256242964e-01,3.6884187841928905982058495e-01
0,5.3754210576239325192204888e-01,1.3593482286831037875174388e+00
0,-7.4608288997137095499567749e-01,4.9865131367909254489489967e-01
0,1.6631972767525313727787761e+00,4.4745133843981610421991491e-01
0,-9.4919933575259296532067310e-01,3.7268632219281538908717266e-01
0,1.1662538849534813678587852e+00,9.2945269541402686375164421e-01
0,-1.1393095738433522967625322e+00,2.1893635182058887589384710e-01
0,1.7683487126537045242002932e+00,2.0921631560261246818299696e+00
0,-9.7228074013415288767703260e-01,6.5878754953129847748982684e-01
0,9.6287277297961515465374305e-01,8.0105267951779324242522762e-01
0,-1.3708951682225278823068493e+00,3.1422800654297394773450947e-01
0,-1.7903171181684365276254312e+00,1.0235131542565945039768849e+00
0,5.7482270109476618635824252e-01,1.9425731835718311746319387e+00
0,-1.3719632515461284150148913e+00,1.3510505258712566245549169e+00
0,-6.6484003361982013657893731e-01,1.5016146515010625472896777e-01
0,-1.3243734864670380080298173e+00,5.4728561771458883455920841e-01
0,2.2031018195535465586942792e+00,4.4385154610102811600924611e-01
0,-1.7126654629481847802452421e+00,5.9579130693897042192475055e-01
0,3.9755832054991302459967528e-01,1.0302907983602691555091724e+00
0,-1.0385339723549376067524008e+00,4.9663217044960517032592406e-01
0,-9.9919876511408356467569547e-01,5.0486709682670039001095574e-01
0,1.0910955068496843711756128e+00,5.3052976714524646695281263e-01
0,-2.0703930835118029563091113e+00,-5.0633665280196415992008951e-03
0,-4.2542271465490416604282586e-01,1.0866730618991136125828234e+00
0,-2.7245227185687270754499423e-01,4.0602859059005003139475320e-01
0,-6.1386990182645408964390299e+00,2.1450586375074447431643421e+00
0,-1.2532510585549656578763233e+00,1.6022992388757648640762454e+00
0,-2.0850496281426225131383489e+00,4.2486621769551524696595379e-01
0,-6.2947631668425074735750968e-01,5.6860691197356849624355846e-01
0,-1.8205731032932148671932282e+00,4.0415510350584266108242559e-01
0,-9.6025418371162374331362344e-01,2.6364659106924492881773858e-01
0,9.7519492047200073692181377e-01,8.5276520193198002139922664e-01
0,8.5926794925573068972823876e-01,6.9515887097629314173019566e-01
0,-4.1982111731591509329319933e-01,2.1615574220474781386158725e-01
0,2.1347169216132493296811390e+00,-2.0071468148249105301061945e-01
0,-1.0650145017688537052436004e+00,1.2555578572368299994366225e+00
0,7.8469158240876502041771801e-01,1.8681106207276363395664021e+00
0,2.7795456224762742358791456e+00,-3.2652337939333658800578064e-01
0,2.2002697210253707726934636e-01,1.6016421294037366251927779e+00
0,3.6601488116403242401020179e+00,8.1634505445368743536960210e-01
0,-1.0633697297432918027482174e+00,2.1105951311899281974682197e-01
0,-1.4029094304012168503703606e+00,2.2632600546862469137465723e-01
0,-2.8517790903727053830607474e+00,2.4918213444486752017326125e+00
0,6.2163746034369582460499259e-02,-4.6016145674442454627239840e-01
0,1.0350966065163311746744057e+00,3.3304687757962342375961384e-01
0,1.7207772276180111070686962e+00,6.4235036973654802139321873e-01
0,2.8221065164051345464102383e-01,6.9211571036987207250490428e-01
0,-1.8983505069956829736099735e-01,4.0505871183370023569381146e-01
0,-1.7199227000411472232599408e+00,-6.4235853412235366377558421e-02
0,-1.1034459559574179010610351e+00,6.1309312090230083658326521e-01
0,7.3704271257695452845837281e-01,1.2931720238464583516702078e+00
0,4.9283595050661144210124576e-01,1.2300174657579379111638218e+00
0,4.9110882223465801565964739e-01,7.8305352725703170069238013e-01
0,-1.3946145298671366319354092e+00,3.3098475912402880450002840e-01
0,1.5273789861760604935625452e+00,7.7132447542732751610827791e-01
0,1.3108642709612527976759111e+00,6.1372997405515639091078128e-01
0,2.4636514395119775144848973e+00,2.2659682642528435891904337e+00
0,-7.3619975492606037903442484e-01,1.3057308490140222545505821e+00
0,8.7004628301209685492523249e-01,7.0828472413482335134915502e-02
0,-1.0786716787365271397192146e+00,8.0609558989449248134206982e-01
0,-2.1257775020166107537988864e+00,7.4710755307171847761082972e+00
0,1.4502266858697254736654259e+00,6.6016693347846544526191792e-01
0,-1.0972249151573612024890281e+00,7.9578412202860959734351809e-01
0,2.6785321674904050137655531e-01,3.0463023710730430249071787e-01
0,-5.4350254716507198082808827e+00,3.2822338075422941017222911e+00
0,-1.2153736100143968101860992e+00,5.4920340084138030700700028e-01
0,1.9794526548905735374717096e+00,1.6829877975263611844525258e+00
0,4.5469802611331511243975001e-01,8.7465103807786181988603857e-01
0,-6.1339077380648499016047026e-01,1.9375243580847767432828732e+00
0,-1.2057100767874557867287422e+00,9.7096933448753841577882895e-01
0,-3.3893530293098383943117824e-02,6.3996478721978555803673316e-01
0,3.3102924997449365562829371e+00,1.5604443462699242317626158e+00
0,3.5747973998639515080810725e-01,2.4310761700227973003407556e-01
0,-1.1791260865940864643874875e+00,6.8919516114061862843698236e-01
0,1.7134110145311316486527176e+00,1.1336743650518557036122047e+00
0,1.3970615788456628436620122e+00,7.4274966501953010311609660e-01
0,-4.0415745843428805272878890e+00,2.8258649569825875502715462e+00
0,9.2768024397890902488228448e-01,6.7301330519119639816949530e-01
0,-3.3065032027190404129157741e+00,2.7085706147965415979683712e+00
0,-1.0148793611035449302448797e+00,5.0046287018817880998255987e-01
0,-1.3056856202844793202189067e+00,8.4604925187245949569359027e-01
0,1.8277231029306015841484623e+00,8.2037972525501849929696618e+00
0,2.5336154048755132883741226e-01,8.2252433908958766384245109e-01
0,3.2302107410113656271732907e+00,2.4903478125707634305285865e+00
0,4.5872394819647210884028254e-01,6.4585723133594741263152628e-01
0,-1.1534923899109430500686813e+00,5.5538713299727082706169767e-01
0,-3.4305782035735848944923987e-01,6.6168373663362090031370144e-01
0,1.0946967337370496764492600e+00,1.4413263966577716246320051e+00
0,-8.4941877040381186247941514e-01,4.7667796213969715335423416e-01
0,-2.5857320367982890019220577e+00,1.7446592070776700822420935e+00
0,-1.0537290405689114791698557e-01,8.2625730238387151693757460e-01
0,1.0816056282876149730043380e+00,6.4517541666661015753447828e-01
0,-1.4883868803750976983479859e-01,1.3878034445222922066420779e+00
0,-1.1537653919634793808768336e-02,1.9207898779457024396322140e+00
0,-1.3460387968839224726025350e+00,1.2723038830609554317163656e+00
0,-1.9073128593895689597559340e+00,1.2057304476111831981199884e+00
0,-1.3020711622493654768817350e+00,1.1496127954928165859627143e+00
0,4.6973575972375281040172013e-02,5.1759189727266508018743707e-01
0,-6.4262365201260163161123273e-01,1.3022824029277506596713465e+00
0,-1.1765151985516790755781358e+00,6.9255913778136535263740825e-01
0,-9.2242475021275671664966467e-01,2.3502374962792864643290613e+00
0,-2.1133483308334827244223675e-01,6.9681016983579135981585750e-01
0,-1.8321342171024597167416914e+00,8.4714630882234356334947734e+00
0,-1.2636331479448013936917050e+01,1.0288321836136473663714241e+00
0,2.4424411958963969659919258e+00,1.4234797318174619018549265e+00
0,2.2417883055601595110317703e+00,1.6502167055222560776428509e+00
0,2.2940114533021125353684511e+00,2.1104444404781474986521062e+00
0,-2.6699748004116674593433345e+00,2.1918074472922661755092122e+01
0,5.4922686289484723420883938e-01,4.8100868002587809924008866e-01
0,-2.9013518165292073724970123e+00,1.0563413944308530645344035e+01
0,5.0034496183902099630813609e-01,7.6343217186874690050046866e-01
0,-9.4383631114642696502414765e-01,1.1965499877473984025044729e+00
0,1.3835220739548121926532076e+00,1.2759753487380824932273526e+00
0,-9.9541893559118257428508514e+00,6.1624321617942063866735225e+00
0,2.5930705742784980749604529e+00,2.3724915227445593224331333e+00
0,4.3173090451179929605274310e-01,4.8228508701561240146205023e-01
