Species Id, x,y
0,6.3905153978134066061755902e-01,9.5056348903807807992905055e-01
0,4.5553088664517171757495362e-01,8.5558314810040647646616208e-01
0,3.9217723065892151623756945e-01,9.1669713750362258330994791e-01
0,4.7032495160710813264515195e-01,9.6320739357471929498188956e-01
0,4.4363428047071379323185170e-01,9.7575461614216496553098068e-01
0,4.7665904675630749176562517e-01,8.4451202651083645545071477e-01
0,4.3311956099728671221171794e-01,9.6972012268308593885279834e-01
0,3.1704286656685737311178741e-01,7.8165724238136680135369261e-01
0,4.1299277949486351557695230e-01,9.8260182318877176133042894e-01
0,5.3109366243203115498516809e-01,9.7491629126038925612363073e-01
0,4.9260971808221071244204836e-01,9.0004813532798144670721285e-01
0,3.9141503284345424695800375e-01,8.8989269966462714034349801e-01
0,3.4110126868426826618474479e-01,8.7450892843411986987689488e-01
0,3.8320631842438607206347001e-01,9.1494543979645948095225094e-01
0,2.4651466338954916568404485e-01,9.9381327150052689578529908e-01
0,3.8347643865441222166268176e-01,9.3466337836601742772302259e-01
0,4.6740230365683033131318780e-01,9.8280785778718160461409070e-01
0,4.1143485622600484141742072e-01,9.3972931590910668830929353e-01
0,4.1129815621473120312856508e-01,9.9066344255498761661726803e-01
0,3.7713665044465816134078295e-01,8.7095739410737371688497888e-01
0,3.9972008638129957747153753e-01,9.7710421925984813906751469e-01
0,4.3230677130853251144415594e-01,9.9922853964929569947628352e-01
0,4.7624581966136425581481717e-01,9.3774274126892331882032749e-01
0,4.5093975602292407645066419e-01,9.5504129141907678768319556e-01
0,4.5091386044560538559622387e-01,9.9054423960297433016108926e-01
0,2.4753531807280712562224778e-01,9.3135754112250668246275609e-01
0,3.9896567173668345818171588e-01,9.1419792258693532982505303e-01
0,3.4446220953210071602512699e-01,8.2950194241298991215671776e-01
0,5.0995883904916394779860411e-01,7.7641621087586853988682378e-01
0,4.2013601268503036889612190e-01,9.9055201205620047044675403e-01
0,6.0047096239707253850781399e-01,9.6364725388468253086671211e-01
0,2.4732516274818558410508729e-01,8.8031604099086624426462322e-01
0,9.1616433120540297085909742e-02,9.0729211434878331843378874e-01
0,5.1489670260934095047389292e-01,9.2626258880426659558793290e-01
0,4.1411066255813377967598399e-01,9.9206893813193441911124637e-01
0,2.3275971048583482536642464e-01,9.7461897562145138884659445e-01
0,4.2011918416383020602467013e-01,9.6170250811738100527037432e-01
0,4.0977682811854720945632380e-01,9.6060514894877491176572448e-01
0,4.5112176435321649226040108e-01,7.3537903169973262151870586e-01
0,4.7342345404218916238292536e-01,9.7888747656494179416597490e-01
0,3.7919309713525023441960116e-01,9.1810229218189276512163133e-01
0,4.7903192881929479440827890e-01,9.7177395500569119235478865e-01
0,4.1807546147769025779439289e-01,9.3258978748637988420711054e-01
0,1.7287494161771249645553894e-01,9.8258842860826789422645788e-01
0,4.7176285866987477390921413e-01,8.9892026750693376779821619e-01
0,5.7504555714010685552040059e-01,8.1719343861900062275793744e-01
0,6.2676599578620884045676576e-01,7.4208497626261216151277722e-01
0,3.8094334200781232446786362e-01,9.2075673089048881703178040e-01
0,5.9742140652137110112818164e-01,7.9763175037283939872168048e-01
0,4.3691073926750612077540836e-01,9.6180180940560366931180170e-01
0,4.6206792701061272232720967e-01,9.8438614257343748370487901e-01
0,4.2110545150842171313598783e-01,9.6499553297136353435803358e-01
0,4.7845546898124663437457116e-01,8.5564175188462754384488562e-01
0,4.1271013813448248486182024e-01,9.3613675015201203155612575e-01
0,5.3455398759519046070209924e-01,9.8357575722093881775975888e-01
0,4.6547375371364896334824834e-01,7.7701260284024420421644663e-01
0,7.4307808125023466772063330e-01,7.9442264200386369932260777e-01
0,4.5206644650515848127270147e-01,9.9262091344373359902419907e-01
0,5.2682113460549251371389801e-01,6.2342818686352674539818963e-01
0,5.3570585510471602219695342e-01,9.7090417143968077429150298e-01
0,4.7437382302362574026943776e-01,9.8854322194437194148974868e-01
0,4.7865763432878727368091631e-01,9.2227021705915723792656991e-01
0,4.0584736952259853337565687e-01,9.9619901891122519810295444e-01
0,3.6267250802974815293566735e-01,7.9781714710439766147231921e-01
0,4.6119030698811230850608922e-01,7.9562267089150684462595109e-01
0,4.2700825971246764156674658e-01,9.6174366953921475165145694e-01
0,4.0854667588628845731335559e-01,9.0327106512414567784929886e-01
0,1.5999173334519767308847804e-01,8.9093513540837920849924103e-01
0,5.0350295539225509156011640e-01,9.4366901749407405830538664e-01
0,3.7101247649866730959899996e-01,6.2434712396938307765736909e-01
0,6.3652740939742680215118753e-01,8.3785996270169427191376599e-01
0,5.7554633007942412881163818e-01,8.2413810598818637576101764e-01
0,4.6492290909948108534877065e-01,9.6574866518890489786031139e-01
0,4.9767150358274786503542941e-01,9.0281068206980485957302562e-01
0,3.3015727043672410401242701e-01,9.6963990680511868980318013e-01
0,1.0559507796196049289605412e-01,8.4988832344353093528610543e-01
0,3.7976616365346005377290339e-01,8.8609296296503292644786143e-01
0,5.6757506529534751393839542e-01,7.4010745667649802115306557e-01
0,9.0562765873250039572184278e-01,9.6760935299986838842301040e-01
0,4.3193289870999929114248062e-01,9.5748203886214688917988269e-01
0,4.8119016409912207521415439e-01,8.6319342706485113758674288e-01
0,4.2692465012204411367591206e-01,9.8688638893967017828856569e-01
0,3.7030362468601218939312503e-01,8.9933148356926373434561128e-01
0,4.5568447595409111716691086e-01,9.8572411683500416046399550e-01
0,3.9078737977220190380478471e-01,7.7402427248844962726082031e-01
0,3.7758559091469939827945268e-01,9.4817594492885481916033541e-01
0,5.1976784586281399302976070e-01,9.1522978548985578495233995e-01
0,4.2248236969757252401436176e-01,7.9975575129802145557533777e-01
0,4.1910650859863135542227042e-01,9.8366346968161588737444845e-01
0,3.5679746937640843817973746e-01,8.1164521666036315572512194e-01
0,2.6722898409174633549412192e-01,8.3258799983855080739658661e-01
0,4.1590956183942018320465195e-01,8.2006123074966308372779622e-01
0,3.5751804041049639604210597e-01,9.4862203655819032910301303e-01
0,4.7225351856021086094372663e-01,9.1547750959950402460663099e-01
0,4.2816235663821122781058648e-01,9.0584862861252901655717551e-01
0,3.5370219675462832853440887e-01,9.7635955851999245425076879e-01
0,3.0795484922504168245893652e-01,9.6691347243869107952463082e-01
0,4.0767349203930136614104640e-01,9.4449688819198207578864412e-01
0,5.0513871812013744211355970e-01,9.8862396656514783810365543e-01
0,5.6389137112492848658007460e-01,8.8259138554998051162669981e-01
0,5.1198009156933510510611995e-01,9.0757327198609616392133148e-01
0,4.3571798919039750330739480e-01,9.4459082109728809140136718e-01
0,2.8148412669082412129739623e-01,8.5187879667417665263684512e-01
0,1.8164714130161105365424135e-01,9.1778407721666033225460524e-01
0,3.0448962070061202922488519e-01,8.4804412187472200113091958e-01
0,3.8573893859206892509305931e-01,9.1553274686382646319060541e-01
0,3.9243202568199264668180604e-01,9.7355898196876966554924593e-01
0,3.4709271720430368013410316e-01,8.3287755653950445999811336e-01
0,4.9914504743589466206898919e-01,8.9690976183124759835152418e-01
0,4.6411505418779164244824642e-01,9.4252467734308542635091044e-01
0,3.5193802607978691421308781e-01,9.8289990632972823458857192e-01
0,4.5814944415581093650757794e-01,9.9990410103970273070217445e-01
0,2.9586149319392274215090310e-01,8.1292400570698175599204660e-01
0,4.2776596635986507966009640e-01,9.4637315990127346410076825e-01
0,4.6082437586265495577109164e-01,9.5394847109651914607297840e-01
0,4.2194356637057300885018662e-01,9.2284883065780864974669839e-01
0,4.7087546632091370479855641e-01,6.5415077966382240148845995e-01
0,1.9001869251480071887350221e-01,7.9741425932661236242182667e-01
0,4.8337699374416326358883111e-01,9.1995874355645268494185984e-01
0,4.2254701121161897248157402e-01,9.5237722644413946859742737e-01
0,4.6137226130972086579618008e-01,9.8062610599844934888835724e-01
0,3.8928874923184259015940256e-01,9.4666349758410162085198181e-01
0,3.8339738969260844791975273e-01,8.9274159123517615732623653e-01
0,4.3143704686412531756900535e-01,6.7096653790826765728638748e-01
0,4.0064515823608459754723299e-01,7.9211773384375117057487614e-01
0,5.7907000670791042296059459e-01,8.2641346233228285544925029e-01
0,3.7817627141685977720797496e-01,9.2142584717212694389587568e-01
0,2.6480477992918483032269705e-01,9.7945871659806404974091265e-01
0,2.4286986333773008528424953e-01,8.2554349855348485576200801e-01
0,4.2290970776666064745441531e-01,9.0731853887526292545828710e-01
0,7.9653881731284736922305001e-01,8.7342256018758057667383810e-01
0,4.0623493002169974719350876e-01,9.8203807479584814821294003e-01
0,4.3214583396902361833724626e-01,9.0602688757578042633156201e-01
0,3.7856579907499227077849469e-01,9.7910604066132422840240679e-01
0,4.8397580841617859892522802e-01,7.2790351786286855428897979e-01
0,4.8031155531710512107679278e-01,9.7599888341873275443560942e-01
0,3.3901126850268975543301053e-01,8.9355242721519467785640245e-01
0,4.3325929589340711478584467e-01,9.6711887402541774072517455e-01
0,4.1078479369949727484367941e-01,9.8128380935327763623376995e-01
0,2.0133928741746984214522342e-01,7.3994842375230907016714355e-01
0,5.1843242487068597057486841e-01,8.0986696402159807917087164e-01
0,3.8605947529424966546685027e-01,9.4329686796520728631065822e-01
0,6.7693952831867343356009314e-01,6.4872768824725379754880805e-01
0,3.5671120811639595027386918e-01,8.6184397372084997623886693e-01
0,4.8878936343447593193545231e-01,9.2759638954590795112409296e-01
0,3.0801026007624693336950372e-01,6.6198573074391109383185494e-01
0,4.1069743054593516040640111e-01,9.8367384771546895194660465e-01
0,4.3975112393907872521126023e-01,9.3638098213650877710279019e-01
0,5.0708193930602185606204557e-01,9.2487852793974700826851176e-01
0,3.1955872228563525494493547e-01,9.0276797770764583006553039e-01
0,2.9029559580323005540947179e-01,8.1305914463947426273904284e-01
0,4.5113527440057932249573014e-01,9.8048408886761884151184177e-01
0,4.1567791297180545218026282e-01,9.6517249366878288263649210e-01
0,2.9261715913386976417598362e-01,5.8804865651309756735543033e-01
0,4.4283625765910261673496962e-01,9.9220319609897456025748852e-01
0,1.9461414354982797814130890e-01,8.9394306363929776360066626e-01
0,6.1002003552263606156458309e-01,5.9417410610714682661637198e-01
0,4.7775122827143212678180362e-01,8.4467761910405581016192400e-01
0,5.1539562820599804648935560e-01,6.2726106663824332532186645e-01
0,4.3024669127296777393354432e-01,9.8744437901941106705550055e-01
0,4.5826425414198651564490206e-01,9.6433457432982339074811762e-01
0,7.2968456426728900421352364e-01,9.6481761768490315045454508e-01
0,4.9996717141451990640277359e-01,9.7624373374540562853240999e-01
0,3.3722095716063948955820706e-01,5.9636978958243846982156811e-01
0,3.7650525234170434396574478e-01,6.7657800130601275512276516e-01
0,4.9702357834851207396553718e-01,9.3214834654034972594160990e-01
0,4.3784925268772501016911747e-01,9.6805654944277386153572706e-01
0,1.2616385509913785600843994e-02,8.5364392138922107200471601e-01
0,4.5257101102932872915829421e-01,9.9009879783884735537924371e-01
0,4.9642418493964868275725166e-01,9.4992776388527244701975860e-01
0,4.4691366766687168343707981e-01,9.6074332515169902357854426e-01
0,5.9531278588459191070114684e-01,8.5518170729618536718419364e-01
0,4.5786775810626356708610274e-01,8.7846404757152662945429711e-01
0,9.2702147860973149740004828e-01,8.1938096331523901927340603e-01
0,3.9796479724711714132112661e-01,9.9509258352429952321216433e-01
0,4.5068065597327067184352245e-01,9.2103428490490224511688666e-01
0,4.0065393987205477621671434e-01,9.7110466753108470872035696e-01
0,4.1451925734358419095570980e-01,9.9468777546351550000736097e-01
0,4.1314185563622174424125433e-01,5.1544737911335958280290015e-01
0,4.4041967489545813529971952e-01,9.6780251165911135302621915e-01
0,5.6758516660597346792371809e-01,9.8369576850735906958789201e-01
0,4.6101525120714798022802938e-01,9.9584703590425271979569288e-01
0,4.4437417840165627236359569e-01,9.6691926256880222911860301e-01
0,4.8383181592825591499362758e-01,8.8484448067171506124850566e-01
0,4.7607388087918417474142529e-01,9.1232137158055848225046702e-01
0,2.6937033151709099954018711e-01,8.7636042989149176563046240e-01
0,3.9540118707453691948572327e-01,9.6433806418646850211473520e-01
0,4.7721911050458210024061145e-01,9.7369546379702942573430846e-01
0,4.0977343025182483282620183e-01,9.5806484174818518084748575e-01
0,3.9815702689201454278489223e-01,9.6692749006706257830501272e-01
0,3.8502791330345415010683041e-01,7.1242944339941416398431784e-01
0,3.0290680279467341318166973e-01,9.8118991427392243664939997e-01
0,4.0066983032365932615448401e-01,9.6506695033016254292590475e-01
0,4.5098732608596475701645545e-01,7.7058544831836972566208033e-01
0,5.0388502224702524934230041e-01,8.3004946087433095769370084e-01
0,4.3357018370427841125192003e-01,8.4352197413618323906803198e-01
0,4.4704847278435438928667622e-01,9.7338188977986017658139417e-01
0,3.4203627752673809725436627e-01,9.6019458329775486671309181e-01
0,4.0732111074976401488001443e-01,8.5013178348442786091965218e-01
0,5.2326649060964292026199018e-01,9.0143629406605596532386926e-01
0,4.0568816562113807488998418e-01,9.9726567659473575044870586e-01
0,3.8088457407118675446255907e-01,9.2561239709414755427729915e-01
0,4.9010128306876599157959618e-01,9.2778396963744080849778584e-01
0,5.5784104079435259393449087e-01,8.4150264638411642614812536e-01
0,5.2959893664105328614510881e-01,6.9603206978787279801679233e-01
0,4.8484604038787521007591863e-01,9.4703783070529856669139690e-01
0,4.5241975671868173147771586e-01,9.2475702911741408662749109e-01
0,4.1282366473524650940518654e-01,9.7822409086722061921648219e-01
0,2.8336659919081663705497931e-01,8.1546729657539551716638471e-01
0,5.0723428145291127311367063e-01,7.9193549337187907344315363e-01
0,6.3209822117763136972712346e-01,7.7823553985993865200754271e-01
0,3.7791550837672044371728930e-01,7.2959219810144004814134178e-01
0,4.2108347906081544653744686e-01,9.9395523374343142108955362e-01
0,4.2880445107042547414621936e-01,9.8856420934160627034259505e-01
0,4.4340590422598774589246773e-01,9.4635740612680363526010296e-01
0,5.5500165168858694997311432e-01,7.8901758379880371219172730e-01
0,4.6517992190377355221642119e-01,8.5198731841171859713313097e-01
0,3.1856548976647247606308611e-01,8.6516955038817822121188783e-01
0,4.2173826142225606661284587e-01,9.9320778810235188505117776e-01
0,4.3660622209901567281065127e-01,8.9011791423824326852098920e-01
0,6.2127814816487136884148867e-01,7.2716487886270297913426930e-01
0,4.4922357619488922919614993e-01,9.5585599890075978457559813e-01
0,4.5628242832124438210783524e-01,9.0934739818631227237233361e-01
0,4.0960353599004917235504308e-01,8.0210056849071265094863747e-01
0,4.5603353346080371943926934e-01,9.9824282615680359764809282e-01
0,4.7134553797790856854987851e-01,9.9487109681971008789957978e-01
0,4.2930644550562629957468630e-01,9.8862074412694633807063838e-01
0,4.1781391599218947741078978e-01,9.8245049758678471008011002e-01
0,2.1848392104727798468388755e-01,9.5005292910740235523547881e-01
0,5.0009749567195915798123451e-01,6.5480316666242888157256630e-01
0,4.5046567779864971070580282e-01,8.4379528275441684215252280e-01
0,3.7857400769881843771713648e-01,9.9397216121573306324421537e-01
0,4.8678793964679079042667809e-01,9.5072431374465316000765824e-01
0,2.4709503763044329827103240e-01,9.9665676076425391283208910e-01
0,4.3688965478900826377994804e-01,9.6417263626039173551873773e-01
0,3.8084586937132097750335902e-01,8.0522779466915128665505108e-01
0,4.1691830169713989251434327e-01,9.8740724225179721251777210e-01
0,3.6438104102060558942000057e-01,8.1939057078775512366064504e-01
0,4.2480956675416881029860861e-01,9.0497053761697476836900478e-01
0,4.6920809717508882297209993e-01,9.7410313154573568983352061e-01
0,3.9697265843813489549773976e-01,9.0677786774930613233891563e-01
0,5.9850513049660969411291944e-01,7.6584565152504824325774280e-01
0,3.7376878808637203910336666e-01,9.0382722415892813305760001e-01
0,4.2098918098304299872935985e-01,9.9156184823762893998377876e-01
0,3.7216265148122362749205649e-01,8.3107974991257949071155053e-01
0,4.7510189814763803539676701e-01,8.4945131620693159479884571e-01
0,4.6582163671321408227044003e-01,9.1868833768418178831183241e-01
0,4.5201218980168667016528161e-01,9.2492108828209151916155406e-01
0,4.5470005128605922584128507e-01,9.3615422589057506463916525e-01
0,4.3773678200089860546029286e-01,9.8289692331757005927528326e-01
0,5.9323177859944675738290698e-01,9.3500952364339662281622623e-01
0,4.4635514861071373671208562e-01,9.9854417057586031258864523e-01
0,4.5434387108091123241848663e-01,9.9380990741592500903323071e-01
0,6.6200771296355753747775452e-01,8.9417469933710125307158023e-01
0,4.3186500213794914992959662e-01,9.7756105875279342143358008e-01
0,6.0561586219040175471661769e-01,8.6321360172592953574621788e-01
0,4.9493862001541344408650502e-01,8.8375276174836936426970624e-01
0,3.3725234109253970915531795e-01,8.7887122000829420720435792e-01
0,4.7540962606217807007169540e-01,6.4185396722963650173454653e-01
0,4.9266974131864110786338529e-01,6.5905503770354967318922945e-01
0,6.8923512478477799714227103e-01,8.3380504371142716291132047e-01
0,5.4296331495041205705831544e-02,8.7296201848595567085453695e-01
0,3.6659585963579371936660323e-01,9.0913137665249388330579450e-01
0,3.6188585857058486183746027e-01,9.5092205656247064116115553e-01
0,5.4148419947720627387610648e-01,7.6160517044035991318651213e-01
0,9.2731718748429470267069519e-01,8.9131243236961688047870211e-01
0,6.1846035001832144750721909e-01,8.3536636153153576156427107e-01
0,6.0899399932409681301948012e-01,8.7697101219645945402447751e-01
0,5.6604867070737618917064538e-01,4.3179230794825096406697185e-01
0,1.9153488274056112983245725e-01,6.8431629693966389282877572e-01
0,2.5193328723642549604733176e-02,6.7613362865633319653824174e-01
0,9.2569724878427850356388262e-01,8.8560149184739145322708964e-01
0,4.6283080699425732662533051e-01,7.2079983707798356284968122e-01
0,8.8246670334698240623083620e-01,7.4991364477074884398177801e-01
0,2.4493684121321568358808918e-01,7.4643668017031283845597045e-01
0,7.6460526659516148129114299e-01,8.0054876889148907093129992e-01
0,1.7250925335110220415479887e-01,8.3905042433545939939421032e-01
0,2.5037422077695054012380638e-01,7.1788304622850462877181599e-01
0,4.2345504150627388817440533e-01,5.3476369524913092146078952e-01
0,8.2824069050520909840429340e-01,7.4946920237089298399979498e-01
0,3.3617018705876811068833376e-01,8.9117487531304850900681913e-01
0,9.4793200175493819159555642e-01,7.4690419426006027237008311e-01
0,9.0014255973136980681914565e-01,6.2755449855605671682923230e-01
0,5.4233951555557147194974732e-01,6.0109313768936023514299904e-01
0,2.7265928470571593189575310e-01,5.9505082547603871390151653e-01
0,4.1907847807791764882523466e-01,7.0507017993660148214019046e-01
0,5.8898553633768879755905346e-01,4.9857715856310480528890139e-01
0,3.4775151778923346634897484e-01,7.3628773376631373448475415e-01
0,9.5182745647484412465644255e-01,7.4977578595709326592100297e-01
0,2.5525623418541332210196515e-01,6.1138311157753411073656480e-01
0,5.1137209823177631751178751e-01,3.9653698757052435741599083e-01
0,4.5059107036022771897165740e-01,6.9566741972404477767355502e-01
0,3.0525097556058833347947257e-01,6.4130048947649431756445892e-01
0,5.8747219787639826105163365e-01,8.0325794205908573886176782e-01
0,4.3534093713555660487557475e-01,7.5394269045839512610740485e-01
0,4.4691858326911226839683877e-01,7.5283272612656737532432771e-01
0,3.7026444019386434147733667e-01,5.1514805605232483198818727e-01
0,3.5400447557603120785074680e-01,8.5558457859069902973203625e-01
0,1.3551043218983951921252640e-01,4.3237755411339751088206640e-01
0,2.0885469914508680844278388e-01,5.8682155408961433895598248e-01
0,6.1671966071144324050834484e-01,8.0494855055588654391129921e-01
0,9.9663536802696073291230050e-02,9.6162312866536692190777558e-01
0,6.7780452756746378817354071e-01,9.2551106361670965050336690e-01
0,4.6036961226888872822371468e-01,9.3701215522822756121001930e-01
0,2.3261380077014587319794714e-01,9.8764968536890396233474121e-01
0,3.4986320484073191172669226e-01,7.5232444220318295258209673e-01
0,3.8736406319627753047640795e-01,9.2318075479276051620303178e-01
0,9.4370220934372162080450153e-01,4.3468786239880130572998951e-01
0,7.4076972989438893968383582e-01,8.5598815882473477945069362e-01
0,1.9453783747114636315522773e-01,5.8271937181255184512451706e-01
0,4.9347156402644148931457835e-01,4.3177288261302310123923576e-01
0,8.1452628608039767676984866e-01,7.1876606179147106701066150e-01
0,7.4626108498761745124738809e-01,5.8001419508866403074165419e-01
0,7.0558304394054394137469899e-01,8.6825918089369857888470960e-01
0,3.2693157717262555372883526e-01,6.2303091275525157577419577e-01
0,5.6997129017937941952709480e-01,9.8912294808520451194766565e-01
0,9.0391824691441979844341859e-01,7.3932587477170064182985243e-01
0,3.0887968192692560887024911e-01,9.1275079951495352581503084e-01
0,7.6963097571357141912784527e-01,9.7609746070952141394627688e-01
0,3.1672786952611642341537390e-01,7.9797021669402601329323943e-01
0,5.0244275780833791422708146e-01,5.8930210139323646600928441e-01
0,5.0901585050243214336518349e-01,9.7971903541689209227172341e-01
0,5.4388189534851427708872507e-01,7.4720816671531264940853134e-01
0,1.9127920732362857503261466e-01,6.7702020824443875923748237e-01
0,3.5646811362585234528310707e-01,8.4956112843464359762890581e-01
0,7.1257352575240373582232678e-01,8.8390632645254285648661607e-01
0,8.5833074069811610140590119e-02,8.9039503368943251349065804e-01
0,3.5543895954171883522221265e-01,9.6176105328753636047878217e-01
0,7.0227614452994868710078435e-01,7.3901533999167412503084051e-01
0,9.5434801765715582266835781e-01,6.8561002938200266143553563e-01
0,3.3807018936590721436274976e-01,9.4611312608828279646644432e-01
0,7.7399811455819989003401815e-01,9.6097607843033272523314281e-01
0,2.1979294292553577805371390e-01,6.4617133835392537299924243e-01
0,5.5666651580378156971562476e-01,8.0964325229748312917621433e-01
0,9.2776927425177335706507620e-01,7.8777586496627005629989071e-01
0,4.8469201009495588294839763e-01,8.7773886257764544005510743e-01
0,5.8506927917445272768759423e-01,8.9859635627671818891570865e-01
0,5.0912888223520769148677800e-01,9.9311422190604314863549007e-01
0,3.2546415323090682747420033e-01,8.4115138218970131323004580e-01
0,7.5153286739652214176743428e-01,5.3700334967455465307040186e-01
0,1.4386555571377568352176013e-01,5.9516813581715466430210881e-01
0,8.9640518056426699011751680e-01,2.0415589943171680298306114e-01
0,5.0487333071637863213254604e-01,9.8500535505637809574608355e-01
0,8.8903210996412740385608231e-01,8.5032281927418273959062844e-01
0,4.2259612764323656319831457e-01,6.8264996172957559394944838e-01
0,4.7178536375264340518853601e-01,9.7819459262793417853032452e-01
0,8.9415127241168490535017099e-01,6.9877172071513027340472490e-01
0,5.8735896067094928163498935e-01,8.9989936950786575398097966e-01
0,5.4310242099433758689031038e-01,6.7216727331797565536675165e-01
0,2.4763647343118014299001572e-01,5.2349964258959169605134321e-01
0,8.5186791157627861359458166e-01,2.8179805081062120342139110e-01
0,2.5887265356142924455085108e-01,7.2807761246349378403408537e-01
0,5.6913469122259741084235429e-01,8.4292193094760370364326718e-01
0,2.5388409059716154914099207e-01,7.4057577193416379568446928e-01
0,1.0748673135339803508259138e-01,7.0449236985206953320926004e-01
0,4.7840630872854850164088703e-01,8.6066816902605614014731827e-01
0,8.7193789540727661968588791e-01,7.8533656289396081007225803e-01
0,5.5806736409171531221318219e-01,4.3580833661131729295235004e-01
0,7.7204416187354585332514034e-01,8.4419732255615997917885807e-01
0,4.6415106767068209370208365e-01,8.2034913347217641721442760e-01
0,9.4306454350348767334821787e-01,5.5217517869145349429516045e-01
0,2.0791860974631928837830230e-01,7.5927595117993329498773392e-01
0,7.3427770061414238123020937e-02,4.8615587146161981513259320e-01
0,3.4200033021466758054174306e-01,7.5990044022699154702138458e-01
0,2.7943614359806268065966606e-01,7.8825489075523047510785091e-01
0,7.1465328817471951428075272e-01,6.0994161891672460384938859e-01
0,5.7636476615925880118140867e-01,9.5692196195206591369242233e-01
0,1.8433719054878863752300333e-01,8.9589208888677340780759550e-01
0,5.2800994829907765826249033e-01,6.2041944823706829392762074e-01
0,1.8833866989344719145016427e-01,6.3525166656765863493205870e-01
0,6.9797162267901025067828868e-01,7.1713669367401144949525360e-01
0,9.3719558810574732365950013e-01,9.3430335099861760994599535e-01
0,1.8444614608474116379532859e-01,8.8686361296486049266007967e-01
0,4.5081578339594402526913086e-01,9.9930519411052687317464915e-01
0,6.2651838571268558819582495e-01,7.1749606490965067706611080e-01
0,3.5689660487564084379030760e-01,9.2784293782705362652052372e-01
0,2.6635204683590152363592551e-01,8.8336282714263292259460059e-01
0,5.4199849816274958680395457e-01,9.4678203667534821530438194e-01
0,1.8858379888052345663140841e-01,9.5831428223399262034121193e-01
0,5.4435342957593979562602726e-01,8.4094999014060489717081737e-01
0,2.0107684637650483083781694e-01,9.7388009769559680250949896e-01
0,6.7325083717659395254884203e-01,9.1235798240714505169535187e-01
0,4.8020991309020133464002811e-01,8.3583695576877459210152210e-01
0,7.6077881455833384904963168e-01,3.7188276299647171629914055e-01
0,2.5768769531537349948280280e-01,8.1084737833943432150363151e-01
0,3.3759420713426846472060561e-01,8.8784109410755929214786875e-01
0,5.2682033099293612554703259e-01,6.9596854210496450487966058e-01
0,2.9237752495627755688900606e-01,9.7325845166471680602882088e-01
0,2.5174339574338178149304213e-01,7.7027506963899927683314672e-01
0,1.1172399388123199770461724e-02,9.3054972674977642910221221e-01
0,1.7126772526124664497437777e-01,9.7261020050914748225068251e-01
0,4.9255748260775933378141644e-01,8.8373280175703261551944934e-01
0,9.7681597257406016510117297e-01,8.8090385872861542981837601e-01
0,2.9685972242919478336631300e-01,9.4004885190550613316418094e-01
0,5.7602640975233432296676028e-02,6.2045041140010237512569802e-01
0,6.7625798691674809948182201e-01,9.9548782528819812487341778e-01
0,4.1800045049005629671512452e-01,5.5363700993589259891081156e-01
0,6.9814793977389066892413894e-01,2.6619787223854562974167948e-01
0,1.4069957275462163792667525e-01,5.2315469879938969466337539e-01
0,8.3409448801821639563058852e-01,1.0515635650490740005125190e-02
0,2.1452762778791312214821119e-01,7.5558016016258466862609566e-01
0,9.5130850873774197573595757e-01,9.0167726727513231033128704e-01
0,9.0520623676429312620683731e-01,8.3771096610188977571453961e-01
0,2.8559022191091693043674127e-01,6.3750617315661894934919474e-01
0,5.0013049164864575857336604e-01,7.0636471411277668153161358e-01
0,2.7878167840583434333723289e-01,8.4117342754899637746746066e-01
0,3.0759458285362500928883378e-01,8.1185746495079724738275218e-01
0,7.7449361012752593325103589e-01,8.7218141926906334049363068e-01
0,2.7861411930805884962225605e-01,6.7086919059692151634521906e-01
0,4.4218683778954082086443123e-01,6.0631693597942015738766486e-01
0,9.3638428531147399613843163e-01,7.0631950319640690594269472e-01
0,2.5042108198122642326310938e-01,9.2449040199162102471319713e-01
0,3.1036909508307841676355565e-01,9.3678062166803233168366205e-01
0,1.0258960395708535684455853e-01,2.8243164117331287510381799e-01
0,5.8238639738456565719815217e-01,9.6464729130351145602872975e-01
0,6.0204860384662173267145135e-01,8.1157267399574795074812528e-01
0,6.0281091708011724783489171e-01,8.4333430387282959372896585e-01
0,7.6482183927070090945221637e-01,5.0978041391952988448110773e-01
0,1.5595307919028522647408863e-03,7.8421401292244186098656655e-01
0,7.0967314445143248047287443e-01,9.4793735222342889734647997e-01
0,9.5195411406249041963434365e-01,9.6353765287101911241052221e-01
0,1.5781241595005451872069102e-01,6.2138855207826337867516031e-01
0,4.2959194691907121033125350e-01,8.7698601434781009444918709e-01
0,3.9765247951841514728599236e-01,7.7127840700574623600260793e-01
0,3.3072633100090176316854240e-02,8.2785258113131188206779143e-01
0,4.9354722731891831344341881e-01,7.5933478495635076122027840e-01
0,6.0895786754844438704026288e-01,9.1186662597630763205103221e-01
0,4.8943572513046873506681322e-01,8.6672566010364437971702500e-01
0,1.4269548170105306184041183e-01,7.2067958564374379193395725e-01
0,5.5801154534021990549774728e-01,7.2597401566574892850525202e-01
0,9.8462103819367463586331723e-01,9.0030643381563157934266428e-01
0,5.5463194700669082859434411e-01,7.5949895640883002823073866e-01
0,2.3088902292285981565633790e-01,6.3353053505877743312169059e-01
0,5.1610100226151822688791526e-01,9.3817631657765376829161141e-01
0,3.9558632514789571210656050e-01,9.7178953574410464888444494e-01
0,4.2553337805878954647198498e-01,5.3927211761779092480395548e-01
0,6.9531539351883653310437694e-01,7.5867210526459383235220457e-01
0,7.7060427901654060534042401e-01,6.0117226403907053633446367e-01
0,2.7105800513627686942896844e-01,9.0919014602459369278619761e-01
0,5.2642452760898517105658811e-01,4.6767910220104069729529783e-01
0,9.5310574278316251284337568e-01,4.9109955865649279616036438e-01
0,6.5565769229210091317838760e-01,9.1360605441019948624870040e-01
0,3.7571728764638084863136669e-01,8.7834322959321309287616941e-01
0,4.9471412358520266971950718e-01,5.6359771417611581600937143e-01
0,9.8935187201531404888044108e-01,6.5734322567343261844996505e-01
0,1.6355374535606420627331659e-01,8.6564247364054325295512626e-01
0,3.1829827664100779349709569e-01,7.7052939026195921279338563e-01
0,3.8568327969342436345456804e-01,7.0871859744292842187007864e-01
0,1.8074455160959293498201816e-01,3.3020680944106817200633941e-01
0,6.1130456276025069151103253e-01,8.7034532813535725459530568e-01
0,6.1061737939182547663108380e-01,8.8347733436369557669110009e-01
0,4.5091338099824734841902796e-01,9.9981365823767831546575735e-01
0,2.5412363878249416559995666e-01,6.4396021365376410194869550e-01
0,5.1767277157324964598217321e-01,9.2239385040909682711429696e-01
0,7.4921343196910161754686897e-01,8.1349170102996937181671910e-01
0,4.4560722358959442557235775e-01,8.5102791578082170875774182e-01
0,7.0288268320787961052076298e-01,6.6171670951186589704207108e-01
0,5.5826981710559975269347888e-01,8.1839122225077665095938073e-01
0,7.3552187090713316841572578e-01,9.4417470408030013118150237e-01
0,8.7060564520406669153373969e-01,9.7806948161908957573018597e-01
0,4.8390827070021663613985652e-01,7.8107674937880589016714339e-01
0,2.1932831110487543968545765e-01,5.5736652515942552987837644e-01
0,8.6202311969544087588701586e-01,9.7559891674958931773176118e-01
0,2.9186302668692326589550134e-01,7.5330885244774570264070235e-01
0,3.0061484293021278890734038e-01,7.5776604444961792594881445e-01
0,5.3280717318095227597041230e-01,5.7476637051533030486893949e-01
0,5.0219016333764066040146190e-01,6.1908951563275116392048858e-01
0,4.9997961025664083845043706e-01,8.1814741062522622350172696e-01
0,2.8531875272703544066388304e-01,7.5760621170465636264879095e-01
0,3.8856614500263358946696712e-01,7.8605413489298903151336617e-01
0,9.3163935846792333972388178e-01,9.0177332193719894615213661e-01
0,6.3507738373325550718107024e-01,6.6542315582133659823682592e-01
0,8.8670577980717868449289654e-01,7.6144434352532996967966028e-01
0,7.8843973231100916709834792e-01,3.7518255378593695636979533e-01
0,4.1931447194321574967190713e-01,5.8756088457728339324859235e-01
0,7.3620727500862448433593954e-01,7.1880513977944893166949214e-01
0,3.9724881813497964211379099e-01,6.6519584762180772319339894e-01
0,4.2174688446932040442050038e-01,4.7414591478760820253413044e-01
0,8.1757011170809201772158303e-01,9.5481510993822504840267129e-01
0,8.1821103341874978909231686e-01,8.5322138284720161482965750e-01
0,9.3475241718179746808203845e-01,9.6354114640641452815827961e-01
0,9.6856309731444834021374390e-01,9.7491820898521375227119279e-01
0,8.7060117796415248392349895e-01,7.9618299104739165272803803e-01
0,6.5247132309003563754856714e-01,8.3200598414779158851217744e-01
0,2.0353048107378268749556582e-01,8.0121902964767111043897785e-01
0,4.6341804234165240305998168e-01,7.4096113443504252327187487e-01
0,9.4819252241420337590227518e-01,9.2446875289652430396358795e-01
0,7.3392431532098989510615183e-01,7.4155133878692680582389585e-01
0,7.9402245023476480945134881e-01,8.4577843419042642025829082e-01
0,3.5584549636445417242214262e-01,7.5701418842975087830637904e-01
0,5.7176116043188507376271446e-02,9.7486524441515287620063646e-01
0,8.2607142819633061492368142e-01,6.9551730273091982859057225e-01
0,2.9624440152763598099738829e-01,8.0005707763382039043875693e-01
0,3.2802011100665656728736508e-01,9.1043259620507965834690367e-01
0,2.6270639627831499085530709e-01,7.7256502146380745532638912e-01
0,3.2418594194972377708907629e-01,9.8856073459014726090288150e-01
0,5.0994654239493619751755205e-01,9.8605199611330129894071206e-01
0,5.9731736092403542315310006e-01,7.5663267985038462626334876e-01
0,9.9164589866973651410830826e-01,6.8708431077677356579869183e-01
0,7.7649327592291872424112853e-01,7.8311453696187971473818834e-01
0,3.0193765086724466684131585e-01,7.4984028590316587070674359e-01
0,5.7008331232707454283570314e-01,9.0910478202398936620198810e-01
0,6.5685805830460308740725850e-01,8.2320019599983307312385250e-01
0,4.6616385178761876595388003e-01,9.9628647566691097559044010e-01
0,9.4696603377738763906990016e-01,8.3975462923076937826749599e-01
0,2.0448523282769492936949973e-01,9.3581843585683444075584703e-01
0,1.5658853680207363012755195e-02,2.5867434529416843957960737e-01
0,4.4899898580003760883982977e-02,8.1567047445179285958261062e-01
0,5.7119012182371853292295327e-01,5.9557251876006245261407912e-01
0,7.7814159920584824448042127e-02,7.0416982042955522658189693e-01
0,3.3319842700734114693261745e-01,5.2000088126246490904946995e-01
0,1.3193924417464364395868870e-01,3.5625948440135152273100516e-01
0,3.2470408694599095511534870e-01,4.9922534411653679553566576e-01
0,9.2206838441818850249376283e-01,7.4112061658924544005344615e-01
0,6.3911723567094258502407911e-01,7.9430657611202648560322359e-01
0,1.6273118581710077634738809e-01,5.4820412475728585999235065e-01
0,8.8293012494299633052818876e-02,7.2437930763497648811721774e-01
0,2.6664108229838567876157640e-01,7.2258576128100437951928825e-01
0,8.4680787799910645086143290e-02,9.5960648514906632389198649e-01
0,3.7524724666881420498398825e-02,8.9809146193626998577741460e-01
0,8.1614467880392105314513174e-01,7.5450118120281772782220742e-01
0,8.8711273184781447298519197e-01,8.5368587599106693364348075e-01
0,6.1285222093717589553207858e-02,9.4130676102310384401050669e-01
0,9.4231460329106186968317616e-01,6.9702315585690521881900850e-01
0,9.7203448941135750516195912e-01,5.2036872666459954572815150e-01
0,3.2520487118599872289337327e-01,8.3599223791859866850018079e-01
0,5.1477315919123389775791111e-01,5.6512285479732993209722736e-01
0,3.3833768032432409711418586e-01,6.2283283654783050398151545e-01
0,4.4181233194726537982788273e-01,5.5429587663023882626589511e-01
0,9.8858233987595389713476379e-01,6.8469629203993132016137224e-01
0,9.8507089340911235808562196e-03,9.3893897871819220757316771e-01
0,4.3184390955186918725772216e-02,8.9118386555972572971029422e-01
0,6.4602919672848035936851829e-02,7.4627118917127854835769085e-01
0,7.3693170331333812672625072e-01,7.2853842149449898890622990e-01
0,4.4769237004124984302677603e-01,9.3276965504641351500936253e-01
0,7.5974342163928454407795243e-01,8.0274680060382475055291707e-01
0,7.6805139732092386761763692e-01,6.2166419431389940974952424e-01
0,7.3069635656540865564778642e-01,8.6781928929815976836437130e-01
0,7.8141547888124573972845610e-01,4.6301226512210580388284598e-01
0,1.2262331252671140879861866e-01,8.3462535535672588427047458e-01
0,2.4163479278973293284948909e-01,9.2784013305446277897203800e-01
0,8.6290234485286398946612962e-01,8.3321742707084645029880221e-01
0,6.2509088843358950882134195e-01,4.6469808207890539453188694e-01
0,7.4582674545860738746227980e-01,7.5395324825590293027488542e-01
0,5.0623304274555414039582502e-01,5.7211064234858222121715698e-01
0,5.2190878665019946325287492e-01,8.2358679812297663769271594e-01
0,2.5618016132978344012727234e-02,9.5871043924313203987708221e-01
0,5.7205650670077767827592652e-02,2.8070609627500064942040581e-01
0,1.2242147919146462164974309e-01,8.5315505055981222248817630e-01
0,7.3430334233232175122907393e-01,6.5040270782334341781449893e-01
0,4.0422834694014531109473864e-02,8.1935032459187939757327968e-01
0,5.0493461886107748881613588e-01,7.2027979167776667868139384e-01
0,1.0674639144770514675997219e-01,8.0369885875206736880471681e-01
0,5.7301521184234482930719423e-01,1.9279617699753151538466511e-01
0,3.5070214528575460732895408e-01,7.4075582116111549080272880e-01
0,1.7400081784590271105628290e-01,9.7772829549258699621816504e-01
0,2.6151120034260677549298180e-01,9.9602039441037160116820814e-01
0,6.7022130255805101306521010e-01,3.9025542105753530108813720e-01
0,1.8967049260682999900495815e-01,9.7091341634705963237195192e-01
0,2.3890646411152105521580324e-01,6.1800769973219982222900626e-01
0,6.1412647931804897893925954e-01,5.2392456328696068723616008e-01
0,4.2013772346677624724975431e-01,2.3364632148245267906361278e-01
0,2.8803447613532001669867100e-01,9.2683481571835235612866200e-01
0,1.1052480206950626717699038e-01,8.3206110417360334974290481e-01
0,8.3511838879539723734524159e-02,4.6582167791145734359048447e-01
0,3.6388492981451303620588078e-02,9.7982281468357168563443338e-01
0,8.0064474206244928833342556e-01,7.4206928714276987335551894e-01
0,1.2481193455577566098213538e-01,7.6606683940327036097528435e-01
0,2.6080815878295959819865857e-01,1.6854105835296007143142560e-02
0,2.7480891021145126273950154e-01,9.3051685779832482570128604e-01
0,1.6729788147370050488405013e-01,6.6009519648404624270199292e-01
0,5.4406533380117716447443854e-01,8.5908795638431201258100600e-01
0,7.8702618328906359668195591e-01,6.5156505909054129865864979e-01
0,2.3040942246121942638126256e-01,8.3643523482478909780724052e-01
0,1.0358443663423866354378333e-02,6.9320928474829179855021266e-01
0,9.2753107073535856486046214e-01,3.3279618581984526937134206e-01
0,3.9295915087604882387495309e-01,1.1728884782002119147037433e-01
0,3.0703189755148629913605873e-02,7.3467391792088920787762163e-01
0,6.7054861887615602178414065e-01,5.0652061563908024055535861e-01
0,2.4638533005049639834638242e-01,7.8773875031882278907602313e-01
0,4.6065203981432123470085571e-01,6.6287153666060083523348112e-01
0,1.0521215691026067351465656e-01,7.0729072252467639625450602e-01
0,6.5416386122676944969711599e-02,7.5763249123785647576312385e-01
0,9.3102209732273633058241558e-01,7.6504599118804761381795743e-01
0,6.2709101838573388931763475e-01,8.7929105292636033919251304e-01
0,4.2783095817279664929699834e-01,8.4005798436115397542778283e-01
0,8.1294512494980031291902378e-01,4.5256672827483390708636080e-01
0,5.7349223194504561629258887e-01,9.4821992848092395700376755e-01
0,4.0768983903650968247944775e-01,5.6526432445110852409442259e-01
0,4.7299117462043627213574837e-01,5.9459418435227417987221088e-01
0,3.2219132336825495599441638e-01,8.9257256024168740715651893e-01
0,8.4296074986940916495825604e-01,4.1922602637922057322583669e-01
0,7.7278420401496894509563163e-01,8.6057471078983782675209113e-01
0,1.5543976699463374346876776e-01,8.0736869627390350778739503e-01
0,5.8324118472768038401454760e-01,4.7625563484784916301606472e-01
0,3.2304227498033633025897871e-02,6.1698986606112615760366680e-01
0,7.8485524796700889549327940e-01,3.9790381915830486114771247e-01
0,8.2537095972906232566046469e-02,9.7200649193682975290897730e-01
0,4.2657320436178514100333814e-01,6.6041483674550349736165344e-01
0,1.0321321041486997138747483e-01,9.1060291815518490388114969e-01
0,7.2808309785012326198483379e-01,8.1943188435256775203896495e-01
0,4.9586145170657436320738043e-01,7.0776317348320139100081860e-01
0,5.6398823349223758949477769e-01,8.7630327512086902963517332e-01
0,4.4758284778675205828335493e-01,9.1196270535292689451978276e-01
0,2.2629857951907439428396174e-01,4.8575729180219384684136230e-01
0,3.0010040989801256561264609e-01,4.6239859168916391807258037e-01
0,9.2266082065519561261623949e-01,5.3178278746339957550048894e-01
0,1.1847950070013579804140136e-01,5.1753002744919351929553386e-01
0,4.6069766383839177992243208e-01,5.6887625252152895782842279e-01
0,3.8434813782882454313849507e-01,5.2273893861432707552694410e-01
0,6.7520846651702448593113104e-01,9.7790227258663953158190907e-01
0,3.0789747438571346549451846e-01,4.5485048123805571496092170e-01
0,6.0064790475094664845556736e-01,9.9704537959932437729548838e-01
0,4.5811252496104326592529787e-01,5.8395608311728586237165928e-01
0,7.2108301436205346490737611e-01,8.0562111478328390923309144e-01
0,3.3254463467167028056792333e-01,8.6284699547977639078055745e-01
0,7.1737121448129947953731289e-01,8.2909076145439142280224587e-01
0,5.9711095822044268910389064e-01,7.4277774539884589000138249e-01
0,2.4000495057884840832684858e-01,1.9334906628543457873803391e-01
0,5.3041045427627486752442110e-01,7.1383032513529531826179664e-01
0,3.3740433093280780552092324e-01,6.7576590665314573147526289e-01
0,1.5124673713723391088592507e-01,7.8236779849007498377488901e-01
0,2.9494504461587922605758649e-01,7.1112707303479405496204890e-01
0,3.1690600091068898969126622e-01,1.6706832337116450659664224e-02
0,1.6874276371668336937936772e-01,5.7808597098723002449816022e-01
0,4.3588654849510988231742203e-01,8.3040829813120753399857676e-01
0,4.3608146681946635681015323e-01,5.0168647675367317173567017e-01
0,8.8455055878756772003157494e-01,8.0533426698808174837296292e-01
0,3.9751508023357640109196609e-02,7.6076190853202119157572270e-01
0,7.4624049258233210446533690e-02,8.7665483241654706958456700e-01
0,1.2522542411530779293826754e-01,8.8451283861875096281579545e-01
0,6.2516008622663798988128292e-01,6.5751069517669624708844367e-01
0,4.6971502805792475498947169e-01,9.9100825020216398719696826e-01
0,2.4559166602479781671419801e-01,6.9040073436333260215036489e-01
0,1.8525716833861946564177003e-01,7.2761329687958475886944143e-01
0,4.3545014775092921732735363e-01,8.9696040113811470462223951e-01
0,2.3256632730223270044689343e-02,6.8235687749806406277031101e-01
0,6.7783654582214880601753748e-01,8.0369896667414308932819722e-01
0,8.0281447159619478970427053e-01,6.4352545187638976464938878e-01
0,9.0767705450664731836596388e-02,7.2890038455279071438752680e-01
0,1.6388672704757323295154947e-01,3.0103082046951068484474945e-01
0,7.2144241501682804251771586e-01,6.8965061850672015886232202e-01
0,1.3595011072488566439275814e-01,9.8639200888017253276984775e-01
0,9.2485090628132560208740642e-01,7.1213938282460509388016590e-01
0,7.3423100918138173298643778e-01,3.9904503443932703987684363e-04
0,1.7006968066456987220824715e-01,7.3430190613454360271106225e-01
0,5.4105676057142670920541150e-01,8.4450299335703882253056918e-01
0,1.7922758697444030051570962e-02,8.8066021584668430222109237e-01
0,1.4536857792410831646812142e-01,5.7933846829691559854325078e-01
0,9.1687213235468645322612247e-01,9.2399824258230001117198071e-01
0,7.9652099679176591173757060e-01,8.9302626322756706311878361e-01
0,2.0252364961140667531935833e-01,3.9757664242448453872924574e-01
0,3.7594638219671278056566166e-01,8.9293065595517973065398110e-01
0,9.5592906541184186064441519e-01,9.2140332863480378655651748e-01
0,6.9709328197448738873021057e-01,9.8030033149614137499838762e-01
0,3.6562366592753775540458605e-01,6.3481479109603733412825477e-01
0,1.6389141538272644638141173e-02,2.5126592838900968507331868e-01
0,9.2310197839830021582230302e-01,9.1550503125581339514127421e-01
0,6.5205015253876108527464339e-01,8.4753143267554453821333027e-01
0,2.1019699393230828476930583e-01,7.4065050314652736140885736e-01
0,2.7983891930408333337254589e-01,6.1016851983478836984886584e-01
0,2.9369099591675185134675985e-01,7.2861894391961035122307067e-01
0,6.5405544825492789584586717e-01,8.2377701461171437546937568e-01
0,1.9308518518265982422121851e-01,8.4810926581475376551111367e-01
0,5.7653865751114674598198917e-01,7.4743602140116938148395320e-01
0,7.6910670714737694453333461e-01,6.2528623760826118616051872e-01
0,8.2839593796720767393537699e-01,9.6664380053540721604576902e-01
0,4.1592619458128154974474455e-01,6.1433046360343579461726904e-01
0,4.1168137776803265248659613e-01,6.0534962221289889683362162e-01
0,5.3773526889974510023506582e-01,9.0975933117012997008998809e-01
0,3.5387351029588026696259817e-01,7.6833996242748348048934304e-01
0,5.9219999230443398641199337e-01,8.6596958059022666187587447e-01
0,8.1267648188867047664984966e-01,8.2980118461686047659497945e-01
0,3.5052725093434267122916026e-01,8.1565934980554732902646720e-01
0,4.3105788793776461664819522e-01,9.3093449828682639513033337e-01
0,8.4081047870349867601191818e-01,7.7244643255491818312208352e-01
0,8.4128673390669905796102057e-01,7.6499204030040468538231835e-01
0,2.8996608843719090531365623e-01,7.9972509865847762888790839e-01
0,7.7114308627386074501686153e-01,9.0711665547296205236449396e-01
0,6.2050998304356463908248998e-01,9.3834268272545418021479691e-01
0,2.6576836252428126528002394e-01,7.0701539155316261986428117e-01
0,6.3334118077727086237871390e-01,9.2191705349294972293705541e-01
0,8.4416656668979284106058003e-01,8.8787553047402034689383754e-01
0,4.4656474598218692806383956e-01,5.8761646221922470001430838e-01
0,7.0195043349061947424161190e-01,6.9834019035732897151547149e-01
0,2.0092979446712133650976284e-01,8.8070074742151271962598003e-01
0,4.9084329005652632682554781e-01,7.9318410572129360858184555e-01
0,6.9225718180046413863237831e-01,8.4677795743651151916253639e-01
0,2.1031002788007746584497681e-01,7.7422898817907026547402438e-01
0,6.3224724511339647214924753e-01,9.1569644228098678873095650e-01
0,3.2492691186864497421282749e-01,7.3717360163313550014407838e-01
0,9.0447521999899238576148264e-01,6.6861674741483667627761633e-01
0,8.5449491826591406073987400e-01,9.5452241652424374418473008e-01
0,8.7170830832440027169383256e-01,5.2028739741047036471144338e-01
0,2.0199416723154733910305936e-01,5.9161780034705557795859932e-01
0,6.0649591792495505249149801e-01,8.7069188229814675761275566e-01
0,3.2665045166138129140165347e-01,9.2889873686777069128339690e-01
0,1.0979941942796614395838617e-01,9.7053870206392067743195184e-01
0,7.1631423251402281948685413e-01,9.5347122489370439435418803e-01
0,1.3102304538230091779382747e-01,9.2019339949216094609596439e-01
0,5.2429713134150723874427058e-01,6.9485026915843617345558414e-01
0,7.2548865719170463339793287e-01,8.0574786312518686948180857e-01
0,3.6477496371389417362252061e-02,8.4519801019928797458646841e-01
0,6.5181588479472329922259632e-01,9.2092740249695947962749187e-01
0,3.7557709197955713165129055e-01,5.8648079050206303186598689e-01
0,3.3908217335279094983846448e-01,9.8708469353750272201608595e-01
0,9.5312966474610893996555205e-01,4.0570030627567366110497460e-01
0,4.8969509393668397834176176e-01,6.8271478999078616389795116e-01
0,6.1420016481984007761241173e-01,6.8521809773404163124155275e-01
0,7.3955354817795937449886878e-01,7.7845170772271432557687376e-01
0,1.1479694784367655557844046e-01,9.9659738956174659385567338e-01
0,7.7863595518347938906345007e-01,9.4403314843870833605876669e-01
0,4.1225116486463903031634004e-01,7.2714307621617779719969121e-01
0,5.5371833919988633354591911e-01,4.7589476706490019264350622e-01
0,6.6028067193278827673452724e-01,8.0071692867645671842780075e-01
0,8.4776061675583447296844497e-01,9.2811045140942116660198735e-01
0,7.7658465623634931329632991e-01,8.9821832987192107289331489e-01
0,5.4532372566902131971744438e-01,8.1367298189831394061855008e-01
0,7.7570740510871982742457931e-01,7.5535418914120699973580031e-01
0,8.4707294901977547851856798e-01,7.9415220780987705317954806e-01
0,1.2128708622739323153005842e-01,9.1608651002823970888044869e-01
0,9.1341455504869717429983211e-02,9.0660608463408776103165110e-01
0,9.1988448850924964261821515e-01,9.5013281337686217309368431e-01
0,8.4235404389086587784163385e-01,8.9756792926727579917667299e-01
0,6.5297650206856217014461663e-01,9.0218029182556380707325161e-01
0,7.8675983144636962851592443e-01,8.8734810068726999165988900e-01
0,5.8112454279116376731906257e-01,4.8621598199351895308595317e-01
0,2.8353164433325650506390048e-01,6.8666012450382940546234067e-01
0,6.7176556248258012526974881e-01,8.0474203428205237642600878e-01
0,4.3921604268558844808012509e-02,5.5591931819508710876931445e-01
0,2.8545254255003893462117048e-01,7.6046404801736733336525731e-01
0,1.0733014294818446487944641e-01,9.3939592313034903092727745e-01
0,2.6674862484973094201023969e-01,8.8691001030245197878087993e-01
0,8.4793513091791838931499115e-02,9.6843262219432091342241620e-01
0,1.4039945530195926948202612e-01,7.7669110340677727233327232e-01
0,6.0956851945014622895513412e-01,9.4998172743894371272688204e-01
0,4.0939673060799064430170802e-01,7.3473680421976717003218482e-01
0,4.9489349543862654057235773e-01,6.3924461704343182866239204e-01
0,6.4885652552037453855149352e-01,8.0441883750060871882681113e-01
0,3.2382245289731015347456378e-01,7.5929663543742864639796153e-01
0,2.2491633646552613989832992e-01,8.2567393684089962491157166e-01
0,7.1955816717065346210802090e-01,7.5996902322664716677991237e-01
0,8.7662570669838690839981155e-01,7.1516453706187288474893649e-01
0,6.8775744220219436897423293e-01,7.0850662980784162581215924e-01
0,8.6594945355769326056361024e-01,7.1175983445371993063588434e-01
0,3.0255471016247925675202168e-02,9.0584186145152201241614875e-01
0,2.1191702301492176818697999e-01,8.6886090763596635078158670e-01
0,5.3850949487752552968800046e-01,7.9157578708057152461208261e-01
0,4.9025631676619707555175864e-01,5.7716600247179083993387394e-01
0,9.0927247261384236409753612e-02,8.5862585717636441540179248e-01
0,8.5859487556286062659438585e-01,9.1625116522366933935472844e-01
0,1.6508446988307584613053791e-01,9.4271822231006219272586577e-01
0,5.4675501650389612962044339e-01,8.1508458627164437348966430e-01
0,2.2621026180969411312204898e-01,7.2352195971079724667873734e-01
0,5.1680107447580747592752459e-01,7.1850690927868676727285902e-01
0,2.6119654302404782253432813e-01,9.5269323244785020232683337e-01
0,9.9544834684614524888957021e-01,8.4881043652789489595278383e-01
0,9.2282069057502802422732202e-02,6.7223096601400722516217456e-01
0,5.5541624139871625942532773e-01,8.9252181761689775019164017e-01
0,7.7249986083239885470419495e-01,7.6969126230511109021392713e-01
0,3.9695787799563908571087723e-01,7.2627131458220006710035932e-01
0,1.9428640842021394075089802e-02,9.1636092980653505168930906e-01
0,8.5429094500572011483541246e-03,7.9659020456524032294254312e-01
0,5.4402735716249817077283524e-01,9.7479819841710968475467780e-01
0,1.7006027118793554109288380e-01,6.9560130753424742611201737e-01
0,8.4958270763188203922311459e-01,8.8572108744595767770846351e-01
0,1.4118383821952118495346440e-01,3.8094575687616610837338271e-01
0,3.9384645480696223174277293e-01,8.6320571570165849362155086e-01
0,1.4405750299802663749737519e-01,6.2760107115129559751665056e-01
0,5.6584526115351785335860768e-01,9.3440568773487375775488317e-01
0,9.5911000847803506985655986e-01,9.6348946836884130640044077e-01
0,3.9141564628770808553781535e-01,7.6028163189911146524480046e-01
0,1.9477085465385399198900984e-01,8.3794598611236281726633024e-01
0,5.5773895376180226968187981e-01,8.2671020972034903184777477e-01
0,4.4659960597584502650647664e-01,4.7483303562438045064553194e-01
0,6.1828887103669760705315639e-01,8.0888901027903525875473179e-01
0,8.1835348832970300492206661e-01,8.0118250186675477042541615e-01
0,5.3310593902312941594345830e-01,5.6443188909334340852552714e-01
0,5.2012607600354843206957867e-01,7.8630125801716621580794708e-01
0,1.0583129447146011337110849e-01,9.3621494450597120273727114e-01
0,8.6178620497392255384028203e-01,9.6767881929661991868840687e-01
0,9.0523583242084704192365052e-01,1.2190342214192684267004552e-02
0,5.1310322872997138343720280e-01,9.8154245693966024610688237e-01
0,4.5998534283434233671528091e-01,9.3493688698793409042053781e-01
0,2.9336824823039725496087726e-01,9.3984713550998932873881131e-01
0,7.2429040024219659699156182e-01,9.0818278460719015221513928e-01
0,7.7051438630455837408561592e-01,2.1560368559822018497129648e-01
0,7.0690953803927525367356566e-01,9.0091376300230785467704209e-01
0,9.6138936765370242021333524e-01,8.0204302927648218890510634e-01
0,1.5001906345525473085444901e-01,9.2445031278115985529097998e-02
0,2.5305742508625245212883215e-01,9.1873824018081728937090702e-01
0,6.7909323196703985647815216e-01,9.5541206442238602036809425e-01
0,6.4364963614823700321920796e-01,9.1617874516725783529125238e-01
0,4.7167869079864921388889343e-03,8.1004697915098688998369880e-01
0,1.4425155039851578209209038e-01,5.1130938330236397337813514e-01
0,1.6890682378649946038251528e-01,8.9021674640363035457824026e-01
0,1.7346104736276446445231159e-01,2.2794066413444635799123716e-01
0,8.2640316822786497041875009e-02,8.2337101811925883509957202e-01
0,9.9916844117937475555635274e-01,6.4485419211864292154956502e-01
0,6.9910267673244907982166296e-01,9.5097255338372044253247850e-01
0,9.4318655155409336643401730e-01,8.1692420705959478688384934e-01
0,1.3417986890375055430979501e-01,9.9329450480222014618902904e-02
0,9.7950442597494735696983525e-01,7.5375968393512904341946523e-01
0,8.4459345568244437174598716e-01,9.6473159683329012814567704e-01
0,7.7511905538494862977216826e-01,4.8313234045716635378653336e-02
0,4.1934951115555429979053770e-01,2.1772169661406026719419060e-01
0,5.5199200590495056673034924e-01,7.3913147319471916851796323e-01
0,8.7262821100215759440033025e-01,8.4682024905387132118761429e-01
0,2.8847579632469977362063673e-01,9.6458214810223363855357093e-01
0,6.2188476727427577372964151e-01,2.9187642437701422082341196e-01
0,8.6579452267301548751277096e-01,9.3859112287038426458707363e-01
0,6.0601951139173604321541688e-01,8.4108454263159115882331207e-01
0,8.3287870023511922923376005e-01,9.1433331107192861164634223e-01
0,7.5251923945791288073081660e-01,9.7127106797735540677507515e-01
0,1.2305629120499528283971813e-01,8.7294892403734081209876194e-01
0,9.2712784349516608184416100e-01,9.6315020340124191111641494e-01
0,6.8586947544061938053516769e-01,9.0875936187062578142104030e-01
0,1.8290081507132316396280203e-01,9.8958421184457168173764785e-01
0,5.4494363289756453383461121e-01,9.2215627933842958530163969e-01
0,5.8985663373905483641834735e-01,8.4650328450796330503891340e-01
0,6.7274013191170933811946497e-01,9.9543358140361781760674376e-01
0,2.7888432345901226216966506e-01,2.6553230840944141988302363e-01
0,7.3457298233149426192056808e-01,1.2455069084455883121620445e-01
0,4.5925432413074251947193716e-01,3.8551095847323441079268491e-01
0,3.8868659551761358672550273e-03,8.1445740066940541801443487e-01
0,4.0960353017845391176976477e-01,9.4310521362098809206031547e-01
0,2.8754904210552856280713740e-01,9.5794945585932966825026824e-01
0,4.5256442068078445162271350e-01,8.5902685287019053816948144e-01
0,8.3609726523860050662051435e-01,1.0493659781061204228080896e-01
0,4.3995844935054795321605070e-01,9.7202628428711435049081047e-01
0,1.4643647994079911356379853e-02,6.2791159932520856923332531e-01
0,7.1601355038523306628661658e-01,9.0003084607043470910525684e-01
0,2.3236814238066449966879645e-01,1.3068118249090399096701276e-01
0,3.1784809269713942825319464e-02,2.2848836027051788732933346e-02
0,1.9282832019306428428251365e-01,5.9963322946184616224485353e-01
0,2.9126921915819903308175753e-01,9.6542472869413165081908801e-01
0,4.3817990292018765829951121e-01,8.3911355866320003205061084e-01
0,8.0978208217086744546975297e-01,9.3777403808352288727689938e-01
0,8.6135372435985946282244186e-01,8.6232000490049809382497870e-01
0,1.1727596828337481793536057e-01,9.1120357613808067309690841e-01
0,2.4567239260119810850824251e-01,9.6568919593710655924212460e-01
0,9.6044501584975283670075896e-01,8.7000582632283007811224707e-01
0,5.9874176147046520579664275e-01,7.2591325568269993162573428e-01
0,6.4346467965845199898922147e-01,5.4537242152209586265598773e-01
0,3.5252092327574069408058222e-01,7.6602589266012366397973210e-01
0,7.9558957062372348545409295e-01,7.9299922964755498178135440e-01
0,4.7678404073284996744774844e-01,8.4290365072572204230283432e-01
0,9.4633664023895514016970765e-01,9.3419367664981334264950874e-01
0,4.4319709019255082438348836e-01,2.1068515589655190112239325e-01
0,7.6568757298384015896886012e-01,8.3940208102654767507999622e-01
0,6.6474970770387109553212213e-02,4.1265496606421292469235595e-01
0,9.9381766200971011215870021e-01,9.9494223738060227901769395e-01
