Species Id, x,y
0,3.9532050072970603693534031e-01,7.0352760542353032224838216e-01
0,4.3646543428042311463244118e-01,9.1651763162347510416338991e-01
0,4.2537703688307859639650133e-01,9.6566012211964413758380488e-01
0,4.8434823001425031385736020e-01,9.3901238657248631280793916e-01
0,4.5579761366430471269950431e-01,8.3015955112315364949893137e-01
0,4.3503491679452543916539753e-01,9.9386571342196461387175077e-01
0,7.6838218462865437441422500e-01,8.8307400362290855433400338e-01
0,4.5981778032768411135222664e-01,9.4735157986217899406256038e-01
0,4.2179279795006707765026022e-01,8.9483852429681065565603149e-01
0,3.5807433604567068252677586e-01,9.4007195592804826400623597e-01
0,5.2525774634570709942238409e-01,9.1465517487352943071243772e-01
0,4.3835953745209027543339175e-01,9.7697938048688259815577339e-01
0,3.4075680352283127527712736e-01,9.7616201213412512327494142e-01
0,4.3894372435934042586680448e-01,9.6945654292048932809677808e-01
0,6.0493374715625747306546600e-01,8.4803601132883343893809069e-01
0,4.7264799829232378991505925e-01,8.9591740611595827026292227e-01
0,4.1762724581348703578598247e-01,7.2474449268557350478658918e-01
0,5.1117608172936146448961381e-01,8.5407378396909305884321384e-01
0,4.1592806124919307064757845e-01,8.9656604513882443008299106e-01
0,3.4775276268690058500965279e-01,8.5524443785297221687358160e-01
0,4.6904832124557710448797820e-01,9.7245587346411310747384960e-01
0,5.7619244570081595835375765e-01,9.3842841773983842745820994e-01
0,4.5781678243329543276374238e-01,9.9569913715831748213247465e-01
0,3.8364298887372161317443897e-01,9.6812009567144452493181461e-01
0,3.9268986204685418783810746e-01,9.7867329464007701833594410e-01
0,6.8190009745189339440685217e-01,9.6869793324504793741169806e-01
0,4.9286107835378145658467020e-01,9.6849549071365204078176703e-01
0,1.4795734932776138936816324e-02,7.0251872982417362667462157e-01
0,4.0278063690600784951811875e-01,9.6906666439125999090720143e-01
0,5.3140559752841576290904868e-01,9.6481011839332586621509336e-01
0,3.6906295472877276298007132e-01,9.0139283024713512393333303e-01
0,4.0098081460386886254454453e-01,9.9719992355225384184080895e-01
0,5.2371746033359956040698080e-01,6.1419349291042069083346178e-01
0,4.3686816664792027520292095e-01,8.9883808121918951083983984e-01
0,4.7160958401726116306917902e-01,8.7599840965600406228475094e-01
0,4.3614863680286419800324893e-01,9.3858984274818157977904320e-01
0,5.6256547298644610233253616e-01,7.8496383562644556075582614e-01
0,3.3863913233395670498993013e-01,9.7089560289409404525429181e-01
0,3.1020546870085008439588137e-01,9.1012358265989912187166055e-01
0,4.3698300479268692431134014e-01,8.9822198742551340178152941e-01
0,4.0076211201954897722643523e-01,8.6660519709842498414786860e-01
0,2.1206730400496212607386326e-01,7.9147650123773316543918099e-01
0,4.8557342623138260995219184e-01,8.5520187845708972584901630e-01
0,4.0159787802829743919019734e-01,8.9671685991376437474542627e-01
0,4.2542544337179355462552621e-01,9.7451494575731534286688884e-01
0,4.4625540636203375743917832e-01,8.7365825719374756719304287e-01
0,4.5503004288291004630906400e-01,9.8888096437963124429870732e-01
0,3.9719253010298410933032187e-01,8.1374206282055894234872540e-01
0,2.6282982101289092957685511e-01,9.5309743299580085285072073e-01
0,5.1793374380420487135268104e-01,9.1040431351204131882326465e-01
0,2.9942222529121020890841010e-01,9.0633053965003973484471089e-01
0,2.1803835671865609557862342e-01,7.7873544735879207667750279e-01
0,4.5934596876320682445893340e-01,9.8865270053624609847275906e-01
0,3.7582515254666243320613717e-01,9.4570893751531237558793919e-01
0,1.5493310447063274315482317e-01,6.6476685871636287394892406e-01
0,5.1487496143780775437193142e-01,9.3328409148566116027012640e-01
0,2.2626742897930163245234780e-01,9.7826934655278807717593281e-01
0,2.8318415301207860990118093e-01,8.4190495045372304439013078e-01
0,6.8260704789861836871978085e-01,9.2099690955794610847107151e-01
0,4.1105710199318640230004007e-01,9.9010912866867228920852995e-01
0,4.5342978209627743391152421e-01,9.8435774423956268197599684e-01
0,1.1705609123237609159318140e-01,9.8271763801110123548454567e-01
0,2.5231612570927430816425385e-01,8.3990328172243022830656400e-01
0,4.4569233982070982635903533e-01,9.6900589128283887152548459e-01
0,3.2890462851741097960456273e-01,8.7923967177653961080352474e-01
0,5.6980789028294853704181833e-01,8.4677484418831072687794403e-01
0,4.7236308182485042816978194e-01,9.5206827545458383443843786e-01
0,2.0163120055072936143147899e-01,7.4523517005922168543463613e-01
0,3.0833450378785937084913371e-01,8.1572109374158030536960950e-01
0,2.3772509627155924416541666e-01,9.5570249413703767249472776e-01
0,7.0034813369556392359527308e-01,8.4351448112506532961418770e-01
0,4.5114677143020653904414985e-01,9.9762025631755968380076638e-01
0,4.1923874343943179354710082e-01,9.8993458030005332393130857e-01
0,3.8888235717489799680990359e-01,9.1453178032383231066404505e-01
0,2.5278745939866803515982951e-01,8.3269025238745220107716705e-01
0,4.1320276454383098041489575e-01,9.5838855027455138735348328e-01
0,4.2092507085150843160192835e-01,9.1990639781342808944941680e-01
0,6.5869620596405353829538853e-01,9.6702302272840501284889569e-01
0,3.6773813769964103226328689e-01,9.1789316800992293288175006e-01
0,4.5280555739356187494593087e-01,9.1013087857264318714101137e-01
0,3.8757238515105985054987059e-01,7.5944979734192918918722626e-01
0,4.4751855805113660569105605e-01,9.1685746509804599835291583e-01
0,4.2348287474867934987443618e-01,8.2064676086565058188426747e-01
0,4.9116001455364816097315384e-01,9.8672001286562027733140212e-01
0,4.7995088773745508969881257e-01,9.3155087275743608810074647e-01
0,3.8066275815652861336246815e-01,9.7535130377528267420217389e-01
0,4.5981090123164891636520224e-01,8.0106414157460559266610289e-01
0,4.8555949814426846433690343e-01,9.1329019453431348196659201e-01
0,6.2398306483354493146009645e-01,8.0943266497641697121423476e-01
0,4.8424411212397461268253096e-01,8.9476646435132334289619394e-01
0,3.0610407932478511661145149e-01,8.5854946066664872272866660e-01
0,4.3153449506775015676041107e-01,9.7276962413770462489992497e-01
0,4.9981585572148334861708463e-01,8.8110544370337029462803002e-01
0,5.3062599628110385108215041e-01,9.2798196649819320036556292e-01
0,4.3074408380394252349177009e-01,8.7354190102351880753417390e-01
0,4.1711417188689003943125044e-01,9.5918212102206257263503630e-01
0,5.2656124084630206994006585e-01,9.5408474402433174343940436e-01
0,4.9478317191224024940154891e-01,9.4751953589729476234992944e-01
0,4.1035649016455721938001489e-01,8.4915173207711236447181591e-01
0,5.8284845466750512255060812e-01,7.4768542281620242739847981e-01
0,4.2661710433755734017680084e-01,9.9814577443340790630088577e-01
0,3.8341447326074051815680832e-01,9.8081624834458058792563406e-01
0,4.9763787595999009472080843e-01,8.9721642650564470411467255e-01
0,2.6338993893188017425543990e-01,7.3163129239025059824541586e-01
0,2.6416861586644757586839205e-01,8.8258364961129376347059861e-01
0,4.3079206533281255708800472e-01,9.0194940888069297102447308e-01
0,5.4150386736596800574261579e-01,7.9490117205241084263889206e-01
0,4.1136808368053001672137725e-01,9.8276581318365141548554220e-01
0,4.3208889787829685147357850e-01,9.6838340579943305019838817e-01
0,3.9253257348099257484363989e-01,7.9409490596163079256797346e-01
0,3.5944732398258372185750886e-01,9.4348692097088915353708671e-01
0,4.2354533221004764254047359e-01,9.8674226098028394726924262e-01
0,4.7121223081932789300552145e-01,9.3247495025402105106593353e-01
0,4.6849657538489702934825232e-01,9.1298311148985200613736879e-01
0,4.4087018841888681031093711e-01,9.8380096078576972917772991e-01
0,6.3476472720323728893276893e-01,8.1322762627402567225942676e-01
0,3.9954301416443899208630341e-01,8.1003932329725436556344675e-01
0,2.2885825699746800698797244e-01,7.0504034381958924360134233e-01
0,4.0150461715960006348069555e-01,9.2774881787070051508692359e-01
0,5.3466722382709963579117129e-01,9.5638209533259144201622348e-01
0,5.0276557003057131822743031e-01,7.8135505106512148643105320e-01
0,5.0291655992391903762239735e-01,6.8146772770194918855679589e-01
0,3.6685413607539696378978533e-01,7.2162534566335945207526947e-01
0,4.6638513315939111869568023e-01,6.4593040269101986705635454e-01
0,4.5343725470602802563035993e-01,9.8756941478862847461073216e-01
0,5.9977077202225004270985664e-01,9.3910542228271942644113324e-01
0,5.0339262327148592834902274e-01,7.4889795601802289226611720e-01
0,4.2628345311931625793988587e-01,9.1538160574454507933950254e-01
0,3.5051395226676018701539306e-01,7.3898480145248079953290699e-01
0,5.6208454511610272952282230e-01,9.2167798266770895043720202e-01
0,5.0214182874739166084765429e-01,9.3663935337845938278178437e-01
0,3.3432229195189333559312672e-01,8.6268467167823070784749007e-01
0,3.2837845501225249034149556e-01,8.8555898810851096936147542e-01
0,3.5370315152977827022340307e-01,9.6955757017442845135946072e-01
0,4.9494297848308849152587641e-01,6.3870556018241142481883799e-01
0,7.1058239817905188839830544e-01,8.5678902231460130067830505e-01
0,4.2930948992115997020491136e-01,9.7367241843901086717494309e-01
0,4.6744150322187266732854027e-01,6.0001377795340338217044973e-01
0,6.2558877471358775856913326e-01,8.4906158259574782132261817e-01
0,4.6001792463615920336650333e-01,9.5757837255805167142597156e-01
0,4.3781414066771545678946609e-01,7.9913686124975613633836247e-01
0,4.4460805970926176033941601e-01,9.9834649407516906638448972e-01
0,4.2002256466865156570023032e-01,9.5665266933069181831683636e-01
0,4.1187433245730270536810735e-01,9.7579078567195665083744416e-01
0,3.9703085046351466180780676e-01,6.9946191300227955611745756e-01
0,4.6717029666601789239521736e-01,9.9243283436915752382390110e-01
0,4.3569326678589276324871093e-01,9.0999640695513084320822372e-01
0,2.3869559333087714270149604e-01,7.5627297314311625608951317e-01
0,4.6736998163179410692436022e-01,7.8907279519098461051385129e-01
0,5.2416684532892010572879826e-01,9.8990397085115811037780986e-01
0,7.0138980638686221347199989e-01,9.3519773501104075386081149e-01
0,7.6491051868190829132743147e-01,9.8015875421264642142205048e-01
0,4.2255624855043621979078239e-01,8.9203711489533221712378008e-01
0,4.5477443183029425677332824e-01,9.9130037321331243571620462e-01
0,5.2766662863501312408232025e-01,8.7482814473705772240208489e-01
0,4.4060652775507835876567242e-01,9.9995578380809990726163505e-01
0,4.4464136836307516231769910e-01,9.8895192210547810951482006e-01
0,4.0127655614542873108163690e-01,9.9012087040990193198553015e-01
0,4.7528985233182857728095883e-01,9.5571520390182662652023282e-01
0,4.5116877967270374583108605e-01,7.4764078746572559808214464e-01
0,4.6646541616201375735073498e-01,9.7746719038721163741456621e-01
0,4.7450385897857438877167624e-01,9.0707208324995214354657946e-01
0,3.4617898918085554527124259e-01,9.0028178398878566657259626e-01
0,4.8464187934625835296742480e-01,8.5820678114532022995319949e-01
0,3.1167331076168808268178623e-01,7.3622243798995734564982740e-01
0,3.2157321706036401387507340e-01,8.9385183259122691357134727e-01
0,4.5165630910313608881168079e-01,9.6701607569602121561302965e-01
0,3.9860739118518256907108821e-01,8.9672250630843042262796416e-01
0,5.0418848195579224480411540e-01,9.1110964929627158426228561e-01
0,5.0176945725496868710990839e-01,7.1161897546078933807223166e-01
0,4.7265205274969412929664259e-01,9.1339375253094801099251754e-01
0,4.3680560848316390964996003e-01,9.9539424029847356489852928e-01
0,3.9658325092200530370689648e-01,8.4055595426673535008887939e-01
0,4.0281601928695576209094042e-01,9.6393790465646611576033820e-01
0,4.1589118201272418096081651e-01,9.4500776564472066532118788e-01
0,3.6143109043370791333416037e-01,8.2061595236826034849286771e-01
0,4.6178765587280956594895542e-01,8.7418334604518754815671855e-01
0,4.0379028938358318967516425e-01,9.9858800633915356659286999e-01
0,4.9137603354240338981995251e-01,9.8423213686754718043658841e-01
0,4.5939303036615136699438722e-01,8.4771683431278033182820764e-01
0,3.9278807150304051454270393e-01,9.7395623909319484212687712e-01
0,3.3749151619133371804437616e-01,9.2744775434762727339688126e-01
0,4.7717852235901814239582563e-01,8.5119217324660767509669768e-01
0,3.6141921252378778062208653e-01,9.6937946318118994870616234e-01
0,2.0046519141080498815910005e-01,7.5260557426251750712253852e-01
0,4.1858925148777148539380732e-01,9.8881228723700320681899711e-01
0,8.0750663513186149433664696e-01,9.6355052359722637156380642e-01
0,4.0983020052690666279460174e-01,8.3025626002238739342686813e-01
0,4.1354011115481470461929803e-01,9.8613676323644883225938429e-01
0,1.1199596966598390768155014e-01,5.6509395665806660957741769e-01
0,5.6364263180880702641672997e-01,8.2729782926341965954009083e-01
0,1.9865151018987672881799256e-01,8.6890380637994324430906090e-01
0,4.1598010974803234507390926e-01,9.9066629680842166472132249e-01
0,2.9864994159073521284852859e-01,9.3714244426179149627387233e-01
0,4.3732526386854508881896209e-01,9.4952307219869058751982038e-01
0,4.3881645622198139911063208e-01,9.9212316532204702923536388e-01
0,5.1460002576256580475444480e-01,9.0356563843752613074400415e-01
0,5.2775147325250215679659505e-01,7.1572881876019489588713896e-01
0,4.5700373692118251289784325e-01,9.9161012699207473630735876e-01
0,5.2441341395283114223957455e-01,8.5770325958226789619942565e-01
0,4.9599516976275631607862238e-01,9.5447559303136264574618508e-01
0,7.2729475077312666364548477e-01,7.6988341049468289600810067e-01
0,4.3640057423562633731606297e-01,9.4018982405368034527270993e-01
0,3.7093587553221846198070466e-01,9.4214200226837407914359801e-01
0,5.3139560534477192632607512e-01,9.2292508268516459946084751e-01
0,5.4798962462488498559309846e-01,8.4458103816235619021313141e-01
0,1.7764698950650251174643302e-01,9.0269606594552775913342657e-01
0,4.3835255769876679821095422e-01,8.4741824907898721797039343e-01
0,5.9821062244410216912626765e-01,8.6173657154667915314405491e-01
0,4.0752816726700602512067917e-01,9.6296647352917352780110605e-01
0,4.5303413538454351261464126e-01,9.6550571178022259744011535e-01
0,3.9811025478190731341499031e-01,9.4585147154967641469625050e-01
0,4.7038171634500824946911735e-01,9.3371786752992280700169658e-01
0,3.6896633315001814423794713e-01,7.1889673557222866229210467e-01
0,4.4674436428585079239539368e-01,9.6005689191526644155061376e-01
0,6.3718007015212307919682644e-01,9.9691075943647533552649520e-01
0,7.0956707485076842001348041e-01,9.0846220872858884920475475e-01
0,3.4578851604531402053055444e-01,8.5977982422119381133995830e-01
0,4.3248568957719557559471468e-01,9.4010099827833570884649816e-01
0,4.7201308302995376164901131e-01,9.6522428576949603762358265e-01
0,7.1105999967097699432372337e-01,8.0130334013045956265131053e-01
0,4.3146663416612013319806351e-01,9.3932361369674410855878932e-01
0,2.7352171715766909754208314e-01,9.8440247366581790089412607e-01
0,4.8322721972065707518595445e-01,9.2963157235306059789081701e-01
0,4.3390190022941355074692638e-01,9.6080938908079638327563998e-01
0,2.8679708296127010003218061e-01,9.7591657012132693171935216e-01
0,3.9854093712190069576095652e-01,9.6263765518641730700721837e-01
0,4.3546311801108039674090833e-01,9.8569585130002912443103469e-01
0,3.6737114306013335385259211e-01,9.4424949560191406838782768e-01
0,4.5104609216540181293453315e-01,9.5620439537935486562503229e-01
0,4.4843255387773511833060525e-01,8.4199817393284692723653961e-01
0,4.5512921755901858400505944e-01,9.7111216375683184764966427e-01
0,3.8836210150640426697066232e-01,8.9891744192686362513455833e-01
0,5.0348039850636905345737659e-02,9.7117929469862562807946915e-01
0,3.8797406721113070204864925e-01,9.4261306449655812844667935e-01
0,4.1020051137600316293330138e-01,8.6448337431639887817880208e-01
0,6.3462031990875988896050330e-01,7.2053242436173570162338820e-01
0,4.3983438903784416451614447e-01,9.9581626030776448921244537e-01
0,5.4615362596762906388647707e-01,9.4924879681843321588274875e-01
0,4.7037375990655788671190862e-01,8.8219564123024807322792640e-01
0,4.4146200169184113271114711e-01,9.7334053740031567514279232e-01
0,4.2033738869118847381045612e-01,8.6847258693255269257349482e-01
0,4.4188686339965216332004161e-01,9.1643466979131926741786174e-01
0,5.7513952199541140686278595e-01,8.4221764088538542125661479e-01
0,9.0163242152732947509718997e-01,7.2923381366117800972403984e-01
0,4.0488909736803285754902504e-01,9.6679106384724178280265505e-01
0,4.8660939897600635761776289e-01,9.7506473189532671952406417e-01
0,4.0992124411624136781640004e-01,9.9998301056554506072160393e-01
0,5.2428661388812236587853022e-01,7.7289712041512148577027119e-01
0,3.8889152832227663614261814e-01,9.1839382416680614973358843e-01
0,4.7797342883454407846954837e-01,9.4779197108021040474312713e-01
0,4.3989270358047904974085895e-01,8.1187896420861260793344627e-01
0,2.4091348296583239840806812e-01,9.1160353798833093641462710e-01
0,4.2513327227834701860231803e-01,9.5973913264222932006930478e-01
0,6.4509472862491001876605878e-01,9.6729789277033573213770978e-01
0,5.0558274560472060699112262e-01,9.3494474624295176301558286e-01
0,4.9980392427642311714564016e-01,9.1221790130447188982287798e-01
0,4.8072540401966867840144459e-01,8.9319550048885432147471874e-01
0,5.3883319918538907788985171e-01,9.1239824775770539400099324e-01
0,4.6068964348472518643973217e-01,9.5786012257070618503007609e-01
0,6.1820935869487492198004475e-01,5.4118820249446741854626453e-01
0,1.1097887057683636369276314e-01,9.0710874161998411580043467e-01
0,1.7504030929759134549428268e-01,6.0671516397369895656765948e-01
0,3.7421049186394045316106372e-01,6.9820847538051611369525062e-01
0,8.6435090096770661460823248e-01,9.9712918623216617586280108e-01
0,1.7384925055343281030673097e-02,7.8181643277010437476093330e-01
0,8.9594651860454299630021069e-01,7.5562953635301421950742906e-01
0,1.6697799705335203412914780e-01,5.4457723120437329100695933e-01
0,4.7358777192014256396390692e-01,8.2698532507408550884520082e-01
0,2.2181228234139649391210014e-01,8.7676495821492073101666165e-01
0,8.1690286278336809999700563e-01,3.3192495950719586028654362e-01
0,2.2259276323568760735938099e-01,8.3365977842435168287948954e-01
0,5.8250274254805034512827433e-01,8.7918097255895255592861304e-01
0,4.6111859895173912260446514e-01,9.4511740686580647530234955e-01
0,2.0989901202623265086266713e-01,9.0875728448080350663218496e-01
0,6.7888119338821772963399326e-01,4.7230258799836982719355660e-01
0,7.3172304951387223681535943e-01,8.5906633357061323863490543e-01
0,2.6958642561777024226898902e-01,4.6257556876248512311988748e-01
0,5.2507248626093572241302354e-01,8.9132761737086541042884846e-01
0,1.0065866613791324413185180e-01,8.5305657902261500247220738e-01
0,7.3708796801672549214856645e-01,8.8243842062074906440471977e-01
0,4.1832379086966353654020168e-02,6.8023598377728988761958817e-01
0,3.3845467466607093154351560e-01,6.5535125926622872505333817e-01
0,7.5240177859046974973011856e-01,9.2351035737120668045463390e-01
0,5.5462975401011882503610195e-01,5.9650604678418472914813719e-01
0,9.4825537513270496958739386e-01,8.4346383949026737525400677e-01
0,6.6863586770588012697658087e-02,8.5578222412992854817304078e-01
0,1.5975388402762591422145988e-01,7.8896164008530267341967601e-01
0,8.3769313173112136539089079e-01,8.2432654720726938890607016e-01
0,4.4381290534644585177304066e-01,7.4780554897212625498070793e-01
0,6.1311292832212593850726989e-01,9.2213599644836230506683705e-01
0,7.3143902759435808214050212e-01,7.2473542558613168740322408e-01
0,7.2282554343325711165846315e-01,9.1191674755484264380811510e-01
0,5.3147147190148047446456303e-01,9.7379899477661535645012236e-01
0,6.0505841053761710846004007e-01,8.6423047436748889893465275e-01
0,7.3271653600476782663974973e-01,9.8259944299492762986858452e-01
0,3.2566571867824628538912179e-01,4.7872962274319519337950624e-01
0,4.9252742002818100663930068e-01,9.1635747786756061028512477e-01
0,3.0969812534434432160779238e-01,8.9771522144891102712449538e-01
0,7.5115236167294741065347807e-01,9.7080614359960371029245607e-01
0,5.9836171961723871870475477e-01,7.0080138828287452668064361e-01
0,4.5215953122220836624123308e-01,8.2894443777320536703712150e-01
0,5.8323284899086214050356602e-01,8.9613629180260945261693450e-01
0,3.8355349675890515470655373e-01,9.0914040477480695390255505e-01
0,3.1851181848875542712562492e-01,8.4585889720762019727828829e-01
0,1.3017912199094622271999810e-01,8.0708510577482495129686413e-01
0,3.4278768089765332405249865e-01,6.3828925097156385959351610e-01
0,5.1856148042411032150766914e-01,8.9032394735369757565734972e-01
0,6.3649617971393568360838344e-01,9.1805502337930156020462391e-01
0,4.5111021411297919092575626e-01,8.1733421176185172551953428e-01
0,8.0443496369933698009191403e-01,7.2282945177648694201621993e-01
0,5.6089936902556369879846443e-01,7.3598664054512230592308697e-01
0,2.5823120596026927220378866e-01,7.3420787367154194402729672e-01
0,4.0692386630206722752944870e-01,9.1602930243340663363227350e-01
0,2.9379555036415266888738529e-01,6.8620941225329923351949901e-01
0,3.7644563829476168637100386e-01,9.1382324310515650189756798e-01
0,6.0396578633935527058440584e-01,4.4390899349938250928460093e-01
0,1.6367466338184549767831300e-01,8.9085232529700164594288481e-01
0,5.5799034912740008707032757e-01,5.1197391228299005128121735e-01
0,2.4090598701893112254523999e-01,9.5532343449948864400056436e-01
0,8.8713484083969784688150639e-01,6.0882127233834371082821235e-01
0,1.4941575154681546733215214e-01,8.2277219434241177786759636e-01
0,9.4032076507066830739489660e-01,5.9682592667231881833345142e-01
0,1.6943182638711890009020067e-01,8.8586605841712640074803176e-01
0,5.6695090788224788980187441e-01,9.2816091804610190152402538e-01
0,6.4008767004770739106334076e-01,7.7353818837526366891665930e-01
0,8.9249352611938143065017925e-02,7.5840656936882788752285478e-01
0,2.5722566929953227798932858e-01,7.7509086812507754782330949e-01
0,7.5398849245424237608403928e-01,9.4150914623954984339349039e-01
0,2.0827665976868159347645815e-01,7.7431823979262903723252975e-01
0,8.3880835403407205674852776e-01,6.1695647775606055063235544e-01
0,4.6650031887528076168791813e-01,6.5020134057499079371922335e-01
0,7.5848488035608996327141540e-01,7.0322419151151205340966044e-01
0,7.4945508266622051785077474e-01,7.5463961288990466513837418e-01
0,4.7828970305762730230725310e-01,7.7287627650455614780611313e-01
0,1.3272101637881805746843611e-01,9.1842523342971549293878297e-01
0,7.2427190775627248164880712e-01,6.4946885071746718320895297e-01
0,4.7205744574767116716884630e-02,5.4065155824674770990156958e-01
0,2.9151982902657486151909438e-01,8.2817085261180578559248033e-01
0,9.7332775647466440727129111e-01,8.1577720111074669695483408e-01
0,5.5812026981154727600653587e-01,8.8620554454271627253802990e-01
0,4.6301381925537915540402878e-01,8.6310154424481355661669113e-01
0,4.5289799951863501936699663e-01,6.0913187928439049834139496e-01
0,3.7606210985634946908362508e-01,8.3958418681044011400160798e-01
0,3.0765375950606121957520145e-01,6.2216050726238980583815419e-01
0,7.2735786818246839224855194e-01,9.0960806343917877114790826e-01
0,9.6558144870619411204160087e-01,6.0561553180810001606459991e-01
0,1.6820049122884797587751393e-01,9.9582836955955789104422138e-01
0,3.4496875461550202679461563e-01,8.2336918695745708873801050e-01
0,2.7047082387523513347105109e-01,2.3427031150883959043085270e-02
0,2.3526992642512375986107998e-01,8.3532520447806146712821374e-01
0,5.7499322172342215431228851e-02,8.8442059700986752623919074e-01
0,7.4920677841483207526351862e-01,6.8850715351212588011264870e-01
0,3.7308903260470033247386823e-01,9.4672136938945483652929624e-01
0,5.2793310727193720754968354e-01,7.5075684587913882328535919e-01
0,4.7913078627719590807387817e-01,7.0487753344072678896026218e-01
0,5.6170164094286600953154220e-02,8.3558921421843201926549227e-01
0,4.5428431771277638651085340e-01,7.0270502612648066964595728e-01
0,8.1543200646000402187496547e-01,8.2493350620521777027960297e-01
0,3.8291625608436280492341552e-01,6.9750036357643319107069146e-01
0,1.2928171502567981088205329e-01,9.0082428690017468664308353e-01
0,8.3299477645106656531481804e-01,5.6689143476010905864370670e-01
0,4.2321263290844013393865453e-01,8.4108996178843065116836897e-01
0,7.2613689031103989535154142e-01,9.3410493311515474523787361e-01
0,2.9180627636163697369298120e-01,5.5644534563378689195900506e-01
0,4.2541775058517955487857876e-01,5.2606888201288126705179593e-01
0,4.9985788257728536176927037e-01,7.2975047754047317472014811e-01
0,9.4857934617935102394881142e-01,7.9875986097933215912547666e-01
0,5.7014775440956855234730938e-01,5.9199240617553250398685805e-01
0,9.9303213743794338519421672e-01,5.4926817427039420493883881e-01
0,9.2062809815180834949188693e-02,8.4784303580738884509315767e-01
0,2.1982695329831752895088925e-01,7.2396290148475717085574388e-01
0,5.6618340619805496150007684e-01,8.5895615740607267341033548e-01
0,2.3902943976539095527478196e-01,9.7099333319643443829249918e-01
0,3.6669573688373285902386556e-01,8.5586984875078231382872218e-01
0,8.3788051622759762704362174e-02,8.7443319284120357703926629e-01
0,4.7608129289730216626708170e-01,6.0766980876077736350993064e-01
0,6.9024928360933324178461135e-01,8.0528332280958958566685624e-01
0,5.4899365428274782274797872e-03,7.4019178698440601937846850e-01
0,2.1915382353213158639348990e-01,8.2817144337142634125115137e-01
0,7.4975108159860137657659607e-03,8.9048571521012587215437861e-01
0,7.4679686032980308052486862e-01,8.8842003219823839632596219e-01
0,6.2530883687062310816173749e-01,6.6978640848387893669269033e-01
0,2.8186320816525323174062123e-01,5.5606303177534366355416751e-01
0,5.1668281176655095343619450e-01,6.4715530181491442984764717e-01
0,6.5955536213710841408897068e-01,5.7977192916510122966400331e-01
0,1.1610289695387548958294133e-01,9.6166188559447707273619699e-01
0,6.2181576711798913770223862e-02,7.0296200072478998155389718e-01
0,2.2362540164644895135381830e-01,8.7719817985301262730502003e-01
0,5.5787077143343832830169049e-01,7.4925438079724615558774303e-01
0,4.2238370843331768389461445e-01,5.1607015646734832881037391e-01
0,5.4384836719929818826813062e-01,5.0932374855832973636893257e-01
0,3.6773145316476885113843309e-01,8.0327336012923122865458936e-01
0,8.1538152325761470429199562e-01,9.8622559719149793799886083e-01
0,2.4120130587559446277978736e-01,9.7027637395870702796685237e-01
0,3.4044971548390151605545384e-01,8.4737299884500194568914822e-01
0,2.4782016526346833940053216e-01,9.5093898271222709883687685e-01
0,3.2561857484496237180593425e-01,7.8709398098786453878972225e-01
0,4.9807060689202070635772657e-02,9.8468028107874994159232074e-01
0,9.8770528951356217906010215e-01,7.4552165434104744612398008e-01
0,3.4012058031931030610550692e-01,9.2669516891768022315289954e-01
0,2.5942922324748129980775957e-01,7.9334840297922804008834419e-01
0,3.6204817246949860809479560e-01,7.7981777436271138004286740e-01
0,4.9134818735312613124932568e-01,6.1902973303274100302928673e-01
0,2.6518635740474066908589634e-01,9.1049980434172306242857076e-01
0,2.9704452958904703496756383e-01,9.5287448153365150727012178e-01
0,3.1177929981625662758659701e-02,8.4681059771726108209577433e-01
0,3.5138199441810930023777360e-01,7.7450174398768645289692358e-01
0,6.8767055404132615414880547e-01,8.3621621409662927337791416e-01
0,5.4370143186597186257813519e-01,8.3169922279358154959538751e-01
0,4.3473514861606576964447868e-01,8.0134787604385437909115808e-01
0,2.4293688806785257439102566e-01,7.9541660397884261790579785e-01
0,3.4289473513814561211887622e-01,9.9541010957748554677237962e-01
0,3.1803948945975868412006093e-01,7.7090280017496326525616723e-01
0,8.0142425466738487216389331e-01,9.5791142846340149308304035e-01
0,2.1637280139030504177988234e-01,3.6079083860705507547095294e-01
0,6.7074382665763654376434033e-01,6.7032626407639017696027395e-01
0,3.8164743201541184713931898e-01,8.3476800795579453318140395e-01
0,3.0711285456595571741189588e-01,6.3121837612020070817919759e-01
0,3.4323378557335132432726255e-01,5.6148977665697863415061875e-01
0,7.9829170525108816836024062e-01,9.0998771799709776697540065e-01
0,5.1139432118165539797871588e-01,9.4956222181578064933660244e-01
0,3.7666325882990170370590022e-01,6.6846340846796958867770400e-01
0,4.9087371139174379441882934e-01,9.1566230850399576990383821e-01
0,9.4689173096460277356811730e-01,7.6713852117524916618407360e-01
0,4.7098905680626385050757676e-01,6.1904703053553011837806253e-01
0,8.4229661670620958879851514e-01,9.4218267195698990335017697e-01
0,3.0859873945372146009091807e-01,7.1856921289023845123011824e-01
0,1.8302416121876846633043101e-01,8.4500646082590269436707331e-01
0,4.4840025584513076850612379e-01,9.4490062061635571311057902e-01
0,7.7283088952910916624716720e-01,8.1747381592720080867309207e-01
0,2.4734355886613024200215705e-01,7.1077718174374449056074354e-01
0,4.9285843360770587029406897e-01,9.4205310455306912054140867e-01
0,4.2412698435626233761652770e-01,9.1678516100817131206923705e-01
0,9.2667156211132650778239395e-01,7.3236978382436912493602676e-01
0,3.8744395949165855164153527e-01,9.4058566135004373354178142e-01
0,4.9356633839973995669936357e-01,9.6828693002483834373350646e-01
0,4.0126106401570066362083367e-01,7.5075556483919592132281196e-01
0,6.1822266679157555913093347e-01,8.3157940892072845784355195e-01
0,7.2609133149405735707659915e-01,9.9472002131370484967476386e-01
0,3.9682564538139869503297064e-01,8.9696848206744939080437007e-01
0,4.0586571019307726704283823e-01,7.1012127712518402500307957e-01
0,2.9776980488922655254668825e-01,6.5258819947814861173185363e-01
0,6.1555577002587269497269062e-01,6.4595374727188126229293630e-01
0,2.6072679380683649874583807e-01,5.9964174879734033485334521e-01
0,4.9682980598287718176919725e-01,5.1253987452860338969173881e-01
0,7.3139595904092580269661994e-01,7.7809205259506641905176139e-01
0,7.7298710385088786889440371e-01,9.8688952529158313620172294e-01
0,6.3810879712350176973245652e-01,9.7110175209643689875349537e-01
0,3.6494976185583827277270075e-01,6.3793843144809536660488902e-01
0,3.8082591069020754748208901e-01,4.3640631560850651204930273e-01
0,9.3007967359507071058999372e-01,9.6157726807945775870933858e-01
0,4.6077642047629385757545606e-01,9.5646798745769168181851683e-01
0,1.8886266014124730716616796e-01,3.5432963185682136986187629e-01
0,6.8190293742398089271716799e-01,8.6946270738701814106974552e-01
0,6.4375501866195994349340026e-01,7.8615840392688385307451426e-01
0,3.7174475102276244298238339e-01,8.8066308060929865408894557e-01
0,4.0432299181959191480828508e-01,5.0386739760470278248760678e-01
0,1.2737018278335343612894803e-01,8.2355966349140552473784282e-01
0,2.0832560181992187953170514e-01,3.3514968084992818875278431e-01
0,6.7508365016763316468484390e-01,6.8408766445148194712544409e-01
0,6.1734530734372761173744948e-01,9.5634194795215665685361728e-01
0,4.1723735922302407352901810e-01,8.4124032286634908839317859e-01
0,5.9155934427551959409186111e-02,7.6680132186005323102762077e-01
0,4.4708711092545150300736623e-01,4.1335316441931013731192479e-01
0,7.1720898236442365281106959e-01,6.1464342317662101766728711e-01
0,4.0006822658723656394030854e-02,7.2239696371465578206283453e-01
0,7.9520205832208801233207396e-01,9.3069450282898380510943070e-01
0,3.5467213742225445205491496e-01,6.6315290940440130285082887e-01
0,6.0138070605560445258674918e-01,9.4493083950692602357435135e-01
0,5.5647825943773676637960079e-01,6.8293130025047732445386828e-01
0,5.7728618432189382492225604e-01,7.3805249879943246593683170e-01
0,1.2143342096767961724168572e-01,4.1953053469911522066482235e-01
0,2.5430617821166456860026983e-01,5.9865473166661897774787349e-01
0,2.3820774649932593969303696e-01,8.6292409324839924877892372e-01
0,5.5181900359443569747952552e-01,8.0625962875045498190473836e-01
0,2.6928827365196900123223145e-01,4.7627319485882768645979013e-01
0,8.0591216853874692027659421e-01,5.3684775442006171797260095e-01
0,3.1418716909536015258197494e-01,8.4987563738379801048239415e-01
0,4.2789701111258737764586613e-01,9.0718985872610202747523545e-01
0,9.0138852159622107063086105e-01,7.1006151359745950379931401e-01
0,6.3376455427036648693217558e-01,6.7688947659712228599460104e-01
0,1.9817349614521262424204906e-01,7.7851446083263442510258301e-01
0,4.5021228093942505799063269e-01,8.1490327495741965435627208e-01
0,6.6916693473651644996635923e-01,6.7460520542438418001296441e-01
0,2.4188305561283679478989939e-02,8.6649684056883824467831801e-01
0,1.4404113738683843592980338e-01,9.3718417164749856507199866e-01
0,2.7976895269644308505974095e-01,6.2218361659742271729811591e-01
0,4.0811417235055813534927438e-01,6.3812601291411863435598661e-01
0,4.1018354485194530312242023e-02,5.5865394751492924996227885e-01
0,9.5320957598636113505818912e-01,7.8449553582222186776107264e-01
0,8.0353111517667485941274208e-01,9.3284812920685711290502695e-01
0,9.5155340608013228020922725e-02,8.7714856844006039437999789e-01
0,1.1004831383275098799501279e-01,9.6719461392460548410099364e-01
0,7.8459011373795961574728608e-03,8.6780812432888854157653213e-01
0,7.9594922337286488911445304e-02,4.6602406834844778416027111e-01
0,5.2958227768930499212984842e-02,8.4897959207855211438698007e-01
0,6.4791929183233565314736779e-03,7.6902166488048651071807171e-01
0,3.3860462980046268643974372e-01,9.9608476096728759685561272e-01
0,5.1905746549343767526352167e-02,9.1084414491262644109070834e-01
0,8.2462603913057352933435595e-01,5.2030549204243903282929296e-01
0,6.5929573487302750578464838e-01,2.9933754448493149480370334e-01
0,6.3475553127324901847572391e-01,9.5072032649137871995748128e-01
0,8.8783678194616866274913036e-01,6.5063876838278400516202282e-01
0,3.8552173350863516709807755e-01,7.4279104366613557530740763e-01
0,8.0127162570202026259380546e-01,7.9164642614304814305370428e-01
0,7.4862038101454764227327132e-01,6.5545296122824181495047924e-01
0,3.1824002840635645661393482e-01,8.4552247659792645340104400e-01
0,3.9646655242277867303712924e-01,5.2768023177816214541735462e-01
0,1.1560827309233678850119986e-01,3.3355239219612919931989836e-02
0,9.1766168100378520122717418e-01,7.3872874999325921496762248e-01
0,1.4242147585466524706276914e-01,6.0551412274855598294465153e-01
0,8.6891022853977073481246407e-01,7.4142092564243222696518387e-01
0,6.8286501610357663860639832e-01,9.7571074952403424873637050e-01
0,3.1965427232680232449979485e-01,7.5937480628018871886553143e-01
0,4.1143610723195372935734326e-01,9.6105305980125999010255100e-01
0,1.6027155556536509806164759e-01,6.8925308628222903273297106e-01
0,1.4832972757256138174319915e-01,8.2839449031226308761688415e-01
0,5.2245781350645059681880866e-01,8.2910393895564582500412598e-01
0,2.4719169751306985238770153e-01,9.7159519914377034943697709e-01
0,6.6191805937536074555538335e-01,6.1056819649777860359307624e-01
0,2.3151409592158112005222392e-02,5.5199498192106988270211332e-01
0,6.8585480008915022942517226e-01,5.2461499698162938898349239e-01
0,8.5302507557116702407995490e-01,9.2831370947587688036151121e-01
0,3.5723389830131213606989604e-01,8.0164941119381916134756239e-01
0,1.4519225000855368046259741e-01,7.4708823351388109479387367e-01
0,8.6657566052077839025002959e-01,9.5802525136607141753586347e-01
0,3.0901699390992831695257337e-01,5.3332511970414298030362943e-01
0,2.2028568948379395608938580e-01,9.6158514974830278099204861e-01
0,9.7325073297261965876714385e-01,8.1652576371376961450465615e-01
0,7.5992877626922650247109914e-01,6.5666473955338422463512416e-01
0,5.4258452784651156619588619e-01,7.6389852508885625059775748e-01
0,1.3243731320546911489621777e-01,9.5202639294298951888606553e-01
0,3.6695755633376780924237437e-01,4.4017344403241820405270346e-01
0,1.7019140314246550271803926e-01,9.9519930273089096672833875e-01
0,3.5071040061984826152752248e-01,7.9159138407035589679594523e-01
0,1.1046276880232891448585519e-01,7.8384481076205614336060989e-01
0,4.6512645290508225492942529e-01,9.4780444836416122278421881e-01
0,2.0365648471393968388376550e-01,7.7170253467297711402750338e-01
0,3.8077709773986456731620365e-01,4.3742531853178662215597683e-01
0,8.2238835887782135714019205e-02,1.9941264521517121366400715e-02
0,7.5630212299472554526857948e-01,8.4770821367738935503410858e-01
0,1.4006986612903976618937918e-01,8.5840781522006648351919011e-01
0,2.8393611941183261038190722e-01,8.3729055313078326605591428e-01
0,3.9124418039813396719139860e-01,8.7425245293241948818518949e-01
0,6.0506778258480975463129425e-01,6.8728743775837031204645200e-01
0,4.8289225983033101652353025e-01,9.9784998422344639568137836e-01
0,8.0928266359697542675633031e-01,8.3897418756477670775950628e-01
0,1.7398174823844123060290201e-01,5.9824808993631539699720179e-01
0,8.4660339400764850203984224e-01,7.0129147971188965371425184e-01
0,8.2036416512241794318782695e-01,8.4525534881322261782088390e-01
0,2.6063373944133505499820558e-01,7.1984488409954960896897092e-01
0,6.3975066846544392795692602e-01,9.8012968725507498835014530e-01
0,2.7244102254259910944611534e-01,9.5225827378785909971270485e-01
0,6.3370937782622460687775856e-01,9.9777608326072553257546360e-01
0,3.1735513754324634616565959e-01,8.1090323830956401174319126e-01
0,3.2807692915380970433147922e-01,3.1061799320106919797268574e-01
0,9.2330272695766435475661638e-02,6.3579326352196807725647432e-01
0,8.3880224390379887200452913e-01,6.0152374251827234186151827e-01
0,1.0274362928445990306158819e-01,9.1167549156297278400984396e-01
0,3.1411021691385349052794140e-02,8.8933540900430951836597160e-01
0,7.6285832065022662895614758e-01,5.6827623886782463458189341e-01
0,4.5244957060443580232345084e-01,9.2220255422533248257366267e-01
0,2.2592705681934527328635909e-02,9.3872604612211962837875490e-01
0,1.4132771666424392975613955e-01,6.7324264554657542447557717e-01
0,9.8710897336722114303597664e-01,8.8720063249217429035553550e-01
0,5.1840868224580149981051136e-01,8.0733371782354101942047464e-01
0,6.3199578867292427464263938e-01,8.5584066891197896342902141e-01
0,1.8925998805897226162642255e-01,9.4118018960544913564802982e-01
0,1.7601448298121047386644022e-01,9.0306657899572495562523500e-01
0,2.0163321129831143774246982e-01,7.8210409418434223560723240e-01
0,8.2201477306506509634687063e-01,6.0812628572391247416817350e-01
0,9.4951400752064640808924878e-01,8.5461087741410457496726849e-01
0,2.4556292287644079785913220e-01,6.7610592430859772772322458e-01
0,7.5461063084037482973087663e-01,5.8995795431202358027888977e-01
0,5.8130620622068351899258687e-01,8.5475075724722526793186717e-01
0,4.8384476878961146795177228e-01,6.6541377681372104735402218e-01
0,7.0310591778518949368503854e-01,4.7900960409277876239642069e-01
0,1.4284569413426947970258141e-01,9.5195170883968127650831548e-01
0,4.9037120586821864032245344e-01,8.0723792391861348693993250e-01
0,7.7058552450637474162675744e-01,6.0412048419129404930316696e-01
0,9.7887864364979537690203415e-01,9.6198660195270835338021698e-01
0,8.2909080860742623286796515e-01,4.9243523942534939141779660e-01
0,8.1278038534267960102397410e-01,5.2378048120242259866330414e-01
0,6.3075070956869994098781262e-01,8.1291545539366150130433653e-01
0,5.3281706873676970559472466e-01,8.8793443576657982152511295e-01
0,2.1425846421916866502144217e-01,7.6646142347084045276517372e-01
0,4.0338187353707460891527603e-01,9.6326070938509600338761629e-01
0,4.5022968138693064688027334e-01,8.5358413467636307103703075e-01
0,5.1060514234781695375176014e-01,8.2888665170389597136590965e-01
0,2.6333857860477083434602719e-01,5.9504069141512960783302333e-01
0,8.0973908831988988810124397e-02,9.1665464564715826156771072e-01
0,4.8529797350204684214247663e-01,4.3476037861820587826500173e-01
0,6.0958209122091899789808167e-01,5.0850657048195513354471586e-01
0,6.9406190724243810308280445e-02,9.7057384212832453762587193e-01
0,5.9563507699822582086568445e-01,8.6736082108152601222172962e-01
0,8.0904573127448631275626667e-01,7.9610331480523832681228669e-01
0,7.9511360822761234512512374e-01,7.6804344594672302459770208e-01
0,7.3156371165277012114103172e-02,3.8139339563426760681963401e-01
0,4.0569978843143028601758715e-01,6.1696592419623574876652583e-01
0,9.7256098657991985056980866e-01,5.5380217573393497598743807e-01
0,9.5950488856916726909673798e-01,6.0696743578018630405068734e-01
0,9.2590708340129457276646008e-01,8.5231800876188146265377554e-01
0,1.8864722689434651470286042e-01,9.7102427779989530787219110e-01
0,2.2929840478624849420263843e-01,6.4810788128527485607577319e-01
0,6.4646482824530060451451163e-01,7.6418049288909695171412295e-01
0,1.9261905787089117492172363e-01,9.4245232264764855489858064e-01
0,8.7324595935112325761906504e-02,7.4061953147017012266672964e-01
0,9.8169867956637890671345303e-01,8.6076945414282335367062160e-01
0,6.9288258698582938510668328e-01,8.0612561631358492508780955e-01
0,8.8285755118367381655275494e-01,9.7898566026437139342419869e-01
0,4.5693311158254923398658320e-01,3.2876412739872329371593196e-01
0,1.5307837660746592689520185e-01,7.4075347483722120411897549e-01
0,5.4930547092718162716096231e-02,6.7022951388078888523835985e-01
0,5.8694869881190903093681754e-01,6.1361176331441547038281215e-01
0,7.8408663876808837311926936e-02,8.2456263294499176907947913e-01
0,7.8948150070191447369438720e-01,8.2839831633795035781275828e-01
0,9.0007790752619443175319702e-01,6.5979457703809352153712098e-01
0,9.7729221982039149452248239e-02,7.1195318437700849667493230e-01
0,4.1025536365194281707147184e-01,6.7162552145185594465459644e-01
0,6.6774529736057197659704343e-01,7.1556486109128181194449780e-01
0,6.6123492380565929149582871e-01,7.5426838649770000522210012e-01
0,5.5087693081087962809760938e-01,5.1726582483954797186953556e-01
0,6.3579528840943710932265276e-01,7.9943843204981790417917864e-01
0,8.8568883480565974153364550e-01,9.7333141588822635892341850e-01
0,6.6382554481097422183211165e-01,5.1546816005685325290386345e-01
0,8.1821685559258838793539326e-02,7.0573035870220091059223932e-01
0,9.9111367627684665571052847e-01,6.9402611826982418818943188e-01
0,8.6629112088342541397878449e-01,5.8492082531345279683421268e-01
0,1.1224797370171279986550417e-01,7.6858419371757502602804379e-01
0,5.5720894829214051569010735e-02,8.7232957926737564324781715e-01
0,3.0102162691021433493787640e-01,5.4305330229005677189491053e-01
0,7.8757731403690256488658861e-01,6.5620801660682848144290347e-01
0,6.0790021496722945748558686e-01,8.2622029978736466482303058e-01
0,6.1779427440599565812817673e-01,5.8559084834252761453399216e-01
0,5.1049851013752323147798506e-01,9.8889766997407491100346988e-01
0,6.9470037475783419367303395e-01,4.4103835991562223561857081e-01
0,8.5670052226163839748096507e-01,8.2643489681820436754122738e-01
0,6.6852581228049257067169719e-01,7.0955081825556687302736236e-01
0,4.6030645718808937960631056e-03,7.9250780241312634988304353e-01
0,3.5666022054409440844580104e-03,7.2446763732435381921703765e-01
0,9.3674667545076495400735439e-01,5.8321206476170883714615911e-01
0,3.4715315774775290513787240e-01,9.3808974067581885059041724e-01
0,1.9801712293092471606215099e-01,5.9730657297099321034750119e-01
0,2.8349012947332896672492097e-01,2.7407491560144303655022213e-01
0,6.3637355018107499837753949e-01,6.1421780009602422456538307e-01
0,2.7487994750140415378680814e-01,8.0799777542928397089383452e-01
0,7.1811758750564358422252553e-01,8.6112276622014982674357952e-01
0,4.5777079411433346800563982e-01,9.3749717099397633646162831e-01
0,8.4435050684574775026192128e-01,8.1000293480225826758811536e-01
0,1.5185274899817247096223127e-01,5.7649332138219677723611767e-01
0,5.2252826558706488846439697e-01,7.4106324192358175029227141e-01
0,2.7932830356424914741708676e-01,7.9642024351537776816201131e-01
0,9.7858058333442210496855296e-01,7.9585816324064839744067967e-01
0,5.4921426016136076775353558e-01,8.7337552893448233692907934e-01
0,6.9333283436115805686839053e-02,9.2394220936615323314100579e-01
0,6.4571184403234838100615889e-02,8.8846200872638814161064147e-01
0,1.0720380845527033297770458e-01,8.2275112171796294102676939e-01
0,6.8988640120423017076944916e-01,5.0315376463221350711307878e-01
0,7.6880409108594760514421296e-01,4.5169995699410731004874719e-01
0,9.3142006178830838436510930e-01,8.4572431663933977930014407e-01
0,6.5607489673677399366624741e-01,8.0736592933300443952759906e-01
0,6.9314798063613602963073390e-01,8.7369733167343321955655711e-01
0,8.5976810000139874956559538e-02,8.5066977615784644672913828e-01
0,5.1410246441428220087743739e-01,9.0520204381900359891233165e-01
0,4.8717188117181231543639797e-01,3.3355101369703765712415588e-02
0,9.8900905956114071315710135e-01,9.7150423195643997864578978e-01
0,7.0264034588939450198807890e-01,9.8131916341147173987735641e-01
0,9.3136154027459072679562269e-01,9.9971071056315252700841256e-01
0,5.8454527704022363199243273e-01,5.0732510201875891109324357e-01
0,7.1378621202044634230787779e-01,8.9115275842627572622234311e-01
0,2.8739403486954800959196632e-01,9.5165146579262949178001918e-01
0,7.5877530408685578411365213e-01,6.7448396009053945832079080e-01
0,1.6547765372253064874996653e-01,1.0526040039514039658996580e-01
0,9.2020388407510878003847665e-01,8.9094698166063146516080451e-01
0,5.1958279615083036162559438e-03,8.0401962201519072692690315e-01
0,6.6256783901004889791863661e-01,8.6240958681251544959422972e-01
0,1.4028525477516562425250868e-01,9.8954835372721050568145529e-01
0,8.2964772642235151689504846e-01,7.3247915199247848327956945e-01
0,5.3624834839820090248707629e-01,7.7943572225080859361412422e-01
0,5.8807106916618212544278776e-01,6.3341563365703013044338832e-01
0,1.5036961492771558357439687e-01,8.1668331846566788456698305e-01
0,5.7045333158465783007784466e-01,7.4925979381333296380773845e-01
0,1.2216865210250862916474546e-01,6.0430187995605555428824118e-01
0,1.8738637014721426510277524e-01,2.8707171399547704027099826e-02
0,7.4141890132240906297056426e-01,6.2990956190069469222692078e-01
0,6.8622948078132073312929151e-01,5.7805266956938905487106695e-01
0,4.4051643054701261625893949e-01,8.6017120021467574630946729e-01
0,9.2470132896914314368785881e-01,5.1535726849334406729497005e-01
0,2.2328655746571224316454618e-01,7.4613227294158235292087511e-01
0,7.4146599819345238024936862e-01,7.4231890584647897135539552e-01
0,9.4511079398294106646005730e-01,8.6433408340632023048044630e-01
0,4.2990944640728689929431994e-01,8.7365717109868312739706653e-01
0,6.0709101927217412608683844e-01,6.8096479172756108066977276e-01
0,2.3319170851808973532470759e-01,9.2372734044492155192074279e-01
0,8.0082080108676323426664112e-01,7.6798336714026826932411041e-01
0,6.5730188355620644546917219e-01,9.5403421258857279418919006e-01
0,2.2042654814038464827774533e-01,9.5648708711826668782407523e-01
0,5.5600082453513305358328012e-02,8.9119420780553837424520225e-01
0,8.4478917156706234692364887e-01,7.9189254064860559179095389e-01
0,6.2410862946198841783029820e-01,6.8892402944614206106166421e-01
0,5.2694801071818586635231441e-01,7.1324508174051803877091515e-01
0,2.2398128349011839355320319e-01,7.1700016176123837485789636e-01
0,7.2045831870020338172366792e-01,8.4451322312189402996551735e-01
0,8.5837368761849464071644888e-01,7.0673122955839151604351400e-01
0,6.4755378460852053290608410e-02,9.2700618991537786506285101e-01
0,1.5570650879947356415300419e-01,9.6751372637542387700193558e-01
0,6.8594761656828240337091529e-01,7.3133109785512595557577242e-01
0,1.5439407004689731373048289e-01,5.2509513437820842796099896e-02
0,5.4879581859823767242545500e-01,7.4234532940071995543718231e-01
0,8.3646653671225990045456911e-01,8.0110558954050692381798626e-01
0,7.1461625467623901553082533e-01,7.4153158712324318546649238e-01
0,5.7608557960321959967586736e-01,2.6523525351410487393977178e-01
0,3.1397550342626778796528697e-01,7.6080012191812596000772828e-01
0,4.3111336710127806659542671e-01,8.2499498108130775442248250e-01
0,9.1033947904628420566552904e-01,9.5961962190460814436931969e-01
0,5.8325779769153629494837787e-01,7.6148362870103769584062547e-01
0,4.8211278755665915030093061e-01,7.6945955001816401797043454e-01
0,1.9160285856685366212559529e-01,9.8364605347661249190593935e-01
0,6.9597074369331018983686477e-02,9.1713946510943178402897047e-01
0,4.2474159238846659336630296e-01,5.6788372225948924310046095e-01
0,8.9931739110747022092340330e-01,6.0284840834106345752729794e-02
0,6.8434139019107664836383265e-01,8.8113935773159268727283688e-01
0,7.0600104205491232001179469e-01,9.8126377522504959483029552e-01
0,2.5543647144154157935247440e-01,9.7021435741856232315427633e-01
0,9.7948504627633836694400316e-01,4.5618640661810871961279190e-03
0,7.4561004726987500923485186e-01,9.2565377372609314310381023e-01
0,8.7743740542386827740983790e-01,9.7445182712006628289458376e-01
0,4.0292212475576055785708718e-01,6.8280836049913473662087426e-01
0,7.9983835907984701663053784e-01,7.4647485045617045784638321e-01
0,7.6019115562026451371480107e-01,9.1317264844321743844091088e-01
0,1.5659440824169701400592203e-02,5.4536394716226999079822235e-01
0,5.0990446299562508514213732e-01,6.5742044856351333770305700e-01
0,5.3876622840123777891108148e-01,7.1338697545161899871146716e-01
0,6.1085523404560260196660693e-01,8.6459020363077943027718675e-01
0,7.8851204185936862867123409e-01,9.9480742464965898896878116e-01
0,9.7447627145935333814463775e-01,7.6462425858674898382361107e-01
0,8.1042304894292960248947111e-01,6.8479440462516893983746513e-01
0,1.5546954888061675914556758e-01,5.7036877631244342623517696e-01
0,7.0532392438846414073339020e-01,7.2718407966122355912119701e-01
0,5.6512833730815370536504361e-01,8.1498999457714083050063891e-01
0,4.0322777165490419903903785e-01,9.9021432203346215761285976e-01
0,8.5716778564336149059954550e-01,9.4861767289353859933243029e-01
0,5.6676342258998424483706913e-01,7.7118970339175174633083998e-01
0,8.0236462596128432789299723e-01,9.1936219600612267832673297e-01
0,8.1302561773704862257972081e-01,7.1434623691126031275189234e-01
0,8.7441039532345121720879888e-01,5.8418228238795233409064167e-01
0,3.1327406440609495419380437e-01,8.7466809278627699608676949e-01
0,9.3922573036793732814686564e-01,9.1987469192811854856728360e-01
0,5.1656720694238167368439463e-01,9.8970183096483821394429015e-01
0,7.8751310703163368565071778e-01,6.4111585292237027733364130e-01
0,6.4754447367957601588983607e-01,9.8655912624957253775903609e-01
0,8.4976191153919455878451572e-01,9.3694007475550877828140983e-01
0,5.3563769947247896752173801e-01,7.2145056554936992654347705e-01
0,1.1349464228669481347111514e-01,9.8708576709169737473104078e-01
0,5.5759896124563423924769268e-01,9.0803094700472675171454284e-01
0,2.6984667676820039972085397e-01,9.4389997485593679638071762e-01
0,3.9095274541130281553691361e-01,9.9008927236913957248276574e-01
0,1.9724721886508866930398653e-01,7.2902372612486221470362580e-02
0,5.1894266160616520089376991e-01,6.5910830038963363897153158e-01
0,3.3788743391788650383134041e-01,7.7359373408092235724353714e-01
0,5.9228069893054891004169349e-01,9.5445007529199998863589371e-01
0,3.6272359292095901484032083e-01,9.2573387163307274683177184e-01
0,9.2596843517427407377340387e-01,4.8409684837888500297253813e-01
0,4.4139712235786776606261128e-02,8.6015212763285953112557536e-01
0,8.2819985923097028113204487e-01,8.0958430104810408245441522e-01
0,9.1172260688458006683276835e-01,9.5003888536856540003583405e-01
0,4.7919976463601099414546525e-01,7.6084049842887835346516567e-01
0,8.0865478139744018104551060e-01,8.6958059359809114496897564e-01
0,1.0227000234403074707678627e-01,8.1116115853799086732323076e-01
0,5.8019614715079947941944738e-01,7.9956803745739080113708042e-01
0,7.9175951489029561258803369e-02,8.3567190502876476099203273e-01
0,7.7547027221404873920107548e-01,7.0168934723128928432345219e-01
0,6.7979718484073736739503602e-01,7.4239439528904438425627177e-01
0,7.8108566943663682025089656e-01,9.0859294176841087775642336e-01
0,9.1720157287793491196481455e-01,8.8547697465267583005754659e-01
0,5.2157466593376711205820584e-01,8.9087542741730652018361525e-01
0,4.9837146584523067671668173e-01,8.3129871916343756055312042e-01
0,8.8526915883861334588544878e-01,9.7465330594726706792130244e-01
0,1.5520706426316333015336113e-01,1.5718700222022219392670195e-01
0,6.8976516282015376546610241e-01,9.4294886441675918042903959e-01
0,8.3215865010061074169556150e-01,1.0261788293202411814775132e-01
0,9.5424507698360472307541613e-02,6.6644383707402710115275113e-01
0,8.5720838866195459004870827e-01,8.2160666314440744528724281e-01
0,3.6237702119452341875671664e-01,4.3728136419625784903075782e-01
0,3.1139260964161086242540932e-01,9.6980756193276418386517435e-01
0,2.2322337960861116101796142e-01,9.6713115208835342961890547e-01
0,7.6600436079440337167056896e-01,7.8730405522093649395287684e-02
0,4.3293920878198149937432504e-01,9.5791624580212786366217870e-01
0,5.7334471024070154943075295e-01,9.3438250699633518259190623e-01
0,9.2650543878525420948832902e-02,7.7757151316892936243618806e-01
0,7.4994853963968632903913658e-01,7.8649374820610273850718386e-01
0,6.1730053316488397996408821e-01,3.6111598590848786871632115e-01
0,2.6950908313083266065746102e-01,8.9907389701656292846365659e-01
0,5.7290611920034606452389880e-01,9.3109152826036645222984589e-01
0,4.5826575634305538597956797e-01,8.7144588389563448771468757e-01
0,6.9515005142982033703447087e-01,4.0183085215323122163511016e-01
0,3.8030849934356042441052637e-01,9.0137729140492495183423216e-01
0,5.1981910855189772391327097e-02,8.3396763174261689943733700e-01
0,8.7126861606331473808495502e-01,8.5964313743912768028820892e-01
0,3.7656886166820735528659725e-01,9.3303372344422408346531483e-01
0,8.7835789248669993156681812e-01,7.4214539742544449740790924e-01
0,5.0282775097581899892418278e-01,9.5034623262703066259859952e-01
0,2.6975708282978166918653073e-01,7.7002858464447043740364052e-01
0,1.8693918940179288235015065e-01,1.6353751728670351539562944e-01
0,1.2080661599164077557588826e-01,9.5290485562547400100186223e-01
0,8.7156902984698669811791660e-01,9.5992645686415345451791836e-01
0,5.3882727298731691867317295e-01,9.9257907373414477891770957e-01
0,4.6607689443986366484296013e-01,8.2784766595395897770259808e-01
0,3.2115328070731807841298178e-01,1.2331755339733518894718145e-02
0,3.4778090030366337614964323e-01,1.1251962751393196349170012e-01
0,6.8679914936903263544820675e-01,8.4595686179249773850585825e-01
0,5.6078746967788173360958126e-01,8.7315021633060341255117009e-01
0,3.4087112961699206348242797e-01,9.4579359113111216572633566e-01
0,8.1622138465652582794973569e-01,2.4757623720463106664624320e-01
0,9.2674715625687209552552304e-01,8.8846538983961065305550164e-01
0,6.4334662329256486756889899e-01,1.8598766193253690737208217e-01
0,4.3037247937806633046875504e-01,8.0679786248180473950952774e-01
0,1.1040188685766816334421492e-01,6.1131553023667739577007296e-01
0,1.2598340635170601764514231e-01,1.3658408737792138154532040e-01
0,4.4260871200833795668927451e-01,9.3020208708965368415988451e-01
0,7.5384307074562961759056634e-01,1.1009532322681536697928095e-02
0,5.9983335585525732192024861e-01,9.1853930535892092112959517e-01
0,7.5556408265997254680712558e-01,8.1417017985691575443496504e-01
0,6.1834087153069217102085986e-01,8.9414368996034609970990914e-01
0,5.7074567159856492981617748e-01,8.7654961702929057310029748e-01
0,5.6896168880601094564042342e-01,5.0154960601727305302688364e-02
0,7.1169965253197020604858380e-01,1.7223328101182322491524701e-01
0,7.0120022247549140814726343e-01,6.0602465975684793875188916e-01
0,6.3248002791578594727894824e-01,8.4890251606269617745681444e-01
0,5.7196391118526057617543756e-01,9.3614099587377652689212937e-01
0,1.8667162502746287300325889e-01,9.6570727995269178833837032e-01
0,5.3119867091818062654340338e-01,9.7053184108951473518800412e-01
0,4.1294383611563501013108635e-01,8.1253551908574550566299877e-01
0,8.4008999659049499175722531e-01,7.4474547681106573193687836e-01
0,1.7487389985798795777327541e-01,9.2459287028818315512523895e-01
0,7.5679670169036183935418194e-01,9.7575542524060865368085160e-01
0,3.4597533604828634157257738e-01,9.6684407549919504365476541e-01
0,9.8294352170986454275691813e-01,7.2322578641129808829646208e-01
0,4.9692699630728176529714801e-01,9.6938688844130038724244969e-01
0,5.3599305331647317807153286e-01,9.5099652182373162201400874e-01
0,4.4091448741603223027141212e-01,9.9171790970594031477958197e-01
0,7.5223525668507817965036111e-01,8.0458123501280975897742564e-01
0,2.0370582460055652873620602e-01,4.9216429035411257686405406e-01
0,1.7819189793469081273258325e-01,8.3799652534967594696979631e-01
0,8.5323762866878150035176986e-01,8.1143624944472558802033291e-01
0,2.4672265693423423016383822e-01,3.7333866072057064755540523e-01
0,7.4522374577383965199572913e-01,3.0142588914020151946715487e-01
0,8.8613134494099576876635638e-01,4.2569326676772334394627251e-01
0,5.4388559744623354852421926e-01,8.6373458159489047147872043e-02
0,7.3409147458305346045648321e-01,8.4164339647089025930881689e-02
0,2.9368289072870890077382455e-01,7.8560065439486859162343535e-01
0,4.5330524700785224112564720e-01,2.8304481532980574343127955e-01
0,9.6308839430960735406017648e-01,1.5206627875178391207100503e-01
0,3.8193301210463781458770427e-01,2.3629805398781922320949889e-01
0,1.8850714840805116168098721e-01,2.1020961281554306765428919e-01
0,1.7339464827498773935587906e-01,2.5072903712677852006152079e-01
0,3.1437894814572975299427071e-01,3.5398948826052545335585364e-01
0,2.2811510643551358157310460e-01,6.6042784988950886670977525e-01
0,3.1785313787205343727393370e-01,8.6269993859543669945111333e-01
0,4.2812014754115534920231312e-01,1.5339152345800588506108397e-01
0,5.8532365423500376522270017e-03,8.3161084731303347439279605e-01
0,4.9735638451511299251706077e-01,3.6028820964040209062773101e-01
0,4.8259490358479606442188015e-01,1.1129241787959509579764017e-01
0,1.3652374259721455906912979e-01,9.7822755106918624079526126e-01
0,9.9019892587055169386189846e-01,1.9103503934553955900810251e-02
0,4.9762381160886892672579052e-01,3.2869486302154182766344093e-01
0,6.9862128359306252534111081e-01,9.8860006449785964299792340e-01
0,9.6311432036909039311467495e-01,2.8879932155238385860229755e-01
