Species Id, x,y
0,3.2103975831243575234097420e-01,9.7595673690308071268617596e-01
0,4.5024970638915284837366926e-01,8.7462805539842713997700230e-01
0,2.9437930357745056841878295e-01,7.0628186892748989755830280e-01
0,4.4726286590589703351383832e-01,9.5760832345956004019171814e-01
0,3.8856884668713154162844603e-01,9.4271852462112937232063814e-01
0,5.6385971019367153722612329e-01,9.3396313839359923480998305e-01
0,3.5494507398992436453255550e-01,9.4332995606924874287813054e-01
0,4.2262799660074568119938476e-01,8.8336424258973000878114590e-01
0,5.2914306165420466054882809e-01,9.1439902533090067215937324e-01
0,4.3470564676912121226948216e-01,9.7780300451748958234787779e-01
0,4.7986389895151926321403835e-01,9.5656383936326205841282899e-01
0,5.4210658798826660831338131e-01,9.3442071561410000590797154e-01
0,1.8886381604189156346862433e-01,9.2438322619123092227511052e-01
0,5.0833690521837382458869570e-01,9.4120354642157533220370169e-01
0,5.0861252967024461746348152e-01,9.5659773870006503670992970e-01
0,3.8250954599875897077509990e-01,8.3564422760927203892578063e-01
0,3.3753100327432261629212462e-01,8.3632115642314786008171268e-01
0,4.7209561231446345308526702e-01,9.4432086251341162963512943e-01
0,6.3889646113052056541903312e-01,9.0837677640544878254758032e-01
0,3.8257184956641721029768632e-01,9.6241015201509272358748603e-01
0,4.4699608093567572142390532e-01,9.2200189767530038587040053e-01
0,4.2850504178272619260070542e-01,9.7558277570493201480417156e-01
0,4.7274871569685572580965527e-01,9.0336006994634721056769422e-01
0,4.6961869991557747550103841e-01,9.1009973650121100963161780e-01
0,4.4096815047934601050627634e-01,9.9502461960329491308385741e-01
0,5.0207820834092398154524517e-01,8.8209343962189501464621344e-01
0,4.9632054875467201959793329e-01,9.7337666045530657488171755e-01
0,4.3484690319559765603329993e-01,9.5595077703629194321166551e-01
0,2.4904081944394529379849246e-01,8.9355375949997850604233918e-01
0,5.0954894397511796277910889e-01,8.3750086806535084527070012e-01
0,3.6552928182570143533780538e-01,9.6401518606344516193473737e-01
0,4.3948906814820931643339463e-01,9.4801296610333940506620820e-01
0,7.5553587084457640710155601e-01,7.6002780336448683140559979e-01
0,5.6967431561087555902389568e-01,8.1089159814230227230069659e-01
0,4.1652691108074751946688252e-01,9.5439959927566475617055630e-01
0,4.4379570500293508139577625e-01,9.9240608861715517985402357e-01
0,4.3231481343469557732106523e-01,8.2716810856809597218841645e-01
0,3.1288529537080922438008201e-01,8.0391147347545732770868199e-01
0,5.1136519670260327519173416e-01,8.6820403108838073436004379e-01
0,3.8508227438863451563832996e-01,8.9947875446772385110705272e-01
0,3.2801613391430889388189485e-01,8.3754576451233242462279804e-01
0,5.0368604772323366525199617e-01,8.8493352583360762597664007e-01
0,3.2093654289300044268884449e-01,8.2962501346159045478856342e-01
0,4.3320155652236291832224424e-01,6.5020998431562393449212323e-01
0,2.5447897824305198977157261e-01,9.2838421630323741950974181e-01
0,4.3181608380267572089294958e-01,9.5089461318338353024159915e-01
0,6.1543007557043027944132518e-01,8.6211949049063096861544864e-01
0,5.5075233485692420831725258e-01,7.6598351988322443961720865e-01
0,5.2560305637696991265528368e-01,8.8958098623603698573703014e-01
0,4.0749460996279757152294110e-01,9.9980299518727033802889537e-01
0,3.2207257499729380345598884e-01,9.9989277887661065502555857e-01
0,4.1248467102382185833775452e-01,6.9225315316455660052952226e-01
0,4.5518950350025355611194300e-01,9.9473881739890923636693287e-01
0,4.1163753031001909521435778e-01,9.9352885551015079901304716e-01
0,4.0206682559559253631320530e-01,9.9000366174654319539882863e-01
0,3.8240241859157175774441839e-01,5.6731050907577840192175245e-01
0,4.0547627759683990689154598e-01,9.7898574984204655979880272e-01
0,4.1554744387447895004328302e-01,9.9965182056991230830078621e-01
0,4.1672529711458716761285359e-01,8.5737981363466464479472506e-01
0,5.3706036331406004080690764e-01,9.0138316504603133161310780e-01
0,4.1381507717660742651233363e-01,9.6364639041709043709715843e-01
0,5.8848141642918638805070941e-01,9.2170247840941221806332351e-01
0,5.3449446876559547625618052e-01,9.1935239597640261433042497e-01
0,4.7629715640689818112463172e-01,9.7332397783739266206026741e-01
0,4.7488134162009820737893051e-01,9.5024313981505825754680927e-01
0,2.8655350995250672418990234e-01,8.7094931408387743498877853e-01
0,5.0916626232118200601206581e-01,9.3098503558532441637396460e-01
0,4.8606140671879100034757926e-01,9.8691955566041300595969687e-01
0,3.6492954699237689641933002e-01,9.7696644979718627599396541e-01
0,2.0003915710055517052090579e-01,9.5650240438533973286183709e-01
0,1.5302714017074497965253954e-01,9.0538400360751980500140235e-01
0,2.7801695052735908575414214e-01,9.9577782239782708373354581e-01
0,3.9452470204056655500579609e-01,9.6490196667017213982830981e-01
0,3.8560094183440929427320043e-01,9.7018269379558319531753341e-01
0,2.7945551081802394444153492e-01,7.4642630146354926878871083e-01
0,3.4864422738004896551444745e-01,6.5797976055381024451662597e-01
0,6.0841927444075183384342154e-01,7.8406129522644130158681719e-01
0,4.4314474415369181636847884e-01,9.8018801056460946874437923e-01
0,4.1683201314741474829972390e-01,9.7542556952785841595243710e-01
0,3.8351443408484342523223631e-01,8.6306632842162978036526511e-01
0,3.8528701136661525072923951e-01,9.7365227911050822307004182e-01
0,4.8561498536503983070033996e-01,7.5995989880869518895423198e-01
0,4.2664342696929319354026688e-01,6.9109514241153169322728900e-01
0,2.1296952226979551370256161e-01,9.3232646881795622206823282e-01
0,4.1985756964565607018968763e-01,8.6503200458012341478308826e-01
0,3.9699294436074167302663795e-01,9.7644727211613702166914663e-01
0,2.8659918515886201317854898e-01,9.1364335670403384881410602e-01
0,4.9935069704603690654565185e-01,9.5964741471884951184989632e-01
0,3.2291621816402993339067962e-01,8.1662462792321577342846695e-01
0,4.3118119700235585378678138e-01,9.6123481188655635065742899e-01
0,4.0440724563941543578948767e-01,9.9641638974984170218363033e-01
0,4.0863195699834276020112611e-01,9.2083620934478660480237977e-01
0,9.3410643940118442962727840e-02,8.5240036368973703950757681e-01
0,4.4033652264873934800704092e-01,8.7011774695521981737300621e-01
0,4.9904842730382614757189685e-01,7.0349294950054819253182359e-01
0,4.9097599363915345183073669e-01,9.0972236740809164778909235e-01
0,4.1015905658541501610514501e-01,9.9167114779442577798818093e-01
0,7.1243061982288136135821333e-01,8.2372784369889884281690229e-01
0,5.1089490913959001439081931e-01,9.2427701336164724832400452e-01
0,3.9997013337065601135122961e-01,9.1850441758653578183668742e-01
0,2.3003950727511171536754375e-01,8.7046124744722996879886523e-01
0,4.5693764751502002896543786e-01,9.3602577178745494101974600e-01
0,5.0240481727442398707239590e-01,8.9426093615111823531549362e-01
0,3.9101848004503791944586055e-01,9.1937373195070171139064996e-01
0,3.1540477797015553651505115e-01,8.5468466904876616574426862e-01
0,4.8517888357597716009195210e-01,9.2602247471814336243767229e-01
0,1.8645230978915933173212238e-01,6.7223807113521683032075771e-01
0,5.9402215199474162066195504e-01,7.1277397695131794463918595e-01
0,4.0963026139134034453448407e-01,9.8910448351951019141381494e-01
0,3.8019150691987452228559619e-01,9.6255671753612737084893070e-01
0,5.6685427886549177856068127e-01,6.6327947861377123395243416e-01
0,4.7492863183459149700738067e-01,8.2713606414047968762304208e-01
0,3.5450889259488749249982220e-01,8.9093668382103075042977025e-01
0,4.0677907024889892184660312e-01,9.4462778090752475002034316e-01
0,4.4268177146253812059839561e-01,9.2872965897472636864762308e-01
0,4.9777108023701127637039576e-01,9.1662727603105564888608114e-01
0,4.3160338001876824565172797e-01,9.9261485823414086215876750e-01
0,5.5467614056939296141024442e-01,8.6248661059041809018310687e-01
0,4.6831444957960116637352144e-01,9.9284112360558807175436868e-01
0,3.6013453895275504557105251e-01,9.1314500531870379518295522e-01
0,4.3530911198084221158666196e-01,9.4565162444861827761855011e-01
0,5.8366681260924979657289668e-01,8.8022264121184545793141751e-01
0,3.9488965892353156128535829e-01,9.6704387399560931548592180e-01
0,4.8376442828719729005726435e-01,9.8172246494292814134041691e-01
0,4.5367864254041467830802503e-01,9.8021609578238211302192440e-01
0,4.3660031693889994608426264e-01,8.2944138834000513682553901e-01
0,3.8245982837176800694933831e-01,7.5269671467730903113846352e-01
0,5.0828441607561025694650425e-01,7.9393346915383444795111245e-01
0,1.4820741504318662995487443e-01,7.3003027423354027725110882e-01
0,5.0403738335207926013481483e-01,8.6252425276049793367860730e-01
0,4.2951220117524069319614455e-01,9.7783275522427171022599168e-01
0,3.4462422378289869762113540e-01,7.5607204118598470010681467e-01
0,4.1425870177074314293363955e-01,8.8910474267800942982376000e-01
0,4.7529266538721648416299104e-01,8.3674698334589381332193625e-01
0,4.5175351520421747064659712e-01,9.6096395313760574197203823e-01
0,4.3088445936427782756439342e-01,9.8750011953781224871562472e-01
0,6.9523428506536588677988675e-01,8.3191040687868778036317963e-01
0,4.4384731484064743334272407e-01,9.6190339836570060150222616e-01
0,3.6860213549314091441289065e-01,9.7779341307366152147295679e-01
0,5.1588243923049292849469794e-01,9.3049641087752077428518760e-01
0,4.2416746204830502176008622e-01,9.2002411511888004813641828e-01
0,2.5641534579341473953917330e-01,6.6339932510539778576230674e-01
0,4.5322036977313545635936975e-01,8.1982458279574277337786725e-01
0,2.8926866263164052739398358e-01,9.6024760495419703154595936e-01
0,2.9689387909494768802431963e-01,9.5001244371531123888985348e-01
0,1.6823828935087770108935956e-01,9.1907600812085166186449214e-01
0,3.7504280955511615225361766e-01,8.5773027869213125384817431e-01
0,4.5312505918562523410386689e-01,8.7518386695409511322196749e-01
0,6.1201486302182950272054995e-01,9.1886458507115387206454216e-01
0,2.5063070494497352580509641e-02,9.2719321888333383618885364e-01
0,2.8322393091715747370784584e-01,9.8626554561831569767349492e-01
0,4.7527629147929995045984697e-01,8.2885202354018960857473530e-01
0,4.3584075426752183490819448e-01,9.8581604570413505772563667e-01
0,3.1073331525570718758544331e-01,9.8442501569080853585091972e-01
0,4.1783071241754959901371080e-01,9.8435322356624976869454713e-01
0,4.6956333139019035272099245e-01,9.4278762815540451125428945e-01
0,4.3397609740483433782287648e-01,9.9840105716458460438644806e-01
0,5.1051434635809089801483651e-01,9.0481305604871775649655774e-01
0,5.7994848519321151592009755e-01,8.3095195529518872668006679e-01
0,5.6309654645205742262703552e-01,9.3546862856957468945751089e-01
0,6.3554854969161067579364044e-01,7.7839125720031621114003428e-01
0,5.4393594615719964568967271e-01,9.4443681809707058505409805e-01
0,4.8332681304194069493718189e-01,9.1515709224644947727966837e-01
0,3.7164489735284500504519656e-01,9.1512691769759912929771417e-01
0,4.1113632824691054290511261e-01,9.8882143614269291109764026e-01
0,5.0549288854821783356641163e-01,9.2276461569714252064500215e-01
0,2.6659794699618077906677627e-01,7.4317724534940954317363548e-01
0,2.8093803376924619819021700e-01,8.2851210152279397558316987e-01
0,4.6931027656082441312790365e-01,9.1745683026950886063133339e-01
0,4.4496914381902558099923795e-01,9.6504057664896580881475074e-01
0,3.2076716212991318588620970e-01,9.5468060593900716526150063e-01
0,2.8149394403086669402824782e-01,7.3204086258847467227894867e-01
0,4.1517789066778165718574201e-01,8.3778022547038988321332909e-01
0,3.9520161610936105356373105e-01,9.3998522445549181902890723e-01
0,3.8534454838954468325340486e-01,9.5983688116136500756425676e-01
0,4.1984926908725928029753049e-01,9.6327947437898719940108094e-01
0,6.1429330012088489976207484e-01,8.2110024189389363424851354e-01
0,4.2010735217557182430425655e-01,9.4656154042578710683386589e-01
0,1.4356926838806943758086732e-01,9.5976229357826259303010374e-01
0,4.6129763883871666152458602e-01,7.7131027959606945909598608e-01
0,5.1939443062937340478413262e-01,9.8609293092607219755052483e-01
0,4.9502690827121098582352943e-01,8.5755334648395686869548626e-01
0,3.1502359436831511851906384e-01,8.4042243323161625045969458e-01
0,3.2412339573557047422980304e-01,8.8828510265695326264534515e-01
0,6.2670383836731180515755568e-02,9.4106678689490852462995463e-01
0,4.0395758484336791171998016e-01,9.9087298490465314237951588e-01
0,3.3018681791530923863575708e-01,9.6441208739509476366436047e-01
0,1.7676323176502142797694717e-01,8.6722649389159445210140120e-01
0,2.8684232927853270389562113e-02,8.2501424885886021076686347e-01
0,4.0557438221281294499220849e-01,7.9085979878809631316016748e-01
0,4.5756396352265388260960322e-01,9.6904995668242843720463497e-01
0,4.8882651860031328672206996e-01,9.4977206260776791957312071e-01
0,4.9498330692700165389652511e-01,9.2475317488806074717189176e-01
0,4.8850218749273177643033250e-01,9.1627954326586635858120644e-01
0,5.7772326611754953873401064e-01,9.7028395059158623059403226e-01
0,4.2547897961609387751380496e-01,8.2167860973349649000851969e-01
0,3.6963990903155763412257784e-01,8.7933088002605019894986071e-01
0,4.4823203561695518226670742e-01,9.7923655518823793375560172e-01
0,4.9354244707614219889180163e-01,8.3935042722175678964191547e-01
0,4.9977411136317584361421495e-01,8.7945643448899346594771487e-01
0,4.5252877006279929039678223e-01,9.9552450415811644113261991e-01
0,5.0651022253550825880097364e-01,8.7317387932655499138689947e-01
0,4.2521145398755139099833400e-01,8.9729709544521418784768230e-01
0,4.5259234568612105586993266e-01,9.1233755725693277405241588e-01
0,4.4715120782601602833494780e-01,8.2044814144429245583722832e-01
0,4.5105845595108284840080159e-01,9.7568606027541870950869907e-01
0,4.4689505413241226161602526e-01,9.6731027729423713079626168e-01
0,4.2431907771378440941134613e-01,9.9190837163030354250992104e-01
0,4.5726233527892168329032074e-01,9.4998104616767020669243493e-01
0,5.3054456408867378680582760e-01,9.2414956660519942399645288e-01
0,4.1831898737408340638310733e-01,9.8428928914015834106265856e-01
0,5.3113395386852246815578837e-01,9.0545087739938057147526251e-01
0,3.2635955041336028870091468e-01,7.5512486602516037947907535e-01
0,4.4404848754356035511747791e-01,9.7988341858583871690768774e-01
0,4.7622451787166120151795212e-01,7.5981019253663739654314213e-01
0,4.0105323704605988499594105e-01,9.6791582554615129829755915e-01
0,4.2067841597616512094859331e-01,9.8810857991406553235691490e-01
0,4.7582924126375125695176393e-01,9.1370472386765111405537709e-01
0,3.4064750518038666715625595e-01,8.7352845896644693013399774e-01
0,4.5408939181508178872803683e-01,9.5174790413669307920230267e-01
0,4.0417225972968295888421153e-01,6.8835533613121591134387245e-01
0,3.9456191943399876453923980e-01,9.6759829744645886595577622e-01
0,3.0358225339433320133508687e-01,9.8006876716676349925450040e-01
0,3.4202899414270143685357084e-01,9.6067303175318363717138936e-01
0,3.9445537095342725342206336e-01,9.5447730426544186155268790e-01
0,3.8596758371613637539354613e-01,8.3791375081418117964915382e-01
0,5.0139696673900002732437997e-01,9.1759105245138172790575481e-01
0,2.7139155525966729420872525e-01,7.8210694027738925093728994e-01
0,4.4127628832189547125608442e-01,9.8975051707399330780390301e-01
0,3.0315119767049703014549777e-01,8.2787915297082859122923537e-01
0,4.1033899306097532111436976e-01,9.2448388769249789653770222e-01
0,3.3391479966184978156462648e-01,7.4926586584202103935581363e-01
0,5.3572234032583410101580057e-01,9.2588181788629686508329542e-01
0,4.8661986201644114036213296e-01,9.9740659977579704253969339e-01
0,4.1727730300658177897688006e-01,8.2213523466765203728812139e-01
0,5.5424605605665688834449156e-01,7.8391678684890464534618104e-01
0,4.8087162840690927945175304e-01,9.4980694458883829778272911e-01
0,5.0812823668139550647993019e-01,8.1962201444677362793811426e-01
0,3.4304807629057465501176694e-01,8.7706574179448693051597274e-01
0,9.0724611123228326992062875e-01,9.2131147388529732733530864e-01
0,1.7774979950306543652338576e-01,8.3215221448834553186202356e-01
0,9.4443471846842985684133964e-02,8.6412175629868137605171796e-01
0,5.8121748021509134218831605e-01,8.6444331799781326530762726e-01
0,2.7496683300727770005167372e-01,9.4504159536239940031521201e-01
0,2.5168857884315271045139184e-01,9.2337423189610645657410259e-01
0,4.1411053182751550449935962e-01,9.4866626567582812423751193e-01
0,4.8881951583177640774380279e-01,9.2321342400984618414838678e-01
0,5.3368943318402650710652324e-01,8.1862673293083099146372206e-01
0,3.1313784612216610803159256e-01,8.4175193143558324493369582e-01
0,4.7776276031687597845021287e-01,9.8122584214183350415083851e-01
0,5.2820285201416428133569525e-01,9.6200311712512243111916632e-01
0,4.9787068834977443732014990e-01,8.3298464019984619355341238e-01
0,5.8390940706034999418960751e-01,8.9699442489025449365414033e-01
0,4.7758157392408101538094911e-01,9.5498447964330268611377051e-01
0,4.7009413931438176481591995e-01,9.6244189153805737024782729e-01
0,4.3494698650473168077823516e-01,9.5884457758165175800257884e-01
0,4.1657056828072708265509050e-01,9.1042272692061487759929150e-01
0,5.6601455030401692791741652e-01,8.5211969080472071969012404e-01
0,6.4800358331437357684023937e-01,7.7240402826975174122026147e-01
0,4.4579324068491343879827582e-01,9.9385370509041914832693010e-01
0,3.4188999816390064356852463e-01,9.2390365550254149873410370e-01
0,3.6587877807412372277440227e-01,9.1777293930285042122818595e-01
0,6.1837399677408078080276255e-01,8.4650802075745967822939519e-01
0,4.1915797152064782071789750e-01,9.5327219289988307515670840e-01
0,2.3422774004649582479942183e-01,8.3914624187441733127457155e-01
0,3.4080159602319182177154744e-01,6.4224696131051639547138166e-01
0,3.4169166655123001108407266e-01,9.5946380937112818454437502e-01
0,5.0683952719431479838618770e-01,9.9324427124375447295534514e-01
0,6.0631347602094542992290371e-02,8.4905732732362004799853139e-01
0,4.1754980133183194901391744e-01,9.1384860239932319547762063e-01
0,4.8545407544620028383874910e-01,5.7733720466698656981208160e-01
0,5.7696902875765787577222454e-01,8.9041620531175313946192773e-01
0,7.2471583609599399267153785e-01,7.1150242958484266608820690e-01
0,6.1483065451722351824059842e-01,7.0127300227246247565915382e-01
0,7.6976919998668202893554735e-01,9.0869882601339646566174224e-01
0,8.2911059389677843611821118e-01,9.9013249666047431496451736e-01
0,7.9314802696179975693979713e-01,9.9183711245581873683363483e-01
0,4.6442189501589187239360967e-01,6.2311320329701447295889238e-01
0,1.9467286403480810186295002e-01,8.0923177293392190012610854e-01
0,9.8634156935800354482068997e-01,8.9058723294034192186074961e-01
0,2.1712820854964190453451067e-01,7.4396636272696903269263657e-01
0,6.2580910336862571874405603e-01,4.2768648587986241027536494e-01
0,6.1674007405811559490160789e-01,7.7661106934921653177639200e-01
0,1.0850182754397885709352067e-01,6.1449463487618771750931046e-01
0,4.0052973497050425866206069e-01,6.2375265160923909490975348e-01
0,1.6156479647342275596244576e-01,9.5118585920230924735108147e-01
0,7.0330154742249351151883729e-01,2.9976243934257995604752978e-01
0,5.7092348045291885227925377e-01,8.8886554398870432081025683e-01
0,6.3277756029277354432593938e-01,8.5709492947607235358020716e-01
0,9.1429358496298829273030151e-01,9.6175129377174184419629910e-01
0,2.6972945865165942613828065e-01,7.1569761643613327706248128e-01
0,4.5924066068363128545470886e-01,6.1988864768467089039205575e-01
0,7.0916151049055042854263320e-01,8.3949685010227870218812996e-01
0,8.4607164530068534880058451e-01,7.1948039358256865583030049e-01
0,2.9748131593980536857557695e-01,9.2899888700182664535986987e-01
0,4.8388105769155526081348739e-01,8.1264560723994305746487044e-01
0,3.9644324047592416349061750e-01,7.5501877439034537076167908e-01
0,2.0565017704204668902434605e-01,6.1801831403537110798396270e-01
0,2.5775308430100207779389621e-01,7.7575136995164051256779203e-01
0,6.2873045708884311988384752e-01,8.8454178748972445145426491e-01
0,9.1644967366746099557417438e-01,5.3278227470156869216566520e-01
0,4.7084500720969096887458250e-01,9.6230566514518578458137199e-01
0,6.7888278716397820744532510e-01,7.1746730215836451716171496e-01
0,9.5977494771668148132448550e-01,6.1429301330647612111590661e-01
0,3.3508290428396753091178084e-01,7.8676270944880899449458411e-01
0,5.6717688029210577838057361e-01,5.2910859183657632520692005e-01
0,9.5388012628051277452811973e-01,5.3959276772922626363993004e-01
0,3.3496734520770082843554860e-01,7.8699140259734234881250359e-01
0,4.9876980717034197221337877e-01,6.9365179933492837616171300e-01
0,1.7259437768222990472466449e-01,7.7302900604274360496503959e-01
0,3.8789377151973453150546334e-01,8.2192445270198266626948680e-01
0,3.7411334666785478475503623e-01,8.3268784200569978537487259e-01
0,6.3950459243375934459407972e-01,8.1538832916168368925013965e-01
0,4.8494259972986952789142379e-02,8.0500403975590539840112569e-01
0,8.5615361554103541763538487e-02,7.0027135941179796674305180e-01
0,8.8306541044665376460898187e-01,8.9592001727657810672411642e-01
0,4.2912506055956706196852224e-01,7.5996980150369120021736080e-01
0,3.0698763049370531019732766e-01,7.1659017384978729303668388e-01
0,5.8688053249768590280410763e-01,8.9460605318554275999787251e-01
0,3.4457970497496764883393894e-01,4.3990778142503073055991081e-01
0,9.8036108779193575912813685e-01,8.6963224586096399271184509e-01
0,2.6850462821216303233029521e-01,8.0075059541610471569583751e-01
0,2.2331782246543768755131509e-01,7.0190903562086814915232935e-01
0,2.4237282977466981237490984e-01,9.5642736632015457054478702e-01
0,1.0778536797335272479081425e-01,6.7304782093589254898802210e-01
0,3.3025029838707253837526423e-01,7.5316283865336730585227087e-01
0,4.2275324987162826717579378e-01,8.9063254076735365316608295e-01
0,3.5147506868920697087332883e-01,6.9962552712367465090892438e-01
0,6.6901297880908683346490307e-01,9.8906234535521242445810230e-01
0,2.9067488690961512665111854e-01,9.5709011961325307638048798e-01
0,9.0723896717334850947622726e-01,7.3750025008043273988533883e-01
0,5.7052505644543349827557677e-01,6.5741372857740199009413118e-01
0,3.2219004252785304887041207e-01,7.5903637038552795868184830e-01
0,7.6605176966538779392834613e-01,8.4656336301275925126930133e-01
0,2.2341527006872821670135920e-01,7.5526369422241346196500444e-01
0,1.8517884985567506506143332e-01,6.7700688853203050410201058e-01
0,2.2185967123887970209317189e-01,7.9154256728157301736814588e-01
0,2.1507438099481157589565328e-01,7.6928129346418450129618805e-01
0,5.9632448312512131849416619e-01,6.3622239316299844524849050e-01
0,8.3189008575793654820529355e-01,8.2219390955059246106628734e-01
0,6.6337256775168540468001765e-01,9.9109984737678513688763360e-01
0,3.5686809733475255423940098e-01,9.2858940873295248152885506e-01
0,4.2904986304779052508351356e-01,6.6169178742733103515405446e-01
0,3.3204412442385705661607176e-01,8.1214329065794865769589705e-01
0,9.0886794849332730450441886e-01,9.8522634073970594137392709e-01
0,9.9556658001332265506277963e-01,7.5733107380287467691459824e-01
0,6.8116469038490479182001991e-01,7.6221356642419402227517367e-01
0,6.3645684164863314258298033e-01,9.0905567848489199356265544e-01
0,8.2635723123604298834266046e-01,4.2872840419849644888472540e-01
0,4.6826691870691811159232998e-01,9.4495800357503767497036051e-01
0,3.8505130939035658865776668e-01,8.1589856085776490957073293e-01
0,8.8296761476715301952822301e-01,7.2764546870723734173225239e-01
0,8.1819468520531235533610470e-01,6.4103116519894531855072728e-02
0,3.2870016707445048886881978e-01,8.3043592900571217008121039e-01
0,4.4228105429816610971727187e-01,7.1892919289263046422888692e-01
0,2.1492612721488282834236827e-01,7.7120282556864627743209439e-01
0,2.7559532215491178153143892e-01,3.1789651926986645102957141e-01
0,6.8103896323353718678106361e-01,8.3059395119242807048465238e-01
0,7.3202464332940375690839119e-01,7.6871383926812320019905655e-01
0,3.9658269663770456814333443e-01,9.3695051988541933063459055e-01
0,1.7560274598107383781098179e-01,9.7718849126810625183026104e-01
0,1.6106842809814286843206332e-01,2.5786855945704889592207110e-01
0,1.1995504671948153951888116e-01,9.8127221667990816023063871e-01
0,7.4790874907701310192464916e-01,6.9974309641040111085175113e-01
0,7.7388486843622805722020530e-01,7.3300100875021156898725394e-01
0,7.7271746105587246766788212e-01,7.7111303227337646415406880e-01
0,2.8075489640695777682211087e-01,7.4184838154330101644973183e-01
0,6.0401024460524033177222236e-02,6.3053204332665035991567493e-01
0,2.5346230294715460518162331e-01,6.2642278242822024836300443e-01
0,7.2109629060663182897883416e-01,8.3207843999342512297801022e-01
0,5.1385625870893580913190135e-01,9.4401738806151236360619805e-01
0,2.8868526374052849714502145e-01,4.7532479646647285420613116e-01
0,1.4427864185213615244585128e-01,9.3765274822242727914556326e-01
0,6.9136252504580109068399452e-01,4.2784907855678855348458001e-01
0,4.2489674046665426576652180e-01,8.2522041289890735171752567e-01
0,7.6507964487806090492227895e-01,8.1828071253002421236999453e-01
0,4.8283898174944006598252599e-01,6.5398853124804579017848027e-01
0,6.1091547100213450249839298e-01,8.2281263516218361431242556e-01
0,5.9093082699360155451984156e-01,6.0382409951783089230303858e-01
0,6.5719953202654912693958522e-01,8.5861728755759070264019783e-01
0,9.5547973296431509826476258e-01,5.9255063997680768039799659e-01
0,5.2289175658949449410073385e-01,7.9127714615203748049765409e-01
0,2.1899980602730367840180747e-01,8.6916654882483057598108189e-01
0,7.5944670225412147512855654e-01,4.3010047157803665829334250e-01
0,4.3537821165147772006775995e-01,4.4068436667759997016347029e-01
0,8.4212494941684035154594312e-02,5.0718576922149183339172396e-01
0,4.1775461679337189124794349e-01,5.8517391609668512053588074e-01
0,7.3553006066102977200671376e-01,6.9701866503797960117339017e-01
0,5.3460165766326717129430790e-01,8.0377325149683565008729147e-01
0,5.3828847907249854909395026e-01,8.3658202969242978497277363e-01
0,7.0298079324787665633778033e-01,9.7301504648268621888718144e-01
0,4.6275214941380071742571545e-01,8.6583601954095779085207596e-01
0,1.1588466181350898231983138e-01,4.2902663218617936857768314e-01
0,8.5241540692257200539927453e-02,7.8650279024402958150119503e-01
0,3.4013244512190776713822515e-01,9.5505110701628548319774836e-01
0,2.0548390022751095163044965e-01,9.8486608745169024192733787e-01
0,3.7085334199893732476382979e-01,9.7468583738084713097293843e-01
0,2.8922483519405911556177102e-01,8.7970228357690871678897793e-01
0,6.5155173751840078644192999e-01,6.3862083985646311834472044e-01
0,7.8135032679977589609165989e-01,9.2441480300085243637653321e-01
0,5.0796148139431485102335273e-01,8.0644998185819283254005541e-01
0,4.1329118779107337777745101e-01,9.3237706880668624886965290e-01
0,5.0301464678477403325018713e-02,8.1754207174680348924056261e-01
0,9.5687960852165554470616371e-01,8.1570168254721164835530089e-01
0,4.0474638577976440600991737e-01,9.1413192997937786632434154e-01
0,4.9185062242205679350348646e-01,9.9632525876880406734414919e-01
0,1.3853022108478724172542229e-01,5.4256704665601629411497697e-01
0,4.3095099590713037418510112e-01,9.1745438487970665253357083e-01
0,7.8653655238114583703179505e-01,7.9253444175001575011663135e-01
0,8.7837054518184376483702636e-01,8.2714198202790367719927644e-01
0,5.0408198343190668833102563e-01,4.7194409874141995953067408e-01
0,2.3906377054237532009395295e-01,8.2979612955351389480540547e-01
0,8.2591062272561299728579343e-01,4.8689087943249786949451163e-01
0,2.3755491317953436603005457e-01,9.6255775407913224395173302e-01
0,3.9093037544122927195999750e-01,7.0770652633179653712147683e-01
0,4.3906987033266164921485597e-01,5.1437899162423283971889987e-01
0,3.0576578391190506467367527e-01,8.0202120227282314157690735e-01
0,9.8964170352497182747697479e-01,8.7174224854617221591723819e-01
0,1.7048423782173738327827550e-01,8.6413048436184025646866758e-01
0,2.3284808995552996879752072e-01,5.6780732942056555412335683e-01
0,3.8571138798335763420155331e-01,6.2631157520932945192981833e-01
0,2.3374480291069305026852021e-01,8.4136779391691096652294846e-01
0,3.1352388245586410020493418e-01,8.6077546107261715402358959e-01
0,2.7620889609001308961921950e-01,9.5257439069636284934006198e-01
0,4.4854693414775864690469120e-01,8.9372260382679946655315462e-01
0,2.9757348862731369809608850e-01,4.5785737506088619586108734e-01
0,5.9055664453841316685611673e-01,7.1177687628516772555542502e-01
0,7.3996463323963435065877547e-01,8.1251472529246548948123063e-01
0,7.1954199398904905571328072e-01,9.1264433837873881749658267e-01
0,1.8613246632960056548000694e-01,8.1025988551163696804735537e-01
0,7.5769543487082191557391297e-01,8.6580164119339109163320245e-01
0,8.5188994273780982435795295e-01,8.3474965867719019829706895e-01
0,4.6750140943576334873199585e-01,6.6851491087341041730240931e-01
0,3.8648495881093669623851383e-01,8.4694037386457554639207501e-01
0,6.5215578778260352432738500e-01,7.8754208964367977685583355e-01
0,1.3067140943820287901644406e-01,7.3485992058226545786681072e-01
0,7.0444794281326539309162627e-01,7.9672835049678025765018674e-01
0,7.7420248764276766717529199e-01,7.9386836885431466548368462e-01
0,5.2678928652838219459653146e-01,8.0547603163189296360258140e-01
0,5.1943838973624056887246070e-01,9.4295716470164026024036730e-01
0,4.8158950797147825895194728e-02,7.7688149995302713257672167e-01
0,6.0577353627244445721800048e-01,7.8238848934880933505553458e-01
0,2.4770181172252581092152468e-01,9.3511196464301604702740178e-01
0,3.4727404076760670648127416e-01,9.4091573988942578399274907e-01
0,3.6862992325224963607865902e-01,6.6602308662668119332295191e-01
0,9.8976081417916050853023080e-01,5.5640974798939202283776240e-01
0,4.9175393806071909796884256e-01,9.2321525378196100941607938e-01
0,2.9421865333128210950874859e-01,6.8955374394527624293260715e-01
0,5.8483629953379900889842702e-01,7.8974191260312598394932593e-01
0,8.0796654144909807460095408e-01,6.6272660040428899019815390e-01
0,2.0602398842167962689231331e-01,9.5734124119564245614100173e-01
0,8.1764452000386578234270019e-01,4.2299262744472748698498776e-01
0,4.8357773362471623279645883e-01,9.7256848114047056430564453e-01
0,4.2032483174185403251854609e-01,4.6602815246630480139344854e-01
0,5.6731112099563074657737616e-01,7.3762282816313085032078334e-01
0,7.3144094253462998977965981e-01,9.7693498539733991670175328e-01
0,7.6165093628370839073937759e-01,7.8044606495187884842579251e-01
0,6.1137236470120615017265209e-01,7.8442647384106467534081730e-01
0,1.4498661068907553461926341e-01,9.7618993487016025856206625e-01
0,1.4006121396467394180085364e-01,6.8662937934971690623342511e-01
0,5.4777673305172114304184561e-01,9.1368651325895766657225749e-01
0,4.8527598959160322955597167e-01,8.4567853106285029163302625e-01
0,1.1171580132660147155476693e-01,9.7124161033403522136353558e-01
0,4.1369409822920144570446155e-02,7.4206069832730425783751116e-01
0,6.9788800601855716099208848e-01,8.7504989908545005583562215e-01
0,4.3159327597692348499336390e-01,7.5187837576226967950532298e-01
0,5.7404042858398973692146683e-01,9.7634258832324904986421643e-01
0,5.6036362110612369935580546e-01,9.0201461938810179042036452e-01
0,1.7560276657139173295263390e-01,6.7724173370648466097065921e-01
0,2.2304933795611103786171725e-01,9.3601938136126416889482016e-01
0,1.8404298883417741228285536e-01,7.6652637731784678543078826e-01
0,6.3935750810515301623127016e-01,9.3529956033195005282721013e-01
0,8.0526473679832721863647294e-01,6.9945800819526515734736449e-01
0,4.0481678819794597590231433e-01,9.8529741861996866791884031e-01
0,1.1264590686244124739801009e-01,9.0261575933631132961920684e-01
0,4.4660791476340211403339708e-01,9.5762688227434855647857148e-01
0,2.1648762512630992382867134e-01,6.0678671663332839347759773e-01
0,6.8864201404747305002018720e-01,8.6035553222065319634026537e-01
0,8.8651336532026203673950704e-01,8.5121262425340782353799796e-01
0,4.4071208919189125419180186e-01,7.8002095230663381908442489e-01
0,5.7039619534746821560844410e-01,6.1940965735456521290558385e-01
0,4.5840796519500737193908435e-01,7.6686866364408334817426294e-01
0,6.5793548215795283340412425e-01,7.1145089520126880699990579e-01
0,5.1834037674207844581530935e-01,8.3234022259523798847880016e-01
0,4.3961062931948552412464437e-01,7.2423696407511972683579415e-01
0,5.8020432387600240353719983e-01,9.4624570348550873788440185e-01
0,8.4721271244760543162044542e-01,4.1816908991292617292501177e-01
0,8.2517729781350301898612543e-01,8.1344862493442049444780650e-01
0,6.9482181348327798353636808e-01,7.0508091204661171857992485e-01
0,9.4738540292253858865478833e-01,7.4434145656620154252181010e-01
0,7.9697197366457639411407854e-01,5.0285039566194300597601341e-01
0,3.8209723659954564212171135e-01,5.8115032503760621906963024e-01
0,3.4727931653169008541226503e-03,3.2111179015049418072891285e-01
0,5.5282137118752572302327053e-01,4.0312924832465113489377018e-01
0,6.7889389091620189198295066e-01,7.8681824005385736509055050e-01
0,7.0466227996904340358241825e-01,9.3837114943467825334266763e-01
0,2.6702900443677846098466944e-02,8.6267509828569088892180616e-01
0,7.8869536995874667262285129e-01,9.0930385534220503629398991e-01
0,8.1079475511363441331269541e-01,6.5276718755983009767618341e-01
0,7.5588347387885124195605613e-01,9.9313493312381861954918350e-01
0,7.5140139303443365115242614e-01,9.0309187754492092903291223e-01
0,6.7714999146938126273198577e-01,5.8170259918252142927741488e-01
0,5.8034930303035814347367705e-01,7.4048184599218291879196840e-01
0,2.8810221338011210434615350e-01,5.9975167263644701964864225e-01
0,6.8692722966149943886193796e-01,9.9553554575652125624429800e-01
0,7.6576525596752675895118045e-01,6.4972299423234380899572216e-01
0,2.6435239976642610493229313e-01,7.4029119268847087820262232e-01
0,2.0095162739527322459665015e-01,6.0012703615409934698732286e-01
0,8.9956133588196873773767948e-01,6.8301563656743968788731536e-01
0,3.6692024544631618443446541e-01,6.8821279444268113056892844e-01
0,3.1420849990462862422191392e-01,9.8964468899831936621325212e-01
0,5.5428656200873049897381861e-01,9.3987191208376774653743269e-01
0,5.9852530450749896751005963e-01,3.9624785538849183197385173e-01
0,2.5386811995517150064571865e-01,5.9998828149242322549383744e-01
0,5.3884408894324198335823439e-01,7.5152140589031601880520839e-01
0,1.0975571811555684398342692e-01,9.1047256974496693082699039e-01
0,2.4996502028872502609857520e-01,8.4225679281716803181723208e-01
0,4.1644370174741018875153031e-01,9.0358476068397752811733881e-01
0,2.9751683522117433611242632e-02,4.6815248065810693978150425e-01
0,5.5986016614447120520736689e-01,4.9995484783924021288115114e-01
0,5.5300581106740731573978564e-01,9.6901704246548381327386323e-01
0,3.3087231939260891566689793e-01,7.0275445137725889299673554e-01
0,1.9873087714170392659163156e-01,8.5037989406821579141393386e-01
0,9.3372477956319355207881472e-01,5.7080046558944586010397870e-01
0,9.9016360350961196701291556e-01,4.6791091401101458924216558e-01
0,3.9385003939371515668810275e-01,7.0162262491356308657941554e-01
0,6.6906427665689838235607567e-01,7.1308565897674591749222373e-01
0,4.7590492820681223884449196e-01,8.5229802306206470241534134e-01
0,5.6796563066748029235952799e-01,9.3439771057543863364003300e-01
0,3.2176572942054398884792477e-01,8.6457504289903797101146665e-01
0,7.6917154916488394977847065e-01,8.0650928112581843354433886e-01
0,1.2482625843284156363921511e-01,9.1679661752106200722778340e-01
0,3.8304252903986257816626448e-01,9.5481075712192187143756428e-01
0,3.5337580306252092121610531e-01,5.6200491289884957346600913e-01
0,1.2962475305268303382710826e-01,6.3843969670910127867102801e-01
0,2.7107463831329647874213151e-01,3.9380184405783325019001495e-01
0,8.7856278278778221491052136e-01,3.9339352555908851938326620e-01
0,3.1485256663006944144456156e-01,6.1906116786412734853684015e-01
0,6.0510757379458079974199336e-01,4.3315886809342801777589216e-01
0,5.2477165014409354881763647e-01,9.6994736509186207928934209e-01
0,1.4372356568569236157095759e-01,6.9286518792800777521989630e-01
0,9.3587183870185319811696445e-01,3.2006527449346916514016925e-01
0,8.4628260833980828437006494e-01,8.4787921860768966642041278e-01
0,7.7015424129309928424902409e-01,6.7362596599649915418694945e-01
0,5.5283363113033634483883816e-01,8.3397831504847586003847937e-01
0,1.8630688748935764209591071e-01,5.4367666412675530462905726e-01
0,1.8675255294695805585725168e-01,9.1723221905506568951693680e-01
0,5.2527254926404531865102854e-01,7.8190271799255472995326954e-01
0,5.2935633059933484556580652e-02,9.5310815232582835054842008e-01
0,5.5700912848288997025747449e-01,8.6272242218417649617379084e-01
0,9.6511901805990285563296993e-01,6.1609130209977047698544084e-01
0,7.9140451318776561251411295e-02,8.4899016910093705323703261e-01
0,9.2823314156016939469040494e-02,8.2391525372917806535610907e-01
0,6.2509932351818142670651923e-01,9.4880858462706929579155712e-01
0,1.8228417292955523265618467e-01,4.2612842135367140494750515e-01
0,5.5749715885227524303502378e-01,7.1137577449180933175654218e-01
0,7.7161237528014159359202040e-01,7.5476782417867205321471147e-01
0,8.1953879965959974818190403e-01,8.7766855167164337103713478e-01
0,9.4262318725328442248212468e-01,7.4110349277339770956984921e-01
0,4.6886193118211849650833756e-04,9.3249675249337882210198813e-01
0,1.6566650758262468912107579e-01,7.3460857549087499318574146e-01
0,9.7475115489829611270522491e-01,9.5059485693339595968609501e-01
0,5.0301518542528544930547696e-01,8.2425936500748175905783910e-01
0,8.9441796954890695481310559e-01,6.7264863832009447186521811e-01
0,7.4955819284964664284132141e-01,5.5425680359819762266226917e-01
0,4.0948298299121593801785934e-01,9.4441117532043328264279580e-01
0,9.8913092672625768653205114e-02,6.4514160735525027945413967e-01
0,5.4836391251489668974272718e-01,8.0309097581533794851793573e-01
0,6.5622025347666779193644970e-01,9.9220523988749420585264716e-01
0,2.0483497781123094494404313e-01,7.1564461473113560874281802e-01
0,9.8275553460362141677819636e-01,7.9862982277950989029591256e-01
0,5.9551113709907044224678430e-01,8.8684039574585005194506948e-01
0,5.7714078508969346437140757e-01,7.3772512457315786438272198e-01
0,6.2058700942640487863144472e-01,9.9269176503782363685246537e-01
0,2.2386749097929212193314186e-01,4.9290815630284012804906979e-01
0,1.7430124960917073306809755e-01,7.1508280391873169090644069e-01
0,2.5995439790461283280365024e-01,7.7674476572450990019547135e-01
0,9.9398697132965563305617707e-01,7.2943415938750533200618520e-01
0,3.0436989285621357526068209e-02,9.0910256155181035087053942e-01
0,1.2403428689286188912888065e-01,8.5629020816874368282611840e-01
0,1.5789754531407360071959545e-01,9.4753625049598655394333946e-01
0,8.1150909655946990017838516e-01,9.8930216330295750459811188e-01
0,7.2526214566690072604870920e-01,8.2411682323391277638080510e-01
0,9.4301294116741174455853525e-01,9.4998258986218964139425225e-01
0,5.3621276379438720383063810e-01,9.5469941145395353920832804e-01
0,7.4322986969613846763849097e-01,7.1592193069685905459920150e-01
0,5.7146518916421851219666905e-01,9.3564058704101793484397831e-01
0,1.7260945558888968198729685e-01,8.2567500317852360325332484e-01
0,6.8194846785899165819699874e-01,4.2860616271651447162227555e-01
0,9.3866080344819990965987699e-01,8.4713382641199774791829213e-01
0,9.3930148553487957663321595e-01,4.7565516928003026553284371e-01
0,9.3111463435818897504958613e-01,6.8967852703110055223589825e-01
0,7.3353595426595891160204133e-02,7.3958137432343173944815362e-01
0,3.9744373347164296816913520e-01,1.0807454175021941056300534e-01
0,9.0863013266070180584677018e-01,7.2950889054193668314951537e-01
0,9.9883956299962128877467649e-01,9.7947010889915020470652962e-01
0,8.2921876757334755936312831e-01,6.4163356551763417456868410e-01
0,8.2267666734321676091923337e-03,9.0277670668179343937964632e-01
0,8.8357483886970344943989630e-01,5.6216645956846600373779665e-01
0,4.3556659933686736607683088e-01,7.9295329238674872041059416e-01
0,6.5002069348771440715495373e-01,7.7609525868415518701226574e-01
0,5.7406153626442746329416877e-01,3.3793312283424620234839608e-01
0,5.8977294872506358380803704e-02,8.6504692078612055450292928e-01
0,3.7582027291297176452289364e-01,9.1655184407162582083117286e-01
0,6.5928359388878754465679322e-01,5.1396601402606556519003789e-01
0,7.1319989933654581726329980e-01,7.5142363644073673079049058e-01
0,5.8243076226878331969061264e-01,9.2721288100052934311179342e-01
0,3.6976469130166833565453999e-01,5.5493379584968183237947414e-01
0,7.0319620917092562351058405e-01,8.8761456382517545105059753e-01
0,8.9648759210864104041149858e-01,9.2066985030240566789672130e-01
0,3.6781895527088032116225236e-01,9.5907212949497067100423919e-01
0,1.0509683615135737011492267e-01,8.3147889002508468259122765e-01
0,9.8408395297631523490622385e-01,6.5095317913979267032686948e-01
0,7.4467630779114823980080473e-01,8.0518998003655228856700887e-01
0,2.1519856541316861875401401e-01,6.1193941974590992938232148e-01
0,3.6604055541688901298513770e-01,8.6454803145823067023201247e-01
0,1.2929575911176752200937301e-01,6.8501694782438637965071848e-01
0,8.3885124071436834025661256e-01,9.9788530253380391954465267e-01
0,7.6680471632779334534291138e-01,9.0281511069944253566887937e-01
0,7.5424002352686914107948724e-01,8.8416055852070629672567748e-01
0,8.9930252676148791923793624e-01,7.9382896236902600328733115e-01
0,7.4322344176021382100572055e-01,6.5204425400833099235597956e-01
0,3.7980368497875333089197625e-01,7.2830169643659947720237824e-01
0,5.1748295631533325344975083e-01,9.8308781909362197293233976e-01
0,9.3972173878546338965378482e-01,8.9963816596151546800541610e-01
0,1.4580590918773150832521424e-01,9.3063942395459253731360150e-01
0,8.6193711815340900983528627e-01,9.8039630612142736332259574e-01
0,5.3066974392897381385125755e-01,4.1964905665465512818457228e-01
0,8.1292883990793973758570701e-01,7.5927540328416887049911566e-01
0,7.4140587724906625854970343e-01,6.1431874575415146289003587e-01
0,3.4679032855796232404088641e-01,7.3038935211904421063167092e-01
0,3.2968504357633182655362702e-01,5.9092532902913819103929427e-01
0,6.0803078674631882982737352e-01,9.9327280318812349868551337e-01
0,7.0425493936526972760248100e-01,9.1935114050860855527957938e-01
0,3.0951408267388647033158122e-01,7.0420182035570255685286156e-01
0,8.2225591951780196975363424e-01,9.3483973187203173171866410e-01
0,9.6612292843854685742144284e-01,5.2916105595236861969254960e-01
0,4.2335821664842354650204470e-01,5.5802896694292658530400786e-01
0,6.3033323841701793810443633e-01,7.4842700449004029294997054e-01
0,5.9182011392744926503439729e-01,7.5022675037214003879171287e-01
0,9.4981294075031064139125192e-01,9.5685315148479010982640602e-01
0,5.7240094915992933977122448e-01,1.8596822884490404881319137e-01
0,4.1597403230406171381616787e-02,7.0238948334655815219917940e-01
0,6.9722545941827607229868136e-01,9.0997970023956087359806588e-01
0,7.4069895115522288442377885e-01,8.1438222305029284164845649e-01
0,3.7970427274941054296419907e-01,7.9145964855431771844962441e-01
0,2.4237172446233179456953621e-01,8.4038345242144474322998349e-01
0,2.0024516410495807328118190e-01,8.0735298291869350695293406e-01
0,7.0296880322456911649453559e-01,6.7702800158909981487198593e-01
0,6.6273354018485941541172224e-03,6.9550418410208336705835563e-01
0,8.6123416222345117176928397e-01,5.3373153767625847176958587e-01
0,3.5594562170411547796788909e-01,7.8123369029783096273433785e-01
0,9.5210429208952040980307174e-01,9.8987294586162555276587227e-01
0,8.2464450243467934953400800e-02,8.4192144762592779905219231e-01
0,9.3843659292106829106216992e-01,3.2613472692264400265571567e-01
0,4.4533491862529972493689456e-01,3.4989499563513715152396344e-01
0,7.4697664884628256487530962e-01,8.7246942412091066376689241e-01
0,4.9822930120784114649268304e-01,4.0385772268247488447912019e-01
0,2.6006859689701677940121272e-02,8.1059810985175551056869381e-01
0,7.9095827043831723468514383e-02,7.0346212911233862996596145e-01
0,1.9477236958217061801867942e-01,8.3290359381893797063867169e-01
0,9.4902898892438625200185243e-01,8.4732185988075292559784657e-01
0,9.0376526866761408562922497e-01,8.4750395543125434105746763e-01
0,7.8877683640214291127534807e-01,9.9485798670760861028838917e-01
0,9.6222483371013367570157016e-01,8.4385066386803220250811819e-01
0,9.7077091193670872470988797e-01,8.9901259559222501671627015e-01
0,5.3151883305814195956884305e-01,9.7602193409666360146559327e-01
0,1.6447310611474041941448831e-01,9.5129328674651902897352329e-01
0,2.5051091733194308375232140e-01,7.3289339857098845243399410e-03
0,9.9669806526391224732464025e-01,9.9116349834690131714864947e-01
0,5.4812560648203090263308468e-01,7.8258632484396106754331868e-01
0,6.5959334605193786771337727e-01,7.7377725095825300449803308e-01
0,5.1734474721016976417331534e-01,6.5116439764074540708094219e-01
0,8.8044078056636365658960131e-01,8.3555982349190072167033350e-01
0,8.0872295829634843755684415e-01,8.6161290626757902622046004e-01
0,1.6565826904492733651075298e-01,9.2449239035239694217693796e-01
0,8.5637769601290469889676160e-01,8.4792388284508712903431160e-01
0,7.3557103638278076296330710e-01,7.7608968370158581961959499e-01
0,2.5067980333694350747464341e-01,9.3793793202676678522067277e-01
0,4.1954956796060316470686757e-02,8.8034074292493214031196658e-01
0,5.8501881137354716511111974e-01,7.9463827638209261206014844e-01
0,2.0910419126690282798364251e-01,6.9530836023908637599788563e-01
0,4.8424579919241667047558053e-01,8.1658029247621988222505252e-01
0,8.6542765498946827573689689e-01,8.0821767692426493834290113e-01
0,6.7014377566592742141438066e-01,8.3087596417613918120537164e-01
0,3.7835412492655762228821459e-02,9.8964979057350077606969307e-01
0,1.7081118855386723254241588e-01,9.9532796287715685767949481e-01
0,1.7519490371022516939092384e-01,7.3792360841544746286047030e-01
0,3.8176269520365502252445822e-01,9.2055975564756864493176636e-01
0,4.5288672743930513675536531e-01,5.8077781428328645318970302e-01
0,3.0267623813732452697777831e-01,9.4555817224270954923781574e-01
0,8.7473641149499584135362795e-02,6.2681308512431965773714637e-01
0,9.9340183335146825527317560e-02,7.1752563637395028184329249e-01
0,9.9240855754848655845279382e-01,9.2960481265644578918738716e-01
0,9.7306289837560644429004242e-01,9.3466339899233408239354048e-01
0,4.4397036935766853726903491e-01,8.1417460959721432711688749e-01
0,3.1740009498711796442904642e-01,8.5956003696161176197421128e-01
0,1.0502629768693827472247904e-01,1.9963496375169365038004798e-02
0,5.2922536353941196374250922e-01,9.2212644033873458759842379e-01
0,6.4449637148007798970184012e-01,6.9290547079997488744140810e-01
0,2.1268560113354695317866572e-01,8.6478479657069595720741972e-01
0,4.5334491562634898764727609e-01,7.1910519008800843909767764e-01
0,1.9677722321288504403469233e-01,5.6533885587073662293278176e-01
0,4.0746456462066316106529484e-01,8.4234185903334102274442330e-01
0,2.4497500361953195024966590e-01,8.3545764600482796957692244e-01
0,1.2023253473101291888269770e-03,8.7062283926686168111785946e-01
0,4.3231572721946509574308948e-01,5.6195395659801605781069611e-01
0,1.0104162139628125594015273e-01,7.7409381769561269592827557e-01
0,7.5165575841156428982259285e-01,9.8958406202907789328548915e-01
0,7.8029160846450440480737143e-01,6.7110955814141137754091915e-01
0,4.2467932143093989338922256e-01,5.8671449280438470186282984e-01
0,8.9077120842768209296735904e-01,9.7893425765176733666095288e-01
0,7.7237832684834351049119050e-01,7.8191939339219052040874658e-01
0,1.4313449292309998739369803e-01,8.9184806902333146894079619e-01
0,6.4431085324452275209239360e-01,7.4915984713527872251859208e-01
0,3.4305870042836023037224891e-01,9.3212242400587463908578911e-01
0,2.5421616982459055433807293e-01,9.9155734345948332020270755e-01
0,4.2799215833224102389920063e-01,9.9618370097902875226481001e-01
0,5.1428400704180088354178224e-02,9.9775306912195738107129728e-01
0,6.7009554570754570335111566e-01,6.1517107502453105549733436e-01
0,6.5225603424248901340831708e-01,8.7376244424496274376679139e-01
0,3.3356313076114396665161621e-01,7.7248200659899879383374355e-01
0,5.3064640291127784799130040e-01,7.1502891058307072036370755e-01
0,2.5060708775811524340326741e-01,7.6426233017675615499797459e-01
0,7.9511835380859952060461637e-01,7.1831608441519045893386419e-01
0,6.8313557005141889444388426e-01,9.4600921397944248703026915e-01
0,2.6179876542215363421917118e-01,6.9503011323879870797526337e-01
0,2.6262700924013093750630787e-01,8.7897388802904119486925083e-01
0,7.7469542613885844506427247e-01,9.3625230097629663639224873e-01
0,8.9847143071448642981380317e-02,9.8863844821345625568653759e-01
0,1.1356001961892597806880190e-02,8.2286631636298657177519544e-01
0,6.7028613797282643460562213e-01,8.2224476347670094611430613e-01
0,1.9691970288339133432486960e-02,8.6966467820991699699817445e-01
0,8.9220205593211776573525640e-01,8.7026556232223728493124781e-01
0,6.6913072340172830010374128e-01,6.9845930008026391178077574e-01
0,2.2243875964245973797517308e-01,7.0159537195429155786996489e-01
0,8.5829386684663844242493269e-01,8.7285235862884213986490067e-01
0,5.2677487549731116800444397e-02,8.6268468503387552015482242e-01
0,4.5669764183551025960028369e-01,7.8186592826177381265750910e-01
0,5.8879688373695737713120479e-01,8.9102466652768796961936459e-01
0,2.5441767077795107709903277e-02,8.7389272943788776082385539e-01
0,1.8656858610615323357251327e-01,8.7603060514351538401456310e-01
0,7.2472217289837914666605911e-01,9.9550346093521779877733024e-01
0,4.3035345546386033488417411e-01,9.8737697275903713034495013e-01
0,3.5049531284571699973895420e-01,9.1958705551341202166781841e-01
0,2.1294275289677888629569225e-01,8.0251399128384059977747711e-01
0,3.0991628094328338427487779e-01,8.9515000753908480213283383e-01
0,5.1236478813861729975087655e-02,7.6922245982080639237210562e-04
0,1.3790496407876284834514991e-01,9.1867576841141307397720084e-01
0,8.9160229951490266309122035e-01,7.7370183308084072848487267e-01
0,7.4612015734216385887123124e-02,9.9311180160287215734626898e-01
0,3.2590495401735497527084817e-01,8.7512606895893974012778926e-01
0,4.8674982608108241510791458e-01,6.9868166717425606027092044e-01
0,6.7062015858425105818696466e-01,5.3581276431560120876440578e-01
0,3.3044401766246123131054446e-01,6.8233010114882730601237881e-01
0,6.8378982235204954776008890e-01,7.7475161482231758025562840e-01
0,8.6615247038363540887928593e-01,7.2394124413966332021175276e-01
0,8.3430402578696027937610324e-01,6.6352735923304462239968871e-01
0,2.3734005546637382266794702e-01,9.5852629591564064703845816e-01
0,2.9345666334573650146921864e-01,7.1974266192123703689276226e-01
0,5.3653207159677251958385114e-01,9.0064634095315687645211256e-01
0,8.3469154578663740107202784e-01,9.8814199459089202548511821e-01
0,9.0091541746078851460310943e-01,5.1672049461762115107887894e-01
0,3.0041524725010626539756231e-01,7.2170329043851899619710366e-01
0,7.3475061509590045005779757e-01,8.4944409382397700891687009e-01
0,4.7222087384343763849514630e-01,7.9715789797700731256213658e-01
0,4.6251268469020390128321196e-02,5.3436243607227562613104510e-01
0,9.8318096126894660713446683e-01,9.6357323309601750072062032e-01
0,6.7493931622011693605145410e-01,9.5294198990538336868638680e-01
0,3.1728364037348022463902453e-02,8.1682170939591225433673571e-01
0,4.7255754131579946752950150e-01,7.0242265774263423772083570e-01
0,6.8426241789283537286792125e-01,8.3495479137357109244987896e-01
0,2.8428349269727704040633398e-02,9.7738843408677555935071268e-01
0,3.1345535442791089275615946e-01,9.9487481726221504985119282e-01
0,5.3736108465235710163199201e-01,9.2023773339387360259422621e-01
0,3.8497365334880551124285830e-01,3.5886483779521710646420729e-01
0,7.0838675388271765687164816e-01,9.7696667186700725249437482e-01
0,2.0539888856292864982577839e-01,6.4851486256615475944897753e-01
0,8.5308500585708824104358428e-02,8.5127097010421370892885307e-01
0,3.6830618495472755569153378e-01,9.6169793254051683106808923e-01
0,7.2695211391562797320631262e-01,9.4961929017577528799876063e-01
0,4.7165797773880369092580622e-01,7.4299222075035442625079440e-01
0,6.9686915419386374903609749e-01,8.0749094471148874507804294e-01
0,1.4113623369853392497397238e-01,5.5413354837707018418768712e-01
0,8.6644010314125829985698601e-01,8.4988708083034614215733882e-01
0,6.6062709554350496077290700e-01,7.9880308203386740650842057e-01
0,3.5879380936646199096173859e-01,9.0013200286432659691371327e-01
0,4.7770057275609717484243788e-01,8.1974177537210857202865100e-01
0,5.8658362522098694835648303e-01,6.7016877569000454784031717e-01
0,5.2589973958296876155316113e-01,7.8891046461343283802136739e-01
0,5.3253995321774327820207873e-02,8.2484232927323319906065535e-01
0,5.8165345085735786767600075e-01,7.4186053533312001917465750e-01
0,8.8920485559998696523109629e-01,8.8982709936458781463386458e-01
0,5.6874943270303268683107945e-01,7.6124097184268757487757284e-01
0,2.8915542425752549515749479e-01,7.3625649740664733666761776e-01
0,4.9669659317562331324324987e-01,5.2966787068937715154959278e-01
0,9.8368405742880571374087140e-01,9.5555858484575406652794527e-01
0,8.5290813760981365465596582e-01,5.4164421786837546601844906e-01
0,5.7266300882138265748722006e-01,8.1234738806278017353434961e-01
0,5.7238223125296416871066185e-01,8.5483668987638039560295056e-01
0,5.4622264637191414449191029e-02,9.6518553173018473145816642e-01
0,4.3539952306966361872397897e-01,9.2243318312023780958242014e-01
0,8.2195803816630508276119826e-01,8.5240582024905864333419458e-01
0,4.4112538873231249558770628e-01,9.0667844589398938204283240e-01
0,6.0892650055086683380523027e-01,8.9569870905503390368096461e-01
0,6.0461134316396403232118928e-01,6.9527752532303943588942730e-01
0,7.9987633189560902735593118e-01,2.4768769591015926678778669e-02
0,5.5948660715672460241876252e-01,9.7080992316998826474616635e-01
0,6.9412126681842201136873882e-01,9.8666551264644641872081365e-01
0,1.4466219011769609892326116e-01,9.2635777374859618049640630e-02
0,4.5456588592006474947027073e-01,8.0884278429885148042899345e-01
0,5.7227296592322707269318016e-01,9.9964040709028711972905512e-01
0,1.4298311737524549425160103e-01,9.6131738076199679809974441e-01
0,4.6296497464331154425565273e-01,9.0584443997363361944508142e-01
0,7.7361103083098758936841932e-01,7.8990186063798217830367321e-01
0,6.7272801048028685322321962e-01,9.2544239660044813611250447e-01
0,3.1410088131180535775399676e-01,8.5730418883524839301912834e-01
0,2.8158851102510873420925464e-01,9.4708958386868924428370065e-01
0,5.9413992364341383645154338e-01,8.3928273800725095021846300e-01
0,4.6644537806301578086731752e-01,5.8159468946926151655674175e-01
0,7.9240637593037410724150504e-01,9.7082526704441263198930301e-01
0,9.4609672194687810531377181e-01,9.8793118455469874916730078e-01
0,7.4462197190030365856472372e-01,8.3611703677940740764285010e-01
0,9.1013690306388994599728903e-01,8.2408613593734347801955664e-01
0,8.2426357029963859268661963e-01,8.7507211140395657622548242e-01
0,3.3917657537673751022566648e-01,4.1723625522723845060468761e-01
0,1.8112858612835758265191544e-01,6.2119182478948242742688990e-01
0,4.8723491785009231946901309e-01,9.2954997799590677320935583e-01
0,6.6834748051365466814388583e-01,9.8536854433890697091413813e-01
0,3.4309090006391795846241166e-01,9.5069327991671326305578305e-01
0,1.4644152213757341551847446e-01,7.2014419967788789733731392e-01
0,7.6393459897859994356394964e-01,9.2400047497906800941791516e-01
0,6.4007861646934360866367797e-01,9.9756267097068251903380087e-01
0,2.6560154830204624198941588e-01,9.6345732178672183199097390e-01
0,7.0998083002853129563902712e-01,9.5780970845708757188674554e-01
0,1.7026203607768758407914333e-01,8.6221696306431661049884951e-01
0,4.8603034162204350465685820e-02,7.0183660518561430396999867e-01
0,5.9963224241636725597714985e-01,2.1673597806047117941830038e-01
0,3.0710295778751528494865397e-01,7.7280683545632278264037041e-01
0,4.6289124659693997587694980e-01,9.5298733693523740573283476e-01
0,7.2504188924245038805338481e-02,9.7207363597200746596627141e-01
0,2.2207708591385832974651748e-01,9.6745901911739817791158202e-01
0,2.5423225372615099182382892e-01,9.8598116216958298085870638e-01
0,3.4335797568381060118625214e-01,9.3172041474947508987725087e-01
0,6.6769292824656700791052799e-01,9.1704021370429200654683655e-01
0,6.5632451856723816874250588e-01,9.9336707474831464903530787e-01
0,2.3155691771897335407004448e-01,5.2513392541988501704963710e-02
0,2.6084758693173726307179550e-01,8.9433991910231203092962460e-01
0,3.0393893701528673645384515e-01,9.2145967364372527441673810e-01
0,1.1703270496376072529187695e-01,8.4823444299622963171714218e-01
0,2.2171853787820414161124916e-01,8.3223339844135613141418162e-01
0,2.4590695927104455620337831e-01,4.3550866914331187729203521e-02
0,1.0225879937594783974930124e-01,9.9195486145297251390218207e-01
0,1.9861533780899387480189944e-02,6.3102319623061453590651126e-01
0,1.3231881141122947553867562e-02,8.0889004161778754742329056e-01
0,2.0389841813306808226968769e-01,1.0671050562319206456152187e-01
0,8.1542352904066506269487036e-01,8.1250727514282605756790190e-01
0,1.6712407580214039271027104e-01,9.2987208426107703651553038e-01
0,3.0905688839198269812769126e-01,9.3646823923566779868110643e-01
0,3.6974086600121736090329705e-01,8.3495514975415074943043692e-01
0,8.1835490367108953968511287e-01,9.8769237704609658123899862e-02
0,2.0915787247094752565601539e-01,2.1614410179744858453432244e-02
0,9.9824950683751312308089609e-01,7.1083036797346910162787026e-01
0,2.2500322950213735850866215e-01,7.6783204625788226138638493e-01
0,8.1582640112422821765392200e-01,8.7447254131165264023906047e-01
0,2.0407009954985566579921397e-01,9.4828469118278568839031095e-01
0,9.9690934815880782871033716e-01,9.9886288321216865071505708e-01
0,3.4695725687575063034273626e-01,1.4884043045686246031777955e-01
0,5.4475871477603210468743100e-01,8.3016944335855513692479235e-01
0,2.2610670528734488904376576e-01,7.5544594237321938123841392e-01
0,1.7781700800658795103004195e-01,2.5828899789677128850939880e-01
0,1.6963495909890746737858080e-01,1.6016050738496101502050806e-01
0,9.2394775441147258820961952e-01,9.8293476631915965846530980e-01
0,7.7426778628355974465335976e-01,8.3249693756725395843432125e-01
0,1.0088811375867745567802558e-01,8.7250125420941571086075328e-01
0,4.6364550936113646528724530e-01,7.3479721766551486794583070e-02
0,7.6365153709007249638318626e-01,7.7682245407807748449613428e-01
0,4.3684301963955451952870135e-01,9.6946334126703170852579206e-02
0,3.1067472606480128760608750e-02,6.9511045021266770760348663e-01
0,9.7361065484382725010448212e-01,4.1705023696145371303600768e-02
0,9.4792269202192180888033590e-01,5.6429213214416851229771055e-02
0,3.8259494937948446136033454e-01,2.5080715939211728482405306e-01
0,4.1733061007584049129093273e-01,7.6325558479102562081664018e-01
0,3.1504769526520703948335722e-02,2.0402801309780116412184725e-03
0,2.7067737153360438284721567e-01,6.2544267999854241679713596e-01
0,2.0772369461005624202698527e-01,6.3998280479369640261211316e-01
0,9.0185763612430067115433019e-02,9.9147157455629009170650079e-01
0,6.1379970656908544590635302e-01,9.0200958203576009353241716e-01
