Species Id, vx,vy
0,4.9039831279237938721493606e-01,-7.6055305192997624263995249e-01
0,3.6552476096302888297628897e-01,-1.0502750529481914565366196e+00
0,-5.0185566453712893153493724e-01,-1.0580739938002796662885885e+00
0,6.6252369039395214711518634e-02,-1.8904839707601990284047133e+00
0,2.1738121456414222221198429e-01,-1.6005043525836346596236126e+00
0,5.4864359072897439517646490e-01,-8.0434571834569346115983990e-01
0,-9.5694003036784069937681352e-01,-6.9625643221684507810920195e-01
0,-1.8509128637703620157139994e-01,-9.2350389752160111367373929e-01
0,-2.2345419921412049135689415e-01,-7.8736439904149102542163519e-01
0,2.8573236342902602613591512e-01,-1.0062799134496955844042532e+00
0,1.8484575487878791566487280e+00,-8.9026623892192979781157192e-01
0,5.4248370184317218356540025e-01,-8.4700616662396954748004418e-01
0,4.6968310489534881302375879e-01,-7.2526145426990207276674028e-01
0,-2.1773457300091032529110180e+00,-1.8527959755870710978342686e+00
0,-9.3891795091107788095996511e-01,-1.9144752205199395689305675e+00
0,1.4864594529664423294690323e+00,-1.2582378759963275260957971e+00
0,-1.8710596964293788602162749e+00,-9.0605303126957970061283731e-01
0,1.1545524092114484160376264e-01,-1.4802721409940702290697345e+00
0,1.0967304996460061072838243e+00,-1.0205813234899152597279226e+00
0,-6.9363388537935333211237321e-01,-1.6733211323435428496964050e+00
0,1.0150536586067602229377371e+00,-1.1484272122057452847343484e+00
0,-5.1900817309388014297866221e-01,-7.2253933255445468297750722e-01
0,-9.1254225589590109990467681e-01,-1.8372468418951906077296599e+00
0,1.0234848444726518668090876e-01,-1.8166330204044398577423181e+00
0,-2.7757189648026747708087214e-01,-3.7844541544073340144649364e-01
0,1.2802429991945150078436200e+00,-1.4007684000762301579356972e+00
0,2.6769000817958037430344120e+00,-6.1192210738240015999167554e-01
0,-1.3709112067288986569479903e+00,-1.1741314112181975293225378e+00
0,-1.0768855508679129329152602e+00,-1.2263644216882418902514473e+00
0,2.0339339263954170355930273e-01,-1.5633033559762319342212322e+00
0,-4.5383178385341921279305666e-01,-2.1098366251397644433041023e+00
0,1.3110126179670358176343470e-02,-1.9715448612849444387506992e+00
0,-8.4467239798034876585575148e-01,-3.6460185694187019489476143e-01
0,4.1771108609448648341100352e-01,-2.0895653182482152310228685e+00
0,-1.1693454217162503605553781e-01,-1.1364675363707106292565641e+00
0,1.6089350781270796986177629e+00,-1.2471170080639688571011447e+00
0,-8.0852392285055951770544880e-01,-2.2364949824221143082070284e+00
0,1.7093906321167054440657296e-01,-2.5624561227272795171927555e+00
0,1.8313118910695802554755574e-01,-1.8464490761620238057361121e+00
0,-7.1252264627591521684024656e-01,-2.3755067461641594661614363e+00
0,6.5247547129856031666861327e-01,-1.5371935858800034324644912e+00
0,-1.6943203010139532005418062e-02,-1.7832281555300590891732782e+00
0,-9.1201438266834311541231273e-01,-3.2963640925182086105493795e-02
0,1.0302164324263153594163356e-01,-1.5310589072075342365053530e+00
0,-1.3043900136206595247179152e-02,-1.9677302689402011992569896e+00
0,-1.7931551523236261003191316e-01,-7.3732275393187352019452874e-01
0,-6.9690026262072879426057170e-01,-1.6047259329399393701365284e-01
0,-5.9302091529297751293370311e-01,-2.1106936753680414220468720e+00
0,-8.4372223333900986386169052e-01,-2.0086976533292131286145832e+00
0,1.1762881485957550342646982e+00,-8.4461725087743300122156143e-02
0,7.7524012274189146864955546e-01,-1.1882582282370124371340125e+00
0,-1.3480374080612722575978069e+00,-7.2021401104409421556340476e-01
0,1.2167983824539889692317729e+00,-9.0546783868080693569169171e-01
0,2.0726207497147408620463693e-01,-6.4083350462381305501224915e-01
0,-4.7345913831117697467831817e-01,-2.9157058641101479823376508e-01
0,-5.8088981488113455853294909e-01,-4.4853250077238354664999065e-01
0,-2.7594959934632695697231952e-01,-1.1800568307891954322741412e+00
0,-2.4392257299535102799126207e-01,-9.1360121352931589200352391e-01
0,1.1934897664343864231994985e+00,-2.1649724603303592829206536e+00
0,-1.9711761950844290947060244e+00,-6.4862690236425168954781384e-01
0,-7.8059122276187198341546036e-01,-2.1836392686257664053073313e+00
0,-1.1976818599391896302819305e+00,-2.5082979561922391642525554e-01
0,1.3477256353618061179844290e-01,-2.4083232776769492033963616e+00
0,-1.7307919492801109306867602e+00,-1.1103914804678605143806180e+00
0,8.3173444268459195694020991e-01,-1.7273059553124228138187846e+00
0,7.2564517903601610804287247e-01,-7.7719670230414383826911262e-01
0,-2.1299056590607429173545029e-01,-1.6619295185246250046162686e+00
0,4.6758069015702818926882856e-01,-5.7337257365419302956865977e-01
0,1.3314691579978805702211275e+00,-1.1939220218593851186028587e+00
0,-5.4419986693911315267513373e-01,-9.0256273625416771899665491e-01
0,-1.9139693957558072678892813e+00,-2.7841929599821579888185852e-01
0,-2.7813346880063710697683632e-01,-1.1815372151326586358521809e+00
0,3.6774201133234457605780676e-01,-1.8106479686857688271572897e+00
0,2.0118975873051112013278896e-01,-5.9337594013676031590165394e-01
0,5.6929920033115344324414764e-01,-1.5018966888052545094467405e+00
0,-7.6425498646910527966724658e-01,-1.4969734804987950838039978e+00
0,-2.5035600124327717086458733e-01,-1.2238576559796239262567497e+00
0,1.1524384930582163288903530e+00,-1.1054815746185535640933040e+00
0,8.2625110118077035870065572e-02,-1.2351033821080137364845086e-01
0,-8.9600802265172929672587543e-01,-5.9926067084156031672392828e-01
0,-1.5877294580654308098210947e-01,-6.3616138277948997004074272e-01
0,8.4850908830466309495932364e-01,-1.3015222584098777858230278e+00
0,1.7471996334428385733161804e+00,-1.5492230775563586853138531e+00
0,-2.6247543318189942018747729e-01,-7.5337033131495934057397790e-01
0,-7.6447653486771816044864636e-01,-9.6669929854784550360413675e-02
0,1.0213061353749652848676988e+00,-5.0192951830117182865365066e-01
0,-5.5898050216430372749698563e-01,-1.6450043687450859319909569e+00
0,3.2313468895520791601683186e-01,-1.0050113430750964305104844e+00
0,7.9877661979519565260687841e-01,-5.4829355989901518153573079e-01
0,2.3761741570303520632023719e+00,-1.6337548861660544652352201e+00
0,2.9247818378912282533121925e-01,-8.5383386046474185615551278e-01
0,-3.3567291296490886498560258e-01,-5.1194503043786132590042826e-01
0,-2.2628425749830749502677918e+00,-3.4769143042956629496842424e-01
0,2.6421636318934288434334690e-01,-5.5622959438517383112809966e-01
0,-3.6737706749087006841136827e-01,-1.1757691658889133368148805e+00
0,-9.1013927145966477816330098e-01,-3.6515730508069105253454723e-01
0,9.5334199757887438941850178e-01,-2.0223333112419883406118970e+00
0,-7.1024778998589699341437154e-01,-1.6938759871956137192938741e+00
0,-8.2324430116856783801182473e-01,-2.8133328701971662688663400e+00
0,3.0229082146065117120414811e-01,-6.2511812260971233445872031e-01
0,1.1607369490564660718945333e+00,-7.2001536126187515307606191e-01
0,1.0069580090588486215308350e-02,-1.5444395947407416613827991e+00
0,2.5378524825358163286015412e-02,-5.3955724618479794507663883e-01
0,-1.9172926046265126309720017e+00,-1.5230642274680983305756854e+00
0,6.4258067943404773014748343e-01,-1.0411808661054655633648736e+00
0,1.3287375009997475228118446e+00,-2.1819087586105501141986451e-01
0,3.1718214188086019111878500e-01,-1.4721687958145341923454907e+00
0,-3.7253777960649642198021070e-01,-1.7401138391956862960796570e+00
0,-1.6768965190562599154588952e+00,-2.9921313193261136476053252e+00
0,-5.1753750941177867339604290e-01,-1.3694256327455269772741531e+00
0,3.9691083382843950211338324e-01,-9.2111048283712837481118640e-01
0,-4.7541877665039922185030719e-01,-1.2243860036746927466566603e+00
0,1.7815900541079998653515304e+00,-1.1733393700740091247780583e+00
0,2.1990275669703110428265802e-01,-1.1821228626206778944407461e+00
0,1.2607264047915194282722950e+00,-1.0884436282815299623649707e+00
0,6.9174164626759371277131550e-01,-3.1214533024136783545543494e+00
0,8.9008259188612559587028272e-01,-7.7610495028493675651048989e-01
0,1.2789135356516467822984850e-01,-1.5033450839148776445597377e+00
0,-2.0056015321809494977856048e+00,-2.4433417760783093797272159e+00
0,-4.8812704798669309669278960e-01,-1.0968996020242596234339771e+00
0,-8.5597736341191643649750631e-01,-2.0136178570868228376866682e+00
0,-3.9486777767426967100661273e-01,-1.7781213891703226970264495e+00
0,-6.0181463476711882787384411e-01,-1.6376727198013214525929016e+00
0,6.2596230494811100353302891e-01,-1.4832583863081068020761677e+00
0,4.8855831440473457272233304e-01,-6.8053020468898117734113384e-01
0,-6.1817604870962750140961361e-01,-6.3162912680276961374659095e-01
0,2.8218553780401500752361699e-01,-1.6500588555641282351160726e+00
0,-6.5879104448782532799100409e-01,-1.4983485071323250359398571e+00
0,7.0546949832066652152917641e-01,-1.3138132116388989700794809e+00
0,-1.5311840671799521462759230e+00,-5.0968486058359652179916566e-01
0,-5.4038759281455328586929454e-01,-6.3890872955557054257980099e-01
0,9.8328673994809642766590230e-02,-6.4231794722274870856892903e-01
0,5.5759996397802580325731014e-01,-1.2496919627859004453540592e+00
0,-3.2013144671659216067283182e-01,-9.1477443988639417504771245e-01
0,-7.4233667827285199081188694e-01,-1.1438898570267408416611943e+00
0,4.7556231517316782664295260e-01,-2.8216998174410756750063456e-01
0,3.7745092827844506366830046e-01,-8.2389184843754104115021164e-01
0,-7.3792980107679051471336606e-01,-5.0917572210231254459245065e-01
0,2.9094011613462950061048673e-01,-8.8264621534989640139201583e-01
0,-1.0079083758475646526164837e+00,-6.0309187605554404054686302e-01
0,8.2000772935156596155081843e-01,-8.2430419123656328839189200e-01
0,7.1717968521088382161110530e-01,-4.7849550444593791365122115e-01
0,2.3908777640277845133454093e-01,-1.1673210255631323306602098e+00
0,2.5363711581918024773329989e-01,-1.4614652274994338609914735e-01
0,6.9517141672123639040137277e-01,-2.3236267668739905012387226e+00
0,-3.3255353637152457180192755e-01,-8.3049213099715935015865398e-01
0,-4.0983270747213146334431144e-01,-8.9490660732411342337400129e-01
0,5.6159291033262270786963199e-01,-1.8777300075887406460850571e+00
0,-5.2618422954229460142272501e-01,-7.2156602177673256903744914e-01
0,-4.5767971067131069107247754e-01,-1.1365281181511874830647457e+00
0,3.0861557412423368251808142e-01,-6.8513268115267533797663191e-02
0,1.8075634483559510634620437e+00,-5.9762907865553616115761315e-01
0,-6.1808165291417127562567657e-01,-3.9283370844358295181919516e-01
0,1.7193917860990279300459349e-01,-9.6389403846861254621103399e-01
0,-1.0398750242657843478877311e-01,-6.6691797380012962648265784e-02
0,1.3929978877779050083773882e+00,-6.2368631354246240050542838e-01
0,-4.0999409655501883875672320e-01,-7.5411189399316336245959747e-01
0,-8.8143454067015969410903153e-01,-1.3687780883275046939218100e+00
0,5.9843204659678750356732735e-01,-3.5142993819622664330992734e-01
0,1.1719838352356288790900862e+00,-6.0581010940367752137802881e-01
0,1.3268585187310108497449335e-01,-1.7064388590050678651266480e+00
0,7.4002167853780276285391437e-01,-3.0734503771247689840606654e+00
0,-7.4108507923950039941729528e-01,-1.9824895885782387594531428e+00
0,-1.0098419406565808387199468e+00,-5.5701871235732458575995452e-01
0,-1.6592829016084635895822430e+00,-1.7417630586687499194553652e-01
0,-6.0316578120036812293847106e-01,-1.1464046077344349772175747e+00
0,2.7368098516938094144634874e-01,-9.5821784765509954162610029e-02
0,-1.5636249098563694825969606e+00,-7.0708817162811343770556505e-01
0,-6.6524096178997360606643952e-01,-4.6911085275233299629604744e-01
0,1.1343073023127030196643972e-01,-2.9971909647641559182318360e-01
0,2.0572818783059441116733979e+00,-1.2689571893401743185592068e+00
0,-2.4768281815418338731582537e-01,-1.4186950016760970783025186e+00
0,3.3064638565758547317230409e-01,-1.5750761659139689285780150e+00
0,1.5964081679561459292671088e-01,-5.0902462702749595724327492e-01
0,-4.1137962828638752199594819e-01,-2.5776671758671043654942423e-03
0,-5.4513461979292510140027161e-01,-1.0042087924371756457730953e+00
0,-4.0715677630849328449968993e-01,-1.1995402297440282968210568e+00
0,7.3169777694424054104160859e-01,-6.6521965380066871986741717e-01
0,-4.4925055443953498812703629e-01,-1.8055238697034479145031582e+00
0,2.7264528323477055238299727e-01,-3.1715024059858287763802309e-01
0,9.8481274630453585761102886e-02,-2.5668647243217677100801666e+00
0,-1.6186736155993495245297709e+00,-1.5010163254560418000238542e+00
0,-4.1881137374275800855372154e-01,-5.3970511357497708004871129e-01
0,-3.7128440179768668061299763e-01,-6.7719967427867266973606775e-01
0,-5.2392746736969553200680139e-01,-2.6092207707558561224914229e+00
0,6.2809835611845188374502413e-01,-8.0239360955320804258406042e-01
0,8.1793153417021025042288329e-01,-2.3863558697765652194533459e-01
0,5.7211840536989788663646550e-01,-1.2121357623387847279872176e+00
0,4.9491623611964891127357191e-01,-8.5447629093780519404788265e-01
0,-2.0554405650256466486780482e+00,-2.0637070359046290057847273e+00
0,-1.6793291640443557266593189e+00,-1.3232470249346937052337125e+00
0,-1.9956471120753314085760621e+00,-3.0676431138393017716836653e-01
0,1.5534399724527054864608999e+00,-4.8387960957075404344607250e-01
0,-9.7671458295605984023524115e-01,-2.0822723317939106912888292e+00
0,1.8767923578131056050466441e+00,-1.5107376413252049385249620e-01
0,8.2792679155269638391345666e-02,-7.4051214438458923261521250e-01
0,4.1028276547091246939658049e-01,-3.2004877699179923311589846e-01
0,-1.5163002590145269188326438e-01,-1.2222963351188640412914310e+00
0,-1.6159579447014513764457888e+00,-1.1446453067545305781749221e+00
0,3.2384773600446015162646063e-01,-1.1963685954216269902161685e+00
0,8.1559122147110685308035727e-01,-1.0776783603104178599352281e+00
0,-2.5377524221409242244362758e-01,-1.0039356672058119546164789e-01
0,2.3698143952146202839692535e-01,-1.1253605212681190295143097e+00
0,-1.0980130451767040611343873e+00,-1.6052590501180561410876635e+00
0,5.7530602941873920652682273e-01,-1.5260917354977627802270490e+00
0,1.4832755010353166902348221e+00,-6.1693666429032556486333760e-01
0,4.8112235041242923383464358e-01,-1.6403626653501985899197280e+00
0,-3.6478952807030717853109536e-01,-1.4628954379956080611435709e+00
0,1.7710105802950706910259271e-01,-5.3087828274284620810874458e-01
0,-1.5583426927942420348038866e-01,-5.3552632697079760593084075e-01
0,1.0563842042544802080072941e-01,-1.7045953837741221192914054e+00
0,-2.9521606843862696623048691e-01,-2.2070488722133407843983832e-01
0,1.1204967690744767061516995e+00,-1.6602550182824913349577400e+00
0,-1.5529011584684011548773697e+00,-1.3451661138512209792139629e+00
0,-6.0768998601649792945522677e-01,-9.4993377587588301302901073e-01
0,3.8589259354095034604270609e-01,-2.1571407218944673722660355e+00
0,-1.0013806376271350284667960e+00,-1.7143531650590855264226775e+00
0,5.6336062075922277436745844e-01,-5.7410500882693538127199417e-01
0,-2.0331792529007855496736568e-01,-9.2035380905215702362909269e-01
0,2.4844550735739578950500572e-01,-1.7813821290608742309302670e+00
0,2.1891235570103066976344053e+00,-1.9804872102680153300724442e+00
0,-1.0565494902444794167450937e+00,-1.0211766090572473864028780e+00
0,-5.3979795276065867248860286e-01,-1.5984036423493654943683850e+00
0,-1.0411256454570805285442248e-01,-1.2054662736588068749910008e+00
0,-3.9581464427490614665927637e-01,-2.4551890399534515019297487e+00
0,5.6224256637491287769137216e-01,-9.4991309350315755732907519e-01
0,6.4642731667343511503531772e-01,-3.0462937707355031147216096e-01
0,4.9153272449419976863893567e-01,-8.4824228295874160021838861e-01
0,1.0806188826989499007780182e-01,-3.4183017069651777664063275e-01
0,-6.1940241533582274247038413e-01,-1.9988276065234233946910081e+00
0,5.4485014331047487701198406e-01,-9.5371284055122751421862404e-01
0,9.6748678259157150360891819e-01,-9.7303643390995175899149672e-01
0,1.2534693846356632640492990e+00,-2.6966890999127690609071806e-01
0,1.4554673516550256651136408e-01,-9.0133638783042258069144737e-01
0,5.5074389114975974557353311e-01,-1.3124512463995336997157892e+00
0,3.4537804836254043516774459e-01,-1.1290457857441953404276092e+00
0,-1.6809094035985188142490188e+00,-2.3664071341504999690386057e-01
0,-2.7643220224660383088632898e+00,-7.3466765699465963468384189e-01
0,2.5406039743840769240534883e-01,-1.7108593848752604582585946e+00
0,-5.3467392069890373740292944e-01,-1.9802662721901387321565835e+00
0,-2.0433239426736888866287245e+00,-4.8691553981144342078124509e-01
0,-5.8217329720260413417065593e-01,-1.7870253869348045050458040e+00
0,-2.9167514806273264760250186e-01,-1.1791294200684181436855624e+00
0,2.6744231812616692245399008e-01,-2.1616336876936266264692676e+00
0,3.6603693898051853361508279e-01,-1.8715873813133403480435391e+00
0,4.1345716687552336310318424e-01,-1.4022738260211791150311456e+00
0,-4.7150527939016317890974506e-01,-1.3331346690579650715591242e+00
0,-1.9134024501023338959981857e-01,-1.0941245647593471623792993e+00
0,1.5536386707910361248963227e+00,-7.5869696106110029454328014e-01
0,6.1050063961367817544356740e-01,-1.5273512604229082523232819e+00
0,1.0106369237406964689540700e+00,-9.7433400972940487072548876e-01
0,1.2496649082569244448848167e+00,-2.7249808027492377071610008e+00
0,-7.1517899675137039383621129e-02,-3.4250992876295444089507214e-01
0,1.8689325822067101579015969e-02,-1.8331704821957515161301444e+00
0,1.1582534742949848194371043e+00,-1.5511267126493875068149464e+00
0,1.1727960015145348915410750e+00,-1.1843611099260289987178396e-01
0,-2.3952428545126905334861078e-01,-1.8756309259713734860497425e+00
0,5.3537035695335077889467357e-02,-1.9173221795318964311150012e+00
0,3.2619536916217650723837096e-01,-7.7126915070444002076044399e-02
0,-1.3523946264370643177699094e+00,-1.7544663903314883235395882e-01
0,-4.3348243313632983664263065e-01,1.6033633730299640118843740e-01
0,2.4157937807075264835532380e+00,-4.1916218925419301832846486e-01
0,9.0590577461348786858508220e-01,-1.4646717297871481022752960e-01
0,-7.9321316958328580426496046e-01,2.7832249491615557168699979e-02
0,8.1820488355435494476353142e-01,-7.1031160154289374464298135e-01
0,4.3529073733638384835487045e-01,-5.2077968421488540773367504e-01
0,6.0400223189920165811628294e-02,-1.9258219922681008018372495e-01
0,-3.6583840320009297641945523e-01,-4.6828532291063174053391549e-01
0,1.9267353723546959409773649e-02,-6.1041600842025400819323977e-01
0,1.0090740731382774608704267e+00,-2.7508080053436301248837026e-01
0,1.2563986900633206111876916e-01,-1.4395319597847844317328736e-01
0,6.1139692670388134931869217e-01,-9.5292868254447615772306790e-01
0,-1.4078121127538838486259465e+00,-4.6814666910137847644080011e-01
0,3.1284560852688658716402870e-01,4.9396925388316081928508083e-02
0,1.5713048111501950465651589e+00,-3.4470604534120474760072739e-01
0,-2.1396162258845954906583131e-02,-1.6487391265911921500730841e-02
0,1.1009455517259605361601871e+00,-4.1501520674405045774335576e-02
0,5.9812391794086838814337170e-01,-6.8363747408925079618313703e-01
0,-1.8009775653690529573225376e-01,-7.8688247753916351623360015e-01
0,-1.6999682191681791953996594e-01,-1.5659849001459147377346426e-01
0,-3.0100881863132711302455391e-01,-5.3912493134286421092582486e-01
0,-3.4122754488388545857091572e-01,-8.0778297441999602490625421e-01
0,4.0382556745801606590262622e-01,1.7543354746735828619819131e-01
0,-2.0999549024950617259754893e-01,-1.1040589198698957940081300e-01
0,1.6276644658163816337115293e-01,-1.9667444347609841504009864e-01
0,-1.9246119008638296055124783e+00,-4.9520604434300385943146239e-01
0,-7.6886528340520865487661695e-01,-7.9676196225366335834650044e-01
0,4.8653768191284402222507310e-01,-1.1999541122991863595359519e-01
0,-1.2821817479604931122594280e+00,-4.9362462343163560074543739e-01
0,-2.3269414543150226948320380e-01,-8.8877753557198457823318449e-01
0,2.9997041987860723066816604e-01,-4.9245952443147533728051712e-01
0,2.2473777911657757400121227e+00,-3.8730416478406776148446511e-01
0,-2.3207470758185992920630270e+00,-5.1960801481254703659828920e-02
0,-7.7065218429615134354548900e-01,-2.0007436101352282786791648e-01
0,-4.6816788257415498097913087e-01,-4.1011085361264953963456037e-01
0,-1.7505961470714381800206638e+00,-1.5929256994737415187302076e+00
0,-8.7790587760636062952812608e-01,-7.0613492671039279624523033e-01
0,2.4139865256236654467159042e+00,-8.9888253202953938281183355e-01
0,1.0354262676258094710846080e+00,-6.8670835230304860807848399e-01
0,-2.4707502547216568800081404e+00,-1.3994675241271685717237006e+00
0,1.4643693983006855763306930e-01,-1.3493838073384145648248023e-01
0,1.8917403897449529548424607e+00,-1.0748925166363108019140782e+00
0,1.0570797735214156887195713e+00,-1.0265480119161982663911203e+00
0,7.0908545672731126963128645e-01,-5.0367914849531647547564717e-01
0,-1.5647451129548619608300442e+00,-3.6699050399768745611694953e-01
0,8.8465489341400393996650564e-01,-1.0285125593835990898128330e+00
0,-4.7592520213854905275496776e-01,-5.1265991866547422350919305e-01
0,-2.6817631533291164114274352e-01,-8.2860947364132764292321554e-01
0,-7.2736460999927032844425412e-01,-2.0491601246747503939360513e-01
0,-8.6993864301333967414819881e-01,-4.1783531223416037203577389e-01
0,5.3260018416893473158779670e-01,-5.4211839584558907390032800e-01
0,-8.9982913973522293815676676e-01,-2.4617703548942937441523782e-01
0,-8.1931626611508401314409866e-01,-3.4412594693492115638377982e-01
0,-7.6367241331691759764765948e-01,-6.6874438980988315517350884e-01
0,2.9407533340620989337210744e-01,-2.4102168653574773671266485e-01
0,9.0137449619013731982875015e-01,-1.4340923831571905644466369e+00
0,-1.5819858353853311072612087e-01,-6.3400376342119191264146139e-01
0,2.5389099972324741250062630e-01,-1.4624528530497533651555386e+00
0,-6.0600025201590940193696611e-02,-1.0107483485804431566634776e+00
0,6.6653492197668126606480143e-02,-1.4045812386375704505780959e+00
0,-7.5391080539830790385735781e-01,-8.2943420680142909695575781e-01
0,1.1602854001761955249349967e+00,-2.1616253107743099715065682e-01
0,-8.4908867307121460576979644e-01,-4.7583205459116795221774510e-01
0,-6.4159405301685268341316259e-01,-7.6651968543414605861130440e-01
0,9.1904435869398692915410720e-01,1.5039971794145290395761094e-02
0,-1.0995269521466362050432508e+00,-3.2691503094805218765372956e-01
0,8.6185090235320269136387594e-02,-1.9189681519501033957197933e-01
0,5.3049661636641409767634059e-01,-4.5131755581076049566036090e-01
0,5.1165956001655987783749424e-01,-1.0294871809056318490149806e+00
0,6.9180085915269351470868742e-01,-6.6262778503349373249164955e-01
0,-1.7411682683341740407456655e+00,-1.0220346282065499998736868e+00
0,-4.5295735458995578515128955e-01,-3.6645644126394461004281311e-01
0,-4.3410608847341064508995601e-01,-4.0150892279358585401638493e-01
0,8.5934058836528115499220348e-01,-6.1525418007542520548724951e-01
0,2.7302342285600517124422026e-01,-1.8397162682506493780465462e+00
0,6.2477911230868143910299750e-01,-8.1874668700073238714054469e-01
0,2.3936822063480649447342330e+00,-9.2746811904879633559062313e-01
0,1.0094401871843078355439616e-01,-1.8694489967266081364982711e-02
0,2.3213010846484998239702691e+00,-3.3877526138820124312900361e-01
0,-6.5816424968745290691174432e-01,-7.7565096578662950932425701e-02
0,-1.4076774817645338888638662e+00,-1.0822541553311180173579942e+00
0,1.0355820158232282857113660e+00,-1.5806376853661763259850659e-01
0,-2.0522890722722017531332028e-01,5.9533900712986920211733377e-03
0,3.8931851488090241097950184e-01,-1.0350907918057909995468435e+00
0,1.2896283879879117950650880e+00,-5.9752365457931866377094821e-01
0,-5.5331796530262788991194611e-01,-1.3300926140175595158154920e-01
0,1.8835582884089877020450388e-01,-7.3243696796488155786875041e-01
0,1.0803897055404594329530710e+00,-2.7931324340204577438839806e-01
0,-1.0717061380470009890331085e+00,-2.4935882092937449172609377e+00
0,-6.5852931920340540550284913e-01,-1.3718614898454717376807821e-02
0,1.4105290942955777122591599e+00,-2.6550308365740304950008976e-01
0,5.5715467127581930206758898e-01,-1.6479384206762326403605812e-01
0,1.3297836060491265985916698e+00,5.3189110119325255787714468e-02
0,-2.8028652345117927024986670e-01,-6.5589805101884390836630701e-02
0,-1.2351697701794506212280567e+00,-1.5415985497738775578113746e+00
0,-4.2346586317969153734352972e-01,-2.4409167280826271628768609e-01
0,1.0842894959918991659719723e+00,-5.8532415036018226039971069e-01
0,2.0918666890325763318969621e+00,7.9288102251869774228509868e-02
0,3.8736427103176124253636203e-01,3.2230243369423261512451973e-02
0,3.2852609151063760783983980e-01,-1.5378810682865249326312096e+00
0,-1.3264759521578095569083189e+00,-1.4848885176811377206718134e+00
0,-3.0233952045079570680741199e-01,-3.8380382243835764466410865e-01
0,-7.2823451340751721438948607e-01,-6.8171536386544995256286938e-01
0,9.9731713607929983744782021e-01,-1.5801551091603256438133940e+00
0,-7.5200854834107377921981197e-01,-1.5432691953262756001663547e-01
0,5.4698989139261278147330358e-01,-6.9718643618560571795228498e-01
0,-2.8364503518922536962065806e+00,-7.6816609871250907115580731e-01
0,1.6752459301297584204348823e+00,5.7369277750709435359510735e-02
0,-2.7367777338135790277107162e-01,-2.6724905930118125763073067e-01
0,-2.4110189775445025617273132e+00,-9.4597334447072511931509098e-01
0,2.6128096907584408281621791e-01,-6.8594587940165130390823833e-01
0,-9.3718693208858305787600784e-01,-5.1692617477218705257513420e-01
0,-5.3713209220049562553356282e-01,8.3416569024874931415070023e-02
0,1.2655715144125347926262748e+00,-1.4673813050244810529676442e-01
0,8.1301906796909462205036334e-01,-5.8518477135753099727111248e-01
0,-1.7568813970282448622128868e+00,-1.2873183282364775159578585e+00
0,1.4811802695486036007821440e+00,2.0619297577183082204044240e-01
0,-1.2914424327475300113832191e+00,-2.2439224100188370769615176e+00
0,2.9579845669601301239026725e-01,1.3893192005199261895853624e-01
0,1.1280260684064729037601182e+00,-7.1497871587652817026992125e-01
0,-1.3175635906463663005183662e+00,-1.0953308352744328679762020e+00
0,-2.2667678564153342923859213e-01,-5.0188530407705445046673276e-01
0,1.0400002410367376048938581e-01,-8.5007057393187301919112997e-01
0,-1.8028985031270290395610800e+00,6.7208529378756376448933452e-02
0,-4.2774639291606370017362337e-01,-6.4804615784622043861418206e-01
0,-7.7027673216010383860918864e-01,-8.9290938491082660899422763e-01
0,-7.8514601765264613320027820e-01,-4.9151533914685008319622739e-01
0,-1.6380035676132842503704978e+00,-2.0654489491471977880010513e-01
0,-4.5697991514302850613038487e-02,-4.1587834103328202850491380e-01
0,6.7341176384398104826090048e-01,-1.8598822687523131058640047e+00
0,2.7284559957608545133211919e-01,-2.3662874460743543725271820e-01
0,2.3948467981240970092748910e-01,-2.0387323219911168692419778e-01
0,2.1742791096020344099315480e+00,-8.2268877816889418586043803e-01
0,1.7151604787150603881329403e-01,-1.2391610660102307939212096e+00
0,-4.3461228307464072617705142e-01,3.2203067733319712395712031e-02
0,2.0451416635413921518704683e+00,-3.5865467323998168058807323e-01
0,-8.5117624059375407430394489e-01,-1.6311145928679540162420381e+00
0,5.2303847447041329488115480e-01,-3.1940801418290853952441921e-01
0,-5.1366563703370526905445104e-01,-6.9889880703269058326299046e-01
0,-1.2240542915390200118253006e+00,-8.1258848131187499941319174e-01
0,9.1800091525630178601602438e-01,-9.1662585629324344616009057e-01
0,-1.9756673039125050017617014e+00,-1.5293617549162670243845241e+00
0,3.2770278545142522697020127e-01,2.9816639842817349581594044e-02
0,-6.6677349622708648180235969e-01,-1.9281688551984943469363998e-01
0,1.3294235529727384953480041e-03,-1.2395906046501719011132536e+00
0,1.1053245763944066215600515e+00,-1.0817625350466253397740957e-01
0,4.4323063385046407303136107e-01,-4.3034153269837605026992833e-01
0,9.9273681612168290788744685e-02,-8.4361590385955320670063884e-01
0,2.9265303731833863798428297e-01,-6.5222421305501998567422106e-01
0,-5.7279753269470079501957116e-01,-8.9668174771346031981522628e-02
0,3.4253924253216591622184239e-02,-3.7663636745797901550503184e-01
0,1.1741059407719229845667996e+00,-1.2957897430160332241655397e+00
0,-1.6604572368197761944585977e-01,-5.2882593519122722547365356e-02
0,2.2037873033857096061183256e+00,-1.0308154864164227326739365e+00
0,-6.9380785315518989087024693e-01,-1.2013738640462243711937163e+00
0,1.0715822150067570994735888e+00,-1.2960879633000841337775455e+00
0,-2.1959780813399651933082168e+00,-1.0634451526934380893862908e+00
0,2.2714249840707614325197028e+00,-9.9303488284098595517690455e-01
0,5.0949138102959545815195952e-01,-3.5496722926981894019604624e-01
0,2.1975364344797276849874379e+00,-1.1435257724970642190243098e+00
0,3.7539932782002521927111616e-01,-2.8664500459504105300823085e-01
0,2.1873747772673541867050062e+00,-8.3562031115140655845863193e-01
0,-1.2251604604781998197893245e+00,-2.1005757221665954936895560e-01
0,6.1431645821331737344905832e-01,-4.2613320545958122131935397e-02
0,1.5586442799047850460425479e+00,-1.3166480795938673153955278e-01
0,5.9280527161679030800911505e-01,-7.9249519035436533087590760e-01
0,-1.6575119619681604188343726e+00,-4.9560800042238850604547906e-01
0,-1.6013529749001238489114485e+00,1.8740083839183813152473590e-01
0,-1.5663658109100149218306797e+00,-1.2371994812281741360493470e+00
0,4.7273046957106146237492794e-01,1.1373490749701442581454103e-01
0,2.6114274996778147341913723e-01,-1.0897272805365456616044639e+00
0,-2.1495002427393088417773015e+00,-8.3394105335528001532452436e-01
0,9.6281197512671534699535414e-01,5.8388655698094149570920308e-02
0,1.0796502838839869831133456e+00,-3.2131113756907936362949840e-01
0,1.2878066686676525876009691e+00,-3.3512344592783416263870322e-01
0,-1.3159855836914063909048878e-02,6.4834455549865444012880289e-02
0,1.6315723042889229699170528e+00,1.7813636624302481292758671e-01
0,-4.0403766248429284768661773e-01,-1.2550724005145119654969221e+00
0,-1.2178560859467398025390850e-02,-7.8320785774911805265929843e-01
0,8.7210063841934734596428314e-02,-1.6358128465218433333916437e+00
0,8.4430710202911740669406981e-01,-6.8289083488250135189900902e-01
0,-6.3940176058436426487219251e-01,-5.1074627618048529242855693e-01
0,-6.0493096958067704704831158e-01,-3.7890822091687759165523630e-01
0,-4.5026894043697684999472131e-01,-2.6814282045201487392205308e-01
0,-1.3793818508338577810690140e+00,-5.8063683810477562108331995e-01
0,1.1813013146147099963201299e-01,-8.3404792413126704886394691e-02
0,-1.7902516658034933749732431e-01,-7.5793264042499952637399474e-01
0,-3.4547077921205032735585405e-01,-6.1175945585797131265337612e-01
0,2.0984917866703853839283056e+00,-1.2644448667678553910320716e-01
0,1.0941450937604282334092431e+00,-9.0461116726216728167742076e-01
0,4.7165682900675603983486894e-01,-8.2713591125132290837740356e-01
0,-9.2846716635572923426167335e-01,-6.6282698434684650390380511e-01
0,-6.8150564781875933029198222e-01,-8.8014949452282476016762303e-01
0,5.0757649859185460794464007e-01,3.1941822783982831701621308e-01
0,3.6869993726667643629824056e-01,-5.1536383358714465963146267e-02
0,-5.9332864315620204020973461e-01,1.1544766603123757242599368e-02
0,2.3314756047152121465337871e-01,-8.0323646440012219649418057e-02
0,-2.0279357058996480556167796e-01,-1.0617699145364301038796384e-01
0,1.0733183492341273890247066e+00,-2.5569026193073103314645778e+00
0,-1.0988479933546169142744020e+00,-3.7879847467719296449928379e-01
0,-5.2930675152887096679421575e-01,-2.6227234784189534799736521e-02
0,-8.7048035399423528968299024e-01,-6.7445253299005614167072054e-01
0,-1.4103514386247659739836990e+00,7.2390071233368935565977154e-02
0,-3.1942806397618439540053714e-01,-6.5669697631592760522778462e-01
0,2.0778428131591270000555483e-01,-6.0148767169302352897375386e-01
0,-7.2706604615545256109498951e-01,-3.2082998673083584773024768e-01
0,-2.4898099552382785271120724e-01,-1.3611829659965730687787300e+00
0,7.5683448296835142965477417e-01,-1.3334610807483793237793179e-01
0,2.3484787872928221119650516e+00,1.2717379478605417286729562e-01
0,-1.4967837106172261485426134e+00,-3.8065174228990605875821984e-01
0,1.0240660552020008911000559e+00,-1.7975410762687915600110955e+00
0,-6.3776137254125830899909033e-01,3.1671700567889482513805888e-02
0,-6.2359539380146350451283865e-02,1.2678349880190842302596366e-01
0,-5.0006851004838474838987139e-02,-5.3880698188989639696444556e-01
0,-3.0859562501488961849815951e+00,-3.8726711091900578587399195e-01
0,4.2579738581529164020977873e-01,-3.2196576988028358101701087e-02
0,2.4310386325448987143715840e+00,-9.5971493048093214905946979e-02
0,-9.8099624709332255978466719e-02,-1.0332174947362506856052278e+00
0,8.4053133387507938945049091e-01,-1.5050190328159429586918350e-01
0,-1.2426993229198597390450232e+00,-2.3265350045581523197313345e+00
0,-8.0916812109805258401706851e-01,-8.6604550447901385012983155e-02
0,4.0494009410868631038127319e-01,-5.9999745023215811379202478e-01
0,-2.2916803618028982469922994e+00,-4.2925419084729032892511214e-01
0,1.1252283389242492273041307e+00,-5.0880137348469878233458985e-01
0,-1.9969815322303250404445407e+00,-6.5224526166520280234806251e-01
0,-9.8056235482939202441343696e-01,5.9513866569727147393109590e-01
0,-3.6906068453682738805810004e-01,-1.5784310280741276066862611e-01
0,-3.3720294263128491873970916e-01,5.3232135509967370978756662e-01
0,1.5612534202611980660435620e+00,-5.3495499056959139316802521e-01
0,-1.6285917753821741449371530e+00,-3.3449550506309588815412326e-01
0,-8.7211595601763103324799431e-01,3.2258033367272020974780844e-01
0,1.7226053220715973335330773e+00,2.7106184223726642601448589e-01
0,1.4510245820581211262378929e+00,-3.6978583584715907228712695e-01
0,-2.3805249929684046961142485e+00,-1.0853555061244160029332306e+00
0,1.3280513470530005970537957e-01,1.6760746539448811986972032e-01
0,9.4245306317169430521119011e-01,-1.9932230544847379105632967e-01
0,-1.0084017494328798569824812e+00,-1.6802223954477180090094635e-01
0,-9.5335459265411559570679856e-01,-1.1845419369020571132011810e-01
0,1.2623157807708023092629901e+00,5.2660289640207191830256761e-01
0,-4.4829251056441483946901627e-02,2.8910050592899017019021812e-01
0,3.4034854320159191320982472e-01,2.2707537261272059403438561e-01
0,-1.1914551634407739566512419e+00,1.0560605461538030702683955e-02
0,1.7861533709973731465225910e+00,3.7943558879699912367300385e-02
0,-9.2077689558724284957236250e-01,-2.8788104970666994475436695e-01
0,1.6506938255674763471603228e+00,-1.5589855083298853610784818e-01
0,-1.1510762392852211810634344e+00,1.8034155846418975510658811e-01
0,-9.3533574161030164084706939e-01,-3.9947086329550129946142079e-02
0,1.7692245794735463881863780e+00,1.0455518932438678803009680e-02
0,-3.4151889223779180460027760e-01,6.9117788133742885658961086e-01
0,2.1812966042000625499497346e-01,1.6569916155742370200698588e-01
0,-1.0657464233198552516768132e+00,2.4187902966893379264057273e-01
0,-8.9494614401982586215922311e-01,3.4413508250224655871107871e-01
0,2.2614594051699392629473095e+00,-7.8171069272475635081320888e-01
0,6.6797976772818429269662488e-03,2.6043679966220889543393469e-01
0,-1.0529871466057252327175320e+00,-3.1900538425711832957176739e-02
0,1.2868504553969888348774475e+00,1.5113548589279812706109851e-01
0,9.7044977827342573939439774e-02,-2.5224732312701525493991994e-01
0,9.2745510050953150482655474e-01,5.6161422885414591377184479e-01
0,-1.3440638986494419793160660e+00,3.3078353609245159105967105e-02
0,-2.2584456157692947009252293e+00,-6.0260037607410876780988929e-01
0,1.5480684292499051757374673e+00,2.2668429220162444881481179e-01
0,2.1868234217659940354927528e-01,3.0566918595127323676763353e-01
0,5.8294912125822051507384458e-01,5.4895186303192589072352803e-01
0,-2.1566769509730061571417536e+00,-3.8348654773469398326923852e-01
0,-5.2807612069122944475907389e-01,-3.4121364209550053558928084e-01
0,8.4145061854256075761782085e-01,3.8457244174809823711314039e-01
0,-3.8893107412182903459552108e-01,2.4515024430094822793790854e-01
0,-8.6345511205473335358817621e-01,2.5205114291792107827916425e-01
0,-1.0026654398881842400470532e+00,-1.2831491330188038446635801e+00
0,-2.4530034165949889946034546e+00,-1.2010774554271042013908755e+00
0,1.3021731940850926889652328e+00,-7.3986308669685918459890672e-02
0,1.4932883308528857035923920e+00,1.7130832730513684269979535e-01
0,-4.7967200026937789614223107e-01,3.5192710812266236874990000e-01
0,1.8725037365725141214056748e+00,-8.0544014156932228210017399e-02
0,1.0955657713565822852785914e+00,1.4039715742479974558420963e-02
0,-5.1039559603390100006592434e-02,4.6993378954041375994421514e-01
0,2.0846630933637695370919118e+00,-4.9530686474645502226366034e-01
0,-1.0323315990690580257194142e+00,3.3060513954910997203029410e-01
0,-4.5267385155240619232230870e-01,1.5128989397720637999356086e-01
0,1.8430320480518300740868654e+00,-5.4626739816662661652912902e-02
0,1.8670846984561779713374108e+00,-5.8416067938572513451589430e-02
0,1.3443558316315060707779594e+00,-5.1805929488178437125611708e-01
0,3.1764243623793209092553980e-01,3.5086931782076546948445639e-01
0,1.5171727284481419939510261e+00,1.2872363412859033626745031e-01
0,-1.6831006601926250532130780e+00,-9.0177664732382323276027591e-01
0,-1.9804424856298945556432045e+00,-4.9328214987454083173545882e-01
0,-1.0583429799173944552137527e+00,1.3080837936170164326199483e-01
0,4.1080075111113628638648265e-01,-3.4340081820168344428623186e-01
0,-5.7414288435855076464520153e-01,1.0355599888376907369291757e+00
0,-1.8552941961415131411072821e-01,1.3855910842182572739744728e-01
0,9.7211327986755469154900311e-01,5.4800279555194686409436144e-01
0,-2.0168621180787562607861219e+00,2.2934471441388726287158306e-01
0,1.9253060855824006836201079e+00,-1.7185956233416732619190270e-01
0,1.5168077780196569381843119e+00,-4.5748690720326323777555899e-01
0,-1.5586085228343948827500753e+00,4.8093014917940324348677450e-02
0,-3.2358914755445913336018293e+00,4.9344045359222388213993327e-01
0,4.2364643047500638584068611e-01,3.1466763462753744029498648e-01
0,4.4739754820485055919476736e-01,4.1904708690831093953477193e-01
0,-9.8027511525539068326651204e-01,-1.5590799663163545929478460e-01
0,5.0436413959543313634270589e-01,-4.5317881936601778214424030e-01
0,-1.2014449842798256007370128e+00,7.4919541349346530090258511e-02
0,-4.5771411512088033823886235e-01,1.6828117397398867360891472e-01
0,8.7483765009780245502923890e-01,4.4201904641524980554834201e-01
0,-7.8952556791790162726840663e-01,1.6852689251116792501505870e-01
0,-8.3678101992997455660372452e-01,7.6414306220674310665685880e-01
0,-1.3409554456985901538246253e+00,2.1695240887905989368711346e-01
0,1.4016371206237170365938027e+00,-2.0274353542104106562504739e-02
0,-1.0558367871889438038834896e+00,2.3128996429334414131062658e-01
0,-1.1237228860059138568772141e+00,5.3241492305295345932591999e-02
0,1.2826552199789253982942228e-01,-6.1828860754076320205285811e-01
0,4.3557681349729815423188484e-01,5.1977219293668874833258542e-01
0,1.0649938801322744730271097e+00,-4.9537017174313868750346046e-01
0,-9.3207343149773511092881506e-02,5.5905472259646360466689430e-01
0,7.0574313145961109494663788e-01,1.0185485880486999654692681e-01
0,2.9839076487770327394954961e-01,-1.6717009458468523597218791e-01
0,6.4577527323951833260196054e-02,4.8113014058703340580791519e-01
0,-4.5722522129120102274413284e-01,-5.4267860552161195641929226e-01
0,1.2355385462905141835676659e+00,-1.7250692293065850169142550e-01
0,-4.8595880255873702413538240e-01,2.4021873073484001359645390e-01
0,1.3913895475355224640168217e+00,2.3492378626994536716665607e-01
0,2.7656523702078064097520382e+00,-2.5488564765668075828841665e-01
0,1.3387762000804372952700305e+00,2.4619928203600804916817424e-01
0,2.2522769780017681817696484e-01,7.9280130191558262353623832e-01
0,1.9102792587934319668008243e-01,3.0988245011547355112213609e-01
0,8.3642950786797218287738076e-02,5.2892306118583176655079114e-01
0,1.3538750743250176356013981e+00,1.8618705682016889468854970e-01
0,1.4735451130537176034351887e+00,-8.2796723647868863960042063e-01
0,2.9539388774257741010487166e-01,-2.1771837853629394388121909e-01
0,8.2651628211720520877925367e-02,2.4408743414795064374800404e-01
0,-1.9974430293943377101584247e+00,-4.9062354380076755866468829e-01
0,1.4780870433772588246057467e+00,-1.8453462519851804302106757e-04
0,-1.0361509370121098072559107e+00,-1.2177717803394072504374890e-01
0,-6.9608033046869599580475096e-01,-1.5912375851283333538788156e-01
0,2.4167470196028264517451589e+00,-4.8709091170655971492209346e-01
0,-4.3752257424717755363019478e-01,5.3370311105315404454074724e-01
0,-1.2599819489482624312870485e+00,-2.6033654996664545855367123e-02
0,8.0900830074406671066356012e-01,1.8161741252045637828871349e-01
0,-2.0488993672578365012881818e-01,1.9770620150486417632151870e-01
0,1.3323244503780551362126516e+00,1.4617550292161551883651782e-01
0,1.9567410669966496250538057e+00,-3.0243387485659228852696856e-01
0,-1.2830332923407079537270192e+00,6.0262122638648385475335090e-02
0,9.4917233794823274717344930e-01,-5.7326907128416260128744852e-02
0,5.2959792916920900296418040e-01,4.3995503608258390570995289e-01
0,-1.5061944596721141831352497e+00,5.3001968109459229872015840e-02
0,-1.5427531456841707679927822e+00,-2.3234225348161685609227334e-01
0,-3.8755860460245934728806816e-02,4.1877318228615012518645244e-01
0,2.5623612240007054285939603e-01,6.2635181591480304508223753e-01
0,6.3460879459347230291399455e-01,4.0915205334374071810543683e-01
0,1.5414780155418361662356119e+00,-2.5564990218497007923303954e-01
0,-1.8341576272046595796894053e+00,-5.3425161143520583095778420e-01
0,-8.1784393248045472724072624e-01,3.2087280047101623958738514e-01
0,8.1121642397323534545705570e-01,4.7057104518809045323735063e-01
0,1.4125192920643578897710313e+00,1.9445244120235749551994786e-01
0,-1.8649824940583954457906657e+00,-2.2321813629925124633501810e-01
0,8.8298003775969224893316323e-01,-5.0154815515127149083696168e-01
0,1.9432680974188030198490651e+00,-1.2985273884615877726389499e-01
0,-2.2206811729839173730205459e-01,5.6664902458479382563183435e-01
0,-9.8275321441734542204926584e-01,-2.4687359400154507138580584e-01
0,-2.2155117871548390962033181e-01,5.6088350581836854402695280e-01
0,-1.1540922318965096682319427e+00,-4.9998559196841907414921025e-01
0,-6.5469032190787568303846911e-01,3.7859380245204299342276499e-02
0,-6.0014294738955242802802559e-01,-6.5545223766097615580861202e-02
0,-1.3185519515781509714003050e+00,-1.7502715031486315577780033e-02
0,-2.4190400939050240580741047e+00,-6.3880725890490253071618554e-01
0,-6.6162386282422602779007548e-02,2.6836082513004710925486052e-01
0,4.7039592154016207636857416e-01,5.0064486205884684011380159e-01
0,-4.6918669242831378962677036e-01,3.2009970828665335051965712e-01
0,2.2512130133293073441791421e+00,-2.9145255237033929063272808e-01
0,-1.6553899024933356187716527e+00,-6.6939752369046967572785434e-01
0,-5.5624267773118163393775149e-01,5.0179433858069055762740618e-01
0,2.1834147405523585128150899e+00,4.7995246987932960180955888e-01
0,8.3512740875355140346414373e-01,-7.9712303388446037466508187e-01
0,2.0075379025145272393615414e+00,-7.1524458206224994505362247e-02
0,4.0197455328969705634634124e-02,5.7549723028601640351098467e-01
0,-1.5565668917135189186495836e+00,8.3151573540254153371620305e-02
0,-7.2528489526273531851074949e-01,5.9623141918527622351575701e-01
0,1.3270548097062677683766196e+00,3.1704743865785034451221236e-01
0,1.3799410642765919110530604e+00,3.1410516937636034917602501e-01
0,-1.5172873265215089944035753e+00,1.8447678481616591739111755e-01
0,-5.9317583994557387949697613e-01,5.4859701092392954002718852e-01
0,1.7521582620460571244613845e-01,-3.1554810425299806286858484e-01
0,6.5653418266712737505486075e-01,8.5859481003877036187077465e-01
0,-1.2224776112538853212186041e+00,-4.0663906615514977538339281e-01
0,1.3114944407151134520006508e+00,-2.1026829977338534760633593e-01
0,-4.3191205004984628557096471e-01,7.9431729316406407548356583e-01
0,-5.3287395540949877847936023e-01,4.5573144322768743830209814e-01
0,8.6670062335479380877245603e-01,5.3751666971252876070508364e-01
0,-8.5243733741318661323305150e-01,3.0511419783724758048037984e-01
0,1.2734012216552832441607279e+00,-2.7548848557492711108807271e-01
0,-1.8404600587258894694997480e+00,-7.5835189694996474329968805e-02
0,-7.1531684292741593012010526e-03,6.8066128441775219926057616e-01
0,3.2794038480791687373283594e-01,2.8234316406490200801471246e-01
0,-3.1472702536632379821668337e-01,9.2251229483163887934438208e-02
0,9.0309942417485622456752026e-01,3.9285300003622014575199728e-01
0,1.6905260233570551520188019e+00,1.1738577496624441609540668e-01
0,-9.1945175899066100555501180e-01,1.2466766426216258079051613e-01
0,-8.5561803481671372395567232e-01,1.5828002371900840028473567e-01
0,-1.0886959010259129876363460e-01,3.9606322513683489550118111e-01
0,-1.8538377239267216367579749e+00,9.1693344907710094826569502e-01
0,-1.1381742849856351096349272e+00,2.9164003083782985559224699e-01
0,3.9822979223746635124570048e-01,1.4911352474370853649077162e+00
0,-4.1796701729480800757698944e-01,7.7771184128091463971799158e-01
0,-6.3187531400878937937193314e-01,8.3937757235137633315957828e-01
0,-9.7300758445993396072992709e-01,1.4327114756242642634731510e-01
0,2.2163950923492361511080162e+00,9.7910665655827777698050340e-01
0,2.9510743489778412662616347e-01,5.5057910976687740589596842e-01
0,2.3214605144586037965837022e+00,3.0702500557039380524315675e-01
0,-1.1353616706241771439067634e+00,1.2405860085993114516611513e+00
0,-6.9638156302916121020984974e-01,1.9278539973340597102335892e-01
0,-3.2368834510070576548912413e+00,2.3541095363371198345703306e+00
0,-2.3256447280336511873599648e-01,3.3308076878513548368943020e-01
0,-3.3282591257058385947331658e-01,7.0626915948188684346575883e-01
0,2.1033484615741269152522364e+00,1.5773903202994945527137816e+00
0,2.4189357673808323245800977e-01,1.0020838897197301697872263e+00
0,1.0295052738347332255131050e+00,9.5215440576895560287340459e-01
0,7.3726349480258557278489207e-01,3.3719655238445944700487189e-01
0,-2.6166765354587873115832508e-01,8.2551760899574699870129280e-01
0,1.5091364153425059768665051e+00,6.8338509323703000575278566e-01
0,-1.2740151363338407808356578e+00,2.0883770359536979466241746e-01
0,-4.0862867883131748225622459e-01,3.0185313918361367235831949e-01
0,-1.3744427263068270672619064e-01,7.8538586061245152514231904e-01
0,2.4977736444353054734435204e-03,7.5480531957903485018590573e-01
0,-1.1906857692829391215383339e+00,2.1151180576535066890642156e+00
0,9.5726444805852795028044966e-02,2.3858558153790254685588934e-01
0,1.4144927245379443347950144e-01,7.5553494876511162470222871e-01
0,-3.3856833684487952496056096e-01,-5.0539372938839111082387490e-01
0,-1.0617154390309710976225688e+00,4.7944370681637149544940257e-01
0,1.1545592204440395800446595e+00,4.5121467435199102968823581e-01
0,5.6618174879093108309291438e-01,7.2647691576891104681124034e-01
0,8.4933632130024627748809962e-01,2.1952418172087631020872323e+00
0,1.1196123620143811905336406e+00,6.6114540828814716277861407e-01
0,2.9946227650831647171258965e-01,4.1728346514232583785997122e-01
0,-4.0574267958256915456161096e-01,-2.6801282520778707540998198e-01
0,-1.3633748074711493636357318e-01,9.0074806613212055061978845e-01
0,-7.9398209595917279557397706e-01,9.1055480560842116943831570e-02
0,-4.4026934289675030698152369e-02,9.5354510909495937553970180e-01
0,-4.1687158005856761455731885e-01,3.0208776519775931701516924e-01
0,9.9970412781694339976468200e-01,7.6275373136762736336891066e-01
0,6.6924548957090024270399908e-01,8.0104351552459518437387942e-01
0,-5.5386268957076112418036473e-01,1.7375768699323455024341456e+00
0,-1.2920476267810581116890489e+00,8.0885971115898014360823254e-01
0,8.4597247718864676535588387e-01,8.4744623358162474158206123e-01
0,-1.2947151529676379499989025e+00,4.9819649319889414140760664e-01
0,-1.1405859520958223640718643e+00,2.9822576609452300377967049e-01
0,4.5016754011650728095617069e-01,9.0447236957258803080605958e-01
0,-1.0181626732716622107943749e+00,4.2372521308603822154381646e-01
0,-1.0631704857973047761987573e+00,8.7761651147218922019987986e-01
0,1.6563074174750234135444771e+00,1.0611267941248865298575765e+00
0,1.1216287735218917198665167e+00,6.8835459206795945874546305e-01
0,1.9330690283784353056262262e+00,-4.1605018320620162919354357e-01
0,-1.3390671728093674897053234e+00,4.9963140272150796672434581e-01
0,-7.5932987362556525479106995e-01,7.7039975501822433034959658e-01
0,1.6744342056066376933642914e+00,5.9364833323468557679802871e-01
0,-1.9742741403177027637028118e-02,1.0037012449964124449763858e+00
0,-3.2750872677993170256627309e+00,2.1465585816790233586459635e+00
0,-1.7235125220600266970905068e+00,8.2765584577540562971620375e-01
0,-8.9173990135894742881106367e-01,1.9789801278899499248353777e-01
0,-1.2722560271236654783066911e-01,1.3071366688650312148922694e+00
0,-3.7096773059006715733687543e-01,6.5857783896060240191872026e-01
0,9.1363257713790146929966340e-01,1.2102574811573458823943383e+00
0,-9.2134746927049626652461711e-01,5.3919509769995355163985096e-01
0,9.9172665005034155161212084e-01,1.1691062950361668093535172e+00
0,1.3192896983322253134929269e+00,2.0194345332338472509547955e+00
0,-4.0251894345257310803276596e-01,7.0691013823199511101336157e-01
0,-9.3819591270187041587291787e-01,-1.0175930131918325960427296e-01
0,1.5905142325380468015794122e+00,9.7859231752241082613608114e-01
0,-5.0103474333151964970056724e-01,4.8539078245879857531619450e-01
0,1.7731161563124870905738817e+00,4.4753704627444601538144298e-01
0,-6.9275144427631718535565142e-01,1.9215432488807238087247242e-01
0,-8.3736009720369808384532462e-01,2.5435358107701033780756461e-01
0,1.4869936703344217576727715e+00,1.9833213980652588670494652e+00
0,1.0371614807554427883928838e+00,5.8382095153233082296395651e-01
0,1.5161033597661948135737475e+00,5.8363636690672104911925544e-01
0,-3.9174204863005007704046534e-01,8.0848754347551199384014353e-01
0,9.5158532817430557804172508e-02,1.4785859702993353614886018e+00
0,-5.5901434810512684592254118e-01,1.2008604640305429178681607e+00
0,4.3325820558904637458397247e-01,6.1735962642923647436532519e-01
0,7.5695050564175736518279791e-01,1.4617608120028933171852259e+00
0,-6.7032203386059996397250416e-01,8.2802683439594693126650782e-01
0,1.4271933968407317649962351e+00,4.4150541430207790316586625e-01
0,-3.3470000393558767548540800e+00,2.1609081252470097034290575e-01
0,7.1763591712467433847422171e-01,2.6029238123512130620440530e+00
0,2.0514398638487234549643290e+00,1.1787093671587858811911076e-01
0,-1.0240103015423651644510983e+00,3.3159219852380128479296673e-01
0,-2.7380107712368539907288323e+00,1.9198598040388832330904734e+00
0,-1.2991490189979753022697651e+00,3.9622920491270807730188608e-01
0,1.4420317136372884370132397e-01,8.1915779051340287253424322e-01
0,1.8368253793424345055029789e+00,7.7191813496031380648076947e-01
0,1.5028596386411601226740231e+00,1.3638213204463947025857351e+00
0,1.9018756876388644982966980e+00,2.8743295539353302947560564e-01
0,1.5124830176794239466886438e+00,2.0058771529216332107914411e-01
0,-1.9533437888038538421398016e+00,4.5188446062317444429368152e-01
0,-1.1413148551499672223030757e+00,9.1300144869287680471359181e-01
0,-5.6432535743124256910618897e-01,1.2398001761493637751243568e+00
0,-1.5551628218822886040584308e+00,7.9453683347662351632578748e-01
0,-4.2136810369427353251126078e+00,1.7083946524946398426436645e+00
0,-1.7063637317243687263612628e+00,8.7133867840254120018528283e-01
0,1.5308783468578801567616665e-01,-3.4561115805017128543852323e-01
0,1.1191559578258820639717896e+00,6.3781202664695424431329229e-01
0,3.8680955644427150730280118e-01,4.4317849738137460313680549e-01
0,9.7338187730639214034766837e-01,2.4633096956769323648828163e-01
0,5.7193794901734262836612288e-01,9.1213432704472707790444019e-01
0,-1.1956994750849088138267007e+00,2.2993484222111426618084806e-01
0,1.4410624111228336197143562e+00,5.0409553069301726857531776e-01
0,-1.8152370752107374052286559e+00,8.3265525326185840793158377e-01
0,-2.1895532356293294640181557e+00,3.6251885748244205842638621e-01
0,-8.4410077963462992745036217e-01,5.3368443472279580852557501e-01
0,-6.6500126515998192466838645e-01,9.2087219698829814173990371e-01
0,-7.2331030206825586148511320e-01,6.5927478094901059701982149e-01
0,-9.2737736072708265577801967e-01,4.9047413951913665375315077e-01
0,-4.4061368997904204469762135e-01,-2.9517685569996165995121373e-01
0,6.7789925529721217767331609e-01,7.8290814636213945654219515e-01
0,1.6620513060617747580494097e+00,1.9132167123385443452399102e-01
0,6.6787789014352472172220132e-01,1.2787028958861308414185487e+00
0,-1.4473212296470219229149734e+00,4.7041230497216879324895444e-01
0,-1.4344004870249484895339265e+00,4.2570062063135638563693419e-01
0,1.9559112602825374782611334e+00,1.1626092777381391574209601e+00
0,-1.2777707883679354505801484e+00,1.9983536892331196788141767e-01
0,-5.9230422933543169783376925e-01,9.9018659652565765849629997e-01
0,3.0707621207435060739499022e+00,8.8243300924945633489926422e-01
0,1.0903485914716277704883396e+00,4.0295037211147211042572280e-01
0,2.1022810567112522051047563e+00,1.1000424455982509286400273e+00
0,1.2653172339339384677714406e+00,1.0429154980021353438246479e+00
0,-7.6255312578264566880648090e-02,-1.0666416751508833726802550e-01
0,6.3001477030786046107380116e-01,1.6127548317140567579741628e+00
0,1.2299453983817640878584143e+00,2.4131684542725767572690643e-01
0,1.4229970663335664848858642e+00,5.2914319633370987538967256e-01
0,4.5309914405594209352301505e-01,9.6968844951899846318355003e-01
0,2.1344065275291923544642714e-01,1.5861059774699901581129780e+00
0,-2.6615845097966923660237626e+00,8.7094170030556017358946974e-01
0,2.6961656143907895000211283e+00,1.7336879099779762825050966e+00
0,-7.9571952334730944311758094e-01,5.1925351480667292225490428e-01
0,-4.3620284784724100424213589e-01,3.6564693209380061400537443e-01
0,1.6236557162151552535789278e+00,2.9003477018450729563170398e-01
0,-1.7693402337852575101351249e+00,6.8541333858646273924364323e+00
0,-1.1471277753138477972782994e+00,9.9722493555918778618263332e-01
0,-2.2973439806098925330957172e+00,1.4540824047165985533069943e+00
0,-4.9432885503406404081871983e-01,7.4599504888901835286674213e-01
0,4.7269396652823730820003334e-01,7.5026939494906896843673394e-01
0,-3.4287699467355312599181616e+00,1.9109663375403698193366608e+00
0,1.3512999949439186142541303e+00,1.4217080028475868047621589e+00
0,-1.4251435581535756291771122e+00,8.3894322870601256703082527e-01
0,-1.2873661073192566028922101e+00,9.6225267031820960195176440e-01
0,1.7065676910139970789970221e+00,1.5069603640539308564427756e+00
0,3.1878221802434096865397350e+00,1.3115798005826715399990690e+00
0,7.8165414896036533587420081e-01,8.7043550358752819207097673e-01
0,-3.4843675684274177939414585e-01,4.7840944990499756350743610e-01
0,-2.4098070343870703347022300e-01,1.3485723358909336155875280e+00
0,2.7258277825841901176318061e+00,6.5931845834693758590105972e-01
0,3.1021146718023864252700150e+00,1.1976711357913569777622342e+00
0,-1.0822277361623107161392454e+00,5.6677810264718686550367011e-01
0,4.4863067367042330779725035e-01,1.2680342577461116704284905e+00
0,-2.0205129459945174730250983e+00,9.7635053866432275349040992e-01
0,-2.0974018835407148841909475e+00,1.4665962446509210881373519e+00
0,1.6477258451579548381715767e+00,1.2394181906867762776869313e+00
0,-2.0417209248702594681645905e-01,6.0559737629894150323650592e-01
0,1.5406861460643568317863128e+00,7.0745121770975605279829779e-01
0,-2.3624088340542979125302736e+00,1.2133646619364244489958082e+00
0,-2.2419715288022046273397336e+00,1.4283727197590603275045851e+00
0,-7.9835477363541373918565114e-01,5.0600814919184977647148571e-01
0,-7.2761092957990680663016292e-01,4.4637210897576590218349679e-01
0,8.1267815628331740995804466e-01,4.8033741153631287490455293e-01
0,-1.1151930660331352829217622e+00,6.7868691138840198107118340e-01
0,-9.7350276939149460453393203e-01,8.6872034030799905046649201e-01
0,-2.2636457782996277643405847e-03,2.3350173185195599590002757e-01
0,-9.7758450762380255660843886e-01,5.8835639472387057935520716e-01
0,1.9454340498232807199485705e+00,1.1263469069079401485566905e+00
0,-2.2142398636611275719587866e+00,1.1648282056946732687663371e+00
0,-9.1313283531754940725022607e-01,7.1004574176560386611356535e-01
0,-5.9336414245253388255463278e-01,5.7667226156192785690990377e-01
0,1.9346362956315319436839673e+00,-5.1100427251582203336255361e-01
0,-1.1248712262783164828050531e+00,1.1361607982377175396493385e+00
0,-1.7106605287471539078580918e+00,1.2789580944586016464370459e+00
0,1.3431899662471682432851594e+00,1.0980162512029028043514245e+00
0,1.5133162452836872446937377e+00,8.0894402480437199720597619e-01
0,-6.9485381611149454883502585e-01,9.2599360284740006576953419e-01
0,-3.0920799239163048177658766e+00,2.7458467428332449244976488e+00
0,-1.1234053908706449487198142e+00,2.0515523142271092638111440e+01
0,-4.0951620958930123883590113e-02,8.0781685066686836904636948e-01
0,-1.3600600877495612195389185e+00,9.2190186351271785625272059e-01
0,1.4027791258178270439316293e+00,-8.7296843541532220811518528e-03
0,2.3445938466356908147503191e-01,1.1535590623030420598382761e+00
0,-3.3744317768287883652078563e+00,1.2861486593276503231919605e+00
0,-2.0779766743186078858940391e-01,6.8063361669800725994861068e-01
0,-4.1000016309451847718037243e+00,5.6419032581248771407445020e+00
0,-1.7799066016645714860544558e-01,1.0025293598558333574288781e+00
0,-4.5144107526373028482780114e-01,8.5398672851171775199929925e-01
0,-5.7356782235692556071171566e+00,5.2993729611328781459178572e+00
0,2.6579125022395837518729422e+00,1.4102313327604067971776658e+00
0,1.4960467620915598452313588e+00,8.2370921124759563514139415e-02
0,-3.4250993125179318710138432e-02,7.0547152862199302703061221e-01
0,-3.0886779024689401396130961e+00,4.8837223154586801854293299e+00
0,-7.7777017499192591110102057e-01,9.8396615462557912579200092e-01
0,8.2203578496650919760213583e+00,7.6312525866694063125805769e+00
0,7.5842942070357977080163892e-01,6.9514233302991246254975977e-01
0,1.2129180390176661497037003e+00,6.9160551927048230513861427e-01
0,-7.5756062969952076002755348e+00,1.3080421332125444777716439e+01
0,-2.4474673729623468432237132e+00,6.0734141151408609360373703e+00
0,-4.8082887146219288609927389e+00,8.0618183608449633936743339e+00
0,2.5356949330374067841376018e+01,3.1074785888982294324023314e+01
