Species Id,T_x,T_y
0,2.9059455970982417394310460e-01,1.2053502554269106272766265e-01
0,7.3914756224265669715123295e+00,4.4330206614027574119063502e+00
0,7.8437910314778918063893798e+00,6.1164010049639214727790204e+00
0,4.3337686516649585044547166e+00,2.6310930009139594787370697e+00
0,1.4994248715862614762528437e+00,2.1576664770756526223749461e+00
0,7.9706432901112544975319452e-01,1.4642938551824880022422803e+00
0,1.2371448576125548157733647e+01,1.4238579769499619231964971e+01
0,1.2496865404455585135679030e+01,5.6535010476000579160427151e+01
0,9.0592577108390059947851114e+00,9.1322226954125625297820079e+01
0,2.2602663338120180469559273e+01,2.8376202943886363883052582e+00
0,1.1230107170459703525011719e+01,1.6784185040646883990689275e+00
0,1.1657996289930212530094877e+00,6.1708634227706848918160176e+00
0,2.5012652500486831641524077e+00,7.9089118807963876278677162e-01
0,1.4770212804598625844221260e+00,1.0447098740971976216229677e+00
0,2.2057845491998349096718357e+00,5.2141666877420860259917390e+00
0,1.4945220049613987534087300e+00,6.1272399707802205348627922e-01
0,1.4143461698095749490278195e-01,3.6155958212123318062936050e-01
0,1.5242031764177045971564439e+01,7.4010952708671160493736352e+00
0,1.8002477083793543499723455e+01,7.4250689402148513096335591e+00
0,8.0314674902659284327910427e+00,3.8775523140017598144879685e+00
0,4.9796961931564789338722221e+00,3.2296557264061118708298181e+00
0,3.1393813653014457365486578e+00,3.4568648891091711128353836e+00
0,1.0240082844749226254066343e+01,1.9497640422845716301480934e+01
0,1.9744482065360827505173802e+01,3.5348904842791249336642068e+01
0,3.7009855467861925149009039e+01,5.0477194812100428578105493e+01
0,8.0898268637951566972787987e+00,1.7942874373269830812205328e+01
0,4.0129956921094809274563886e+00,5.1242837210928531277431830e+00
0,2.5041053681275116105098277e+00,1.2688873867690514174455529e+01
0,5.1416320719478614265085525e+00,1.9286630490677252325326663e+00
0,5.3808832563658075542889492e+00,1.9074088154476247503055220e+00
0,1.0125327016237672950182969e+01,1.6234236373590235302799556e+01
0,9.1927662907510239165276289e+00,2.0777728376525388398476935e+01
0,8.4795078593239953113069873e-02,3.6046905721102373565400967e-01
0,5.9636701807937040342721957e+00,2.1290085619467468802668009e+01
0,6.8589439414647976889227721e+00,1.3002979636186339007508650e+01
0,1.4200464818916733733544788e+01,2.5072219238110258210383563e+00
0,8.9798908064092159975189134e+00,6.1120418172163919479089600e+00
0,5.6801220486246135621399844e+00,9.7300836692595158439189618e+00
0,5.4941766731540360169105952e+00,7.9890129470407300615875101e+00
0,3.7566253813067810085613019e+01,1.4043975769580836043814998e+01
0,1.4912076157099219742008245e+01,6.4055035233787771531410726e+00
0,6.5103977554032779195836156e+00,7.9727462855092090521225145e+00
0,3.3185839048181340338317113e+00,5.8122162010895355166439913e+00
0,2.4911123750861605685713585e+00,3.8133496279829617314760526e+00
0,1.1265556192257990986149707e+01,7.9246616928913544697365978e+00
0,1.3864629735428399825991619e+01,1.6921611181511508448238601e+01
0,1.7685830327836242759076413e+01,9.9632197598747964661924925e+00
0,4.6232656643327105783214392e+00,9.3007597973364681820385158e+00
0,5.3222533878255373629428959e-01,1.2576855426842722951441544e-01
0,4.7089793617014850113378088e+00,2.0599859220815019966721593e+01
0,6.8772384313035601621777460e+00,2.5359470605383599206561485e+01
0,7.3954047077438058721554626e+00,5.5008360410386121230885692e+00
0,2.1409841517162544022312431e+01,1.0266814571204724515496309e+01
0,3.7039533857402267003067209e+00,3.9284262926517814484839164e+00
0,7.0329729354937517982193640e+00,4.1600424117183321115476247e+00
0,1.6847178081197181853667644e+01,1.3565276874844697019284467e+01
0,6.7072238029285848881499987e+00,6.0541447363711267115604642e+00
0,5.9019280655134558344343532e+00,5.5367672302273547302320367e+00
0,5.4616046330392231666905900e+00,6.0464472893748979487327233e+00
0,1.9035998593790046662377335e+00,1.1021824259656447964061954e+01
0,1.6566229569223502871011533e+00,1.1688868173547312778737250e+01
0,1.1231773429436689326621490e+01,1.1522328539444330885999079e+01
0,3.4784416636096992192506150e+01,1.8951338230489501057718371e+01
0,7.6779757803652763925583713e+00,7.5709035072434716084899264e-01
0,4.4590976875532613021846373e+00,1.9083145339275544571933096e+00
0,2.8984144575315502478929375e+00,1.9914362073994456014958132e+00
0,1.3608464298690274851821869e+00,1.5541134801849347812918722e+00
0,8.2981479831747719799750485e+00,2.3562488438099606469222635e+01
0,1.6480474996625645189851639e+01,2.5285623054739790660505605e+01
0,5.9916149286415727459598202e+00,4.8702329863839874946052078e+00
0,6.9158303774517619899597776e+00,2.3710928633497978523791971e+00
0,1.4496308750677506793635985e+01,9.9324579202867830929335469e+00
0,1.0471654596071219955888409e+01,1.2907114221503853457306832e+01
0,1.4843394727855194759058577e+01,4.6447097469004155811944656e+01
0,2.5366254759275075336688587e+00,9.8867848741741646279024280e+00
0,2.1912863918235450100269190e+00,1.4713975204128731277819497e+01
0,3.3638193979112513964935260e+00,6.0651964171231256273131294e+00
0,3.8826783700896068118879612e+00,1.5881873353006410454213437e+00
0,4.2964972212475682766807950e+00,1.4767898196983773040358301e+00
0,2.2901313862340790805660617e+00,1.1586499526183364761067196e+00
0,2.4424297300312507452701993e+00,1.2941869106938002076390148e+00
0,2.8367088802272868441889386e+00,3.0611583758311655678596708e+00
0,1.1203457712588977823742198e+00,1.2806719514413997806911993e+00
0,4.2320736107146581517213235e+00,5.6830956535262586726275913e+00
0,4.4948842478457322613394354e+00,7.8673122090809162187952097e+00
0,5.5497265335554661902506268e+00,4.2751477023944524091803032e+00
0,4.1406211980862517307855342e+00,7.4269184379322679134816099e+00
0,9.9641565566215639648817159e+00,9.7220475853099639351739825e+00
0,8.2201188389120876109927849e+00,5.7677071492980083178281348e+00
0,6.8633992419520710726033030e+00,1.3645749078613301108475753e+01
0,3.0394715417187354589145798e+00,1.8940660200797967416264100e+00
0,1.6631777757472550050010796e+00,1.6287890921287657697291706e+00
0,5.3796820094595805272774669e+00,3.9852537052148981899790670e+00
0,7.4348586149464575001388766e+00,5.5036749080916287368836493e+00
0,8.4983672876140534668820692e+00,7.6582245903018133503792342e+00
0,2.9743005375317217442443507e+00,1.0612210940960866700777387e+00
0,1.9209291568121564797166911e+00,1.2452355177163014765540083e+00
0,2.2560042422436374920380331e+00,6.7864201882622046113624492e+00
0,9.0175511423798617727243254e+00,5.9209249692187349012328923e+00
0,6.0938140392936102074372684e+00,5.7804659794827992769228331e+00
0,2.5089626664230553210188646e+00,1.4716953379115649269692767e+01
0,4.5392297104609582447665161e+00,4.7149146328690383356274651e+00
0,9.2701014194608344354264773e+00,1.9688728045635297547732989e+01
0,7.4399879026431525730345129e+00,6.0718248922566644409926084e+00
0,5.9517763843686317670744756e+00,4.5890686679585428464633878e+00
0,6.4037590519245863873720737e+00,9.2435320105636797904935520e+00
0,2.8892372245008468567561977e+00,3.8039037434906433077230758e+00
0,2.4557845478704418695770073e+00,1.5580162584194305885887388e+00
0,3.1960433510124981459910032e+00,4.1997258341476095822031311e+00
0,3.4222878923130064521274107e+00,4.0968495650039340461034953e+00
0,4.2633518290431489106140361e+00,7.9395425603883547083228223e+00
0,7.1228577558352368370719887e+00,1.1157651276761393788206078e+01
0,1.6004742688487594293178518e+00,8.7953678776492711932633028e+00
0,1.0277504459585666829468664e+00,1.7026015843147677131241835e+00
0,2.6234057692944405815183018e+00,1.5812516710301400824079110e+00
0,2.0483717336327549318752972e+00,2.2649433068429600801607648e+00
0,3.3334104526851637828599451e+00,7.8029401587075088997380590e+00
0,5.8359989389520308122882852e+00,3.6925370171546592068523296e+00
0,6.7306787365953075763513880e+00,4.5925490672869440089698401e+00
0,6.7165356526764039557519936e+00,7.5640450202964677473005395e+00
0,5.5240865811659363160401881e+00,4.6183199300728565717122365e+00
0,7.4301532527181235465718601e+00,4.9039476894377509452738195e+00
0,3.4140948768858718764818150e+00,1.2023693983310435484668233e+01
0,1.6861245738012435868569128e+00,1.1842550870672288176876918e+00
0,3.2148582065768587234799725e+00,1.5680353595186742321487827e+00
0,3.2928063664186630887797946e+00,1.9280501531526228475854623e+00
0,3.7055425338219034614439806e+00,3.4674826785926935457382569e+00
0,2.1689619274252383007706158e+00,1.9885620720137286987494463e+00
0,7.0566406887620214405387742e-01,2.1292709704696224370934488e+00
0,1.1288111186377600692054557e+00,7.6713091970451774415096224e-01
0,2.3616048668781046693254666e+00,9.7628002195092744575077859e-01
0,2.0537122357686907747620353e+00,1.0479043702885260103130349e+00
0,3.2764409818151798425844845e+00,3.6310655955398307703774208e+00
0,4.7834853861629111904107958e+00,3.6377020869887912724038870e+00
0,5.5545401586454268283432611e+00,4.1477435941658020723821210e+00
0,5.0010271098546077439550572e+00,4.1393554436673989371797688e+00
0,2.4809142794468961312759347e+00,6.6407359202573825740500979e+00
0,2.4827806068695688068714844e+00,6.1335914417249481900284991e+00
0,2.3946661559378861205971134e+00,5.0451824508537868041457841e+00
0,2.3042774179724010430447834e+00,2.1619945853247743983160944e+00
0,2.4970020071521457083463247e+00,1.8823596663646662285884759e+00
0,3.1344193773478052911229952e+00,2.8713960096111765807336269e+00
0,1.1338713432577611772700266e+00,1.0107004537927559706389502e+00
0,9.4427419715804428168581808e-01,9.1476216045750202709996302e-01
0,1.2275274131708466818224679e+00,6.8071732158403985835093408e-01
0,1.0218373081371459054622619e+00,6.4619073623542888640258752e-01
0,2.4818037984146892327430578e+00,1.3752729461290953416607863e+00
0,1.7454564004518331454818281e+00,1.6388084047977926616113109e+00
0,3.4902295104475027365253936e+00,5.3303854149730076628088682e+00
0,2.1461907693293027499237269e+00,1.3153204218986442874950171e+00
0,2.1688171327290124423825546e+00,1.2030909566075624894665452e+00
0,2.4110894727327938369398908e+00,1.7075136341998342626169460e+00
0,3.4571774266754546900415335e+00,5.9229354917069079178304492e+00
0,3.2270830059378639020906121e+00,5.8521680470333841128649510e+00
0,2.0672108483037328063858240e+00,2.1421958655919315361870758e+00
0,1.6479539032712471335884175e+00,1.8344410661557017938605441e+00
0,1.5942346016604314051789970e+00,1.8567630280695452960060265e+00
0,1.6645988393673933902761064e+00,1.7604511506663489406321332e+00
0,1.2426618746968738360436646e+00,8.7939883779474448122215335e-01
0,1.5297593143824612660353068e+00,8.0618557998361661809383349e-01
0,1.0434700874753739530120811e+00,7.3172159344452580853612744e-01
0,1.2206031320802246398216084e+00,9.1213360745712623867120783e-01
0,1.4839365789220111402357816e+00,1.4703210136358988435745232e+00
0,2.8504436568424562636892006e+00,1.5474698969549207649976097e+00
0,3.4024385248007424920047015e+00,2.6624184395712928719035517e+00
0,1.6502819005256397222325404e+00,1.2019910432821276913273323e+00
0,2.2491269722513864692814423e+00,1.8336642965412346395481791e+00
0,2.3203653661978633770957003e+00,4.0919439350823525458622498e+00
0,3.5885705230675157828557076e+00,6.5084670013376335617749646e+00
0,2.1373130045692692036141125e+00,2.2408309683968772318962692e+00
0,1.6634306287140434577054293e+00,2.2738365610837685260037233e+00
0,1.8897422687803542284967762e+00,2.8906103603181079186867919e+00
0,1.2788142725499223040230845e+00,1.3555838766985623955463325e+00
0,1.3704306454237269452534065e+00,3.3236259770837586202674174e+00
0,1.4029949944632524871934720e+00,2.8722842785593245551467589e+00
0,1.6368591357206747627373034e+00,1.0468162444706559099927290e+00
0,1.0688131207751974116604288e+00,7.9688044802608426486756343e-01
0,1.3051313433891926774066405e+00,1.9438906894691969640120988e+00
0,1.6122060357442760114565772e+00,3.4776495755469225557021673e+00
0,1.5607805796052218738623196e+00,1.6158038298253480924415726e+00
0,1.7208282354573027905786375e+00,9.5622140411510359037094986e-01
0,1.5807329145719215546250780e+00,1.5092814711067701338720326e+00
0,2.0472954004240837555528287e+00,1.4800208226154785151607030e+00
0,1.9486088146265911902332846e+00,2.2374004560292046761560414e+00
0,1.9550780387246060598727126e+00,3.4602063856278006959144022e+00
0,1.6352448571436997148964565e+00,1.4653852784414760357378782e+00
0,1.7090604935532140995491091e+00,2.4361493654713251011401098e+00
0,1.8538077506553809481459894e+00,2.3392506943277813213910576e+00
0,1.4173896666935994481661965e+00,1.0679771865953484599742751e+00
0,1.5358671280403282111137742e+00,1.0927066794913542491229919e+00
0,1.1978156797716268400222361e+00,8.5255676613675523967117442e-01
0,1.4337148594261679424022304e+00,1.0097283801633003541553535e+00
0,1.0531218542474454213930812e+00,7.1771475313369281767705843e-01
0,1.0897752000900373658964781e+00,9.9607396165789996445028009e-01
0,1.4301793410401695272327061e+00,1.4985919057496239759075252e+00
0,1.6695966564827593447972731e+00,1.8360919690781378754707021e+00
0,2.4087848512756862007222480e+00,1.6021428476604981927522431e+00
0,2.1924598902451490900489262e+00,2.7431989311285960297936981e+00
0,1.3363528971301354975054210e+00,1.3907029471974641232634440e+00
0,1.8766726324792026847632087e+00,1.7199380352100457347575002e+00
0,1.4697102075596615300412395e+00,3.1043798106599349573286872e+00
0,1.7370400192612613921028242e+00,1.2219670376734463879131454e+00
0,1.7219769637071182799559210e+00,1.7910109742363180540536405e+00
0,1.5241646512219972908752652e+00,1.5549390346062514911551489e+00
0,1.3255001805845756379653722e+00,1.0300339774211000332115873e+00
0,1.4445798286120345998995163e+00,9.0247057600051416859088249e-01
0,1.4745988854611364882174485e+00,8.1799182039479612082999438e-01
0,1.6830825262648432261158860e+00,7.1640322920514765137056656e-01
0,1.4622239360808020336435220e+00,1.2362171800280226108270654e+00
0,1.9539776377954194419572787e+00,2.9385890049666403278649796e+00
0,1.2238525513488642815218554e+00,1.1703406628980781434279379e+00
0,1.6808331720762597072393874e+00,1.5915704757586341955288844e+00
0,1.9138481342234907600641236e+00,1.5167293616660320054734257e+00
0,1.8621635749409177762458967e+00,3.4807541697999173635480474e+00
0,1.1321043296786768017625491e+00,1.3331480061636609146802357e+00
0,1.1998788914396729676781206e+00,1.4813666559483771312244471e+00
0,1.5043408142361016643917537e+00,3.1826219770671437814257843e+00
0,1.8309077788920218310408927e+00,2.3535409299261891291621396e+00
0,1.3585947721763771411929156e+00,1.0373418565175405170464273e+00
0,1.1981658115895603700096217e+00,1.0774638737445447755902705e+00
0,1.3792740153408193926054537e+00,1.8201043536796206456784830e+00
0,1.2002211212002646956165108e+00,1.6280756500433752886891625e+00
0,1.2128671442026817128834182e+00,9.0015173100736445288561072e-01
0,1.5299464629104395640979419e+00,7.3633855576849727153643244e-01
0,1.7026681751638241824053921e+00,2.1144906884645462419314299e+00
0,1.5422592303660476176219163e+00,2.2780449276463312635598868e+00
0,1.1073094245982992855914517e+00,9.7229746766557267889652394e-01
0,1.2339022802567047865096583e+00,1.0366864612102038023522255e+00
0,1.2370857445507708050058682e+00,7.9357227094096227659747456e-01
0,1.4084634313587527376654407e+00,1.9679942313925942176666695e+00
0,1.2786733236135348068529538e+00,1.0794790321320142378880291e+00
0,1.2665310820524875445869384e+00,1.0554596153383091206023892e+00
0,1.2018727412104042162610540e+00,1.3462646634911126231060052e+00
0,9.4745677047845289209249131e-01,8.3063707593843394416666115e-01
0,1.5191018411062673365563569e+00,9.7235970319235165426619005e-01
0,1.9515167367088726013690803e+00,1.2035520773539567507270931e+00
0,1.2708163717343721188512973e+00,1.2519206500741546506105806e+00
0,1.1686467950814574123796774e+00,1.7048713217980946410534671e+00
0,1.4814896611396870529375747e+00,8.7128848374301737234048915e-01
0,1.5966300512032767233705499e+00,1.1477295711679311729369601e+00
0,1.1514501874546574367030871e+00,9.2078944006791629828256873e-01
0,2.2762569979176250356545097e+00,1.5801284599874640957040128e+00
0,1.1095928962270455997440877e+00,7.6356416875315258341316849e-01
0,1.4150153807539234129819761e+00,1.5128312030892074879773190e+00
0,1.1372832294406949316112332e+00,9.3299994469866198709695482e-01
0,1.0044074002576399706754273e+00,9.3932021673998544741834849e-01
0,1.2739046101296715995943032e+00,7.1250633877533142701565794e-01
0,1.3810193974580577958022332e+00,1.8536762011635876667980938e+00
0,1.5209259850571950067887883e+00,1.9383840295421981281265289e+00
0,9.4344559844135411630361432e-01,7.8193618314704138594350979e-01
0,1.1948793261037020663195563e+00,7.9220768223576498723303985e-01
0,1.3885639072899240709091373e+00,9.5459261666446693084253639e-01
0,1.2034541767391209177162636e+00,9.9097897692040382011668953e-01
0,9.8918842511375537629447763e-01,9.1531001321708593820858368e-01
0,1.1916073414926759976850690e+00,7.2985152677215592298409774e-01
0,2.0867992570277040798032431e+00,1.1000349514126541716763086e+00
