Species Id,T_x,T_y
0,3.3997004614376699294098216e+01,1.2161995398745210295032848e+01
0,3.3197952797251176093595859e+01,2.6277604263292630548676243e+01
0,2.4085805400921600494257291e+01,1.1846408703654116578718458e+01
0,2.1255697724631190226318722e+01,9.6188924171350596026286439e+00
0,1.4561597112496393435776554e+01,2.7035728571601417513647903e+01
0,4.0861355771883481224904244e+01,5.8801796399276796023514180e+01
0,1.4391079141321487355753561e+01,3.6164493265986166647962818e+01
0,1.1340820851660613044487036e+01,9.9835326879212189510326425e+00
0,5.0519150403849707231529464e+01,4.9057372900511516888855112e+01
0,4.2012162766373059241686860e+01,6.3288019941857363903636724e+01
0,5.3215458634609042576357751e+01,8.4972081087459784498605586e+01
0,1.8260181429423042231974250e+01,1.4638200461628729343033228e+01
0,2.3783317045306247905500641e+01,3.6913102700464328620455490e+01
0,1.9287557901089421363849397e+01,2.4511924554201002024456102e+01
0,1.7906854991670086985067201e+00,2.4610803176593938346172763e+00
0,4.9378835453167315705513829e+00,1.4464574989348883971018722e+00
0,2.9527136553219076375853547e+01,2.9646494839238677343473682e+01
0,3.8700313312962251188764640e+01,2.7272530560436244684296980e+01
0,1.8840710817130904786154133e+01,1.3010128195526462491216080e+01
0,1.2267422075442455664529007e+01,1.4853655176667672321855207e+01
0,1.4999485436392770765223759e+01,2.1362105653438124619469818e+01
0,5.1279418365599319429293246e+01,5.0743987751377282791054313e+01
0,2.2487508876602340990302764e+01,4.0173384524457496524973976e+01
0,5.0738381092630397972698120e+01,2.5766580912040328854573090e+01
0,7.7829911695360081580474798e+01,4.5192601918391730464463762e+01
0,4.7692041662388234612990345e+01,4.7826965594572484974378312e+01
0,3.4833125575647343907803588e+01,4.1087829957619973697546811e+01
0,2.6958038297855505760480810e+01,1.4922010540997540317675885e+01
0,2.3528249056492775537208217e+01,2.9242089617494912090478465e+01
0,1.1765507854879711402418252e+01,1.5272662797652266419845546e+01
0,1.3692184533663480650034217e+01,3.4738092378793169245909667e+01
0,2.1283321919813733558157764e+01,2.2206444066851080521018957e+01
0,1.2402542594783321661111586e+01,1.6754333428676734030204898e+01
0,3.0941401370001052839597833e+01,1.9278212899647723332918758e+01
0,1.9698133833035061712735114e+01,1.9024291750603907757977140e+01
0,1.8552675469801059193741821e+01,2.8945929443964061533733911e+01
0,1.4175909179109744684410543e+01,2.0839438034648441799845386e+01
0,3.2386113111319929203091306e+01,3.5097981512863995590123523e+01
0,1.8289113894328838938463377e+01,4.1896425280443729377566342e+01
0,2.9112165481296134572630763e+01,2.0679313336611443219226203e+01
0,4.7641596383490707466989988e+01,2.7694668057161592855663912e+01
0,4.2429337455788015631696908e+01,3.1327094166735761859854392e+01
0,2.0343061764765494103812671e+01,1.9987293018306740322032056e+01
0,2.1739771402905169850328093e+01,1.5103673222560427547023210e+01
0,2.3110242337267628442987188e+01,3.4164333901406116922316869e+01
0,1.5283640236774751031134656e+01,1.6916898346210217596308212e+01
0,2.9238946486394219448357035e+01,2.3239609089916228867878090e+01
0,6.0670989213875827772426419e+01,3.7667071539375456268317066e+01
0,1.0954625376868154518206211e+01,3.5939648626781618645509297e+01
0,1.5314605079101349716097502e+01,3.1640702051829169505481332e+01
0,1.2744797490114070370736954e+01,2.3006001893927674473161460e+01
0,2.6581260952915734208090726e+01,3.5680202199200856227889744e+01
0,4.6178823328612452314700931e+01,2.6034846012025148809243547e+01
0,2.6485883549330189623560727e+01,2.0634270096088989987492823e+01
0,2.1640749563493013596371384e+01,1.7223266788262932891484525e+01
0,1.8256113198280065290646235e+01,1.0281306106167061642508997e+01
0,3.6570657757614249305788690e+01,2.2411550573978125555640872e+01
0,4.6323461786982960575187462e+01,3.3332690640377215629541752e+01
0,1.6489597972567686667844100e+01,1.4942626411256735963206665e+01
0,2.3428484438902664521719998e+01,2.0287493273739215737805353e+01
0,2.3134855599812663484726727e+01,3.5618586187269556830869988e+01
0,2.9449849192528386510048222e+01,3.1923920575424112655582576e+01
0,2.6411069187716513795294304e+01,1.6195750567079230108902266e+01
0,3.0996314136071767109115171e+01,2.2923480888663732457644073e+01
0,6.0624696516997520490122042e+00,1.2536598206639958164032578e+01
0,1.9589701671036596763997295e+01,2.4222477008938408715721380e+01
0,2.6154824972928917503622870e+01,2.2007758267248256345283153e+01
0,1.4982255035280221733273720e+01,2.3561475833249396316659841e+01
0,1.7595252261728184350886295e+01,1.3212408415752465273840244e+01
0,2.9865380411813010397281687e+01,1.2797101723147388696588678e+01
0,1.3654291510849471791289034e+01,1.1430487939455327150994890e+01
0,1.4526328242850784278061838e+01,1.3767149515553663619016334e+01
0,1.9866205435751567165425513e+01,1.4555202680625372479994439e+01
0,2.5660894035139829583158644e+01,2.6504070029718128864715254e+01
0,2.7224063964302352758295456e+01,2.7648412623476026794833160e+01
0,1.8544464849475296830405568e+01,1.5445780375060397915376598e+01
0,1.7836351972183742020661157e+01,1.2117552140898684598369073e+01
0,1.5347758822460622951666664e+01,1.8266779084136651079006697e+01
0,1.8418857497154718316778599e+01,1.2427865916183824523955082e+01
0,1.8681530341976632314526796e+01,2.2010736626406519178544841e+01
0,2.5765218899528310458890701e+00,3.2639415913399951740814231e+00
0,5.9985160292652377478361814e+00,8.6948313851634821958214161e+00
0,7.4162090182972413288098323e+00,1.3469668061663512048653502e+01
0,1.4621503695438050840493815e+01,1.5890606289852545529583949e+01
0,9.6326406930159151897896663e+00,1.1064965200974182124582512e+01
0,1.3383170937765161312427153e+01,8.3269033979930711097949825e+00
0,1.3528324114262444410883290e+01,9.7827296389270212984001773e+00
0,1.5910160172417592505667017e+01,2.5396574565107872700764347e+01
0,2.7213499341427485944677755e+01,3.5366945375681552832247689e+01
0,1.8841735657677830317879852e+01,2.9831031091787057363262647e+01
0,1.7140650957176720936558922e+01,1.2316828873226679519348181e+01
0,1.9045153380576877566454641e+01,1.3345775757498504532350125e+01
0,1.8890755479230094238118909e+01,1.3793336535573972767565465e+01
0,1.7334278604339445450932544e+01,9.0707172799835618093311496e+00
0,9.0606004168167473267203604e+00,1.1025071230905982844205937e+01
0,1.1712537067749789088111356e+01,1.5787543858448511713277185e+01
0,2.1101332610642707265924400e+01,2.5405707466847712083790611e+01
0,1.1966994374985006288625300e+01,1.4731080302967258788271465e+01
0,1.3694034916783799360473495e+01,2.5412848660082115515024270e+01
0,9.5714213840922095499763600e+00,1.8576983174451392244463932e+01
0,7.8469768616984865161612106e+00,1.0892074244485694833883827e+01
0,1.8331395350557905032928829e+01,1.0483751168777708073776012e+01
0,1.7755610324109525777203089e+01,1.1817977659941924173381267e+01
0,2.3456816140514714419396114e+01,2.1739334074537957519623887e+01
0,3.1161355274287572569846816e+01,3.0317697579777075134188635e+01
0,1.2145175398021198276410360e+01,1.1478682657714504244950149e+01
0,1.3426094006739125674698698e+01,1.2165484707247927076423366e+01
0,2.2406016238569634424493415e+01,1.6798199522483216128421191e+01
0,1.6570202522125040189848733e+01,2.1763397619810014305130608e+01
0,1.0784225968077638668773943e+01,1.2696856726314528884813626e+01
0,1.0629551301068030255692065e+01,6.0178145515799599252204644e+00
0,9.1226489895384190731419949e+00,2.9108142854321572556841602e+00
0,2.2413825974599625112659851e+01,1.9041945271843726317229084e+01
0,1.3395615517308618436231882e+01,1.1367609754475422434438769e+01
0,8.2086353110167529223417660e+00,7.6042035663045606241894347e+00
0,7.9558619608965788216892179e+00,1.4087678386799057150824410e+01
0,9.1079395708156738464822411e+00,1.4887587189568614931545198e+01
0,1.4878888442923104307169524e+01,2.2895259932802265012696807e+01
0,1.0435127646691952918445168e+01,8.5873816372309228484027699e+00
0,2.4917525920375201309298063e+01,1.4115559774201067000376497e+01
0,3.7840688267689451151909452e+01,3.4514804911742444915034866e+01
0,1.4603385130136732783512343e+01,1.4592404542326494976123286e+01
0,1.3723808401799736600423785e+01,1.4934584531118153094553236e+01
0,1.5166342205579852020491671e+01,1.7695760747590316697142043e+01
0,1.0585192831906754307169649e+01,8.7067398958363781957814354e+00
0,1.1777180251329102844692898e+01,8.0212283431750854845176946e+00
0,7.6350453457110640798077839e+00,4.3776146312540937799440144e+00
0,4.1914067961418863816902558e+00,2.7214568416280364715476026e+00
0,8.1175839606091937383780532e+00,4.6912563372246420811961798e+00
0,4.7993058511686239597793247e+00,3.0747852203538856841191773e+00
0,5.2475726485011229272004130e+00,1.1004239548452037666947945e+01
0,7.3044075415943412465935580e+00,1.4876427208842804006394545e+01
0,7.4359413121226891618675836e+00,1.7449288141920625605507666e+01
0,9.7791762220563214214053005e+00,1.0803846485048863357292248e+01
0,9.1048381665561315401191678e+00,1.3450051729895612595555576e+01
0,8.6011528040014599838514187e+00,6.3885801840446241328663746e+00
0,6.2077869165872874290812433e+00,6.9975407248358125755771653e+00
0,1.4384961570774127181948643e+01,1.2801592281000127471202177e+01
0,1.4553331618159734972550723e+01,1.6083621204629249490380971e+01
0,1.2009016167344642056491466e+01,1.2680695493364098069832835e+01
0,9.2559615400770098858629353e+00,1.1049308741473918615838556e+01
0,7.1889784410459407482107963e+00,1.1059491016293208076604060e+01
0,4.9149852921316377063476466e+00,3.0283072797444541279787700e+00
0,3.0117011969386462411080174e+00,1.8286212907786083547989620e+00
0,7.9417836181308105736320613e+00,5.0253538413480285385048774e+00
0,8.0008827482455266988381481e+00,4.5081771083591881676966295e+00
0,3.5081653421760452538080699e+00,6.5017645185004200314438094e+00
0,5.3473153706838765231168509e+00,1.1992928089845824146664199e+01
0,5.6218249375064566208948236e+00,1.8510964997926638631042806e+01
0,3.7730474435566634383576456e+00,6.2464270580202967408922632e+00
0,5.5352067441063557140523699e+00,1.0086210044563117094185145e+01
0,7.2794254932228579235697907e+00,6.6162471058547440705410736e+00
0,1.2970864392941880538501209e+01,1.1823720709215205459940989e+01
0,2.0929232439722895264822000e+01,1.5238463941600699058653845e+01
0,1.0453212355684172507608309e+01,1.0437980176287243949673211e+01
0,8.5361277673967990153869323e+00,7.0930657327857771221601979e+00
0,4.0697098147613681717871259e+00,3.8126708536712676789193210e+00
0,4.0875555480097442995202073e+00,5.0990725838530384095292902e+00
0,2.6415464285040335390419841e+00,1.8173895909756347943897481e+00
0,2.0571544963657668603218553e+00,1.3111689621416204865056443e+00
0,2.3411324005811233739393629e+00,1.6038255266890886208130951e+00
0,3.7036101003453762992023712e+00,2.2928055012199122231209003e+00
0,2.1863516484158331820708554e+00,5.8778783230239701751429493e+00
0,4.7348471716025564148822014e+00,7.7988443428813249980180444e+00
0,3.2204431889888507356545233e+00,6.3504912843329517357915392e+00
0,4.0141542282397004726135492e+00,5.7013124398399153136551831e+00
0,8.2769247844220608101295511e+00,5.0916598273709183786195354e+00
0,5.4042843819063168808725095e+00,3.9570667253687772380033039e+00
0,7.2209333593284963370706464e+00,5.1040306624173954475054416e+00
0,7.1328223953831244585899185e+00,4.9523094238180993542641772e+00
0,5.2549224208882385767083179e+00,1.1176522974520882058868665e+01
0,3.5827779761290510229798656e+00,5.0466593015451639558932584e+00
0,2.9458980100390208534122394e+00,3.0220969952860490259638482e+00
0,3.4219453846951659592434680e+00,4.7196366902778343899171887e+00
0,2.2091785447446676826643852e+00,3.0227027334942118130811650e+00
0,1.3570246864864328184552278e+00,7.1841319147731041994120460e+00
0,1.4495852309641343858004348e+00,1.2987622961511027241954253e+00
0,2.3668799466285115329355904e+00,2.3388060948830000640441540e+00
0,2.7478007813128524361445670e+00,3.6846826156792937823070133e+00
0,5.1750602553985132203706598e+00,5.0582685729419569753417818e+00
0,3.5405518684922956396121663e+00,5.1199235759609358353827702e+00
0,4.0942490697062332571931620e+00,4.5088868954826004653568816e+00
0,4.9803737761868287492461604e+00,3.8708306091456949893370165e+00
0,2.8727810418832318006820969e+00,2.3714120587549500918100875e+00
0,3.1374622764138204722428327e+00,3.2193862183201549242994588e+00
0,2.4130677405890472719818263e+00,2.1042885166572427024789249e+00
0,3.3937137990926671271552095e+00,3.7004003466331880645157071e+00
0,3.2805124182828198087236160e+00,3.7045908720179552275908463e+00
0,1.8725724089424859997166095e+00,1.8160052645968678408650021e+00
0,3.1528737344422315125314071e+00,5.1256639505438625903366301e+00
0,4.5366866878706826327061208e+00,7.4669987073827428503136616e+00
0,2.6979232475729020279686665e+00,2.5699141929585769261734640e+00
0,2.5119022272140139051543883e+00,5.4871778374588684457080490e+00
0,2.9827184507979875860428365e+00,2.3557492816245870770330839e+00
0,3.6892707576049734718992568e+00,2.6907057677511234672351748e+00
0,3.1429801044558005607143514e+00,2.7018955649126299434215071e+00
0,3.5917494225785544514906178e+00,4.9469876374967434173868241e+00
0,4.2057599371673601851284729e+00,4.9885484735738305772656531e+00
0,3.0501308030477125576851449e+00,3.2103710654177484151716726e+00
0,3.3159777053388221901286670e+00,2.6205078264313650393546595e+00
0,2.7211693414919748690294909e+00,3.0359613217261176565386904e+00
0,2.1826672289441053642633506e+00,4.0262958747230852551979297e+00
0,3.7922374168847570174989414e+00,7.7488928029674450925767815e+00
0,4.1443909877715059408842535e+00,6.0739063202066247981747438e+00
0,2.3112078137112166409394831e+00,2.9124494359171233526240030e+00
0,3.4126801169590268436593306e+00,3.5816611817044030630086127e+00
0,3.3373049312808813482433834e+00,4.1014364670735705686865913e+00
0,2.7210811458286308095466666e+00,1.8244903454728751412972088e+00
0,3.2266752118429380402631068e+00,2.1380538899487833148782556e+00
0,3.3084640097538016156875074e+00,2.1665886438352286447184269e+00
0,4.0775494039890727293595774e+00,3.7115080887863625136446899e+00
0,1.9187692854831466249265759e+00,2.0012326244517697482194762e+00
0,3.1796890356376703579144305e+00,3.8960776179758571657885113e+00
0,3.1725018613515647558642740e+00,3.5680135050085413084275388e+00
0,2.7099978190221518659086541e+00,3.7394979418865776921165889e+00
0,2.9210323670384932270849276e+00,2.8003828171257190149390226e+00
0,2.9131868074826963166401583e+00,3.1688920154883368773823804e+00
0,2.8113762496947010127712474e+00,4.5223781120348833795219434e+00
0,2.7789988877609834716508885e+00,3.7837823500650307195769528e+00
0,4.0642167316441879520994007e+00,4.1507193292015385210902423e+00
0,3.0612438950784834901241993e+00,2.8089963753035114280010021e+00
0,3.7738502661399442317247122e+00,4.3849937251524897519061597e+00
0,2.8614781122356927056671339e+00,3.0375477973198545811328586e+00
0,2.9925930995784701948991824e+00,2.8952458370748730409616201e+00
0,5.5697588708402721024981474e+00,6.2798680387264376179246028e+00
0,3.4992870104289153232457465e+00,3.9462496511473186266982793e+00
0,3.2255868588371465754960354e+00,2.7417712573385868424225009e+00
0,4.3272846688304280604597807e+00,3.8181255795995108215379332e+00
0,5.1742471962095093473976704e+00,5.6169101407878976317533670e+00
0,4.2364458140418257414694381e+00,5.2323526378545643922279851e+00
0,2.2540607911708603339207002e+00,3.3522571040770081651771761e+00
0,2.2274590633173367848485213e+00,3.5836215202805781210315672e+00
0,2.9150925862810206368180843e+00,3.3477341004980387673128917e+00
0,5.5870127193619953942516076e+00,6.2944888946980857014068533e+00
0,3.9922566170278512842628516e+00,4.4627987239907342953415537e+00
0,3.3874755997850276578731155e+00,3.1189444732015640937561329e+00
0,2.7591725425565698515129043e+00,3.7630542819401382459432170e+00
0,2.4673177548284419557944602e+00,2.8333806475773899435921521e+00
0,2.1405425101456905245811413e+00,1.7745833181844814507854835e+00
0,3.6970093116248921027988672e+00,3.0701750933480442817824496e+00
0,2.7486022667943137420820676e+00,3.9530353818746668537187361e+00
0,4.5481353714400851728782982e+00,1.1273623322609342523037412e+01
0,3.2306819253399563507400671e+00,2.3872843803132606232964008e+00
0,2.7532998416541691888426158e+00,2.2722695347742383198408334e+00
0,3.8933241743615196739369821e+00,4.3198780305093809062100263e+00
0,4.4328413322579010014123924e+00,6.0425859048145191820822220e+00
0,2.3585737863399232061567545e+00,3.3472585512315644606928799e+00
0,3.3694430385821729778683675e+00,4.9064084858379661824301365e+00
0,2.5997896823636508223387409e+00,2.5679951090655830370224066e+00
0,2.5921453519816077815107747e+00,2.7469367440699907767509558e+00
0,3.0687642856124917045690381e+00,2.6780642232416305148490210e+00
0,3.2146511024675263890060251e+00,2.6084953829623649390612172e+00
0,2.6370595183027827346222693e+00,3.4821178207017799977052164e+00
0,1.5894998794183183843387042e+00,1.7771150849200747501299702e+00
0,1.2821700911988962445775542e+00,8.1531635057719342718485223e-01
0,1.3024950161688422234362861e+00,1.2899646509037279162868117e+00
