Species Id,T_x,T_y
0,1.2054513103276072172320710e+00,4.2553122223549000313624902e-01
0,1.4367818756676027369678650e+00,3.1025518806018492767861972e-01
0,4.1776555245887697642714897e-01,7.5493462775543829224034198e-01
0,5.3560205393164022069640851e+00,2.0968141366225410138213192e+01
0,9.3949477049700576003488095e+00,1.2168729804895509261086772e+01
0,1.4500809942090308268802801e+01,1.5778676510541899347117578e+01
0,1.4525698557547984890447879e+01,1.8123358391357986540981528e+00
0,9.8119367361458618148617461e+00,6.0721799743876680999221662e-01
0,3.9159426181118681675741300e+00,2.2903579613096654021831000e+00
0,2.3380600792129854426093516e+01,4.6192423134368088000201169e+00
0,2.1940606245340150692868519e+00,2.2534062251842525981260223e+00
0,8.9583548945970594701293521e+00,1.0419991843029279721122293e+01
0,1.2008774454396355935159590e+01,1.0134652370620168326809107e+01
0,1.0663710550088234541021848e+00,3.9264538534831765481669663e+00
0,1.5120977229939247532541913e-01,4.1714304745502661653233645e-01
0,1.0011515180354745024882135e-01,1.2669945783155528440389048e-01
0,3.0705196797360967408963006e+00,8.6149459206956036094737783e-01
0,2.4242320555137331083983554e+00,7.7463325511670888534609958e-01
0,2.1462710981465606963070059e+00,8.7965010548632793785372996e-01
0,1.9869206381071022882167654e+00,3.5919203933323480271155859e+00
0,1.6515503701704911776459994e+01,2.4178661966810889083490110e+01
0,8.8789223503543972526586003e+00,7.3982624787203041805128123e+00
0,1.2186332269256256566336560e+01,3.0427647330062228547831182e+01
0,9.9510877395612382656508998e+00,5.0646084394879437695635715e+01
0,1.3263487702272870549791151e+01,1.1368762697018087948208631e+01
0,1.4526867741078502760387892e+01,6.8530486628180939945309547e+00
0,4.6279888556560653256610749e+00,3.7570262351933942923665199e+00
0,2.7399716236973965521883656e+01,2.5877040997282495737863428e+01
0,2.4630544920753397519774808e+01,3.0734245568600787379409667e+01
0,5.0416900442781491520349846e+00,8.1287397225640347642183769e+00
0,2.4934009883247432171060609e+00,2.9172046555751158791736088e+00
0,5.7184206533150261364539801e-01,1.5538657523917187575079879e+00
0,8.5199006998517091915346100e+01,6.3649006566213806479481718e+01
0,3.6944068935659892360945378e+01,3.2175764550510614014910971e+01
0,5.4169765095585518110965495e+00,7.7611737477516218319806285e+00
0,3.3148910574062093736813495e+00,2.1136245499985539808562862e+00
0,2.2047511105185797930516856e+01,3.0136488110177197086159140e+01
0,1.4636523989573092308091873e+01,8.1963735314947285814923816e+00
0,1.5967525188197290830771635e+01,2.7763690724831509015757547e+01
0,6.5525389660190169749398592e+00,5.3307136106289966903659661e+01
0,8.3450868709444012694120829e+00,6.0764905140390794713312062e+00
0,9.7947096461111904375229642e+00,7.3222034044408177422269546e+00
0,1.0725856071735309527070967e+01,1.2222436315099500347969297e+01
0,4.9639230275032275585544994e+00,3.5587364010863242747007007e+00
0,7.7737946574581862080322026e+00,5.1301396309185982147482719e+01
0,4.1394283264986206916091760e+00,1.4891282346948591097657300e+01
0,2.1250867121955705485447652e+00,3.2502153304909686681867242e+00
0,3.1631601866324016159026655e-01,2.0148731245114364085679881e+00
0,6.8516774430372704429714759e+00,8.7260947000838875453609944e+00
0,1.0646009024585131541584815e+01,1.1678812842172444419475141e+01
0,7.9193126121949237727903892e+00,5.1888677715104876142504509e+01
0,7.3611572340779289902457094e+00,1.4376944769532464363237523e+01
0,4.0240551854306820800388778e+00,6.3255423209315955190845671e+00
0,4.8938729248806929206239147e+00,4.2523434525526067062628499e+00
0,7.4837871461759659652557275e+00,4.2178838080800566956440889e+00
0,9.4606824651248988544693930e+00,3.8997741469449507256683773e+00
0,9.5478704011531192463735351e+00,3.2336393777865044540931194e+00
0,8.3603788516426860155661416e+00,3.5656126906394245423825851e+00
0,9.1146362378865966036300961e+00,1.0629592407689225197486849e+01
0,7.4917552255328487831320672e+00,1.1056023777548595887765259e+01
0,2.1640315823123073002420824e+00,1.5066546485681239886389449e+01
0,1.1067281596131698151452838e+01,1.7822146103747151357765688e+01
0,1.2005219935831055622088570e+01,7.5537374669638834845386555e+00
0,1.0899912046402582266324544e+00,7.9528090202476564574141094e-01
0,1.3828929600607979821802473e+00,1.1905734310062003888930349e+00
0,3.4436274326569691339727797e+00,5.2870995987877860144976694e+00
0,6.6786364785469343186008473e-01,1.1076320849092549103431793e+00
0,1.1466862368058034604700879e+01,1.8423803224838870562507509e+01
0,2.9422933628387193394360111e+00,5.9462929607559598110810839e+00
0,5.7901374994599583700960466e+00,3.1530448354484685857812565e+00
0,5.1293676007939446037653397e+00,2.4290179117768411209965507e+00
0,9.9030271911956013752842409e+00,1.5253543124427105581730757e+01
0,8.0940355988991079527750117e+00,4.6295281027228272208162707e+00
0,8.0668030467016400564261858e+00,5.2386294219675590966289747e+00
0,5.2008649473529722229159233e+00,1.2263946155508826052482618e+01
0,3.0009207217500577513646931e+00,9.9209111110323355831042136e+00
0,5.3358558240258577853865063e+00,1.0511298399191254304696486e+01
0,6.1757456290763794726217384e+00,1.8768133055053315416671467e+01
0,1.1082734980903884647318591e+01,1.5125963238232383645254231e+01
0,4.1269733685151450686134922e+00,2.8839477095604437728582070e+00
0,8.4597694293269576348848204e-01,2.4288201840366752115585314e+00
0,1.4035778641868703608963642e+00,1.3926781950264650600246341e+00
0,1.1136222630531800170672341e+00,7.8357305502877871994371617e-01
0,1.5884915232093832493376340e+00,4.6893024557482032577127029e+00
0,2.1166336805630070472261650e+00,3.8096421996409395305249745e+00
0,5.8843077127949854343569314e+00,8.9162241120658745074933904e+00
0,6.4102021386481862208484017e+00,8.2613840959634359251140268e+00
0,8.0336242666803165946021181e+00,1.9940447326853412590708103e+01
0,8.3010826913580313402007960e+00,6.7227341204587416356730500e+00
0,8.9110183222700420913042763e+00,4.6526501198597660646782970e+00
0,4.7623188423846363193092657e+00,7.5096263681733370631832258e+00
0,4.3604591500431162387485529e+00,3.7480100510715699257957567e+00
0,7.5400291594142005990875077e+00,5.9112854237957144221127237e+00
0,4.3956646036825439693984663e+00,8.8492335826563497391816782e+00
0,5.0781453043320317064512892e+00,5.9566470397530064673219385e+00
0,3.1302791638414722008576518e+00,2.6863372106166880648459028e+00
0,4.3731185572745179257481141e+00,2.0153581684576639787565000e+01
0,2.7560357185060899709583282e+00,1.0505937707896926269768301e+01
0,1.4142949490666056888699131e+00,6.2635810900712121096489682e+00
0,2.8688040526035907262780711e+00,9.7265541930434427086993310e+00
0,1.7184829248466275686269000e+00,4.2352725628637664101461269e+00
0,2.7032367394310572450422114e+00,6.4271774445679819010024403e+00
0,8.8875487333400453593412749e+00,5.8594724067290080427028443e+00
0,1.1133971157645985883277717e+01,8.5686721573778861227310699e+00
0,6.1615119007505230186438894e+00,4.4659895809182543757742678e+00
0,4.5784393319515519493734246e+00,1.7690513862597336824933336e+00
0,1.4176125613587750251554098e+01,1.8720358402306690237537623e+01
0,1.6748571143634766400509761e+01,2.3624618152137664139900153e+01
0,2.2176396997113494435893699e+00,2.2750866124892508146615455e+00
0,1.3200842788072404410115723e+00,1.2349529950809632339314703e+00
0,2.2119042259015877505134995e+00,1.6197025576208772257302826e+00
0,1.6197258749894727358764612e+00,1.3034781739082244023109070e+00
0,8.8680946887307976478354021e-01,4.5865888583440772574562061e-01
0,7.3975084936828439108325028e-01,5.2760237315283509129670847e-01
0,2.2520470599572894876416740e+00,3.0831619032899104659861678e+00
0,3.7105855417109712135470545e+00,5.9185567266239944572703280e+00
0,3.9673039107700849292825751e+00,4.4148063226974150197179370e+00
0,3.2732728342880483829446803e+00,2.5416709442583158562456447e+00
0,1.0458691145770078634313904e+01,7.1923475541891468409971822e+00
0,1.0596850639327355381169582e+01,1.6734365395319926506090269e+01
0,7.4421324610872421345675320e+00,1.0128960787585461034154832e+01
0,3.8347268579383420039619068e+00,3.2122759221049959066363044e+00
0,1.0526836927505579311059591e+01,1.3601262452866832219910975e+01
0,1.1739664006079289393369436e+01,1.3444070167915175062489652e+01
0,1.4589485504229551260380049e+00,1.4877304692796471385918267e+00
0,1.5506259197304497199354500e+00,1.1277019388008384659372041e+00
0,1.6655141632681722541065028e+00,1.4043484830811381325332832e+00
0,7.6252931059813500169752842e-01,6.8538725567806380034596714e-01
0,1.0627342328711910646177330e+00,7.6873138631664716946545468e-01
0,2.1439393553652950075161243e+00,1.1639187143239473343214740e+00
0,9.7604614383728449666932647e-01,7.8571761165609677046717252e-01
0,2.6653928954961925157363112e+00,6.8465310299707837771165941e+00
0,3.4608087944075216491057745e+00,3.9774944658714677103716895e+00
0,2.9382426420584959458892627e+00,1.9715650368689321414450433e+00
0,2.6447107657609310038537842e+00,1.2551933818139628940002694e+00
0,4.3735085172930538988111948e+00,4.2482473357201833152885229e+00
0,2.9113509796235454984980606e+00,5.0884528655325045320978461e+00
0,2.5887005722695226594964879e+00,1.3638036875098249467441747e+01
0,5.0134343554282558841350692e+00,6.9592172800108249575146147e+00
0,2.2217212061727318328507863e+00,1.2504057554289520481916043e+00
0,1.8799996821747395614465859e+00,1.3682841764753104207841261e+00
0,1.0805008026283253741439694e+00,8.9128714323306890143783221e-01
0,1.0719775158906679202175383e+00,7.0875509250660617688311049e-01
0,9.7570636608937877376490633e-01,5.7324862256954378647577641e-01
0,9.2422343202644530180123184e-01,7.3778270161210490751813040e-01
0,1.3047034662081147260437319e+00,6.1069471184769197336095203e-01
0,1.2978841449751645775734232e+00,8.7195830036618160452377424e-01
0,1.4934530694861518629323882e+00,1.0143903473529409797748713e+00
0,1.8808255203995147830653423e+00,9.1865410915741185782223965e-01
0,2.6760596356113706129065122e+00,1.9112294984251798624086405e+00
0,3.3236368713812778352689747e+00,2.0257712451033680345346966e+00
0,3.7267638965082690027941226e+00,2.6810552457701271045209523e+00
0,2.2326629938115472029380726e+00,1.1691010343130910698050684e+01
0,3.6555865586209277395823847e+00,6.4042644793776917211403088e+00
0,4.2109467492307146585517330e+00,4.8851566763814462390769222e+00
0,1.7989173845509618399063356e+00,4.3354165084639415539413676e+00
0,2.1600455064864099163912670e+00,2.3927532532545088272968314e+00
0,2.8434507444655325869575790e+00,2.3639419360771025679923696e+00
0,1.3385044784068556023015617e+00,1.5092500312266348139189631e+00
0,1.7179286770656543303914532e+00,1.1776413746687697248205495e+00
0,1.0598284355841742776505043e+00,8.2595272589433588183993606e-01
0,1.4143972122446166750364682e+00,1.2279822116156335898295993e+00
0,1.7905550536457879307050689e+00,1.9669768616902671976021111e+00
0,1.1976113381936666080207488e+00,1.8443665849565471503979097e+00
0,1.9462826982499841221851966e+00,3.3724837264913083423323314e+00
0,3.1654585552622989119697650e+00,5.8459671423044117233303041e+00
0,2.8324465730001167074192381e+00,1.8309817751690633524930263e+00
0,2.7118112044029745177908808e+00,2.2761815667403166862925445e+00
0,3.2790688870732940252139542e+00,8.4409707556220503477106831e+00
0,1.7815875617730574376196273e+00,4.1436464429247976681836008e+00
0,1.9415828368874699094703828e+00,2.9949152633214142227302546e+00
0,1.7893126355941411098626759e+00,3.2303360990096439131491479e+00
0,1.3153744506015545567834124e+00,2.6623226078334973898620319e+00
0,1.6668425641803310544020178e+00,2.8882682999109792199021740e+00
0,1.0940961871609466982135928e+00,1.0517639797954461133855375e+00
0,8.5967025076120928694933809e-01,7.8635818909189980630003447e-01
0,1.0496482387715913020542757e+00,7.5561614869574778019511996e-01
0,1.2355712710214070693126587e+00,1.0978158399685997714811947e+00
0,1.4242051797662911294395371e+00,1.6515480202977139700948328e+00
0,1.3675067018675022278983988e+00,1.8517426546603619197384205e+00
0,1.9299345504499092474048894e+00,1.9196479757678994726433075e+00
0,1.9234070412894139767701063e+00,2.1641146538971511859017482e+00
0,1.1582602085751543263825170e+00,1.2265136116453201342579860e+00
0,1.2480432017075036021935830e+00,1.3699126617726240517924907e+00
0,1.6603023505056038189309220e+00,1.5394810696145841966142598e+00
0,1.4312236989754825167153740e+00,1.3721342634265749627076048e+00
0,1.3621019285376991803104829e+00,1.3036356559630148943540462e+00
0,1.6963055371628095180369655e+00,1.5612463624853982757656468e+00
0,1.0985916609961536849482400e+00,1.6942734732083897242205239e+00
0,1.0020437303120321992366826e+00,1.5319699826022659117086278e+00
0,1.1546848629743413638948368e+00,8.7040533906319195178724613e-01
0,1.4060395499034377131408746e+00,7.1960547895581106203621857e-01
0,1.8733710144858968238423813e+00,1.7618460998074858547823851e+00
0,1.9016373467208422809449075e+00,2.6798538805483271829643854e+00
0,1.7259254503739493991076870e+00,1.3843146585977919027499183e+00
0,1.2210345007311280696171707e+00,1.5089669970308170476869236e+00
0,1.3425421125397223320874218e+00,1.4937313200138675473027661e+00
0,2.8888736952628990550806520e+00,4.1612247251478891030274099e+00
0,1.2935938807647739956507849e+00,1.7617609098958855184946515e+00
0,1.2736968302721862755788607e+00,1.4617850355859762778720778e+00
0,1.5515660880910737695614898e+00,1.5351768138688095532984335e+00
0,1.9098703127211851260369713e+00,1.3435198517747419799661657e+00
0,1.4789765333761932808442907e+00,1.3189302744158075686442544e+00
0,1.4074962785236955209455800e+00,1.2555846956095357835891946e+00
0,1.0349341889995236076771334e+00,1.1901529611104586514613857e+00
0,1.1014530762197569657701024e+00,1.3004976784751631768699554e+00
0,1.2756799894745962653530569e+00,9.9199392288685472873766003e-01
0,1.1524318685287733288191703e+00,8.1404780417981703610763589e-01
0,1.8437709306378258222736122e+00,1.2013351903396483066899236e+00
0,1.8807115348461873605145911e+00,1.7281102352972470548309047e+00
0,1.6057222483922624078900299e+00,1.3056696379643748517906943e+00
0,1.3062702536396852970312921e+00,1.1632356703990307522644798e+00
0,1.3638935098431390624540427e+00,1.5353322949496905902577737e+00
0,2.1060711238852185545056273e+00,3.8726797885677477495391940e+00
0,1.4286983291715733557225576e+00,2.1669575763417059377502483e+00
0,1.3745714739697636463944264e+00,1.0063280985087481589346226e+00
0,1.2004363599875984558451592e+00,8.8602454815602371684946093e-01
0,1.9237270514370423679650912e+00,1.8528342947367089088572811e+00
0,1.3640175417222011322593289e+00,1.6633232678980289787062929e+00
0,1.1294729715207991738168403e+00,1.2977696928150768140852733e+00
0,1.0556665034996501884023701e+00,1.0930769381249600957772827e+00
0,1.9240282478561083756574135e+00,1.3008127770858526339736727e+00
0,3.2646302430870295374631951e+00,1.6343969966159876960887232e+00
0,1.0404473490816861236396562e+00,9.4383349551323236781286141e-01
0,1.2818866110022641979782065e+00,1.0546096446761474840769779e+00
0,1.3860091810611769869154841e+00,1.2171462944246125292835359e+00
0,1.2838572082277379671211293e+00,1.1931055225821252108175941e+00
0,1.3221213141655505651783642e+00,1.4048063231199972022977818e+00
0,1.3044217714956896081446303e+00,1.1443251042543634010684173e+00
0,1.2033977996840770074982174e+00,2.5332739561582942044992706e+00
0,1.1433624263215134142512852e+00,2.1124762642011729596447367e+00
0,1.2953400863439137324917283e+00,1.0788188585223750237673812e+00
0,1.8731224705059343893509549e+00,1.0775412283977019445302403e+00
0,1.1673998299810399714715459e+00,1.3577436046377775458182668e+00
0,1.0120261848752758471192692e+00,7.8718572660926766637601304e-01
0,1.2282131373448244016088893e+00,1.1160839293084399148625607e+00
0,1.2107761730009451994760639e+00,9.0607034206950998189711299e-01
0,1.2976001369667811147223802e+00,9.6858711201627090137122877e-01
0,1.4594830218813537037192418e+00,1.4042058643003010320882140e+00
0,1.9766077411206215419525734e+00,1.5762311531715695878119732e+00
0,8.9160993594865367573021331e-01,9.3567736560069658668936654e-01
0,2.9719719374325670457892556e+00,3.2391826780416339559565131e+00
0,1.5627398184238250333777387e+00,2.5795964825759840621799412e+00
0,1.3030529806882285015490197e+00,2.7048218805893826655051271e+00
0,2.8775819859685580759389723e+00,2.7433107570961885457450080e+00
0,1.0615966567341572623917045e+00,9.6202066380246953336552451e-01
0,1.1471948162348744038041559e+00,1.2215450950894672921265283e+00
0,1.0366573854499789852923186e+00,8.7348281547577533157067364e-01
0,1.3449107207266977059845203e+00,7.3288006436921926400884786e-01
0,1.7092014537305186827609305e+00,3.7213124777743882276581644e+00
0,1.1212658083299358313666971e+00,9.3843177533515687027687591e-01
0,1.0215604157774151872217772e+00,7.6428605766629931217437388e-01
0,1.1558626893338861396642869e+00,9.1602569900846320116727384e-01
0,1.0501195551792337212759776e+00,9.1119550180742447942350282e-01
0,1.6731818808923013541800628e+00,1.5988093630789290688909432e+00
0,1.5895119167304911922400379e+00,1.3427176816534458492213844e+00
