Species Id,V_var_x,V_var_y
0,8.4091277209330850261892465e-01,1.2489930706221250567011793e+00
0,9.0979174227613102132750100e-01,1.0609164586318864387237682e+00
0,1.0988543663391443505616962e+00,1.0119357636672106082187383e+00
0,1.0043856202605809802008707e+00,1.1609377206160165219017699e+00
0,9.4096690918671521686178494e-01,9.8675200257861028774186707e-01
0,9.3428086360252815545379690e-01,1.0697594961196574825379457e+00
0,1.0998677899928352985625679e+00,1.0127028845372292309434670e+00
0,1.0429998230514587742590038e+00,1.0000181324803634197451174e+00
0,8.6418544909424388489327384e-01,1.0879084172091804116888625e+00
0,1.0201886933950050639907658e+00,9.6038799815874165144435892e-01
0,1.0885111024937248469512951e+00,9.5838347340317331379822008e-01
0,9.1847633865456967949825184e-01,1.0799121045746891134342604e+00
0,1.0559245664466803127368166e+00,9.7985212809153232615955176e-01
0,1.1028418095583130131842609e+00,9.5001418098547263380027061e-01
0,1.0857357874332620450985587e+00,9.5179091526201653472583075e-01
0,8.5173470817487861861394549e-01,8.3204833069723027616504396e-01
0,8.3319733077627289308253467e-01,1.0091562779290554896505228e+00
0,9.7434476550813919892846116e-01,1.0771222029851359458518800e+00
0,1.0194684773129014665471459e+00,1.0726107471331758347332652e+00
0,1.1154592446679181261259828e+00,1.0736750282577980364351333e+00
0,9.7984638392018519326143178e-01,9.3445055989637348936582839e-01
0,9.8261147472767751409605808e-01,1.0432982912954622545242955e+00
0,1.0709740259568003573065198e+00,1.0634458789163607761452113e+00
0,9.9817987064660473883748182e-01,9.8961469774013099964804496e-01
0,9.6662108913001887344762508e-01,1.0901151577074077447804257e+00
0,9.4332765643668392563370162e-01,1.0999463049461271069162649e+00
0,9.8307999937632040143853374e-01,9.4111476191867859952822073e-01
0,9.6410077650299619289597786e-01,8.7164793287442288161059878e-01
0,1.0439237176012130525748489e+00,9.1866069664299931929463128e-01
0,1.0215496844936933218406239e+00,1.0749117293644729898005608e+00
0,1.1138286327247075568891432e+00,9.5737905269745759984090228e-01
0,9.0145056107278098700419378e-01,1.0050080556550393673376220e+00
0,9.3107583596340193210494363e-01,9.5339390622395159269331089e-01
0,1.0672060971318433342247545e+00,1.0587005468991852463744863e+00
0,1.0290128927422514948375465e+00,1.0472055234360653219738424e+00
0,1.0942109965648312286390365e+00,9.7295560275505676983698322e-01
0,1.0072338764169310731944051e+00,9.5185736900196271648155744e-01
0,1.0090967348411190585011354e+00,1.0912804366879664819123263e+00
0,1.0969870824893588334703054e+00,9.9452914664866354232941603e-01
0,8.9383962930127680568404003e-01,8.8282296032309592881404114e-01
0,9.2978126896746138285720917e-01,9.7463119893310501407057700e-01
0,9.4800028151127024855782111e-01,9.5214206957818892096412355e-01
0,9.9579603492570223366442406e-01,9.1982363721136861656191286e-01
0,9.9446941277769651534867990e-01,8.2110303438181986290800296e-01
0,1.0348876588068505188999779e+00,8.9688472683842690447164614e-01
0,9.2834117653294478955672275e-01,9.0968347380583880479321124e-01
0,1.0222518536211628870091772e+00,9.8598454848707794972995089e-01
0,1.1401863977228996471779965e+00,9.7259968638776006510937577e-01
0,8.9738755461941310809237393e-01,9.6353904495905984273207423e-01
0,1.0309109927932775807590815e+00,9.5690426673219530773195629e-01
0,9.8450155061928357191902705e-01,8.9762434626088893896422860e-01
0,1.0710723781991542402636242e+00,9.7577054469039470330216091e-01
0,9.9912508989602455411471738e-01,1.0365305960512714023025183e+00
0,9.6163438046435234518583002e-01,1.0096956633618061616175510e+00
0,9.7660935495107281667515053e-01,9.8171240209746502003440582e-01
0,8.4865669496392825976727181e-01,8.6437288629288300256803268e-01
0,1.0138964274257533659806541e+00,1.0124951854120638472522842e+00
0,1.0217927210371433588420587e+00,9.2466630518250014780790025e-01
0,9.8816515512236513529842341e-01,9.3786293371253459660863427e-01
0,1.0764789748583067918730194e+00,1.0240338420601473590210162e+00
0,1.0069474147616541692684677e+00,9.8838845919396811634527467e-01
0,9.8885419869452562124934047e-01,9.8239619692769264425180609e-01
0,1.0497946204072068354662406e+00,1.1140031036179216528125835e+00
0,1.2096093689989868558143371e+00,1.0268372267895180538488376e+00
0,1.0583034014512442411160009e+00,9.6215823264721445085001506e-01
0,1.2239708691889203961977728e+00,1.0266674336260277478061198e+00
0,9.3255265803756359765941397e-01,9.9306160671066967537967685e-01
0,9.3707773771957048047909211e-01,1.0451486895322288361853680e+00
0,1.0623770753227763652404292e+00,1.0933694673550360398905923e+00
0,9.6857645663284464010445163e-01,1.0453644275609663694126539e+00
0,9.2892572577453946802705786e-01,9.6093024697699658265293010e-01
0,9.5602170608685521635550231e-01,9.6094609571019595772867206e-01
0,1.0181584136665704498625473e+00,9.9421856509134798329796467e-01
0,1.0757738111811674386331106e+00,9.9116763339446478653371742e-01
0,1.0053762702422568420246307e+00,1.0031997954970903741411803e+00
0,9.6111261473408782229910230e-01,8.8978933722287556484786819e-01
0,9.2438779408097548895284490e-01,9.5540260152098110957297195e-01
0,9.5445472091969263406241453e-01,1.1567681320877356565546279e+00
0,9.3193335025030821228142486e-01,1.1469299746192300748504067e+00
0,1.0320555703081824017175450e+00,1.1224810190541356647031535e+00
0,1.0447386391529474014561174e+00,9.7480740026866730119081694e-01
0,1.1371453005522034196417280e+00,9.6102483776469194154401521e-01
0,1.0823631909565236686177059e+00,9.5009598503519709922215952e-01
0,1.0718191681028725881219543e+00,1.0022436512210579628856522e+00
0,1.1015117293828247113651742e+00,1.0209588394631607943807694e+00
0,1.0927114631855827653339475e+00,9.7566971442543937165225998e-01
0,1.0213022140389362846235599e+00,1.0427976654369808251487939e+00
0,9.4666768727997152588216068e-01,1.0544805820007221441869660e+00
0,1.0150441770216789283409753e+00,1.0215046041029616219475429e+00
0,1.0478585082834468433787833e+00,1.0577749154171232071064424e+00
0,9.3329886460245004009550485e-01,9.8832209243460067416009451e-01
0,1.0169221681724791572776212e+00,8.6233430660883092500057501e-01
0,1.0189343874400187406337182e+00,9.5383488365569735201177082e-01
0,1.0115906215181393879021243e+00,9.8673377909800197294032387e-01
0,1.0217278766627200248251484e+00,9.5696195161720509769764931e-01
0,1.0225796226640841979360630e+00,9.5288815144418204106102621e-01
0,9.2941712067937709562670534e-01,9.1396548626539209081443005e-01
0,9.6299407195380581914179174e-01,9.7732859523688064840030165e-01
0,9.2700736066729871875935487e-01,1.0001772967888324927798749e+00
0,8.0942868169854886861713794e-01,1.0620240544736532228853321e+00
0,9.0253100846401701495835823e-01,1.0931270250156501777638596e+00
0,1.1355682414386598644284732e+00,1.0252123695753621035464676e+00
0,9.8377728742618253399143669e-01,1.0492864955347136479701931e+00
0,9.5135100538732875197212024e-01,9.3812415927099745971418088e-01
0,1.0387441814018183450230026e+00,1.0106878537854369071169458e+00
0,1.0128121408788777202403253e+00,9.7957640111999122467523193e-01
0,9.1744682804940791420733603e-01,9.3773967106794198222985415e-01
0,9.5904433278691081365963100e-01,9.4429779418835768645124062e-01
0,9.4422537033623687996453100e-01,1.0131494680937547236965202e+00
0,9.4696313937373544078468512e-01,9.5587782629434814296587319e-01
0,1.0461179245805056758911178e+00,9.5747420776300795619562223e-01
0,9.2235765078164666519455750e-01,9.9381897966967391866432990e-01
0,1.0265876259681785409583199e+00,1.0949566557965817459319169e+00
0,9.6146594276003483070525135e-01,1.0954648776924087449913259e+00
0,9.4016266264488312920377666e-01,1.1207445731243423914236246e+00
0,9.6541070504586878886499335e-01,9.8936739106593396542166374e-01
0,1.0288190015085891815260766e+00,1.0189126206131859930792416e+00
0,9.9636565711697389069456676e-01,1.0397465007691601979189500e+00
0,9.4601344161085554329559955e-01,1.0667787850440637598126159e+00
0,9.6334278885866519992475787e-01,1.0301656731586321669169592e+00
0,9.4231972484621473462595986e-01,1.0448185026135754505105524e+00
0,9.3500686594380155725048098e-01,9.8197918585911025957102538e-01
0,8.9876677681369765426921958e-01,9.3647693138135557067158743e-01
0,9.6807086781697793131939989e-01,8.7722627221239646289063785e-01
0,1.0310439541959244280633357e+00,9.9033775090639020177718521e-01
0,9.2366298134502300420933807e-01,9.7723299191793677742623458e-01
0,9.8488884300682200123588927e-01,9.7434250044623338382621114e-01
0,9.6570191074002909026319230e-01,9.4779159954391967168874089e-01
0,1.0626901444659417883542574e+00,1.0894775405156782444038299e+00
0,9.6013939477098486641182262e-01,1.0494090760760172997834161e+00
0,8.9523101651850356397233099e-01,1.0587587381890228854786073e+00
0,1.0102048565833636750710411e+00,1.0879402539953537676353790e+00
0,1.1562759589781421709631104e+00,1.0201150304393384882217788e+00
0,1.1160010067146775014634841e+00,9.2742002058727046609476474e-01
0,9.9521597942675377179710949e-01,9.1629188968509378554472278e-01
0,9.4797064596557345517169324e-01,9.7769787970623822648263967e-01
0,9.7202284757576085105768016e-01,1.0546332606916322127688090e+00
0,9.3658315084813192896717737e-01,1.0428259050029640153667287e+00
0,9.0335978575006370405731104e-01,9.4758430271206228745484168e-01
0,1.0302717682536652876734706e+00,1.0513057501317626396541982e+00
0,9.9058870353515382500830810e-01,9.8387865609282887380260263e-01
0,1.0622118650989391674954732e+00,1.0173708872777236233986287e+00
0,1.0746619736167353220679388e+00,1.0640061789057859709117793e+00
0,9.6926242905860804377482509e-01,1.0274667867342472948877230e+00
0,1.1363942109830753590671293e+00,1.0064391001746886278311877e+00
0,9.5299942830351991318593718e-01,9.6785367096042662637955800e-01
0,8.3941978559536822857012339e-01,9.7159418777124306743075977e-01
0,8.9014950674752535419997912e-01,1.0474839555962724979565337e+00
0,1.0419228767929611390030686e+00,1.0377730473203166106088702e+00
0,1.0375761112346104653170187e+00,9.4769273196717285223655836e-01
0,1.0060150793548336967120349e+00,8.9236595090093118187724031e-01
0,9.5443206153628123988852394e-01,9.6159549882510564344784143e-01
0,9.6655191745828050731148551e-01,1.1227691529503363021547102e+00
0,8.8951489783050030624167448e-01,1.0368631869224032016063575e+00
0,8.5743653818705056757210059e-01,9.8315138163219151223870540e-01
0,9.2677993311741657667113259e-01,1.1330840298674009769541726e+00
0,9.9337632373063444735095118e-01,1.2396811831615242027737622e+00
0,9.8981374032304869636789135e-01,9.2037986525581994001754538e-01
0,1.0904480421668512057919997e+00,8.9276369800487132000199608e-01
0,1.0222407318616024696211753e+00,8.4642946096085980300927076e-01
0,1.0924011396559096809255607e+00,9.3352610986969031259263829e-01
0,9.5980134739638234275815876e-01,9.8793524976586954977619826e-01
0,9.6225229365759212818431934e-01,1.0037144308524175162489200e+00
0,9.7486277619249195325323853e-01,1.0054890707942967242871646e+00
0,1.0805883575560515375002524e+00,9.0442164958351378700740497e-01
0,9.9758333670141863258606918e-01,8.6763865980691523560608402e-01
0,1.0829490976296427540148670e+00,9.6197206576228366792236102e-01
0,1.0130889793687902766805564e+00,1.0329011029743300209560175e+00
0,1.0032307313146473504161804e+00,9.9544965100023241610927016e-01
0,9.1867612520579666757214454e-01,1.0341184214225396242881061e+00
0,9.1633440265097243493386259e-01,9.6038382706367597663188462e-01
0,1.0000803943194038758690567e+00,9.6467011493818843881342673e-01
0,9.2005856538380414999522827e-01,1.0996259018624281456055769e+00
0,9.4680712084618379176248482e-01,1.0546898734121721297185559e+00
0,9.3619845207606855463922102e-01,9.4944507366434072181959891e-01
0,1.0666696522979717265400268e+00,1.0909278151404191437023883e+00
0,1.0822296942081193193985200e+00,8.2718190814655900844343250e-01
0,1.0333780042775941865329514e+00,8.6518729184458742498264883e-01
0,1.0045443287123254627601909e+00,8.8690333213340766249643821e-01
0,1.0205231185248777592278202e+00,9.3872584582512552664468330e-01
0,1.0290587487553268797313422e+00,9.8700434058442998441762484e-01
0,1.0856491345279528637490785e+00,1.0068765322299104703063222e+00
0,1.1686928129409361876156481e+00,9.9436601052815809520524226e-01
0,1.0819252709657947164600955e+00,9.7763393974074275227792441e-01
0,1.0685137485901901044371698e+00,8.7931395932812950189116918e-01
0,9.5334334533473918948942583e-01,9.5842251342886886078531461e-01
0,9.7770252620494180195720446e-01,8.9883322488642414249682133e-01
0,1.0618642870094734398378478e+00,1.0514816281950554177626600e+00
0,1.0589154356385561683850938e+00,1.0600787333592820438354920e+00
0,9.3678396134012209550689931e-01,1.1804226778110593620851887e+00
0,8.3169151880381031460842678e-01,1.0277866443740959478958530e+00
0,1.1628553384346207444366428e+00,9.7323533104347104139009161e-01
0,8.8253669015652269624894188e-01,9.2447772280495310592840497e-01
0,1.0157500777117711709962578e+00,1.0844831710322950790725827e+00
0,1.0510360153954514395024944e+00,9.5430898879170245052705468e-01
0,9.4126408225652924421922307e-01,9.5349717326860994326409582e-01
0,1.0499858308249163663106174e+00,9.9342694829904809594722792e-01
0,1.0054078553963279318850255e+00,1.0572069813496511869743699e+00
0,1.0647536254879352846103302e+00,1.0274519165302633538772170e+00
0,1.0083251979223635252935765e+00,9.7653734247656087674727132e-01
0,9.6551842705932400257040626e-01,9.0122055898631259207576250e-01
0,9.7960641373594214975639716e-01,9.7073771663105179463570948e-01
0,1.0357923238831561185691044e+00,8.9584095427311416504068120e-01
0,9.7939080010864443259777090e-01,1.0581508632349523324478469e+00
0,9.6482926403569080342492725e-01,9.0836821022664548941349949e-01
0,9.2820300997550186927753657e-01,1.0306291009180621465191052e+00
0,9.3569003532693262314978710e-01,9.6089512150249312139038693e-01
0,1.0976337253992489717546732e+00,9.2051592419568417646758007e-01
0,9.2131147255768364168204698e-01,9.9324257226996648384442778e-01
0,1.0018674449408941917738503e+00,1.0589538412757224516980159e+00
0,1.1281885397541817628308536e+00,9.8445408432958680933211326e-01
0,1.0514056312509150181710993e+00,1.0848657999849429245387000e+00
0,1.0113394335642658106166891e+00,1.0650605752128170511383587e+00
0,9.8252265704417296454664665e-01,1.0338313392042179916785472e+00
0,1.0431357063283044350754381e+00,1.0377361643266329593870978e+00
0,9.6194177421093818303177159e-01,8.8446612343622421636979425e-01
0,9.4005451910099546708465823e-01,9.3230332894175882429976809e-01
0,1.0577503212791778963719480e+00,1.0241674922718637663621166e+00
0,1.0217066779937074016970655e+00,1.0387365619563455609863922e+00
0,1.0373622519708565192786409e+00,1.0074000933930404855232155e+00
0,9.4735207989824621321872655e-01,1.0412344830501698567104540e+00
0,1.0116241742721223673129316e+00,1.0577441162611973535234711e+00
0,9.1254552413757239470726290e-01,1.0380020042053492712597063e+00
0,8.8699625477376620175107291e-01,9.3020464258589263817356141e-01
0,8.6742820526726149843455005e-01,1.0252621679246851638112048e+00
0,9.7597488354490935513751992e-01,1.1182711901321160663513865e+00
0,1.0252766256321932392125973e+00,1.1262115637649259269892354e+00
0,9.4813723706172325922381106e-01,9.8316472242905494915987674e-01
0,9.2443164830423651956436970e-01,1.0418894265370064466935673e+00
0,1.0129510825104210969271890e+00,1.1497528313043732239862038e+00
0,1.0318401216922645780016410e+00,9.5861127380347621596001773e-01
0,9.5625678283877668661716598e-01,8.0654450422216117377871569e-01
0,9.4604743499795485028869280e-01,9.8527607542512329885653344e-01
0,1.1505992199129657649336878e+00,1.1553078181876841323827421e+00
0,1.0296966600217738463385331e+00,1.0746839710141025125977876e+00
0,9.6205677052278049110611846e-01,1.0271436543843504018980184e+00
0,9.9850736356589075981560200e-01,1.0462479582203774164383958e+00
0,9.1896579152091562026072324e-01,1.1114086951521255919317355e+00
0,8.4916849950954520487300670e-01,1.0149564941625235370281644e+00
0,8.0826732685498370312160432e-01,9.5984879130722589035684678e-01
0,1.0043671198316421744323179e+00,8.7687193192836854205296504e-01
0,9.7220362427679518635414979e-01,1.0368917458072481885267280e+00
0,9.5243015721070412027415841e-01,1.0720677356159036275329299e+00
0,1.0244824400290377663935715e+00,1.0309114138648749481319555e+00
0,1.1121329478162049753109386e+00,9.2570648795550813936472423e-01
0,9.5356127448087313336344550e-01,9.0404363730523429332208707e-01
0,1.0834686854517288079335913e+00,9.5505904324783541525789587e-01
0,9.3016318291591515432514825e-01,9.0401262645077040680519076e-01
0,1.0257432864991447019065163e+00,8.9634547558058519367563122e-01
0,1.0245233550561905211395697e+00,1.1143906504431955184486469e+00
0,9.6644476067685292086650861e-01,9.7852917124189697783975816e-01
0,9.8934905882021950684901412e-01,1.0874808338408099572802712e+00
0,1.0472123391863734642726058e+00,9.8271353036298347838339851e-01
0,1.1237125401468213148348241e+00,1.0930355516189946829541668e+00
0,1.0229679147086110369002654e+00,1.0538563668754390434401103e+00
0,9.1290263249278780222084606e-01,1.2603819081585663219868820e+00
