Species Id,V_Avg_x,V_Avg_y
0,8.2152038516392988931613672e-01,5.7521459855251799719866312e-01
0,7.7522557374278600050843124e-01,4.0422148655758816104821562e-01
0,9.6801273666259635142239404e-01,1.1014854039670161078845467e+00
0,1.4737071686408220738684349e+00,1.5050484943199051723894399e+00
0,1.9764295607579511759865909e+00,1.5294655085434629704366216e+00
0,2.0303629928030870743782543e+00,1.8518192000089752635716422e+00
0,8.5679738959176576784670942e-01,8.9115055560560138547820941e-02
0,6.1800581520726298734302873e+00,4.1739187166805793438584260e+00
0,2.9490810337605566360252851e+00,4.4604321836966374092980914e+00
0,-1.0436655707344588694951426e+00,2.3637588812690517592329797e+00
0,-1.4028607593879154347149552e+00,1.9894150553702178996218208e+00
0,-1.6291675147308748439201054e+00,1.3529921555398487509336292e+00
0,-1.0382217299225837692233654e+00,9.6280349500144080110430878e-01
0,-9.6238470861567682046455730e-01,2.1963437931287312920858312e+00
0,-1.4234590064557359756491906e+00,1.3273484654473663990614796e+00
0,-1.5960849460254351583898824e+00,8.7931591131639885716708704e-01
0,1.5991536977065414770748930e+00,3.0035253732047064723076346e+00
0,1.0078998577472719766490172e+00,9.3709083125549708093160461e-01
0,9.3053598260558989530011331e-01,1.0541270710725825221487639e+00
0,1.1645378495369378413215600e+00,1.0744865642805589978081571e+00
0,1.5836091181398466165575201e+00,1.2446059109371063744475805e+00
0,1.9789988858269478289031440e+00,1.3994450017210875447659646e+00
0,5.3137457991470959939306340e-01,1.3831407691233597034852210e+00
0,8.8001179953081831719430284e-01,1.6556921901521821638425536e+00
0,2.5243144663969148133730869e+00,2.2811339770301111151695750e+00
0,-5.4261935876949451973416672e-01,2.6108330265016355120621938e+00
0,-1.0025235882005061327504336e+00,3.0808090848025742047866515e+00
0,-2.8078479633078323729478143e-01,1.2543536186636192741872264e+00
0,-1.3394373830473631503679144e+00,1.2750201191328414118686396e+00
0,-1.0451581240941536510291598e+00,2.0907219844673745612340099e+00
0,-1.4150755070550129488538005e+00,1.8114449808730443969295720e+00
0,-6.9182222009530180972802782e-01,1.2650549783157447603088031e+00
0,-1.2613137014175277439420597e+00,-1.2778398257883243349652957e+00
0,1.0047009673719122790913616e+00,2.0184409820633225640662545e-01
0,1.6615090690382474658548517e+00,1.2738702424323786743798337e+00
0,1.3051847854783864555372475e+00,5.6300573165356238014567225e-01
0,4.0692208554996006641957251e-01,1.5471437848621834021400900e+00
0,8.8925530663263563369014264e-01,6.6704697586231675998647006e-01
0,6.7205559809404524784781643e-01,2.5564982309928496739814818e-01
0,-3.2117222387205011935318311e-02,2.2768439928116448456307808e+00
0,3.7109879689588398665733848e-01,2.0360749510286408892056897e+00
0,-2.1928697952856326947035370e-01,9.1503408803187058495609563e-01
0,-5.0909438550480123897301610e-01,4.8797144321432639468838488e-01
0,-4.2709617849953940282858866e-01,-3.8302821761460864591342101e-01
0,-1.9818240875833643688253005e+00,1.3648253180357188263371881e+00
0,-1.0773209830771466322119068e+00,6.1839932531121577508059772e-01
0,1.1079883991884476035494345e+00,1.7936944603123374797348788e+00
0,6.8021702440437192827005219e-01,9.8977415522991574192701592e-01
0,3.8055686449946973803903916e-02,-1.5377246029319036058069514e+00
0,-3.2480674421006786034560321e-02,-1.0292658318198610878368982e+00
0,4.4914354175992976525577660e-01,-4.5815356717012928333687682e-01
0,8.2596108699931458652088168e-01,6.7377363948746743504969459e-02
0,9.3661883656068045667097977e-01,-2.9658209647779676387813197e-01
0,7.7226251120511935077672661e-01,1.8770725684396452614954853e-01
0,1.5030404902774832098799607e+00,-1.9638659209519387927045386e-01
0,2.0793830869494595026125694e-01,9.6727704447949414134910739e-01
0,-4.5486312235075987420174215e-01,8.3679853791868458179337154e-02
0,-4.6906713344024153489186801e-01,1.1268115493061641174676879e+00
0,-8.8078609564620236049847790e-01,-1.2811632462939617771446876e-01
0,-1.2399895125605910894961426e+00,7.6432538794634385936888066e-01
0,-1.5064454300437095657372311e+00,5.2388320204314020589464462e-01
0,-8.3735652336451149579943376e-01,-9.1519179789895876986349776e-01
0,6.4532064454821735921541404e-01,7.2819333872613217772951089e-02
0,4.0024251840829738746663224e-01,6.8719711113154946513503774e-01
0,2.2313547578792491954402522e-01,-1.3880409796357646712294809e+00
0,3.5181305785143673903192507e-01,-3.7012418561429910601745519e-01
0,4.6656439404677613191907426e-01,-2.6530661896406637634271419e-01
0,9.7960726356176874851655612e-01,4.3080966006108872834445833e-01
0,8.2758176104816072449210651e-01,3.3758940371104628752618737e-01
0,9.5721075118160559025426437e-01,3.0620833711977941682391702e+00
0,1.3058100976562159178939737e+00,1.3556375922908860953697285e+00
0,-1.6083558831078323403396269e-01,-4.0205997273356747223616026e-01
0,-3.2085181806004736682069733e-01,-5.0747980483834602416504111e-02
0,-6.0072920184791667175261409e-01,2.0386854909298662841266037e-01
0,-4.7046304134457728185481074e-01,4.3076573697785885963540409e-01
0,-9.3887308604295738323486376e-01,6.6675738947977958304136337e-01
0,-1.1935711719199850744388414e+00,-6.7644647017281386847109559e-02
0,-8.1990700512454861570432740e-01,-1.2016441246160987077473692e+00
0,-2.8127945095410611386910205e-01,-7.9619839384746460275721347e-01
0,-2.4392830972250065246775819e-01,-1.1004658091547037113144825e+00
0,-3.5667364715727939428191462e-01,-1.1645351579812568409977303e+00
0,-1.8581655901495280902580021e-01,-5.4035291943121699365093491e-01
0,-6.7491053519683141814766714e-01,-9.4801614161265562730207535e-02
0,5.8208201796024916507832359e-01,-5.8697479925129369959790893e-01
0,1.0211630738796282358293865e+00,-1.4546755003266373384995802e-01
0,1.4789504302252801104522462e-01,1.5350120924979686609646023e+00
0,7.8413905701286112925885163e-01,1.0615344753427595758665802e+00
0,3.4366617085340933623882620e-01,-4.6408327075752792145735270e-01
0,-5.9038752311793296634334638e-01,2.8044577953812310777692574e-01
0,-8.4287247668151499269129090e-01,-1.0300893984662862212786649e-01
0,-6.9779808252448083383256972e-01,4.9848923675242284847541896e-01
0,-8.0290383987525670850260440e-01,-3.8520511516889122116680255e-01
0,-1.1813716829831046872811839e+00,-9.1267987948429318834087098e-01
0,5.6507888032345643392062584e-01,3.7871553771961480316932125e-01
0,-3.9651725281791089239291637e-01,-8.6074913457142065986715807e-01
0,-2.7140232149946336148715886e-01,-9.2387424251097127747556215e-01
0,2.2393144019399360833411095e-01,-9.2233442615181826518266917e-01
0,2.6580433459658941997005854e-01,-8.2216626330622044616092126e-01
0,2.1303905058309427489326993e-01,-5.6446162035472613460740376e-01
0,8.0328505047075304812409513e-01,-3.4038525836453975559336982e-01
0,6.4786096228004852459747553e-01,-4.7071427244429148162296883e-01
0,5.5757734211446841054993229e-01,5.2959953113881452768652025e-01
0,5.2660537331482060174892013e-01,-4.1200710762781108872920832e-03
0,2.4252511778570770561991310e-01,-2.8020489405616300082613179e-01
0,-4.0766995883418388757490902e-01,-5.7662879591509716425967724e-02
0,-8.0225929388042005463432815e-01,-9.0509403519143855065820503e-02
0,-5.5929091377908679572072970e-01,-6.5733589890875110395285219e-01
0,-3.2914599205795253000772504e-01,-6.8012740961484874357978470e-01
0,-5.2141103068801808451127044e-01,-5.2587891829317279235311844e-01
0,-4.4862547099705626582610840e-04,-3.2124270177670360970623165e-01
0,-1.9818502933845452695926781e-01,-6.9380045014097013744702735e-01
0,-1.7569349367253053739723612e-01,-9.9806134081920305778368174e-01
0,1.9095682339159125717742427e-01,-8.4832395278817551709238387e-01
0,1.0739390873376042367937089e-01,-6.6789942877913821561719487e-01
0,3.9793398709729860263095702e-01,-6.9585769690761056782690730e-01
0,7.6561830822714849187349273e-01,-6.0071564111085162807057714e-01
0,1.1418055663683051026424664e+00,-6.0332472426972783008380929e-01
0,5.2892430052730499134838738e-01,-2.5531708082375764723437328e-01
0,2.8176252445449490036111229e-01,-9.2933558415910111349944600e-02
0,2.2811873673665214456995898e-01,-4.2837769185034640928577687e-01
0,-3.1522591112581030197911658e-04,-3.5107703263443218455464034e-01
0,-5.4883712228676784228298402e-01,9.6818164276427434722371856e-02
0,-8.3447378868294241893721619e-01,-6.2698473621539196898311275e-01
0,-1.0108674176039598169296596e+00,-4.2823053071465999597222662e-01
0,-2.2964513508166384259112647e-01,-1.0092507882651889639102905e-01
0,5.2022744200028357697274117e-02,-1.9206010399104692792926485e-02
0,-1.5127728636191750677397749e-01,-5.9392397161089749424434103e-01
0,-7.2904826150722634725553917e-01,-8.7117632040567119511287331e-02
0,9.0133977284395469520283939e-02,-5.6695675678143075959525277e-01
0,8.6969129273946191305277864e-02,-5.0485531295286056874260794e-01
0,4.1784935292065061851474184e-01,-4.6939422044683842827339504e-01
0,4.5512780693066395842905081e-01,-3.5838014742012702651408063e-01
0,5.1344774135523030267336253e-01,-3.3373492592630404907083630e-01
0,4.5281985874531127667097508e-01,-2.7503961648969921238716552e-01
0,3.4702518333131038286154535e-01,-3.7530488332560879571886403e-01
0,2.6882045760392253574977417e-01,-4.2371302691292095365938053e-01
0,-3.7211266250212524098195388e-02,-1.9330493181015281911605541e-01
0,-7.6050219546478936560873763e-01,1.5357453705945442457014849e-01
0,-5.0830417795425175686574448e-01,-2.9907171687918238101033808e-01
0,-4.5966456075004880066359192e-01,-2.9936713961382183102344356e-01
0,-4.0031201093157336989847295e-01,-2.7447304010669010265743850e-01
0,-6.4110707957279008950557397e-02,-2.6647808471403050534220824e-01
0,-2.7157474823411253961324974e-01,-2.4763895371951272217359019e-01
0,1.0986496345033651064748703e-02,-3.3716666231990716218192006e-01
0,1.3750567847856759451374842e-01,-3.9588985981592805796225321e-01
0,2.7165702554801612889079365e-01,-4.3461314890088376117205371e-01
0,4.4397155091458700981732477e-01,-2.5829529551036750634196437e-01
0,6.1762984010600019413317341e-01,-8.5591557102670426382395874e-02
0,4.8686507693710429078848279e-01,-1.0281848387668648947546046e-01
0,3.1635589613707415512777743e-01,-3.4044779024486859775322500e-01
0,2.6995496168065441500161228e-01,-5.2242150459203851031730892e-01
0,3.6037003240283682625744177e-01,-2.5456821067666901559078951e-01
0,-2.4333370833292528034874636e-01,4.3723930922439341317797812e-02
0,-2.0696465511993192287754084e-01,2.0037263061987506396199876e-01
0,-6.0900516378005231654668705e-01,3.0016056646371824800922923e-01
0,-5.2489051312881573885249509e-01,-1.0263794891819569277124913e-01
0,-4.0804871451556179451358730e-01,-3.2707387822535555210734515e-01
0,-4.0293788469004815366858452e-01,-2.2931221720495140181661498e-01
0,-1.2239793813228461161202176e-01,-2.8104903803748176871479814e-01
0,-7.2750185486297164194624543e-02,-3.1038461006818923726413573e-01
0,-1.3866644201071276487624573e-01,-2.9649828272128531114759653e-01
0,9.2310768449443969529966125e-02,-4.1176425423161988614850770e-01
0,2.3751804648717972368032747e-01,-4.0728016749390455464308047e-01
0,2.3013225736523187925364198e-01,-2.5855872880359359600177527e-01
0,1.9575460097838465189923340e-01,-1.5100358563497315311785485e-01
0,3.1524257028391000634570673e-01,-1.9762009058244436876528027e-01
0,3.5201344289560870803867942e-01,-3.0054616000355743876681913e-01
0,2.8426835185346321921429080e-01,-2.4041893120739318834289122e-01
0,-1.2922004925300506483765162e-01,-1.8533650291707257085072058e-01
0,-2.6579289678096584825794935e-01,1.5194565239547352941684721e-01
0,-2.0082175085018805216208193e-01,-2.1119612333561302991435937e-02
0,-1.9056428094940563999770688e-01,-2.2829939371168087025587567e-01
0,-3.2209880399210666368503553e-01,-3.2225932981152949352576798e-01
0,-1.4258731299268220804599139e-01,-3.7913836221179220142829536e-01
0,-2.4359243143559201894010613e-02,-2.6644341800581350376830869e-01
0,-3.2698108917836865572326133e-02,-3.0796754988202490466164818e-01
0,-1.0425797761944700925429430e-01,-1.1840665163121472103213705e-01
0,1.3864677685539725238150766e-01,-9.5528634274785195756862777e-02
0,2.4961035736336484314179529e-01,-2.4842867415856351165359683e-01
0,2.2204716417252032267803941e-01,-1.7995096807835919694440463e-01
0,5.5361103260669571046737047e-02,-2.1730791263524185108479969e-01
0,1.2326748659651021178262909e-01,-2.2092246468535398085109023e-01
0,6.6493975647627018288332579e-02,-2.1939244355585899026728214e-01
0,1.2501475446503528335395750e-02,-3.3288026346005861189070174e-01
0,4.1759917583599134860428137e-02,-1.9953194017038247687345631e-01
0,-1.5888967212348237278973784e-01,-1.4773614809624696642131880e-01
0,-3.0478256159729139040948098e-01,-2.6681701123608375647577873e-01
0,-2.9164759964126180102894637e-01,-8.3199621185095995468117280e-02
0,-1.9784226398538365399026873e-01,-1.9188712780901809318301332e-01
0,-1.3181072552650091589399040e-01,-2.3968505677601736891801920e-01
0,-1.1939371229671438823238816e-01,-2.0342839881853128081168336e-01
0,5.6274924589387188833544684e-02,-3.6428135220701568508516743e-01
0,1.4468607001517868812512368e-02,-6.5771172345720401233859498e-03
0,4.0105222784389361889711978e-02,-1.5482062198261670182830585e-01
0,4.2392041787989807183345548e-03,-2.6369089588142868851861067e-01
0,9.0359785652670152056309405e-02,-2.2214128477346883894227858e-01
0,1.0204498294686720205604047e-01,-2.7831508316437997274661598e-01
0,1.6271928640136659738324454e-01,-2.7852908197169884418897823e-01
0,8.2830935315852713407558383e-02,-3.0164491875195170722534499e-01
0,-3.3639252044416397555495757e-04,-2.7111657435054808962249240e-01
0,-2.9450477209741952183685854e-02,-2.1004405448710569692671868e-01
0,-3.1189393724494519216650090e-02,-2.5063658909939767749364137e-01
0,-4.6391222126038036965844924e-02,-2.4620889243784344069254644e-01
0,-1.5982497098333517393520253e-01,-9.3198613045433656432159353e-02
0,-9.5558299934592347280037927e-02,-1.7365138449921366237127529e-01
0,-6.2309240974029421467061951e-02,-2.9734434325580705316127705e-01
0,3.8972976262753387943771344e-02,-1.8487614109128569506168560e-01
0,2.4391407345280452512170655e-01,-2.2306299987474006996102105e-01
0,-1.2820634453086612869476824e-01,-1.2461624304860587086896118e-01
0,-1.4663118550564274711334178e-01,-1.5337290007258699842118688e-01
0,-8.7786521290877259082741091e-02,-2.9001284120532488941535121e-01
0,5.0204543377825247563173150e-02,-2.4018955453696852475609091e-01
0,4.9944613173810423201182118e-02,-1.3654535228379655054098407e-01
0,1.6373910927969176354324077e-01,-2.3064160154327700835708015e-01
0,1.4356091736112400192304506e-01,-2.1250266587676466811807074e-01
0,5.0010467199695492201971803e-02,-1.7160147589050356309314793e-01
0,4.3902686187299228004476959e-02,-3.3208694935406585235782018e-01
0,-2.5030962077791509695634531e-02,-3.7291001760155306765653904e-01
0,-2.0631144735287758329445040e-02,-2.2295880750302313200172932e-01
0,-1.0376662619432217016246511e-01,-1.5229314787365968997256971e-01
0,-6.0383789143773403118586884e-02,-6.6940438887916953181189683e-02
0,-2.0284589069097105212824417e-02,-1.0363098772412050740943101e-01
0,1.3191248989932921609202765e-01,-1.8858004634451058789679223e-01
0,4.2641938287211113289831843e-02,-1.5976585654792321844475111e-01
0,-1.7977392078147630405382529e-01,1.3340258853299782199064438e-02
0,-2.0413526445418445076640523e-01,-9.1871212436764979059056202e-02
0,-1.1399107100574690232264174e-01,-1.4894176032177955382174162e-01
0,-1.6325321871583017840912078e-02,-1.5868730752054080457291718e-01
0,-5.0258657900052822187220158e-02,-9.5181369325016779159298608e-02
0,-1.5289050158841424598143988e-02,-2.3384873273909684288085487e-01
0,-4.7455341380220769642583889e-02,-1.1351474338179798340142668e-01
0,-6.6304343462195242109302740e-02,-2.0674477426308454641734613e-01
0,-8.7818312959887824542537516e-03,-2.8765394308740982465266711e-01
0,2.6953109854424662367167187e-02,-2.2998252308006505995052748e-01
0,-3.0397473050966888202806260e-02,-1.7714562443698789184765019e-01
0,-1.6524900250939994483800888e-01,-7.6243327089656878770007609e-02
0,5.2500525471098756502552618e-02,-1.2253946959783176828828744e-01
0,1.0564117299423694817939179e-01,-6.0647119360770829210594002e-02
0,1.5249852152811363414919299e-01,-9.7751029645090664610407316e-02
0,1.4254279401080624523068252e-01,-1.1781045359273834005620074e-01
0,-1.3432579937110819545686979e-01,-1.4089132944799445668060400e-01
0,-1.0049823542874848636419216e-01,-1.7438358070556925216720856e-01
0,-1.9957442381559784005951030e-01,-8.7908660645371519692936602e-02
0,-8.9752562922149094204460340e-03,-6.1843617640440239069388184e-02
0,-4.4541367437701984144382550e-02,1.7063727128554972978236037e-02
0,4.4870436160294513427970742e-02,-1.6934527739754631769919513e-01
0,-4.6833476986991723345354899e-02,-1.7023746503250145739594146e-02
0,1.4685286617374625466742044e-03,-1.1213069161622558900237578e-01
0,1.5478417252548346341733954e-02,-3.1771778207884482370104706e-01
0,1.3055761348414764849712455e-02,-2.6529854747630765565702404e-01
0,1.1886018440634260606714179e-01,-2.3014202807720432475413475e-01
0,-1.4414275043439411794210514e-01,-2.0477723311849913012672175e-01
0,7.2507408696365197031674654e-02,-1.4422715424423973584744374e-01
0,7.4330473371850724895182339e-02,-1.5662696055218647273044041e-01
0,1.3185089292457935483682263e-01,-1.8908215656142182692356357e-01
0,2.0693221489128052481554221e-01,-1.0217629379548887058604123e-01
