Species Id,V_var_x,V_var_y
0,1.9293971457727764118317282e+01,1.9578042833321369187160599e+01
0,3.3945415160672784971040983e+00,2.8648030159519524140421254e+00
0,8.9077364149317050934229201e-01,9.5000798631716132369717798e-01
0,1.9049105553651302091822117e-01,8.8076173881204122828592062e-01
0,5.2968219108220813140519567e+00,1.0055122804696359217757617e+00
0,2.2505023346191985744724207e+00,7.8658015800988756449640960e-01
0,2.3611723211518697240762776e+01,2.6476718576334379307013478e+00
0,1.1282934220653142887158538e+01,1.9446593083571919180485565e+00
0,8.3374591386996659281294342e+00,9.1141458597981750422434288e-01
0,7.9878926867473278861098152e+00,5.7503904487194938965899382e+00
0,1.4324742391633412452733864e+01,1.6961358838410006910635275e+01
0,5.7807596346094989314678969e+00,5.5143628332269156722134085e-01
0,7.1788616400041469489679002e+00,1.4635065786357992489996604e+00
0,3.0435722768172666086172740e+00,1.3469763722346315137912143e+00
0,2.5191017229218992667938437e+00,1.8582553177936704802419854e+00
0,7.6885195959435490564715110e+00,4.0294727865923878340481679e+00
0,1.8219392102984262038489760e+01,1.8111566387823479828966811e+01
0,7.3652214058204918956107576e+00,6.6813148594215157061171340e+00
0,8.0593732564639690707508635e+00,1.2729697794771622554321766e+01
0,4.4125364326804961123684734e+00,2.1590369183601616498435760e+00
0,6.0540763064539335758240668e+00,4.0333944917446711286856953e+00
0,7.4562151081290108933785632e+00,1.6710033149276569020003080e+01
0,1.8887385660586048174991447e+01,3.2175297652034842599277908e+01
0,1.2259551156213156275498477e+01,2.4730408800233941946089544e+01
0,1.5352771627625873662736922e+01,7.0243144037639320131916065e+00
0,2.6926303111358382835760494e+01,1.3476917121549686129355905e+01
0,1.1427464849692546167148066e+01,1.1357070675623781141894142e+01
0,4.3059595757247777214615780e+00,1.8493412635863810677960828e+00
0,2.1893343686895683219972852e+01,2.1284997234280801592376520e+01
0,3.4761865434932408547297200e+00,6.8311193600825506067053539e+00
0,9.2693788876586769021059808e+00,5.6604581331957444234603827e+00
0,1.6886598130940278394973575e+01,8.4510762140513691065280000e+00
0,6.7406959173236735693990340e+00,2.6630409240984640462102107e+00
0,7.7113870529475851967049493e+00,5.8791685318354760525494385e+00
0,4.8570990483237350687772960e+00,1.3482395460850078450221190e+01
0,4.8966611908930968155573282e+00,5.6828153781522239285095566e+00
0,1.1190692160751872563650977e+01,2.4376133816930902753483679e+01
0,1.3547540229830932645427310e+01,9.3193112316780357673451363e+00
0,1.8056531788050950382285009e+01,1.7005505824967297456851156e+01
0,1.4198717923230709914150793e+01,7.1941464915089277099013998e+00
0,1.4766742601841311710586524e+01,1.0580676818401846261963328e+01
0,7.2416599146796070129994405e+00,1.6046548357617190561086318e+01
0,6.6227111356342289738563522e+00,2.1065572916310046913679344e+00
0,2.1100130706678299929990317e+01,1.1578549690921605019866547e+01
0,5.9195604057318238488960560e+00,2.4161236659369208723546762e+01
0,3.5995078399487931974931598e+00,4.1552881340552659139575553e+01
0,1.4193021817540207862862189e+01,6.4219192267403215623744472e+00
0,1.7556307465666783684810071e+01,1.0103614984524991626813062e+01
0,1.1201800173706047303312516e+01,2.8834776187756087750813094e+01
0,3.7436189410999003435165378e+00,2.2607060369162788049379742e+00
0,3.4862302597633210154981498e+00,2.5485013594933101366279971e+00
0,8.0001218462708649781234271e+00,1.6905061702149239977188699e+01
0,6.4357183476676800282234581e+00,1.4915126077211404265199235e+01
0,6.6475945522297381629073243e+00,8.4122207186812989476720759e+00
0,8.5252501804022653431047729e+00,8.1854214597250329887856424e+00
0,9.8469441131079840090478683e+00,8.8962635047409435173904058e+00
0,1.4822367930038989669583316e+01,1.4166688028317484082663213e+01
0,7.3697007555541427237244534e+00,1.1278402266175520551882983e+01
0,7.7813249052313828713067778e+00,3.1639279980680793613601054e+01
0,1.9250770613137902387279610e+01,1.1990990687571970951807998e+01
0,3.9002726954526028002590010e+00,1.3873763095479779039465029e+01
0,1.1062067892119831213904035e+01,3.2963298861280158291719999e+01
0,9.3174988982812045890113950e+00,1.0353600158839281419886902e+01
0,5.4471057629234280739183305e+00,2.4294383195941666286898908e+01
0,1.5202622105929163964788131e+01,5.6767769517301573500844825e+01
0,5.5040781866509185249469738e+00,1.0280656673263866451861759e+01
0,1.3156537868760993958971994e+01,1.4062828487359276152801613e+01
0,6.6201321654717260045686089e+00,1.3498939878717500562288478e+01
0,7.9825652342578674591777599e+00,3.1522802103000611140259934e+01
0,6.2545175397464802813374263e+00,3.3525231524996087273393641e+01
0,6.9629978469392383999547746e+00,1.3177402563669645019217569e+01
0,5.6914970318722176045866945e+01,8.9623416039483828399170307e+01
0,2.1297782384489657658832584e+01,3.3507475137018118971354852e+01
0,2.7222576131531912579930577e+00,5.6278274092478897117075576e+00
0,7.4751319598162675461594517e+00,8.1636316461973041924693462e+00
0,6.2808066148946899431848578e+00,3.7367458603143592910100779e+00
0,4.6156079710825821393882507e+00,9.8766878753808224900012647e+00
0,1.0389788788070621450287945e+01,3.4184619027736083296531433e+01
0,5.2377232973693521600466738e+00,9.9389565520882694471538343e+00
0,1.6554351720583380114248939e+00,2.1787136181038562199319131e+00
0,3.6484863713235426985193044e+00,2.1617596736281452507455469e+01
0,3.2500215469138895585388127e+00,1.0337872569934409838765532e+01
0,4.9301625947757479195843189e+00,1.4611215456346730690029290e+01
0,6.9603181651753258663006818e+00,1.0852864456697156825271122e+01
0,5.2508544248589430480933515e+00,6.7680167607577512711714007e+00
0,5.5335267339031890543310510e+00,6.5969589737441998167355450e+00
0,6.5714460294346368485207677e+00,1.2593380416668713550620851e+00
0,1.7813012085801165795828638e+01,2.6770015418749625979444318e+01
0,1.0760521769575046135969387e+01,2.2023998309612931478795872e+01
0,5.5037878121059176095286603e+00,3.2621064703946380802790372e+00
0,5.9302348574654004664807871e+00,5.3845273846976269283004513e+00
0,2.5997776150601827893638074e+00,2.3699075698746070450795287e+00
0,4.2472963462330657335996875e+00,2.2632122614969900631365363e+00
0,8.6455059583409425982836183e+00,3.2309117150303023890955956e+00
0,5.0333060150052615355775743e+00,2.2140652661365605169407900e+00
0,1.1487598670566381287017066e+01,6.5500837832773655122764467e+00
0,5.3039632044773865615638897e-01,6.0751774662341417876376681e-01
0,1.0226529521099263497774245e+00,2.2090404688795404197776406e+00
0,5.3896202688470129515962981e+00,1.0667918027673833236690371e+01
0,4.5136120912067703159209486e+00,5.9837947343088595530957718e+00
0,2.4594929635965581127265978e+00,1.3880556781916788544606334e+00
0,7.0265927768632927552516776e+00,6.9015638273400288227321653e+00
0,4.8590005387201031794575101e+00,2.6362265117242746903514217e+00
0,5.9750616872572122062479139e+00,2.0005423926673362444716986e+00
0,9.3490663382498446765112021e+00,9.2591083653904782124755002e+00
0,5.6188368700386499554610964e+00,5.4507447546713603259149750e+00
0,5.4539734441658724861667906e+00,1.0281167100016276094720524e+01
0,8.1489421842195675083075912e+00,4.5398936642707292676846009e+00
0,1.9004231790248087285988277e+00,1.1607854403793420594581676e+00
0,4.0140172602160415493699475e+00,2.7733064886859373210370450e+00
0,6.8486832556927801363144681e+00,2.7680450991519673920038258e+00
0,3.5510199498681491725449177e+00,3.2671463372419187187745138e+00
0,1.9031432063902125051413350e+00,5.1290221533902400352644690e+00
0,1.4805476099384464738761835e+00,2.5673972941303992989503513e+00
0,2.2442746442082079916247039e+00,1.2781760674674820243978957e+00
0,1.2898571649706256359024792e+00,1.6983682364554437693726641e+00
0,1.7083962228152078655085688e+00,1.0707963465414211956527879e+00
0,7.9997688948696117350323220e+00,3.0407705222743253159478627e+00
0,3.4363609186207728640738424e+00,1.7742688783429423349247145e+00
0,4.9567846244155102652939604e+00,7.8209366696087192494246665e+00
0,6.1561256877697525524695266e+00,8.3539046286832583376735784e+00
0,3.8950604063769489471269480e+00,2.6646113734722240984353903e+00
0,3.8598891165450686102644795e+00,3.8677912892383918830319089e+00
0,2.0259153950222792417434903e+00,2.2729212893018333474515202e+00
0,2.1895647753470495189276335e+00,1.2872919743158857119880167e+00
0,2.8364574028861597732031896e+00,2.7465440381489520937918769e+00
0,1.6630464829621316447116897e+00,3.7926155319145165023542177e+00
0,2.2382390403578047433086340e+00,3.4631548697217029442185776e+00
0,1.7362574968948591980222318e+00,3.4110574643304967246137949e+00
0,1.8531989209954220498843824e+00,2.5490374734076741702892832e+00
0,1.2035997772007451800391209e+00,4.2473719178026145826265747e+00
0,1.1087332182762501542327982e+00,6.3416666686817828590960744e+00
0,2.0446621955590940089564356e+00,2.5841279904264693456639179e+00
0,3.2001258437918504995423064e+00,2.0431800419922794276317290e+00
0,3.3786371644915718093216128e+00,2.0490759089510821588930867e+00
0,4.6904927437261436651283475e+00,3.4718579192158198765127963e+00
0,5.7640859415316505476312159e+00,5.8621870386286731857694576e+00
0,2.7288184656696889973659381e+00,2.2712131066371510357271291e+00
0,1.6640588522139614369166338e+00,1.8478786418592294538143506e+00
0,1.4670808558581791558594887e+00,1.0430306343464390561592836e+00
0,1.7084842861850431106063297e+00,7.0534859637297253609489189e-01
0,1.4524186659479156880081518e+00,1.7128833421659841462769691e+00
0,1.2563408589169380302763557e+00,1.8277414080253440165080292e+00
0,3.2512900441503918003149920e+00,5.3343276808389568088841770e+00
0,1.2219161266678577604238853e+00,2.9531863909472240159459488e+00
0,1.7058534164036442959400119e+00,1.4346292376981437666216834e+00
0,1.5287660558904214713749070e+00,2.1190275772270279475151256e+00
0,1.9160080989236409898524016e+00,3.8621695168395637765001993e+00
0,1.9482188507957669543202428e+00,2.9792007632131083383342229e+00
0,1.4595459632541110117642802e+00,1.5919358496527931112751730e+00
0,2.4811205784980403521444714e+00,3.1224392606069231170806688e+00
0,2.3988409329190352181626622e+00,3.3690351023246867256943915e+00
0,2.2742093339145288410918511e+00,3.9866469283131258372065986e+00
0,2.3620222946741344927090722e+00,4.4912926790964124990068740e+00
0,3.5470551677635748788475212e+00,6.2168783352911294315390478e+00
0,1.9722552913797668505679894e+00,1.5234973374753981723017660e+00
0,1.8543361124102755166376255e+00,2.8226162724507268819706951e+00
0,1.8277257251719873920592363e+00,2.9066180199737630118761444e+00
0,1.3652081285131276722211169e+00,9.8598203610767010118820508e-01
0,1.7520315925115657051946982e+00,3.5532647185462935546240715e+00
0,1.2061748255358135661907681e+00,7.8469916041362397507441528e-01
0,1.1510122107307072525372860e+00,7.5598516311051278115940022e-01
0,1.1271974506392248294162073e+00,1.4975151784302731527986907e+00
0,2.3590876974544290334279140e+00,3.8020632100320570501139628e+00
0,1.8572806995545314556750327e+00,2.3872358250705563165183776e+00
0,1.2233249697290926594206439e+00,1.1406641868932085870369519e+00
0,2.4983142935195785661051104e+00,3.8539888691825465727447408e+00
0,2.7069986596055759520140782e+00,2.2667957211618561252919335e+00
0,1.4546861468324001620544550e+00,1.7183381401561859114224262e+00
0,1.4767905896457111936115325e+00,1.2932655451041745742202238e+00
0,1.8700052769278305841993415e+00,2.7814675066519045643076424e+00
0,1.7534619284988821608095577e+00,2.4569653804075830549891180e+00
0,1.3909183531443158887697109e+00,1.5810190155034606895867455e+00
0,1.4922894425973174392652254e+00,1.7240116771041031906719354e+00
0,1.2421035839158451885566592e+00,1.1554154575438764229744493e+00
0,7.5299295360875739824280117e-01,8.5141388696725672780019067e-01
0,1.1982806803676129270286310e+00,8.4458175202489882416045930e-01
0,1.3917430290872139231339588e+00,7.9683775014103241929319665e-01
0,1.1617425641158432014776736e+00,8.5069205969074401796348184e-01
0,1.3250275596743636974395031e+00,1.5287896458764189677737022e+00
0,1.5258228928867558771287349e+00,1.5215083821537676023183394e+00
0,2.8937142683655237007656069e+00,1.6474163073097545240131012e+00
0,2.2644978639774118178706885e+00,1.5573644538076489851619044e+00
0,1.8758407038512026066001681e+00,1.5226538252583785570948294e+00
0,1.8153075743620348259099728e+00,1.5317080444775537095836171e+00
0,1.4983309515485911944665531e+00,1.1686658017324407232706562e+00
0,2.0027020214576607415324361e+00,2.0143389620628360248133504e+00
0,1.7187247875495104132426150e+00,1.4659007589536587889966768e+00
0,1.2535266054690015202766062e+00,1.0794842704235456665173842e+00
0,1.4521736817842532119016141e+00,2.0365896524377506970893137e+00
0,1.0965369184210829178738322e+00,1.0290418396687344149142973e+00
0,1.1246748179929657585063296e+00,1.0772867615786358985729976e+00
0,8.5700184754686536958701026e-01,5.2700678530734879068120335e-01
0,1.0115840652057950244113727e+00,7.6617248520007508183482514e-01
0,1.1509655127628404258643968e+00,1.2926372145694671189630753e+00
0,1.1508258862336357974953671e+00,4.6684931333494281702201079e+00
0,1.7299944438638670263230779e+00,1.6439642639663476497702277e+00
0,1.7270852278386490397110720e+00,1.4374709437868378181235585e+00
0,1.2692293462048018781729297e+00,1.1173097496465209665927887e+00
0,1.3206638358578617342686812e+00,1.0887122349332334358962271e+00
0,1.5110168325701718305964505e+00,1.1989302006925048882379770e+00
0,1.2312077207097433806382014e+00,1.0147354013838825181892389e+00
0,1.6263105879655002095063310e+00,1.3055999219974325775694979e+00
0,1.5381446604340549555445250e+00,1.0853602935128845441425938e+00
0,1.6801205523610820424806889e+00,8.7656196029433131045038863e-01
0,1.4013494617874298064919003e+00,1.3017763900205334692827819e+00
0,1.1854127712350752688053035e+00,1.4551622770469658796343992e+00
0,1.0620286902233897485814396e+00,8.1601002609487616190619974e-01
0,1.0049325020155566168256200e+00,9.1233120688416402543907680e-01
0,1.0514140631149961890855593e+00,9.3132248047233745502637703e-01
0,1.1306753865799683556048194e+00,1.0610450744189443561538155e+00
0,1.3006092966287186030172052e+00,1.4336338778066863852700408e+00
0,1.5078883258843269743465498e+00,1.3879849599592892772648156e+00
0,1.3480474170271352640781970e+00,1.2010891383452502179096655e+00
0,1.1112298630629031670480344e+00,8.4422821995597641109299047e-01
0,1.4997049593385316512694772e+00,1.2736935124526049811777284e+00
0,1.2139290570985759032396345e+00,2.8311134037662886164810061e+00
0,1.1195223521273263145303645e+00,1.2228782086955682917306376e+00
0,1.1932183135613518842887970e+00,1.0631391681483601807656214e+00
0,1.4570058529246412426516599e+00,1.7261203629521735258833814e+00
0,2.2669584374143800786782776e+00,1.2133298687953129046945833e+00
0,1.4253732151950815332241973e+00,1.4332374463304193845658574e+00
0,1.1913524293574750956281605e+00,1.3264033183592212061796545e+00
0,1.0492346154703995342316603e+00,9.7188198405970804838460708e-01
0,1.4660384109872985902711662e+00,1.3757288437554262561235419e+00
0,1.2510149936728915953665364e+00,1.3323195573008697056849314e+00
0,1.2324940284016085989549083e+00,1.4577133029294846444656741e+00
0,1.0935189263483728883130652e+00,9.2764362119123200400849782e-01
0,1.1309978373655213967907684e+00,1.3542512363991900947723934e+00
0,1.1889208442931713527457305e+00,1.7148593956980873187490033e+00
0,1.0322461628148207335442521e+00,8.6035885680566903666033340e-01
0,1.5284907461001639994435664e+00,1.4849129437578925116980599e+00
0,1.4915121254488075130950619e+00,3.2665325043660495829556112e+00
0,1.2372408009265680739474647e+00,1.0929250466555218146424977e+00
0,1.0818966749983491837383554e+00,8.4069803744765470021604870e-01
0,1.3205327960380446317145697e+00,9.2885249416968496127822164e-01
0,1.3902556094448308421362981e+00,1.1676523470832087525650422e+00
0,1.2201137096120466818405248e+00,1.3837347554937839966271440e+00
0,1.0950150491998371649060573e+00,9.0246489476579971888980936e-01
0,1.2985557413252362124467254e+00,9.0977592995181022494932677e-01
0,1.6679087171610862405657372e+00,7.2600770044486395704552706e-01
0,1.9213539944908402112844215e+00,1.0387289328695068491015263e+00
0,1.4651515316309569048058847e+00,2.0013375268900439607477892e+00
0,1.4543689321313248985489963e+00,1.2120240928918717404627614e+00
0,1.2547894205056706606882244e+00,1.0075677184902858130044478e+00
0,1.1684592650383358591881233e+00,3.2159180979717048032284765e+00
0,1.0521936004358152239035462e+00,1.1737926055853056261923939e+00
0,1.0275007744110586926922224e+00,1.0219527557102818793310917e+00
0,1.5417125000866325201798190e+00,2.6344281614547711001250718e+00
0,1.3325891947900587730657662e+00,8.3850376861243758330743958e-01
0,2.0934553439307603817098880e+00,1.0288358298443691651868903e+00
0,1.5413988368224180725007955e+00,1.0512769984618541840859507e+00
0,1.3514162429918972208042760e+00,1.0250348496914329921025910e+00
0,1.1331369393117562971440293e+00,7.8094998116975977708875689e-01
0,1.0676706261028892086528685e+00,8.3370057061576119394885609e-01
0,2.7120494487811317441128267e+00,1.5607204318480516480605047e+00
