Species Id,V_Avg_x,V_Avg_y
0,1.2685802444440021918836692e+00,1.0070162072830128874301181e+00
0,1.2472047657288463096136866e+00,9.5879820724795794539829785e-01
0,9.3976981504520873400565506e-01,1.8499194216862024919834084e+00
0,2.1168272698257031838586784e-01,1.9554883314828004348129298e+00
0,2.3489908252823359369187983e+00,1.8719174635080266799747051e+00
0,2.0888889890430251128350392e+00,1.0984968948695428281325803e+00
0,-1.4143197483370291145376996e+00,1.3240869519505968909811600e+00
0,1.4686968102416235737450734e+00,2.4104724733602709285662513e+00
0,2.1181105454741859794864922e+00,1.6634435797325721750894445e+00
0,-9.5620209537197853322254559e-02,9.0967869602372308790450006e-01
0,-1.7445821521285704847059606e+00,3.1438021240841123038478599e+00
0,-1.2688210482926403077641453e+00,1.4243937357354017336774632e+00
0,-2.0621566726821385917567397e-01,1.7791212087839713973380640e+00
0,-8.3494593687805085391318016e-01,1.3561482850707384795185817e+00
0,-5.0601388550907433483416753e-01,1.2301765584876562797944644e+00
0,-3.7527303962479535703877787e-01,1.0573378162208442176961398e+00
0,8.4731440680956227051723317e-01,1.7195315002495452638697770e+00
0,1.5319850007549593584599279e+00,1.6819825322906376552367647e+00
0,1.4303400390163010236221908e+00,1.8340315833300229186875185e+00
0,1.5088781669758615233689625e+00,1.5921118724735847660411991e+00
0,2.1177596221593364411717175e+00,1.7634316636413132073357701e+00
0,1.5725854033318422686704707e+00,1.2404626521502859493040205e+00
0,3.9054712222493964679514988e-01,6.4585370927280527642011521e-01
0,2.3905034973474512116631274e-01,2.1501905044429419078255705e+00
0,-2.7575618812921648403957420e-01,2.4817966683212042688921883e+00
0,-1.4810369689704443452171745e+00,2.6100828416576353774303243e+00
0,-2.2081855829261258783446920e+00,2.1390658114148730639669793e+00
0,1.0040845137449601054413506e+00,2.8626696714266479659727338e+00
0,-5.6747155110092850627268035e-01,1.2743174051064811713729341e+00
0,-7.1466421132100266255804399e-01,1.8648394775463499328793660e+00
0,3.1393920303064309917928654e-01,3.0033729549486505305821993e+00
0,7.8475244404295728395393184e-03,3.5709258423168446228146422e+00
0,-9.4235739102187932036969187e-01,9.3878833149344291797433470e+00
0,-3.8116021794045268356043721e-01,5.0135102789759740105068886e+00
0,1.2198992604589615762478161e+00,2.2206855784327372838049541e+00
0,1.5253859311341018134555725e+00,1.3137649831418001244998095e+00
0,1.1998965014754225943960364e+00,1.9474502176406160991462002e+00
0,-1.2668730891841945007669779e-01,2.3693328085155069828715568e+00
0,1.5212370545412612354851944e+00,1.8598259920971387249011286e+00
0,2.4017996639451131279940910e+00,4.3327065009953287244570674e+00
0,2.7964054491859342554960222e+00,3.4522978988218224749573437e+00
0,-1.0818350818639810295707093e+00,2.2539957534646752890239441e+00
0,-2.0473072687851154860538827e+00,2.8987646428805944331941191e+00
0,-7.7081791974466418171374471e-01,1.6934156812244665069044913e+00
0,-9.1545977695877278623726170e-01,1.2847976900972377656273693e+00
0,-1.4871163232770190365528151e+00,2.5135805976912086734387231e+00
0,-1.4902330427348642327700645e+00,4.1755138132326932165483413e+00
0,-4.0294676388620480622648756e+00,4.5078782090436568807945150e+00
0,-1.8101409271984980620118222e+00,7.9745329174161820873223405e+00
0,-8.8902084713203133325976069e-01,3.8489958789822331652885623e+00
0,8.5211504268198645650755907e-01,-6.1063739454473471568451970e-02
0,1.2197429866214157812009944e+00,1.8108459672052310551748633e+00
0,2.0313481309593015566861141e+00,1.4820757775401578459906204e+00
0,1.9192901090237843853003596e+00,1.5737206826618259647432296e+00
0,9.9984202747781381059866135e-01,1.1749518762810935434970361e+00
0,4.9816320594565799417807739e-01,2.5887608889888622520913941e+00
0,1.0124845198952829861127611e+00,2.4398156078577857286404651e+00
0,-2.3023371198701556572530080e+00,3.8457841364558955632446668e+00
0,5.7056450252851342863635864e-01,2.9764138883848563210676730e+00
0,2.2419300208948281932785918e-02,1.5199139199260194299512250e+00
0,-1.1156524075480098723289757e+00,4.3196637202071750394338778e+00
0,-1.5001085709963417613721504e+00,6.8347025082786816430058252e-01
0,-1.1641510348164689769845381e+00,8.7683376894883224839105651e-01
0,2.0257025947811815314025807e+00,6.8667355072981639541040977e-01
0,1.0333833450896252603712355e+00,1.1645449370903335761795461e+00
0,3.4123215093531128472292835e-01,-8.1142419025705445068119559e-02
0,3.7274762140583939107330025e-01,3.4556403719138989449888300e-01
0,3.0600904720578631090788235e-01,4.4818525063920200413036810e-01
0,1.6579940463761835278688750e+00,1.8828205354961680129122215e+00
0,1.7676719740594013519086047e+00,7.6409857379478174355114106e-01
0,2.1551990170778850819388595e-01,1.2733933108999182515219672e+00
0,5.9222947030333561446724389e-01,2.9713838620837246251582542e-01
0,1.4840805459025938617401152e+00,1.7242671184918858529044883e+00
0,-4.9618611654192190663081874e-01,3.9391375292812473851711275e+00
0,-7.8484463909371726675345826e-01,1.2451620722503855542839801e+00
0,-2.5321910996101815172210081e-01,9.4952659510982206914064818e-01
0,-6.1192211946985930470788162e-01,1.5647612241207078387361662e+00
0,-5.0303130380478462690962971e-02,-2.4830587280011973128068803e-01
0,1.0215686173036336858999107e-01,-2.7267822632214322453592104e-01
0,1.5242784708390879622186276e+00,-3.0026466184012262639058122e-01
0,1.9128162108457061330035742e-01,-1.1457676980373949771063735e+00
0,1.1463786802183567603563574e-01,-8.7842428647751802373022656e-01
0,6.1479843506598197411250339e-01,-8.2783696921430915960371522e-01
0,1.2763874636731329381689193e+00,4.2071216370577291243648688e-01
0,1.0816543188715213030803852e+00,7.5692863554659195468587995e-01
0,2.5778736941572255592092233e-01,1.3175105824524249720219871e-01
0,7.1544344270245097128224643e-01,1.2197328944339783096673102e-01
0,5.8188122057614488635834959e-01,2.4002418798773425545611815e-01
0,1.1798572764152386316283128e+00,9.9812543365053019162047576e-01
0,-4.9824497427650410452670826e-01,4.7589312183123788635441542e-02
0,-1.0162574520152423129815134e+00,2.9245709625707122514270964e-01
0,-1.0859208490867995333672980e+00,1.3044086016410729733649987e+00
0,-2.5237429897413354851209988e-01,5.7403249938425479625969672e-02
0,-4.9639886865310700603259875e-01,-6.8754823912297113874814158e-01
0,-3.2457932969172148540693001e-01,-4.5473245866131695169798377e-01
0,-2.4865223994823687503341603e-01,1.0877264018775112397463545e-01
0,4.3984389331800632927382821e-01,-9.8551953241393674964854199e-01
0,1.3895099444668340682440544e-01,-6.3249242437384756154727938e-01
0,7.0262652757060162223012867e-01,-1.2372811992811982850781760e-01
0,9.3824726036823069552639254e-01,-8.5276972203991704968295551e-02
0,7.8912359630000894483714546e-01,-3.7900719334915344838066176e-01
0,7.5376376627097563254409351e-01,2.2103692307303515751648604e-01
0,8.5152930475470067772647553e-01,3.6004259827449275332966749e-01
0,-4.5597332288478689688027146e-02,8.4916038311135377814053982e-01
0,9.8534255451613844689617849e-02,1.3741455214155895436789478e+00
0,-7.9512806952825809680973634e-01,2.6349340847187052716549260e-01
0,-1.3857700283900376003742849e+00,4.2132964466843225714853816e-01
0,-8.0934684237177367815974094e-01,5.4826664261976609804349891e-01
0,-2.3388712648754356182578817e-01,6.8158672953113522141599390e-02
0,-4.2255485569861944705749579e-01,-4.0943237534024312651581567e-01
0,-9.0561464306010530656010360e-01,3.4933728340909681042703028e-01
0,-3.7963755052555431257488294e-01,-3.2847472091486928924553013e-01
0,2.2641240188839750757665570e-01,-8.5261009834402501361694249e-01
0,3.1431274067733089294662818e-01,-7.7714734502221805012567302e-01
0,7.2825117762979973967674141e-01,-3.6182611526287861147821445e-01
0,6.6092544517300677586746360e-01,-2.0058204796772183264863543e-01
0,5.4877341364202936180305414e-01,-2.9836546425210391797477882e-01
0,8.3490679858545779890022231e-01,-5.1724812615801118997893582e-01
0,5.4072021155496174937837850e-01,-2.4079983819225619923187764e-01
0,2.9510775313633752503506003e-01,1.6193545002985168523856885e-01
0,-2.8867260413059614432285116e-01,8.8013589177413820152651169e-01
0,5.0897656470854065260955856e-03,3.5278843365423423472648778e-01
0,-5.8889459340082750404832268e-01,1.9771449342532634863012220e-01
0,-4.4780233882050823890352831e-01,-3.4583692881934102736352088e-01
0,-5.6511339950050953895299699e-01,-4.0156062218850746559084541e-01
0,-1.3285988730826289727637857e-01,-2.7146592904425920211863854e-01
0,-2.5606574133448944952107240e-01,2.0147731563319132286338231e-01
0,-4.7336460135632141277284290e-02,1.1440438511034431434687519e-01
0,2.5050404400000686466754019e-01,-5.0078695969832343060090807e-01
0,4.4009842732191728487123328e-01,-4.7176090681378807234480632e-01
0,6.1106372184550561410532055e-01,-2.9126932429994106810156040e-01
0,7.1756048530388027995030598e-01,-4.2382056999775330474733437e-01
0,5.5795284415689527790505053e-01,-3.1491314067670239662533049e-01
0,7.3491015176761287364115560e-01,-3.8529568456008350674224516e-01
0,2.3850228702776232747595486e-01,-2.4567691325176083116943460e-01
0,6.3224903739599158658535316e-01,2.1413293207544298324407350e-01
0,-2.3385529781316286013215233e-01,8.8471499271924741725214858e-02
0,6.5121559074260773614106768e-02,-3.5366934172344949294242156e-01
0,-2.5102838779259722956638257e-01,-1.2618290312004690201241885e-01
0,-5.7969174191774386351028170e-01,-4.1266570662425960946961823e-01
0,-5.9706742716748673061033514e-01,-6.9535103438999587566193838e-02
0,-2.2923314430001578978490784e-01,-2.0423551216458554757871013e-01
0,1.6060772478368470772558396e-01,2.6799648989714621588609234e-02
0,-4.1181295292747999159388428e-02,6.7903992783173466873947177e-02
0,1.3667147919731098548723480e-01,-1.5053593654061583895220622e-01
0,2.1051962855352962522559324e-01,-2.9291332760196375772920874e-01
0,3.2624269418215678939532154e-01,-3.3948122543471104251011639e-01
0,2.6808342038117799477348058e-01,-4.4354133693933284199317768e-01
0,3.8701944522252346159163494e-01,-4.4274567142384792239884206e-02
0,3.0343838211944529348329525e-01,-7.0248869938374605692565922e-02
0,9.6736114637370640423341683e-02,-2.7470395779446765693876387e-01
0,4.7320242537313410985388984e-03,1.0285038327195013263537504e-01
0,5.3492220306811610885944219e-01,3.5418828360750755079866536e-02
0,-4.9825584758124062678685817e-02,-4.2551486062076432359546629e-01
0,-1.3635667454345418159178394e-01,-1.2687778593949231020765467e-01
0,-1.4232403480976127396750996e-01,-3.8042784072409199791486856e-02
0,-3.4826004560877998894596885e-01,-1.4483707247781446580958686e-01
0,-3.2944362213271199957276281e-01,-1.8574029102728189383197943e-02
0,-8.2641616319237290455568257e-02,-3.0619485178471506081621101e-01
0,-6.2263049674670299660217410e-02,-3.1426298734497520870334597e-01
0,6.9984286652874205802987717e-02,-2.2054138212063051360800614e-01
0,1.2598421401450379808473201e-01,-1.7831485002574079534731766e-01
0,2.7925862009112079054062860e-01,-2.9043367791461477400716262e-01
0,2.7497564541400315585306657e-01,-2.8328433092561011719112685e-01
0,3.9745272903887341603423877e-03,-1.3054740110940088460012021e-01
0,2.3629589049602517381032385e-01,-2.9457099117271329236089628e-01
0,9.3494439584091038053514922e-02,-3.6498858689780311337358398e-01
0,-3.4517061919258329449888834e-01,-7.7301646980782151574729255e-02
0,-2.2074272156289936885897873e-01,-4.2384085027399875933440399e-01
0,-5.0310678568058919690741959e-01,-8.1114634133475582711270135e-02
0,-2.5725845030083399622711227e-01,-2.3027828221292667709718671e-01
0,-2.1196922218855260289238629e-01,-2.1458266262542657898393372e-01
0,-3.8195064920583765566419743e-01,-2.0283740714642348179630460e-01
0,-4.3569314045953216885109782e-01,-2.1214757680038800330413196e-02
0,-1.1319752723616557932295734e-01,-2.2814728783227034014657875e-01
0,-1.2053838331088326252249487e-01,-2.3930409109287908986374305e-01
0,-5.2120433910457085891626550e-04,-2.2214989563206452571897387e-01
0,1.2097522837704170750594557e-01,-2.4852207356670971694079242e-01
0,1.7464473668560326347076739e-01,-2.0769397573644457488661885e-01
0,2.5015510497831028313697743e-01,-1.9264987617562320809661003e-01
0,1.6513719718326039243017078e-01,-1.4326359129762442079503160e-01
0,1.7494432832899498020395868e-01,-6.6169332546704984210350631e-02
0,1.5881134336471237900045850e-02,-1.4866193426056534265811138e-01
0,6.7593312223530269827742600e-03,5.1237924613372468063410281e-02
0,-1.4257180603994731860062473e-01,-1.2572829161346213422412177e-01
0,-1.4704244801578314483236909e-01,-9.8524740657820575329139956e-02
0,-9.3085428974451850381299778e-02,-2.7067827637729108269937228e-01
0,-1.5123486415139852923061881e-01,-2.5428615887938271766799403e-01
0,-5.1465033430316969864648513e-02,-1.5999727927118087555946602e-01
0,-1.9264884427192840998799284e-01,-1.7877037188113437116143700e-01
0,-8.4647104116684870889208980e-02,-8.6056699444953671518376837e-02
0,-5.4356062249192960145194320e-01,5.2151124550500627119475894e-01
0,-1.8679715303289348704574024e-01,-9.4681001386553526044664864e-02
0,-4.0586458711229581042267966e-02,-1.3703319785479972647834757e-01
0,6.1141710291656582720865032e-02,-1.4487055124589001686707945e-01
0,1.4287212970084328667041973e-01,-2.8422291506756097723140897e-01
0,2.7232871369969041674963250e-01,-1.7158161674034250188114470e-01
0,1.3862877906343240574926767e-01,-3.3850701881179029451018891e-01
0,-2.6417813937813634100892912e-02,-1.7265567253064847963450745e-01
0,-6.5156010360580454698897768e-02,1.8963888562613018251568064e-01
0,-2.1523488185857103660580947e-01,-1.6061164128685315177769155e-01
0,-2.8121620401229596719616666e-01,-1.5362399976935231515895453e-01
0,-4.1618014821124114932526794e-02,-2.4416791006712396105982066e-01
0,-3.0933154771030462598657707e-02,-1.5386658300154418266281198e-01
0,-1.5944233784231748307647081e-01,-1.5423353573579068331866893e-01
0,-2.7373186654568754105909534e-02,-1.6828652451042144799764344e-01
0,2.2059791480838122912366828e-01,-1.2955691380603132079052386e-01
0,-2.1739061668560589329901589e-02,-8.2818873988838276334334410e-02
0,-2.2181927782624416556345182e-01,-2.2922407149135574228049350e-02
0,-1.6565228323599229254270426e-01,-1.0669820922142975172519641e-01
0,9.1405431769105115191731414e-03,-1.1163052875853891887647507e-01
0,9.5827690169297360944788977e-02,-2.6176158007365268876043274e-01
0,1.4518537939723752394627354e-01,-1.8788700430278135189432476e-01
0,1.6872309910487943984680470e-02,-1.8850987151766734895019795e-01
0,7.2936342256503189709904156e-03,-2.1083659879124488911728008e-01
0,-2.6990686240412852664460885e-02,-1.6181062004836915813044129e-01
0,-1.5099676243380599771626294e-01,-9.1538714733940762524611046e-02
0,-1.2821709046370763362965306e-01,-2.7448750021563655954182082e-01
0,2.0169117108865885351631775e-02,-1.1352531076142582944221715e-01
0,-2.4495902651922911441584318e-02,-5.1812667698493186652086706e-02
0,-1.1099501115580619192702017e-01,-1.3378385422783403702062799e-01
0,-9.8202378465273826302350813e-02,-2.3512351277232806934236464e-01
0,1.2419695619316095669404376e-01,-1.8206812023356738761137308e-01
0,8.7804644683137450522636414e-02,-8.2393488123186628402372378e-02
0,-1.6201819682418344692464984e-01,-5.2929680722348854127190521e-02
0,-1.5234345393841566829173928e-01,-1.6406989304335550805546973e-01
0,-3.1169628406933373720999469e-02,-1.3940067883068038567806468e-01
0,8.0480819178930518287273799e-02,-1.8824395939966190316461336e-01
0,1.5500420760579144974222743e-01,-1.6092804216377282200411969e-01
0,1.2839601910448278365706187e-01,-9.3914219414669666829986738e-02
0,5.0323169618912852452119466e-02,-1.4578781393318132608705184e-01
0,-6.9026275897523115942372440e-04,-2.2122188446312315845965202e-01
0,6.9349640079477539722496715e-02,-1.2348320417455044273324916e-01
0,1.2331570736262920454096026e-02,-2.3054153929958803859179284e-01
0,-7.3387091722737274324117607e-02,-1.7617069692985851125932584e-01
0,8.4732423909384610438699781e-03,-9.4905262531623263422275727e-02
0,9.0030036406217484046266009e-02,-1.8344656175070481185507276e-01
0,-1.2574556177943537263463902e-02,-1.1285209199929246981497499e-01
0,2.7089275057618097258815837e-02,-1.6163351106317561112213355e-01
0,3.0335485640116319899783903e-02,2.6603746895017547219319809e-02
0,-1.6334539458547589485526430e-01,-1.5507469751792540835211298e-01
0,3.9457086039001464106146244e-02,-2.2711041586062899466647025e-01
0,8.6906715182120425344791670e-02,8.6682426164208410679368200e-03
0,-7.4536690155876227786846400e-03,2.4373018117285660116833057e-02
0,1.3298422708488995616638029e-02,1.6903603624111196435109150e-02
0,3.0899781954957981910947495e-02,-2.7237103898002712476511533e-01
0,-1.5021451010571390538572700e-01,-1.9870902156520972581255080e-01
0,-4.0187207548963328751501223e-02,-1.8294119395338567790609829e-01
0,-1.4401214766217583160279325e-02,-1.6375692724946674938557578e-01
0,-6.9529387218669636006040946e-02,-1.5699692569069312320095833e-01
0,-1.2365362529596296559120105e-01,-1.0625990959521675049970213e-01
0,2.8295391839578992732029405e-02,-7.5879534160186515312496169e-03
0,6.9480540752319894237665210e-02,-1.3412932115136458333104486e-01
0,5.0760658514133756569197686e-02,-1.6428311162178482751627939e-01
0,4.9337001834164860569753586e-02,-9.6166149974233602892859096e-02
0,1.8713165581893234645782798e-01,-3.4947409750438952757978228e-02
