Species Id,V_Avg_x,V_Avg_y
0,3.4640943889823583301534882e-02,4.6694328965584515345188521e-02
0,-3.0105767470457758111512803e-02,-2.3414777607681140983442170e-03
0,-1.2634267977602733901143495e-01,3.0330590081063927426763271e-02
0,-4.7893283661597396694276085e-02,-5.9340911062718193144660539e-03
0,3.1218569028280809818376440e-02,2.0712965088752248454806448e-02
0,5.7374894026647603462176761e-02,7.1704511657969205451479411e-02
0,-4.3848666134558740570259516e-02,2.7449766770533567949996723e-02
0,-8.6659959678964962326297439e-02,-8.9723760112171025565830362e-03
0,-6.6921867754352354351610188e-02,-2.0175384254160853153559074e-02
0,4.9817811900181183104585614e-02,1.4607348769468005839078373e-02
0,-2.6166794495937634873472533e-02,-1.0536066871464749503117808e-02
0,-2.2466552538901991917935641e-04,-6.9958450889325729527001840e-02
0,2.2627003471188546213088699e-02,-1.4549088595621606501140377e-01
0,8.3899904127112595597637323e-02,9.7466218124239292763810738e-02
0,6.5672282714555857419114204e-02,-3.5220496455078817085726506e-03
0,7.4939155017871073027890816e-02,-5.7409976676984109111856469e-02
0,-1.0760963310995594333085990e-01,-4.5300639074098000488866056e-03
0,-3.3174870853993981834051397e-02,5.5601138171350296401929114e-02
0,-6.3641070799676817057455303e-03,3.9345144115519474492526086e-02
0,-5.3140704545374915779287761e-03,8.3765631497832962470972973e-02
0,8.2267974773507113184223272e-02,8.7219497615378574484346075e-02
0,7.3237082560610955450641768e-02,1.5693827456909850703858922e-02
0,2.6954741613407422889947540e-02,2.6272135448083558384446690e-02
0,3.4569050882554117065659227e-02,5.7972634067534001278687583e-02
0,1.8230890461948496411581644e-02,3.3799729300923647690169105e-02
0,8.6831967799164532645361803e-03,3.8650375587858297465881918e-02
0,-2.2368240292145721848093842e-02,-2.3524948186865003024736964e-02
0,-2.9216927357951092553145500e-02,-2.4940461476065877398367032e-03
0,2.6036116168590407032867873e-02,-8.1013036875528018215808501e-03
0,-1.7033357912136209283415766e-03,-5.8082362100466848608970594e-02
0,5.1962066650590998939662768e-02,-4.1649453504674707748911544e-02
0,-1.0704208528800118055412938e-02,-7.4341584544693500857803770e-02
0,-4.7703153676936012328457792e-02,-4.6261288397079096401665055e-02
0,5.2777598918051109311289082e-02,3.0220069040266431259489366e-02
0,3.0241636473035120313834767e-02,-1.1376428524379302627961286e-03
0,4.2340211583258971494991840e-02,1.0535318884271395456497800e-01
0,2.1331332181894490512830131e-02,-1.5705776313469136350187139e-03
0,8.9881493358744332655696496e-02,7.8239291770012889259966471e-02
0,7.1382749545152779369061591e-02,-1.2154339858855405312465514e-02
0,-7.5140878657296338374860234e-03,-1.7121525517377961939091691e-02
0,-2.0691259098053429998920194e-02,3.9270479700000221479072593e-02
0,-9.1850577298090166356026032e-02,8.7963809661309021875608138e-03
0,-1.2010359927766396659354342e-01,-8.9458998695911381981993316e-02
0,1.5290784728181756185749762e-02,-1.1429544201642719003508830e-01
0,5.3148774585488070543171091e-02,-2.3524983269844007560678278e-02
0,1.3278579606514524791283094e-02,-3.9621438215116919212555047e-02
0,-3.7726822957350081289007449e-02,4.7616738658254345595288726e-02
0,-4.2419621275961244544205897e-02,-7.7694677478154644534313888e-02
0,-3.8495040301416608152784704e-02,1.5601133466895060475376766e-02
0,-3.7780590470899426402962007e-02,3.5629244935562590090860624e-02
0,6.3151823678317814403371244e-02,-1.6980385302808227027115962e-02
0,-1.1065032858067275906011062e-02,1.8545767877301416737267914e-02
0,-9.5678537746662947749420880e-02,-2.7924219860436763629429890e-02
0,5.8984068365128358713000978e-02,9.6241812717155032774751788e-03
0,6.4510710584879657480961157e-02,3.9005052864618237375149423e-03
0,-4.3694204885602883070561120e-02,3.8369074196972850765430252e-02
0,-4.7786813968509665728756630e-02,3.2526788698766816165797167e-02
0,-9.7516562226316771955225704e-02,-2.0218046129410895128675207e-02
0,-7.5488516102230313054022304e-02,2.5829167516841354534928854e-02
0,-2.9393077883235217695467867e-02,-1.7903324246171664624327491e-02
0,-4.4343346252519793768143153e-03,-2.5457526784529497208831028e-03
0,-7.6882604750624833345185039e-02,-5.4472232112005899984374935e-02
0,-4.9185565611374992833759734e-02,4.8163542071016772483371682e-02
0,-1.1672656771656772511924771e-01,-7.9336217078820343157063988e-03
0,4.3739374332018431112967249e-02,3.2014548968829763253562959e-02
0,8.5232762717970360355490556e-03,5.6701850236079855138715544e-02
0,-4.6120616027614573517734442e-02,1.3100360615395750113476581e-02
0,1.4305075700560236987013418e-02,2.5058371886373137504833153e-02
0,1.1947649460454181150059760e-02,1.9793024697970978964534083e-02
0,-2.6465099621994517264944591e-02,5.4164176796643301314837515e-02
0,-2.3438395610111344147252765e-02,-9.6327601209815746918785351e-02
0,-1.6178055332770266416808624e-02,6.8131449642711431127772848e-03
0,-6.4606536422883401038497198e-02,-2.1540936654747353667938015e-02
0,-2.7420520026474569375007917e-02,1.0704676147140351760711496e-02
0,-2.5232087125091010731958718e-02,1.0092693926953286501224660e-02
0,9.2128603863798799299827946e-04,5.0427626921183854591390627e-02
0,1.1154580420846182866462248e-03,1.4258489430517334514703087e-02
0,-6.0819026503515387360732092e-02,5.6209650226131835371035095e-02
0,-1.5359940656372417233654915e-02,-1.8017559183872749323240825e-02
0,-4.1794146484292769849755445e-02,-2.4584873112895935798327685e-02
0,1.2039380377181382875129145e-01,4.3169681076620829152101777e-02
0,1.6876659218003253054574131e-02,-3.0671486617280222138071100e-03
0,-6.7453181807657872515876507e-04,5.0197716434033151297611219e-03
0,5.5315853788256715006799169e-02,-5.5465887729697314900700889e-02
0,4.4704601969523242999127177e-02,-4.0922785489747974529972652e-03
0,3.1735885650666144364162591e-02,3.5161409112367231211138119e-02
0,2.1652532176207428364633767e-03,-5.2568391079108163499444828e-02
0,5.3416498665903637543816984e-02,-5.2138822338533355460477026e-02
0,-1.7942528420249868881253263e-02,-9.4529092382796775506648146e-02
0,-1.7335130217872262575751208e-02,-4.5573881623600327739342930e-02
0,-2.0265034327973652922283421e-02,-9.0397871270647967012479285e-02
0,1.1717426833960637930220905e-02,-2.4000554790388321096950008e-02
0,6.7759677285099600974049849e-02,-1.8818770028581354586405538e-02
0,2.6770618573705922543792823e-02,-1.1558560662446164604699739e-02
0,5.9970626452732551936453120e-02,-5.9182438188519329025361060e-02
0,-7.6224486654069400354272190e-03,-5.9028176894802462937317244e-02
0,5.5384529571401601433233708e-02,-3.0486426721508760352696843e-03
0,-4.4178569500113000489971427e-03,6.8443898520204188296034431e-02
0,2.1114264361800243186007009e-02,-3.2371697255605910194253827e-03
0,1.1955479089051928784370737e-02,5.3234489195224755919699788e-02
0,-9.8694516651974244919598434e-03,4.6609563182505524270293762e-02
0,-3.4916118271765703151565674e-02,-1.8786202197724137519241339e-02
0,8.2578461958726940422836904e-03,1.3321563390820450462070923e-02
0,5.8387398098362609799583112e-02,-8.4371314748646092374073646e-02
0,1.3024180526304418234473381e-02,-6.0268612763005220689382924e-02
0,2.0608120613580371144335501e-02,1.6534950207344738248860239e-02
0,7.2987090702764031990845695e-02,9.5627094384054343173540147e-03
0,1.2405593836074348124132172e-01,4.9170363176731422816256867e-02
0,9.4647764419303101468550210e-02,4.9031472143288054588161629e-02
0,-1.2380173961209726962717781e-01,-4.4716748532918479050457528e-03
0,2.8480196116049676102743859e-02,-4.8669948063630841250670755e-02
0,-5.5625429221833966667021265e-03,-1.8797461085408674608121515e-02
0,-4.4942932380910995127099028e-02,4.1653386525726664169066993e-02
0,-3.6909505777188711395098153e-02,4.1539069792794709734540248e-02
0,5.7475048423791313609299003e-03,-3.3659299721533635085801706e-02
0,6.5998688028765808977205154e-02,5.5124584177110294222479148e-03
0,3.4865327086271491463520533e-02,-4.0728627286722503264559947e-02
0,-2.4619040255314326992586160e-02,8.2153631550428901642035839e-02
0,1.9530044375801428047090269e-02,1.2267677354503639386429370e-02
0,7.4085467069734511902368013e-02,-3.7021197737660813120719183e-02
0,2.9939123557109762613359649e-02,1.3429951722343310901996993e-02
0,7.2617228878316078533039502e-02,1.7876240720618729457269680e-02
0,-3.5088987896150877765499843e-02,1.9792388758660472286576848e-02
0,-1.2861984834650361329139168e-03,-1.4712826039148538606604610e-02
0,1.2345858417020062064439756e-02,-3.8455507647338300902806196e-02
0,-9.9751241561158009857335216e-03,-4.1724133865178134050744063e-02
0,4.9773383456949031600213829e-02,1.5321237063138449033261601e-02
0,-1.4311894428639945764381025e-01,6.3939455448836612916352351e-02
0,6.5839566384902126205957984e-02,-1.4139716117983845006245147e-02
0,7.5800688876327473875171847e-03,3.4021528248288361757911691e-03
0,2.4752380510517084377664077e-02,-2.5115269114719691173620575e-02
0,8.3777793027843966422452127e-02,-7.4922255592876352281450636e-02
0,-6.1497583822250144469645505e-02,-8.9040183818411243465984484e-03
0,-1.0064467485064317042731119e-01,4.0808729301285678880972796e-02
0,-3.8384912033126231123425498e-02,-4.0408273328146331049293138e-02
0,-7.5619058312151495038211380e-03,-4.2655878911990408042242962e-02
0,-3.8505851195655298180309245e-02,-8.6127075329390182650834973e-03
0,-1.8933137333570460806436708e-03,-2.5826350409539643171452639e-02
0,3.5515456595278271922921931e-02,-4.1487188497334639980529403e-02
0,1.3448586784213944003707475e-02,3.6397262979305636254601097e-02
0,-5.9264673031993835017328109e-02,2.2664150988706034672848233e-02
0,-6.1648431990939826785602662e-02,-1.2406241512632407153482461e-02
0,-6.0136157518165547775090829e-02,8.1684421693675440118154185e-03
0,-3.2939168110629822583401705e-02,-3.5500034187258361351169356e-02
0,5.1987671861541413786955701e-02,2.8947850086275313946648780e-02
0,4.6805132633210913550847465e-02,-7.0282674883380913399832934e-02
0,2.1560281996739684429176265e-02,-3.2373843377188273040534483e-02
0,2.1205706764104503142531755e-02,-4.9338653343205919957203953e-03
0,4.5091094907742122754878977e-02,7.2219135069733930709645620e-02
0,-7.7194753935786418475029080e-04,3.2095713101898681873791475e-02
0,3.7813996638872277022969115e-02,1.1695163425022132245439943e-03
0,-2.2733116921595589166038565e-02,-2.0221931156427494502558773e-02
0,-3.3683953979704475516221418e-03,1.1207279163299553245702889e-02
0,1.2549732040069679420146720e-02,3.0929332451274646476058194e-02
0,-3.2943797195362665639062349e-03,4.5904928105888146566693209e-03
0,-6.8961080263553423130851172e-02,4.4261415991412290937834229e-02
0,-3.2105770912467600231021692e-02,-8.1345530418422563184721596e-03
0,-1.4248710874583871838217064e-02,4.3276011239555657941768807e-03
0,-5.8047894917797410174742367e-02,5.7329253418541843700939609e-02
0,3.9873815190076870862423419e-02,7.1828393754565164619485529e-02
0,-3.5222875752504788360308652e-02,2.6434697887819914863261062e-02
0,2.5354520097891523194855168e-02,5.0652513582861040386529083e-02
0,2.2624122586349611208067500e-02,4.8345784008240438867076705e-02
0,-4.7513859336829292190351737e-02,-6.2806702804193469472093803e-03
0,-6.2495700438372395191244379e-02,6.4247475344960891519008328e-02
0,1.8684654545539945008636451e-02,9.3513717333746553071055496e-04
0,7.4053680001617300243665909e-02,1.4633896570632428432018335e-03
0,-2.5452140156668134028661310e-03,5.9081517221808654838355324e-02
0,1.4939894986237467131018342e-02,1.6931383365116504241543183e-02
0,-6.5295194670702355610458767e-02,-6.2945699860662536820332669e-03
0,2.5821623132988691384781532e-02,4.0299946584843156227595529e-02
0,2.0078136884791888960855033e-02,3.2825263315954228415805005e-02
0,-3.6265682237330065795788414e-02,-2.3068836656317204258925813e-02
0,1.1554786645010304765857079e-02,-2.2652506990177630197269565e-02
0,-8.7196921808248673002594842e-02,1.2473085178871215483731305e-01
0,-1.0456635292861507502415463e-01,2.2716993903485444006307148e-01
0,1.3240806192354317993853385e-01,1.6742713905166677068603320e-02
0,-2.7870006080480992649572869e-02,8.2820665427265724445327066e-02
0,-1.9630958606727390985957626e-02,6.3163186391300391031577988e-02
0,-8.2971577028642010120940142e-02,1.4249338397044291823489992e-02
0,-6.7794676757844604675362632e-02,-3.3203019833246116268229975e-04
0,-3.9101232868276075693714233e-02,-4.4744925343532786915501376e-03
0,-1.2281980122976962881836682e-03,3.5217222556675850664298366e-02
0,-7.7568723718976616970932625e-03,-5.5217024417236401645503463e-02
0,-6.7891638646038737076038316e-03,1.3223926615551552868343954e-02
0,-2.0575671863924161614223252e-02,1.7976012473146531917000956e-02
0,-1.3841572262931374492911374e-03,-5.3545045970530565082601271e-02
0,3.2090571664733203403885309e-03,-6.0290477571846266824362459e-02
0,-1.9025790306369017718113312e-02,-2.4271118175718607579138819e-02
0,2.5318976995030769566730200e-02,5.1112364210046910828477706e-02
0,3.2635052808909582877650024e-02,2.0372259223648773313053439e-02
0,-3.0683500845594163103369212e-02,1.4301008769301670753293365e-01
0,5.1387051268156729022518192e-02,1.5033459643027385910230009e-01
0,-5.4677060616328307385280993e-02,7.4053311582455580430739417e-02
0,1.2055990629391015369481499e-03,5.8546326835818070233319332e-02
0,-4.6143637898440358069418465e-02,6.5556884210244498190078843e-02
0,7.7409559956753221099390316e-02,-7.0445553840365549014279622e-02
0,1.0909038522505737703327533e-03,4.9345257271071488180957942e-02
0,-7.4555534893070957158656142e-02,8.6402915346642336635873960e-02
0,2.4950133173183966506236686e-02,-3.6877075564225481052460509e-02
0,-6.5914754394110486312996500e-02,-2.2409855790643279371820995e-02
0,-3.8994443525695324237467787e-02,-1.9330175798304420620166155e-02
0,-8.9000168427922202174507049e-02,-4.9339247212728663816161401e-02
0,-1.7037617508324190591928460e-03,-7.2016941613295935853411578e-03
0,3.3895546435563916887190317e-02,-1.2306712138539739609388590e-02
0,1.3404053172523502923674243e-01,6.4163253977443476805397893e-02
0,1.2916801909908523504633138e-01,1.1017800784809304859290791e-01
0,1.3047168617147381075582757e-01,7.4017529267149939631309508e-02
0,-4.0692962578191618772116556e-02,1.0559315319694287382823461e-01
0,-7.0428418674497547669055564e-02,-3.3461531355669926757201438e-02
0,-1.6728070056812229665643699e-02,7.3059299514235231942649307e-02
0,-2.0823023326179711245398352e-02,4.0445310721680269305799982e-02
0,8.7999050323481112223511502e-02,-6.7323463945964695520629562e-02
0,8.8650428930188610032736563e-02,1.7287602874191412838378312e-02
0,7.4047147569211144157996785e-02,3.9833401366254255274168550e-03
0,5.6796150766667927167752339e-02,-1.0405035745105326028259185e-01
0,-3.2067969097733982353215509e-02,-9.7437280518670264101155354e-03
0,1.7728601141654094786037632e-02,2.8143152348535118573158442e-02
0,-3.5243428231827383934060549e-02,-3.3649008966892567096262923e-02
0,-8.1109184508730836071777048e-02,-1.7146762364419202567811240e-02
0,5.4308313442059712172760300e-02,2.3150715421943853650210698e-02
0,2.8846586052719232207142142e-02,-1.3633675211867585588820795e-02
0,-7.6064610893083525050561988e-03,7.5853159100878642107090855e-02
0,9.7155908702461629689040024e-02,1.6715610820052489993159384e-01
0,-6.2571712173929525113713623e-02,1.6658555896241236671251329e-01
0,-1.7721982078178329100826005e-02,-6.1044687610165418445440366e-02
0,-2.7116332342028877377959617e-03,-6.7083093689808026560683629e-02
0,-3.0154774960339573129652901e-03,5.8739149563606291026829354e-02
0,-2.1921247207453702261770179e-03,-8.2915328107974722859907502e-02
0,1.0928582901030528540253783e-01,4.8934998384459270359680971e-02
0,4.7100051672049773887618329e-02,8.2851179907493854859268367e-02
0,-6.4537934745930988778006565e-02,-6.1702157583421533837420014e-02
0,3.5548859268182811388392395e-02,-1.4714787426941888098808064e-02
0,-4.8318086129206593015705806e-02,4.5454677201555347687556008e-02
0,-6.7875929692506067891777377e-02,1.1526556551742749012756661e-02
0,-5.5755013144927832724473404e-02,-1.6046648908971710562054724e-02
0,-5.4791755841169263729906191e-02,-2.6414060855972518182532838e-02
0,1.0580282140590830525228583e-02,-7.0757960128342636818565836e-02
0,2.1560388964834049235763658e-02,-8.7141888466482131381241061e-02
0,2.1086299061563052587020550e-02,4.3244899884963002023585688e-02
0,4.2013502796271913735520753e-04,-1.9015199549562562114646269e-02
0,-1.3792301214458946995167210e-02,-6.9513359008279887452097512e-02
0,-3.2315683829822722250568745e-02,-1.1830776025925561489859916e-01
0,2.0707695409259256613676570e-02,2.4674409848195098804435332e-02
0,5.1679777908207200076695642e-02,-1.6306601238290384381368625e-02
0,4.5035876670091682522079068e-03,5.5673936569896539938717694e-02
0,9.9386769224960487545406096e-03,4.2775644704858312161732670e-02
0,-3.1031861082338737384267446e-02,-5.2667209920907141762480563e-02
0,2.8531675315028237269188160e-03,3.2365843672446485690397111e-03
0,-1.2081182554041786092469124e-01,-3.4648422724737365507863274e-02
0,-1.4230062488550354604655013e-01,-4.9689653539378500490819590e-02
0,-5.5582981117821728123118419e-02,-4.5514545205623445356390988e-02
0,-5.1731998425678651573611511e-03,-1.2281145308794770565352650e-01
0,-2.7485030495067463290892462e-02,-1.1322431326116766392431146e-01
0,1.2990187778511573177264715e-02,-1.1310642263201009516393469e-01
0,5.3706443385378360710902257e-02,1.1999284042822865037347668e-01
