Species Id,V_Avg_x,V_Avg_y
0,7.8754518231440084896632925e-01,7.0244161729723464393515542e-01
0,1.3440712434827695176409179e+00,7.3677406711427739782749313e-01
0,1.7991013972222451577920310e+00,2.1605994015203027203142483e+00
0,2.9382305194565829786768063e+00,3.2764893285711629289380653e+00
0,1.5514528503644613444123479e+00,1.0715341401530555920373899e+00
0,1.2894324231125375845863346e+00,6.0483360905413685593146056e-01
0,1.1102497031752212031108229e+00,3.2357912431515818418858998e+00
0,-3.4314229193851994992314758e+00,6.4403342618852033041321192e+00
0,2.1457003841863970805547979e+00,2.8483298733229700516744742e+00
0,1.6646917045215912089872745e+00,2.7593765844083466554081951e+00
0,-1.2056983836386432340503916e+00,9.5290879682815199380740978e-01
0,-2.0073020204629465901291496e+00,7.4473087119874370465311131e-01
0,-1.5827269610439289593273315e+00,8.2532943645953527056491339e-01
0,-5.9464146527992201018975038e-01,1.5707452145037126278737105e+00
0,-1.0357672338560379721172922e+00,1.1598648631157297828053743e+00
0,-1.0204062678065346503331057e+00,1.3379228761867392183404490e+00
0,1.4017542136559035803600182e+00,3.0369787182734326869137931e+00
0,3.8743902400969854049606056e-01,1.4772018720004878034046669e+00
0,1.3318274336415425462831763e+00,1.2611137675524584089714608e+00
0,1.2190960884884525228244456e+00,1.7575509798998170118977669e+00
0,1.5276447124768353091894824e+00,4.6373195420126306354191570e-01
0,2.4744025615415946028896599e-01,7.3453987433923351169084981e-01
0,-2.0100940894028767047529982e+00,3.5493103999437458639931720e+00
0,-5.3147152434747757521193989e-01,1.7849979000543878537854425e+00
0,2.0309518642980357583383011e+00,1.6297777118021612441367552e+00
0,1.2292671805853767619254313e+00,2.2623146156118330019069163e+00
0,-8.1837690663058948459251951e-01,3.9716868329681034865963341e-02
0,-1.6357767941099810027338890e+00,7.8229302725357063863498297e-01
0,-1.3727369887741518450496869e+00,1.2781656319132186361287040e+00
0,-8.2866534902517419158840539e-01,2.0291661137468923747917415e+00
0,-1.7048537381865958018067886e-01,1.6855068531381403040825262e+00
0,-1.1751088385583390305555440e+00,1.2689406340423308172660199e+00
0,3.0115054162356902356378896e-01,7.2785508694138789653749200e-01
0,-7.3226382443910276176524121e-02,1.4343383625143149018299482e+00
0,1.2076851611469474612192698e+00,2.2390116999638038919329119e+00
0,4.0246971261069502956431165e-01,1.9815604556949284464906214e+00
0,1.4614299593833810497756076e+00,1.5201905857168549474067731e+00
0,-4.2271876214405074145830099e-01,3.8935959401172393068435440e-01
0,4.9399522513721608185655043e-02,1.8783119916937158766501170e+00
0,1.2629469005285149929562749e+00,1.4210155193629598890936450e+00
0,2.6412868287233721709128531e+00,2.6731863575209748873362514e+00
0,8.0325250487898713913637039e-01,2.2342823207113053918249079e+00
0,-1.4861588440514845732565163e+00,1.5266007528392593339816585e+00
0,-1.3276392257981484146256435e+00,8.2816366385266670935294542e-01
0,-1.2843913763791920956691683e+00,3.3431810658654098622477591e-01
0,-9.7024278453361267882115726e-01,-3.0443980752471971884531854e-01
0,8.2886347523329888947740685e-03,2.4474019530225876728479761e+00
0,-1.3383249608444713896204803e+00,5.1293872270428830795196973e-01
0,4.3764156575725915443442204e-01,-1.5511312497335114635177433e+00
0,8.3245664270138097773354957e-01,3.0026810821630622871936112e-01
0,7.5909699934622643091586269e-01,-3.1154806278540897457318692e-01
0,1.4664619388327511106950851e+00,1.0589557156969093831833106e+00
0,1.4160914837073748095974679e+00,2.1462622810448630517043966e+00
0,-3.7573978193096657651750547e-02,4.1456327515233964975394088e-01
0,-4.1116166814472487889275953e-01,4.7355940756731706997584297e-01
0,-1.8039311659377048613350780e+00,4.2884536041130794092879341e-01
0,-3.6642501063408411399180409e-01,1.0059916502607744170916249e+00
0,1.2731906052292743525278240e-01,3.9754057958175126330502280e-01
0,-1.5707170643856103176005945e+00,1.8474525674889374915466078e+00
0,-4.9701681951003512383024940e-01,3.0727256519053380845463153e-01
0,-8.1789057012319021922053253e-01,1.8135899304718794411428462e-01
0,-1.6266551540519880170165834e+00,9.7784313429948455098639215e-01
0,-6.3892010783403396789736917e-01,1.6078298387205998132287732e+00
0,3.6853415679372325541862665e-01,7.5646101543323743948699089e-03
0,1.4140486328101464774675833e-01,-1.4014596489714215010735643e+00
0,2.4329747225819839395732913e-01,-1.2620887342073237036288447e+00
0,5.7185928994366963529216719e-01,-8.8088899793464692233868618e-01
0,1.2089143497915864067238090e+00,-4.9753553337731803996035751e-01
0,9.4701655285262842376425851e-01,-5.3362356756229667453794718e-01
0,1.0416371724778694662916223e+00,-2.6989332715980152155310634e-01
0,-2.9554774451900894804978748e-01,-3.4707110212924363601416644e-01
0,-3.6919146545580550089482585e-01,4.3836824181882394491083232e-01
0,-9.3869993628095105275832566e-01,5.7918249931805898533809795e-01
0,-4.9827833152622330592507183e-01,3.2448258408043079148441734e-01
0,-1.0038029376156205607628635e+00,8.9856939709205085886623010e-01
0,-1.7753555064292501075584596e+00,3.5450116294121747362311226e-01
0,-1.6535742923867995379794138e+00,-2.5235985614769718132777143e-01
0,-6.6655507584895601347341199e-01,-9.6810628169345691595992776e-01
0,-1.4645714597132917234034721e+00,-2.6681327486704275314677304e-02
0,-6.1245059749054475695118072e-01,-1.5180990427202420423036244e-01
0,-6.9655168781330822902475575e-01,-5.8173369070214087095394007e-01
0,5.0599973729079587847490274e-02,-1.1953374592695802380859504e+00
0,-4.2125010753342101432750155e-01,-1.1791838249609803979112144e-01
0,3.9449906603460621612455839e-01,-6.5112892596776605902419988e-01
0,1.0500762528173466225922539e+00,-6.7069376049040851928140228e-01
0,1.4211518472208441998816397e+00,-1.3582462233290598652146741e-01
0,6.6390982378974061628440495e-01,-1.8124820493981189106769136e-02
0,7.2616057617028870185826861e-02,4.1250546989038677780925468e-01
0,3.5227670025757290561685409e-01,-2.0898704458594685728911600e-01
0,-1.7791742090856832447798297e-01,-7.3911221961488549406227300e-03
0,-3.0230699086283452370338409e-01,1.2694558228489123408166961e+00
0,-7.8674385914634148431190397e-01,-1.0684552050822744562186273e-01
0,-6.8518460311117579397688360e-01,-7.9916148226184835490215619e-01
0,-4.6046208821469447602936498e-01,-8.2030566130035476035686770e-01
0,-1.0814061414456124232685852e+00,-7.0460275655147719398030404e-01
0,-1.4716534464802140114159101e+00,-6.0737787941291332405313597e-01
0,-2.5180195137291910834065334e-01,-9.5094538028828412556947569e-01
0,1.0974000254367849427339365e-01,-1.2802999506433019316631317e+00
0,2.1988879977147224309419471e-01,-2.9089915069093452704152014e-01
0,1.0267947813263578193954118e+00,-7.8976420512365572146329384e-02
0,1.2648457803184389725004166e+00,-4.2403679845462538544609288e-01
0,7.0544082314095779562279631e-01,-8.7518466350602498043942390e-03
0,4.1479970254961168185658948e-01,-5.9072380504338706241895807e-01
0,6.8599644907982412767033509e-02,-6.2516954868437235592892876e-01
0,-1.0127290391319925255686485e+00,2.9894541001526853118974714e-01
0,-7.5366232900485963241976606e-01,-7.3739433031262874296274390e-02
0,-8.3431780455353921066574685e-01,5.9492853387229538419944674e-01
0,-1.0210609267381605125279975e+00,5.4658242488680464088446342e-01
0,-8.7197837031891656245363720e-01,-5.7895205199214150315611960e-01
0,-7.1852568052500220829870159e-01,-2.0374605064297193757205662e-01
0,-5.3717870275294410387090238e-01,-4.7371559648753691629252671e-01
0,-3.0565286793163148892915615e-01,-7.8998388421676080106692552e-01
0,-3.0290602166106093962039125e-02,-7.2390544642696830202055480e-01
0,2.2367305147569463419365832e-01,-9.1345972431597655116775059e-01
0,4.0367853324354052713118790e-01,-4.6417344181643349632082618e-01
0,9.2488534632437857663234126e-01,-5.9979866443734042302793341e-01
0,6.5980057813792025722676726e-01,-6.4493222821255324905820316e-01
0,3.0511516507594443892159575e-01,7.5167557596850981260772073e-02
0,5.9372050795469403020043764e-03,-4.4302023851541849630564229e-01
0,-4.6862447676177443334211148e-01,-2.5576095086246752874359345e-01
0,-6.1937085462307861494224426e-01,5.1817947686565168918804147e-01
0,-8.5659354345641469663519274e-01,1.1786222819622002577766295e-01
0,-1.1175304340361569277462195e+00,-3.1078765719825418578636800e-01
0,-6.0595500554170467211179130e-01,1.3061047949558540759440461e-01
0,-6.5809078701792633747658101e-01,-4.2384538993204085022270533e-01
0,-4.4776472002443334918808659e-01,-4.0281687518055836472186115e-01
0,-2.5616805553581772914029102e-01,-4.6678292251584907468497931e-01
0,2.3704419776580570866642006e-01,-3.4314974777577667008898743e-01
0,1.5069158954040129394513770e-01,-3.3095471937335968481974646e-01
0,2.7435760753081944729458996e-01,-3.8516756506250454661355320e-01
0,4.5961162358204410427475750e-01,-2.8317901115369054076964517e-01
0,5.2553774030450461918206884e-01,-4.3899339391975072954821258e-01
0,5.5958955986415148675661158e-01,-4.7156740980643863103694002e-01
0,5.9410291361392664200025138e-01,-3.6300298932151070507856616e-01
0,3.9647333894567071688186388e-01,-4.2047555889863641453985110e-01
0,1.9171315179922313043370252e-01,-3.5946680146560155977297768e-01
0,-2.1607461659915053187042133e-01,-3.4888529805837786845756909e-01
0,-3.8036220784079155521339999e-01,-1.1085617389398384757814853e-01
0,-4.5034003676040357255772051e-01,-9.0956012155044937972370178e-02
0,-7.3899215185550448659057565e-01,-4.7544684627940814181101814e-01
0,-4.6904554665935921375918838e-01,-4.7897096628694735276354777e-01
0,-5.1556100493010459384635169e-01,-6.1661603075557447350973916e-01
0,-2.0504053675897832009766830e-01,-5.9099328281784657690423046e-01
0,1.9249262744421530291205613e-01,-2.5021776319357663664888491e-01
0,9.7699107761570397334693894e-02,-1.8376644415612861105380205e-01
0,1.3470113255202728619330799e-01,-3.9700375366956491829384390e-01
0,3.4542250453928013964599586e-01,-1.4964703361003850456967257e-01
0,3.0931060546092870033874078e-01,-8.8363214518959939947073678e-02
0,6.4618397106226266313200313e-01,-2.0563586252953036659363306e-01
0,6.7088017319132298155182070e-01,-2.6181329269720504671070671e-01
0,1.1374126673951615029700690e-01,-1.4975673433629854702786588e-01
0,3.2594728866593127014628095e-02,-1.6628704300013968930826991e-01
0,-2.9695034494096099464410798e-02,-2.6818974522871985577410214e-01
0,-5.9484648936402539920464960e-01,-1.6531016693269762196649708e-01
0,-3.7231167423483108036563749e-01,-2.8518840193615824230022326e-01
0,-3.7724746298002870270593689e-01,-2.5275886980754136423854561e-01
0,-3.2341491035672720322224905e-01,-3.7739465248506282035734216e-01
0,-4.0176555714962475240881190e-01,-4.6589484515696710786869517e-01
0,-2.2520371246262396724979737e-01,-4.9228867575433121750450027e-01
0,-4.1009119085318609942980572e-02,-2.6856491565570461688139403e-01
0,1.3716075302265667845702524e-01,-2.7555575975335816485412010e-01
0,9.3314835709613856012945021e-03,-3.5129647843094846670908282e-01
0,2.3007011866133358912733797e-01,-9.0459941847130506675789263e-02
0,1.4421545276085931397425099e-01,-2.0267992165612491034520914e-02
0,1.6611481889421420010677366e-01,-6.6673519624457000531947415e-02
0,2.5389348749207152344808947e-01,-1.2134534270027880903386475e-02
0,1.3532504285227574952754637e-02,-9.4369141753403926187182549e-02
0,3.4873719878660912330214927e-02,-7.3780687627270483130992318e-02
0,-1.0543495271023259340914535e-01,-1.3285252416118040197368089e-01
0,-4.5768033685119802189689153e-01,2.9387025965294910623271107e-02
0,-2.3950636615032491749666121e-01,-1.3897507395855313028221190e-01
0,-2.8680746587469529984559813e-01,-2.0029518584358885213703161e-01
0,-3.8350253194241329390834494e-01,-9.7387486226348685125486782e-02
0,-1.5682826009555753121738064e-01,-2.4112409077877983154536423e-01
0,6.6427650771319041167473074e-02,-1.6443248881562352869956101e-01
0,5.3897130251540338596871749e-02,-1.9369766358718060184074261e-01
0,-1.0942531066815114337842374e-01,-3.1644217937828839071201514e-01
0,-1.3259834726179716909988393e-02,-2.9504857341888113264616322e-01
0,1.4346362036548937490820776e-01,-3.4641415579720023776300053e-02
0,7.0993345935974980914773269e-03,-6.0571964435692467187966059e-02
0,3.4052830942706208139370005e-01,-1.8192848612852199896572358e-01
0,1.9748049634013353781369915e-01,-2.3907491171521150219447804e-01
0,3.8840816749204913616022594e-02,-2.6090124212569881095857838e-02
0,1.4225667011692044727766415e-01,2.4903407557864479238141087e-01
0,-5.3870545625838928138762185e-02,-3.8958482696511330389821381e-02
0,-2.6630964873440671203397301e-01,-9.4609135382902997957188518e-02
0,-2.2397251004798607310064540e-01,-2.7042487580928631363264003e-01
0,-1.9833512971173053451856561e-01,-1.2152246619588394360711447e-01
0,-1.4503410725281462578806213e-01,-7.6959002651911818243535279e-03
0,-1.2043011867870451192530368e-01,-2.8320110787750163439113749e-01
0,-7.1196230786809422408367709e-02,-1.6373646530800090026502858e-01
0,-5.3270768190449457879509509e-02,3.9314725501090852510799323e-01
0,1.8176699522854812551830861e-02,-1.2903050196811788330464310e-01
0,4.1773462212223631817575864e-02,-3.1433054046026859262852327e-01
0,7.1504407543793252477470901e-02,-1.9071063410024227668948527e-01
0,1.0568036671107799984170583e-01,-1.9599314532252024023684100e-01
0,2.6932438378381512444903478e-01,-1.2054615787965508588719388e-01
0,3.0662702452455607715631203e-02,-2.3511532605708793108867383e-01
0,9.8650737368632071544460871e-02,-1.7431356694883026747788790e-01
0,-1.0132004705440979946962088e-02,-1.2142450649743377621980756e-01
0,-2.0961751705129347267408946e-01,-2.3269804981188457748686460e-01
0,-6.5840831879377309521217398e-02,-1.4098974962650259734608937e-01
0,-2.5728382912536795767977083e-01,-1.9875112543273551479749983e-01
0,-1.8362972343347627734999605e-01,-1.7470179627613094397453608e-01
0,-1.5639926592688951911824802e-01,-1.8832198534301872183682747e-01
0,-1.2072821319683892105079082e-01,-1.8727721298830196650087032e-01
0,-3.6061446513851458384181115e-02,-1.3758832864978148835533034e-01
0,9.1517494298199636437729509e-02,-2.0444147557832442752001612e-01
0,-2.5475607087665141925469925e-01,1.4655614390059884533101808e-01
0,-8.9380479069550211601580259e-02,-5.9604083982500985494645818e-02
0,5.6906583219725991040771618e-02,-2.2283612672563302137263008e-01
0,3.4705054408690212686128262e-02,-2.7756781858267348672697494e-01
0,1.6116330855891328188711498e-01,-2.6319275039643436064906723e-01
0,8.3400003040186063141270267e-02,-3.5160738510388545030593832e-01
0,-3.7864058956605460559696752e-02,-2.6290319419342056406208030e-01
0,-2.7552928455824392955930691e-02,-2.6423591300099430467795969e-01
0,-1.2721269103008273071431233e-01,-1.7846903337287067792260586e-01
0,-1.0414271883513913363739078e-01,-1.8390559104800691114789402e-01
0,-8.3765975789387561722953990e-02,-2.3965127920756040813543564e-01
0,-5.4247148909097847591098684e-02,-2.4652682433515019089220743e-01
0,4.9090692347209764420656875e-03,-2.3438670420951829287403712e-01
0,4.9124127663327889214972544e-02,-1.3369851654500175541784301e-01
0,-3.9833135419798208765040926e-03,-1.3500237805794124135161383e-01
0,8.0767832613210008285697938e-02,3.0661222994094190774649888e-02
0,-3.1227251263673583281388346e-01,-1.0290288350494695979175930e-01
0,-9.5586931701995767052260078e-02,-2.2681034944920375195920315e-01
0,5.5625740449309714341641353e-02,-2.1180781862175285246152612e-01
0,-4.4133384780603662767006767e-02,-1.3369445539644558840208788e-01
0,1.1308167604499838251874699e-02,-1.6782335246248891724718533e-01
0,-3.6652792259471746183496776e-02,-2.0718341167324749729772293e-01
0,3.1962293768420441120170494e-02,-1.8825650641875660284974003e-01
0,-1.0973432328479933162146409e-01,-2.1688521663262735894583955e-01
0,-1.5890979552719324691123504e-02,-3.6412357529241899667393767e-02
0,6.5226566185228443406352028e-02,-1.2405343779816503657631444e-01
0,-1.5640463331955709730403115e-02,-1.3967788401098771289277067e-01
0,1.2201256921016834580684396e-02,-1.2921619651029592201751939e-01
0,5.4941799354142777100928896e-02,-1.7422189131088894331611527e-01
0,9.4897146984491129173555635e-02,-1.7065318091730427574326256e-01
0,1.3756992148273364251487294e-01,-1.1738099146258494653860538e-01
0,1.9384034230251423469582051e-01,1.3053880373852819272301184e-03
0,-2.8140669702401854834761252e-01,1.4924087039284619771173368e-01
0,-4.5064023359337991581075045e-02,-1.9719984232959797409989733e-01
0,-4.7199789790501053094937123e-04,-1.4669886415628594078519598e-01
0,-8.1388506069722740821070772e-02,-1.3709797620735092449351100e-01
0,-4.1366116859647708570157931e-02,-7.9862440324978731243099617e-02
0,-6.7258110734139273101384049e-02,-8.6404676338716776551329701e-02
0,-1.7682744522630293448894889e-02,-1.7987461590561248936381844e-01
0,-1.2563936484104951119000759e-01,-1.9291364553318859909047944e-01
0,3.2503919695554546291649256e-04,-2.0014835129270047708871516e-01
0,-9.8342678228679914625987024e-03,-9.3099377511918809512819761e-04
0,-8.4012948868797274193376268e-02,9.0610148581612270229923567e-03
0,3.7063538340196627851597100e-02,1.4361586435644030368408153e-01
0,9.1642023888718393553887154e-02,-1.8259199587560398514440863e-01
0,1.4611465636072157314728770e-01,-1.0557729051257261354557215e-01
0,6.5109862410129046295104160e-02,-1.6267646686077766315925430e-01
0,2.6994993444869419541021216e-01,2.9154833492644346981670367e-02
