Species Id,V_var_x,V_var_y
0,2.5912768897878426521685924e+00,2.7789714820467401601433721e+00
0,2.8112638497389959013617045e+00,3.5186123532942552571967099e+00
0,2.8682388440824042596943855e+00,4.5326276281959998470938444e+00
0,2.9926435295541544689967850e+00,5.8699398946128225063034733e+00
0,6.1453071424855707505230384e+00,2.6093186682639476714484772e+01
0,2.9832380391585644474616856e+00,1.5691053616736867937220268e+01
0,6.8903714400739630718817352e+00,1.6217612934488165876700805e+00
0,1.2539726725876910506940476e+01,5.4617506874948631434563140e+00
0,1.7215849547140898323505098e+01,5.4137529048795078878697495e+00
0,1.7417983081263361810897550e+00,2.6491597688163814439121779e+01
0,3.7845137002705637740973543e+00,3.9715017295340699909900195e+00
0,2.0211654257478981477902380e+00,9.8390806361490845688422269e-01
0,3.8742302797415884008103149e+00,5.7123536183310685832026365e-01
0,1.3351628797140335791482357e+00,7.6094383816678334842009690e-01
0,9.5934449996526149906372893e-01,6.2268930338836625537624059e-01
0,1.2377173179902763777704422e+01,1.1599186502951561728025354e+00
0,1.6128635774213069709048796e+01,3.7195437312426491871519829e+01
0,6.2159194816626088808675377e+00,1.2350279087066645899994910e+01
0,1.5682267024743632433114726e+00,2.9034240188612931987677257e+00
0,4.8243722125061365701981231e+00,4.9577481504200804351967236e+00
0,4.6342763876738271022759363e+00,2.4780576763199306356000307e+01
0,8.1524014325728195728970604e+00,3.4135622683937896226780140e+01
0,8.3606499433144882971191691e+00,2.0026634393896411978630567e+00
0,9.7973262458298382426846729e+00,1.6087856826210025218415467e+01
0,1.3779513570061745042494294e+01,3.1182788613177745418170161e+01
0,6.4664121211018299462125469e+00,7.6445674395381137955496342e+00
0,1.4621245981805069291681320e+01,1.1982905931380669173336173e+01
0,8.8455702985335857846393992e+00,4.1781928710978615271187664e+00
0,1.0982616033681413814093730e+00,8.6320959537196606525810694e-01
0,2.7695526493761120079284410e+00,1.2273570387729386688135946e+00
0,3.2814590036564519337503043e+00,6.8817727546783902248250797e-01
0,3.0540498941486649897569805e+01,2.9084417957993902170699130e+00
0,1.3945170531236918520789914e+01,4.3061666971469648501624761e+01
0,1.0265902903022576353464501e+01,3.0671771256203633981840539e+01
0,2.6330957101491168081963679e+00,9.0712547807689460910296475e+00
0,1.7435880768900382520314452e+00,1.0366189930259558593661495e+01
0,1.4505195926863116984151247e+00,6.6019377760357187412409985e+00
0,3.6432887548240673325494754e+00,2.3917354538034327759987718e+00
0,9.9680981928051934914947196e+00,2.6483663435007285258393495e+00
0,1.0254823426531654462223742e+01,1.7376805092090190640874425e+01
0,9.2334214271929688777618139e+00,1.3980061577344724099702944e+01
0,3.5684508459640995603479041e+00,1.3438964640735530764459327e+01
0,1.0137796635327639194201765e+01,1.1419717886318508703880070e+01
0,7.2471062747105143841963582e+00,7.6351329719274243501558885e+00
0,9.6039300531473035249518944e+00,5.0861540908533857674456158e+00
0,4.3780968309417165329477939e+00,3.3332040582975803744147925e+00
0,1.6836531117694732984091388e+01,1.2337911290114931261996389e+01
0,1.4341165583332015742712429e+01,4.2347113805903717320688884e+01
0,3.7773591458164261780439119e+00,9.4212188014963260673795276e-01
0,3.2588843790653747589658451e+00,1.9353747500305145123888906e+00
0,3.5005672490943915420302801e+00,1.2761785990745901031573339e+01
0,3.0529709645543405827083916e+01,1.2994832767859977096236435e+01
0,6.2162095179542662393146202e+00,1.7052487412643376529786110e+01
0,5.9679271723500502133674672e+00,2.6038932377973310394736473e+01
0,1.9371983411695875787472687e+01,1.4680295220009941914440788e+01
0,1.2094650183029012069368946e+01,1.0633078733502623336448778e+01
0,8.0409862755074694717905004e+00,3.7790308800459060378784670e+00
0,6.0804058480161957689347219e+00,1.2420191600466599979313287e+01
0,1.3237103165415271988081258e+01,9.4582581116047954594705516e+00
0,6.8771383751601673495201794e+00,9.0010372649075272022400895e+00
0,7.0446626341493860934406257e+00,8.1130593812318601010247221e+00
0,3.8867660752628445663958701e+00,4.0018216792064755793489894e+00
0,1.3010317928723251768019509e+01,6.9119384772500094271663329e+00
0,1.1696821259776228885129967e+01,2.0412467158465005923062563e+01
0,8.9986209561045775728871376e+00,2.2749918333264416148153941e+00
0,1.0181141903341316634623581e+01,1.5200899788345503260700298e+00
0,3.9041426962121077437473105e+00,8.0044593819450415850269565e-01
0,6.8837105954385213735235993e+00,1.1854524447499954931117827e+01
0,3.4689467393186319554843067e+00,2.0768844458573866518236173e+01
0,4.4185935169419598977924579e+00,1.8009026812121021521306830e+01
0,1.0097416703940359283819816e+01,7.3101892629106108856262836e+00
0,8.9870404108702288681342907e+00,4.1074657959624412129073789e+00
0,8.0050941379245266205089138e+00,2.2689414058024652831591084e+00
0,7.2547800215899433950994535e+00,1.5054501535098342657192916e+01
0,5.8471602646656091195609406e+00,9.1672604543018039180424239e+00
0,3.1927242163932190166519831e+00,4.0810508278158472705854365e+00
0,4.3925708728028300953383223e+00,9.2299571254806416220617393e+00
0,2.3649910883414189122220250e+00,2.4777841465202854465132987e+01
0,5.8734235239667444972155863e+00,1.1360758063907873349762667e+01
0,6.7100815940519948910036874e+00,1.5779518981043592074087201e+00
0,4.0720056265882309531889405e+00,3.8718358546845519363444055e+00
0,3.5768147633821856246072457e+00,2.6194385837833742414204607e+00
0,3.2903867704546039263391322e+00,4.5051312596643278141073097e+00
0,5.7324785969471463431545999e+00,6.9760691941183790021341338e+00
0,2.9135101393375641976035695e+00,7.4059095653500941480729125e+00
0,2.8182365155797022282513353e+00,1.2506332943081419628583717e+00
0,5.2779732721952203888804434e+00,2.5746070934880975755731924e+00
0,7.1722256367917447406057363e+00,3.4078088484101485278188193e+00
0,1.6600620208080812290063477e+01,9.5494509150723239088165428e+00
0,4.7026687625567262784898048e+01,4.5694657245072761497795000e+01
0,4.8729198439723759861408325e+00,1.1416549179122938539876486e+01
0,2.9407508818332566136177775e+00,4.8897518029859616817134338e+00
0,2.0156663097577172116814381e+00,9.4091300902342123180233102e+00
0,2.1633475474665360138715187e+00,9.2045021381591052289650179e+00
0,1.2811620298131178863343393e+00,1.8774908420199687419938073e+00
0,8.0186153612257338174629240e-01,4.5926890450645313501709666e-01
0,4.0354163079094824695403076e+00,1.9239976090131616359713007e+00
0,2.9772330383051168745112136e+00,1.0244610987310216465573376e+00
0,1.5207883171700737889864286e+00,1.9529789682425438002155715e+00
0,2.0665740776615963980589186e+00,2.5363256778376839228883455e+00
0,2.3863867278021344553451399e+00,1.3027851022056617935618306e+00
0,4.2071965559000465972872007e+00,1.2422811374409907791971364e+00
0,3.6381277887806233728440475e+00,1.6190224197195388633474522e+00
0,3.4554535984008634130759674e+00,1.7223253785941490257016540e+00
0,7.4901905517928550892747808e+00,2.7988001582181842863406018e+00
0,4.5790202933732242485120878e+00,6.0307382590432965230320406e+00
0,3.8950930698467023383102514e+00,4.1616252347560083180155743e+00
0,2.1491747592571135427874651e+00,1.5457610799647891752783835e+00
0,2.2281522520861942737724348e+00,6.2421326337737470524302807e+00
0,2.2898924658078936289484773e+00,3.1698838504207014210578564e+00
0,2.7680244843548802435861944e+00,2.2631396627520601327887562e+00
0,1.7792169310386651837063710e+00,1.6903356397738162897326220e+00
0,3.0747794769796730207644941e+00,3.2501878686954874808634486e+00
0,3.4360212416374693589204981e+00,8.8763317172230138396571419e+00
0,1.3040305021931768436616039e+00,2.2475216679436798017377441e+00
0,1.5825062139104486558238705e+00,9.0707914450176330145581005e-01
0,1.6088147790401083891964618e+00,7.9198024131428557126355372e-01
0,6.0169274686655001005419763e+00,2.3575893855435010593168954e+00
0,3.0216728742403295981944211e+00,1.1118672514838952025684193e+01
0,3.6919469489854765953396054e+00,6.5996260594787958808637995e+00
0,4.4291660919082938008273231e+00,2.3823221086874801777355515e+00
0,2.1482069503929510645434675e+00,1.8155353460970751200420636e+00
0,1.7313333368461667483018118e+00,1.9436864930583945820785630e+00
0,4.6018351908324142129913525e+00,4.5810354557130805730480461e+00
0,2.5677714434776452989694917e+00,9.5991675992584823973174935e-01
0,2.1189149475698272340196127e+00,1.7345413351536054236134987e+00
0,3.3262646428602828940768177e+00,4.8927606972041575161824767e+00
0,7.8183419813425425459740836e-01,8.2942207231724440763542816e-01
0,1.1127907502531271255463707e+00,1.3194826656845279888585765e+00
0,3.5267931550494271419893266e+00,1.0336267990805122707342889e+01
0,2.1015785010902678919819664e+00,3.5786401230222195657404427e+00
0,1.5842221837707217702018170e+00,3.3410611989662895027208833e+00
0,1.7233714226771010835648212e+00,3.6054247448895999639262300e+00
0,2.8199416804610470954628454e+00,2.2268173990986248611534393e+00
0,2.7456633723435963645442826e+00,2.1109769251163719161468180e+00
0,2.4750660368726644655623659e+00,3.4824232010100280021447361e+00
0,3.3893047207729516401286673e+00,3.7487253190511120592987027e+00
0,1.8129951574278890813474163e+00,1.6124660248452682420605697e+00
0,3.5656210391962961381295827e+00,3.4689894833656906847352275e+00
0,3.3641220715531052753988206e+00,6.2423570223399771350614174e+00
0,2.7011506177595858702034093e+00,2.9692359211935790419545356e+00
0,1.7646360674021370762432070e+00,1.9283774515739828814275825e+00
0,1.3548013210583105259132708e+00,1.0393276801614987903121801e+00
0,8.6583242314130304251307280e-01,9.2708709580460380017541411e-01
0,1.5894528192995527327013860e+00,1.1072327178513607925935958e+00
0,1.1445926756939284185676797e+00,1.0449157126916646110004194e+00
0,1.5796803917750228407612667e+00,2.6342926932963464103920614e+00
0,1.7769333555053039575000184e+00,7.7253559427608911036600148e+00
0,1.7390086924753966890477841e+00,5.4723271251215344079810166e+00
0,1.9636426635924946193512142e+00,2.5359181329990030384635702e+00
0,1.8549190820778003185864691e+00,1.3427971796056630271465338e+00
0,2.1142105581126369173716739e+00,1.4463799907027135027703935e+00
0,2.8408257241845937812740885e+00,3.1474780638624433315442275e+00
0,3.5765991967331745016167588e+00,4.3981309560954162662937961e+00
0,2.9295131377357686019990979e+00,2.7559076734926017948623667e+00
0,2.2180756396161456223126152e+00,2.1721770034551193262473134e+00
0,1.8547280537666464006463229e+00,3.3759397491021072568173622e+00
0,1.6503191880473884189939326e+00,2.1442789760644203056472179e+00
0,9.3414354095481333395412094e-01,9.4077353488288206762035770e-01
0,9.5404987342727509691542309e-01,9.6724564110337252209603776e-01
0,2.5467307503895248999015166e+00,4.7041493827082963008479055e+00
0,1.7784062381700962429675883e+00,3.1486464379768230870126899e+00
0,1.2673144268799856337892606e+00,2.8820615532389481927566521e+00
0,1.1557223494948747344324147e+00,2.9312302270121617375764345e+00
0,1.4507200877786583514961194e+00,1.4598213224552212263773754e+00
0,1.5892571065309326616699082e+00,2.4384089781511457672991128e+00
0,1.6588368247122426968331865e+00,1.6151126571194163172862091e+00
0,1.6197835352046447976448462e+00,1.9184678655761240317900729e+00
0,2.5484666943047855625081866e+00,4.7670051620446471929426480e+00
0,2.0903647289738849224249861e+00,2.7629129053409546834529920e+00
0,1.9889096960046062090299301e+00,2.2707602562968651760400007e+00
0,2.5987297258712462877383587e+00,3.4216203152983299951017671e+00
0,2.5739692399166687053480018e+00,4.6517776571504327876027673e+00
0,1.2234201150600152452341263e+00,1.7258106642790014273458610e+00
0,1.3302169805510155597971789e+00,2.8610149723954045875018437e+00
0,1.5595194933765288425320250e+00,1.0873170397618014959562061e+01
0,1.3353450595478513207581273e+00,1.1611724291786869045495223e+00
0,1.3518380697539167378806724e+00,1.3602878917262384295128186e+00
0,1.1922178952956441477795124e+00,1.2545943139064759108691760e+00
0,1.3565051798027560892023757e+00,2.1050828726348878028318268e+00
0,1.3518680014867709981984945e+00,1.1321232047643823293014975e+00
0,2.0042799911191271355903609e+00,1.7215457056812659697442314e+00
0,1.7103856850448915238871450e+00,1.7272639196350125789791718e+00
0,1.9563068338334637097375435e+00,2.2329270754401671084110603e+00
0,2.1167136000781581195440140e+00,3.5153528034392027556975791e+00
0,1.8286850521434874217163724e+00,3.0536367731482538800946713e+00
0,1.7995815976757487675286029e+00,1.5714031755741295626194187e+00
0,1.6577431319007289722833320e+00,1.5278162008061357823862636e+00
0,1.6230086910936498689750351e+00,1.3943090967679308000981564e+00
0,1.3622485716433891944632251e+00,1.1998961917645876162907825e+00
0,1.6676003169459512331940232e+00,2.1144244835879386634758248e+00
0,3.4781720869366110626685895e+00,1.0331496802467166062911019e+01
0,3.0550642799591596343589117e+00,6.0986041140802136339971184e+00
0,1.8521978231719917751263438e+00,3.1286333044882983500656337e+00
0,1.5376605499154254452776058e+00,1.6468805076611365834082790e+00
0,1.8398606348429717982639886e+00,2.3598625547616634001713010e+00
0,1.8124270022430803983581882e+00,1.7840113214153963117070134e+00
0,2.5193549888148227822171066e+00,1.9935115237151115330505036e+00
0,1.8485402153837859895446627e+00,1.4001708289668171047992473e+00
0,1.9420788130970525475760269e+00,1.8269072149967149343297024e+00
0,3.0123765443104222327974639e+00,7.3108142408807630374667497e+00
0,2.9237159299126611600172509e+00,7.9936635873173287336612702e+00
0,2.1286854080568113900540084e+00,1.9803823006501743986262909e+00
0,1.9291420683234243860226798e+00,1.6482225368422978029059323e+00
0,2.1034861166408513888370635e+00,1.2847970191375504001030095e+00
0,1.4390599762613327516902473e+00,1.0051643982537254995435205e+00
0,2.9160877212480542652883742e+00,4.1300640096702174730580737e+00
0,4.4906920733840571813288989e+00,8.2755220872294312783878922e+00
0,2.6750421488050690754789684e+00,8.2330435481097037353492851e+00
0,2.2022959550642693393740501e+00,5.4696425328237365803829562e+00
0,1.6297925436242250984975044e+00,1.5275136421948181109087272e+00
0,1.4721930264400580057326806e+00,1.0346754757566991589357031e+00
0,1.4376134068912911345705652e+00,1.1795385789541232846033836e+00
0,1.3802840509669247470725395e+00,1.3856376851063296751220832e+00
0,1.3499499545878104189711166e+00,1.2530429805850400448719029e+00
0,1.5086836868981086112739831e+00,1.3627227127983485566176114e+00
0,1.3962277569066650073636993e+00,2.0259449483476217324096069e+00
0,1.3231498574072533269685437e+00,1.0805438170642591710901570e+00
0,1.7546259360242952851649534e+00,2.0055376010542063092145781e+00
0,2.0679751190227539936472567e+00,3.0839995548297287619732288e+00
0,1.5459871552892914259302870e+00,2.2411708836612662665288553e+00
0,1.1342473546456561805939600e+00,1.9379055310086823471493744e+00
0,1.2721012433586569301269265e+00,2.7090945250701001789650491e+00
0,1.5849048909856797706652287e+00,2.1574309664823347887363525e+00
0,1.4431910661830533726401882e+00,1.1783218283367014045381893e+00
0,1.2891434903406411294213285e+00,1.3398090279977936667421545e+00
0,1.3981614350166600146962992e+00,1.3598517866292776368197792e+00
0,1.1442750985391123563772453e+00,9.0017011133215474316671134e-01
0,1.1980134023207873461558393e+00,1.0377222484597572460529591e+00
0,1.1775207098536570882174601e+00,1.0216798318536821632562805e+00
0,1.4239859973135651216580300e+00,8.8688012701927854131156437e-01
0,1.0401547966945243750558348e+00,9.1541570779530712087534994e-01
0,1.6715999688516258725456964e+00,1.8137927421489061785564445e+00
0,1.3209738481190642644946820e+00,7.9036414175339109178253238e-01
0,1.6069540141906797359183656e+00,1.1702835128126745090071381e+00
0,1.3398758078827528450460704e+00,1.3306309876188477936409527e+00
0,1.3047014546323660866278260e+00,1.4203504658844927632799227e+00
0,1.1738243418501783654761539e+00,1.6666618559700925317201836e+00
0,1.2463035056610689554901228e+00,1.1642687000792204532473306e+00
0,1.4109763632838716596040740e+00,1.1737446746604804914682063e+00
0,1.0786263352188785180629793e+00,7.4010716087297023779711935e-01
0,9.3757863494565629736143819e-01,7.1178850336769339257614320e-01
0,9.7424880726158991084417949e-01,1.0047626361730765953694799e+00
0,9.2495692642857285648005927e-01,1.6609466195671678256928772e+00
0,1.0948281523003362547541428e+00,1.1242397493073084113746063e+00
0,1.2723302976944048658936026e+00,1.0851225937523918396721001e+00
0,1.2617548869795385257930320e+00,9.4009518219886611944957622e-01
0,9.9971457649621875418688433e-01,1.2937454547036555396744006e+00
0,1.4143065375802157390694447e+00,1.3871118024753255060232959e+00
0,1.2602364038629736420205063e+00,8.1872992117206988549327207e-01
0,1.2557650638968713696641544e+00,8.1978124615981284861732092e-01
0,1.2260891804216522693593561e+00,9.6025574688313253268745484e-01
0,1.1792673413449459296487021e+00,8.9856259427723628174788928e-01
0,1.1340590093094773394000185e+00,8.5867219524881854830766770e-01
0,1.0037841621861369745261072e+00,9.0833764685125539806165307e-01
0,1.0232222538656579047255946e+00,9.5225399163388091405835212e-01
