Species Id,V_var_x,V_var_y
0,1.3168036545070527232326185e-01,4.2148417441374219638561271e-01
0,1.9077904016910705031762063e+00,3.3583784547794146568833185e+00
0,8.1710768748589091003964313e-01,8.3499273177316499783273684e+00
0,1.3692682939382885276558000e+00,2.4755807717638745657495747e+01
0,2.9643978287611960631409147e-01,1.9711017469371258648003220e-01
0,1.3191221730616375928946127e+00,9.8809957060834407993610284e-01
0,3.7668992271555885587019930e+00,2.0396624378630767715492311e+00
0,7.5203724945973418058997595e+00,3.4338865022393498804831324e+00
0,5.9853578919144130310314722e+00,3.9110565457546209167105644e+00
0,1.8127698576400021579502209e+01,1.8528878753991115502230969e+01
0,3.1441762262818780726547629e+01,3.8972242418410047548604780e+01
0,6.0609171312640413020744745e+00,1.2414547672726804705689574e+01
0,3.0758266240184928275169796e-01,5.4299085820596215690159170e-01
0,3.2518936899431577502994628e-01,5.2897773769053035852749645e-01
0,1.3883302317452825835886188e+00,7.3530439569749683759170011e-01
0,2.3430552230902694788028384e+00,1.2325087406435004666604982e+00
0,1.3734327773386703630542627e-01,3.2320411356215017484316832e-01
0,2.8206475923223863766509112e+00,3.8514278848506204866453118e+00
0,8.8092619202784057108601701e+00,8.1551702144839453012536978e+00
0,3.4390969669347706272333198e+00,1.1661655344725813776562973e+01
0,2.8020482532512582807271428e+00,1.9200160417156098002777753e+00
0,6.3675864248207236784082852e+00,2.5197787191407954310307105e+00
0,1.3964701889830244851964380e+01,2.7814330188894391682197238e+00
0,1.0353648959577114396779507e+01,4.9493443897730546865432188e+00
0,8.6511648594256360667031913e+00,7.2330699901853225952663706e+00
0,1.3112717522408921411170013e+01,1.4098000603319263746016077e+01
0,2.5135366155379607278064213e+01,4.2292747263511721200757165e+01
0,9.7730704669513084326126773e+00,1.9236036687228160957374712e+01
0,3.3743903410522344543664985e+00,5.9527174771352058257889439e+00
0,2.1538889240660211044087191e+01,2.5347135060008806561882011e+01
0,1.7574299548592588138262727e+01,1.7934900018022162271336128e+01
0,1.1032939109643475461552953e+01,2.1607515708437155410592823e+01
0,5.4606583191088917672573189e+00,1.7014550137949706609674649e+00
0,4.7626825908258183517318685e+00,1.8005875866852854016997298e+00
0,1.7487171359968140649243651e+01,3.0033353872502472903249782e+00
0,7.4699222856961267069664245e+00,2.4603072594811825624105950e+00
0,9.6509296468048688666385715e+00,8.1565535220299629770579486e+00
0,1.5505431437418994988775012e+01,6.7835686923694824557173888e+00
0,1.7556214111271156497195989e+01,1.3800137208945889355504733e+01
0,8.8007716277426659701177414e+00,9.4924478868686144039656938e+00
0,2.5785128593475317160255145e+01,3.0558745499056108485547156e+01
0,1.4970907257465377426797204e+01,2.8182438075889912454385922e+01
0,1.4291967185016011043785511e+01,1.6746945045589470169034030e+01
0,3.7730422841213533402537905e+00,4.6002673114260286268972777e+00
0,3.7869823096740922174774369e+00,2.8604856762787918000867649e+01
0,7.4224374420218914849556313e+00,1.3828799890899421853873719e+01
0,8.4349217897687722711452807e+00,2.4499934869883777110999290e+00
0,4.8484332957405200659195543e+00,4.8398502601117439070321780e+00
0,2.5468980821065714259532342e+00,1.7454766964017234265327261e+00
0,1.9236473737072947720605498e+00,2.8239053959158728623890511e+00
0,5.8138436030272906407390110e+00,7.1409004843111594240667728e+00
0,1.9354405203735993712399477e+00,6.2833796853392147596650830e+00
0,7.1684492945580657874415920e+00,9.0943151113330920054522721e+00
0,1.6335135140626423577714377e+01,9.2010218968655550497715012e+00
0,1.0467887685462512692424752e+01,6.1902013325523794762261787e+00
0,9.5610898264000052648725614e+00,3.6800860349399062698694252e+00
0,8.7082206880429566808743402e+00,2.6236268353264215136277926e+01
0,6.9271030605123460333061303e+00,9.3457445890062174953527574e+01
0,3.7718389413292374712227684e+00,4.3709165383732013765438751e+00
0,3.7809493622453440586639317e+00,5.3066774193450232388613585e+00
0,1.5038949360644433550504573e+00,4.9509716208104510570819912e+00
0,4.3462471577901409247601805e+00,1.1878348940048928383816929e+01
0,1.1684515237082004901481014e+01,3.1777836133732474621638175e+01
0,9.2127071740678729838691652e+00,7.2195148341336086161845742e+00
0,1.7465536886611268130309327e+00,1.9675139506368715114348333e+00
0,8.8910318013438534023862303e+00,6.6926806674021914744798778e+00
0,7.9522664298461167575737818e+00,1.4878795484003584093102290e+01
0,2.9856004477506581373802419e+00,8.1765151180581785439471787e+00
0,1.8829749325522233682761453e+00,6.6955162059880297675817928e+00
0,4.4492223283349634499472813e+00,5.1367274774909796875022039e+00
0,9.4407885990435413958721256e+00,6.2829132405041807629686446e+00
0,1.4942272174417297492254875e+01,2.9585202079692587417980576e+00
0,7.4480390498651249941985952e+00,1.9701046055396208345200648e+01
0,6.5613724623442948313822853e+00,5.5645698899455613428699507e+00
0,3.0898524533688114246388068e+00,1.0491695326091450723993148e+01
0,3.9976544605146329125489046e+00,9.2157002569889172605144267e+00
0,6.0787926500916169558763613e+00,7.8685260362673874467986934e+00
0,3.7500467918363504793433094e+00,4.6193742221701521444288119e+00
0,4.8737750823957686208132145e+00,9.6534280119498170336100884e+00
0,9.5991242540592374155039579e+00,8.9812175961335072305047333e-01
0,1.1298387848313913295328348e+00,9.8163861016199516207336728e-01
0,1.0166900498710351286035802e+01,9.1352660286646418796863145e+00
0,7.1796427935965052569144973e+00,2.7170102405062120709544615e+01
0,7.6961443213857485545759118e+00,3.4087209938047394075510965e+01
0,2.9809887727293671311201706e+00,3.6353064634460769966040061e+00
0,2.6533624267922286676935073e+00,5.8257739689756924406083272e+00
0,5.8069458667450701838674831e+00,7.1786270674652659096182106e+00
0,9.9132914999050800730628907e+00,1.8378316042009281705560397e+00
0,7.1304437146771082467466840e+00,4.3649769840593943825979295e+00
0,7.8283124777044896802635776e+00,2.1581084811495667707959001e+00
0,3.2498444524546310496759816e+00,4.1646603357076967810712631e+00
0,2.3783321287897187801263499e+00,6.7471614346913764137525504e+00
0,5.9348611597748330837021058e+00,7.9309582345031595096429555e+00
0,4.0561506449052151523915200e+00,4.7341547171489430922974861e+00
0,4.1045734827231914465528462e+00,2.8958979451784476744080621e+00
0,2.1173170906888487685648670e+00,1.0047160698882182661151319e+00
0,7.6663915504908408671269626e-01,6.3729236596202420983559023e-01
0,4.8784236207371769467044942e+00,8.4752644022015797276026206e+00
0,6.1290770113560775200767239e+00,9.5647747983438655694499175e+00
0,5.4005550114602893785331617e+00,7.5194323872680239873034225e+00
0,5.5613013876162531445856985e+00,1.1861870702914716346754176e+00
0,2.7912596816490080620098979e+00,7.8037451217225672905897227e+00
0,3.9545780162565731252755086e+00,3.8152791632460032467122346e+00
0,5.2564261031131991330767050e+00,2.1775013167058943075460320e+00
0,6.7269281570442567286249869e+00,7.8700590454406755824834363e+00
0,5.6165210553103808166497402e+00,6.3806664371266190727283174e+00
0,2.1868672153360768639629441e+00,8.1521816697409732466184096e-01
0,1.9691947702873875414297800e+00,5.1663286370579566408878236e+00
0,1.7631218644185124855283675e+00,1.5749768141175199964720832e+00
0,1.3295364414463024527179869e+00,1.6453087601549964968938866e+00
0,2.0136987849220244761738741e+00,1.9945482013130098053466099e+00
0,5.4539348830354239527906657e-01,5.2938090174657193021090507e-01
0,8.2010842574600162357967292e-01,6.8272048689069442239940599e-01
0,1.3338339765345348375547019e+00,7.6198828518559746925120635e-01
0,1.9782806109461215093858755e+00,5.1115202082762554169903524e+00
0,1.2549829750608618716967158e+00,3.0643526385832529079777942e+00
0,1.8191428679424710423973011e+00,2.1091131493797465878969888e+00
0,3.3923705795251026806624850e+00,4.8421463554298460607583365e+00
0,3.0171209898679025585011004e+00,1.7703488304779089190788000e+00
0,3.7394142451536667159928129e+00,4.0299660167110884501084911e+00
0,8.4827811518317552952339611e+00,1.5409774722680573688649019e+01
0,1.2508800905477134080001633e+01,1.1518546051296569388000535e+01
0,4.5300291099477645317961105e+00,3.1069788879691389027470905e+00
0,1.2524352042947088925473054e+00,5.4380837237540102790944729e+00
0,1.2115031901541903902597141e+00,2.4198489903220323782306878e+00
0,1.2167567203763420824458308e+00,2.4574788278110202277559893e+00
0,1.7554920464694387938209275e+00,2.0074660400751866973223514e+00
0,4.3398420231936842839104429e+00,1.1312918111325105385844836e+00
0,8.1341738118236572852026711e-01,6.0397011001508615901656185e-01
0,1.1188413896005968695135380e+00,1.9011533889637448613285642e+00
0,1.6414491854182744479118128e+00,2.2499973016009144899385319e+00
0,1.8607212848410550343203340e+00,3.8741582230714555201700477e+00
0,2.0646615539580981391054593e+00,2.0043917624785985154289847e+00
0,3.1328378889401662377167668e+00,7.7975635505750613418740613e+00
0,2.0893937549603642800377656e+00,3.4425696047772502694783725e+00
0,2.5226037523436914966623590e+00,4.0083430254625271871304903e+00
0,3.7212155207574371118539602e+00,5.1539861503438322287706796e+00
0,3.2825801246658627974284173e+00,3.3608783422779744398667390e+00
0,3.1010605668553061775583046e+00,3.8992189810984583253627989e+00
0,3.0840834952002973423645926e+00,3.0830703810242492401982872e+00
0,1.8084220183446690910500365e+00,8.8324105839072863943783886e-01
0,1.1318786578223307692780963e+00,1.1692908837203543903626723e+00
0,9.0645970650462537321345735e-01,8.2282474061494037531616641e-01
0,1.6366470913198685188660875e+00,9.2804264835404592925982570e-01
0,1.1249922695306215914001768e+00,7.6164322102793136082254932e-01
0,2.0385848522159655260566069e+00,2.1197511172080649721749523e+00
0,2.1024288243954365462684564e+00,1.6437776911079517994096477e+00
0,2.2141792762501206759395700e+00,4.2316090705683384598501107e+00
0,1.6711289919824054983621409e+00,1.2518608788653036167914934e+00
0,1.4563860063588649484955795e+00,1.5591627499251727861917516e+00
0,2.4069098120726413192471682e+00,1.4605224421978326709847806e+00
0,4.2162615893152626256323856e+00,2.1072346069326046702485655e+00
0,3.8954877534398049121477925e+00,7.6948214097838070202328709e+00
0,4.5260933125112270403178627e+00,6.3923578303487884610945002e+00
0,1.4100170518068984026882617e+00,8.5106207954007953020436616e+00
0,1.7065619170277521732259629e+00,1.7195417003690753876554709e+00
0,1.3586973970545845880053548e+00,9.7759608180900281482195169e-01
0,1.3009205308941438339331853e+00,2.5643714261499317430548217e+00
0,9.9258941093920882714485288e-01,1.4672094083050848389859766e+00
0,1.1509622780617687620718925e+00,1.0163055140598198367030136e+00
0,9.4791494904910578167545054e-01,9.3023704139732776852156348e-01
0,1.4470271285021891749522638e+00,1.1547236824933524435010668e+00
0,1.3052667470486132295093284e+00,1.1559317461691867023887426e+00
0,1.7123574713233804533984994e+00,1.7365229860447182197447091e+00
0,2.5023424145915060812228603e+00,1.5759512139016060849883161e+00
0,1.8670209744173198451733242e+00,1.5590491071938274991737217e+00
0,1.9002830695991794751620318e+00,1.5019481434005856890223640e+00
0,4.1348688816631433695647502e+00,6.3377821598885617504492984e+00
0,2.8734406861405603628156769e+00,6.4603381234779373443188888e+00
0,2.1854133595991407368330783e+00,4.2649675306609360347920301e+00
0,1.5142769439648438023482413e+00,1.3319348540173390205154647e+00
0,1.5117398877703762671842469e+00,2.0985164626572467838627745e+00
0,1.2643034313237253574158103e+00,2.7386047097876962119755717e+00
0,1.3035054190336523571858152e+00,5.3126062359589774075629975e+00
0,1.2890152183539087538122203e+00,2.6705282126619405147494035e+00
0,1.8479861660618961405333494e+00,8.1449998096695130911371052e-01
0,1.1205551654557890373098417e+00,7.0319261896102447373380073e-01
0,1.1115656368761241967746400e+00,8.0568594784579694589865539e-01
0,1.2065849192139186385475114e+00,8.9137846021882016778192792e-01
0,2.3632274590157771321230484e+00,2.4693662406280370014144410e+00
0,2.4333839878667458123118195e+00,1.9239556218804660936427808e+00
0,1.6482838458863757757910662e+00,1.3407173788522364077380189e+00
0,1.6047684902253469552135812e+00,1.3174505484525076415280864e+00
0,3.4237263704622602489280325e+00,4.6528961806573150283838913e+00
0,1.8652722249462789783081007e+00,5.6758307793585984768469643e+00
0,1.7935735660656555445768845e+00,2.4697445049639998870816271e+00
0,2.3083025621967379059640280e+00,2.7931125467882171875544373e+00
0,2.0885285133108091315534693e+00,3.5728375191913084307770987e+00
0,1.4298291693398768043010705e+00,2.7485923713496700493408298e+00
0,1.5602862751379897865433577e+00,1.6056911772855648745661483e+00
0,9.5654545262603574151683006e-01,7.4321629166721148163077260e-01
0,9.4364870079376717004748798e-01,7.4952291420382755049445223e-01
0,1.2173108610894738390584280e+00,6.7219560101261544016182370e-01
0,1.1141992845427690639326102e+00,9.1476661152432792167843445e-01
0,1.2530549793541230219062754e+00,1.2200895629571428813164857e+00
0,1.6248241594632433226763624e+00,4.8069789635322202059342089e+00
0,1.8148127397114224290675111e+00,2.6256520483444489855173742e+00
0,1.8822787119653128229401773e+00,1.4468900433532887461751670e+00
0,2.1520384954509674813039055e+00,2.2505882762721443057785109e+00
0,1.9826028211693724756514712e+00,3.3687384107430347057743347e+00
0,1.5933021340751793992751573e+00,1.7919681262087434614471704e+00
0,1.5126771610766449605023354e+00,2.3302018235956496461369625e+00
0,1.9446898422615817025871365e+00,3.7279533428175279929916996e+00
0,1.9951626241719297993881810e+00,1.8229167826546317510150175e+00
0,1.2146359678154665662219713e+00,9.7031677013443407009418706e-01
0,1.4478947934078791881518100e+00,1.0276556865522203931817558e+00
0,9.8756488784890250620662755e-01,7.3202106964387558818430080e-01
0,1.3772638592609935948019029e+00,8.7782277306097999947098742e-01
0,1.2037934756211239317735817e+00,7.8805364418956991290343694e-01
0,1.3181742344437601399675941e+00,8.9541855353249466542564505e-01
0,1.3301365417538772994987539e+00,1.4467173459266660096034229e+00
0,2.3920779936309957136586490e+00,5.2886123812901519869456024e+00
0,2.7021358081973341214165885e+00,4.5344944057389184877138177e+00
0,1.6532889969400552665490522e+00,1.0335055940713477884429494e+00
0,1.4636187569227394611459658e+00,9.9949391640499540834241543e-01
0,1.1188603570943542742099908e+00,8.6410323394831034526930580e-01
0,1.5694955113302118121509920e+00,2.0216371745167758255945500e+00
0,1.8833866665908876036894526e+00,3.2710916941449315054057934e+00
0,1.8874238522888515667830234e+00,2.6324674364335050036345365e+00
0,1.7879247247793825792427924e+00,2.3737765067026863619048527e+00
0,1.2846865819847947953746825e+00,1.1885544700408221530096853e+00
0,1.0447003358543134332592217e+00,8.3302638179772547921686510e-01
0,1.1210051908020257638298744e+00,1.2042804472082515587771923e+00
0,1.3619674888042372362662036e+00,1.2903738794531216527161632e+00
0,1.1928749054921752303926041e+00,1.0841652445217162537005606e+00
0,1.4019226330921579215527117e+00,1.3001695129148651552952742e+00
0,1.3418661065342587512816408e+00,1.6587430363878326033955091e+00
0,2.0965980467128813025112777e+00,3.2723989887188418279606594e+00
0,2.3836011425303116340046472e+00,2.2638003914199025246034580e+00
0,1.4491778647902955334814123e+00,8.8984528352628311509420200e-01
0,1.1659142369225952151623460e+00,8.2499893622066378107149376e-01
0,1.1396334726742953780131984e+00,1.3738152271769834555925627e+00
0,1.1802176634458116932790972e+00,1.5521599745800043201882090e+00
0,1.2457526521601138824735244e+00,1.5299336004615549100549288e+00
0,1.2401147664234670742189337e+00,8.6793851503473773423280591e-01
0,1.1399064471484332550232921e+00,8.1545671858331281178777772e-01
0,1.0831698083225571593857239e+00,1.0398226845258966566376557e+00
0,1.0629044535282514694074507e+00,7.8687648525115372333260666e-01
0,1.4092194891880922558158318e+00,1.4259456641348307037731047e+00
0,1.4440885432746055627717396e+00,1.3102461210477169828436672e+00
0,1.8477033109762650564533715e+00,2.3909081537851415433237889e+00
0,2.8759189904442554741592630e+00,2.6940202369457408870800919e+00
0,1.8224287158180008106000969e+00,1.1993343785262782219547262e+00
0,2.0346305462368698968589342e+00,2.4674935943796034720776333e+00
0,1.8982530517476414733124557e+00,1.7717271327608592468294546e+00
0,1.3369430490224816221456194e+00,9.5935676332868968785305697e-01
0,1.2342053062802398333275278e+00,7.5250621922778726524683179e-01
0,1.4238517673297685917077615e+00,7.0028119807794251272525798e+00
0,1.0117670340736486522814630e+00,1.9185796895708562281868126e+00
0,9.6064869847380518486090750e-01,6.8690809421050835759103848e-01
0,1.1787997976430006907833103e+00,6.6234165103871744939567634e-01
0,1.1958941464463235249127138e+00,6.9447231149031352082090507e-01
0,1.0725927488373745433136719e+00,6.4602495072121357555516852e-01
0,1.1007560603887178718451878e+00,7.8101925411296624357504470e-01
0,1.8459348820252536871322491e+00,1.9227355159012375906968373e+00
0,1.9051701057329761823666558e+00,2.1340802363996584922745114e+00
