Species Id,V_var_x,V_var_y
0,7.7875059918474409670352543e+00,1.2878995888605240693891574e+01
0,2.9073380660580863121822404e+00,9.3176837737841342601541328e+00
0,2.4911429257998154440656435e+00,1.3839077597523637308540856e+01
0,1.0431655076453200337027738e+01,1.8263450731633138701681673e+01
0,1.4566543950805922236213519e+01,1.2154423898775434054186917e+01
0,1.8044242625925825507238187e+01,1.0400211148588857312802247e+01
0,2.3422970467492923773988878e+01,6.2505281364747329320152858e+00
0,6.7240230239046482552112138e+01,5.2205833210963660917514062e+01
0,5.5672779891767433468885429e+01,1.9195140451095337397191543e+01
0,3.9540683908767661591809883e+01,2.2611189005279705099837884e+01
0,2.0215247317321104247866970e+01,2.0873730868788541670255654e+01
0,2.9422518440325141853008972e+01,1.3724549682135450012765432e+01
0,2.1016433585458063504347592e+01,1.4767860189328500197802896e+01
0,6.2633684376935025994725947e+00,4.9039292187372351961016648e+00
0,7.9842127407376572989505803e+00,1.0460128735029188717930992e+01
0,8.8470260293604745527318300e+00,8.8652637476166820107437161e+00
0,4.0878998409705801009295101e+01,3.7112191514312996787339216e+01
0,1.4020520904517033144998095e+01,2.5339735608632430796660628e+01
0,4.7201144893801760815676971e+00,1.0146437133011851017272420e+01
0,2.0727539822106407996216149e+01,1.1217621893582226277885638e+01
0,2.2605913380241716481577896e+01,1.1466767435700802479914273e+01
0,4.0248969815647534176150657e+01,1.9656678532019554950238671e+01
0,2.0352502846591661977981857e+01,1.0884870746150660636430985e+01
0,4.7604776881461319248955988e+01,2.4620686296959767958014709e+01
0,5.7575939892738581704634271e+01,1.9444350353388195173920394e+01
0,4.2383453395759346449267468e+01,2.2575664483177330765784063e+01
0,2.5606565389872876892241038e+01,2.5797628940833437383162163e+01
0,2.6425052449249438524248035e+01,3.0956875113463809157110518e+01
0,1.5621467587543973465358249e+01,2.7238442055362504845561489e+01
0,1.1633312833604062319636796e+01,1.0626626763784045692773361e+01
0,1.7627855902282515643264560e+01,2.2436271199524579600392826e+01
0,3.6726716897208234513527714e+01,4.3923988214057757772934565e+01
0,3.3231271578467790561717266e+01,3.4701294414662072540522786e+01
0,3.3625425658401411510567414e+01,3.4843276623238587319519866e+01
0,2.6167672308669828851179773e+01,4.7082167490000536247407581e+01
0,4.0414491773623765880074643e+01,4.4606664964819657370753703e+01
0,1.6477668133511919279499125e+01,9.0304318413254431874293005e+00
0,1.4636320071570517953318813e+01,1.2021455653265464391665773e+01
0,1.0317465937315875024182787e+01,5.0483585380413797949472610e+00
0,2.4368055592760235583682515e+01,1.0644455248512564082830067e+01
0,1.9942806656352182415048446e+01,8.5527274357181504171876441e+00
0,1.4702155596872199083691157e+01,1.2712563574126718890511256e+01
0,2.0601933577315133305773998e+01,2.2439709961462373399854187e+01
0,2.0947226825491505053378205e+01,2.6169458121766396629936935e+01
0,1.7177610362716336567245889e+01,1.5496454326613147145508265e+01
0,2.2818121491238795073286383e+01,1.6559196291148918334101836e+01
0,3.4561681695965347671517520e+01,3.4265374246078664555170690e+01
0,4.4212273479653717345172481e+01,5.8707388637201631809148239e+01
0,2.0877232801098795533789598e+01,2.7349474633060069095336075e+01
0,4.2951332003334897535751224e+01,2.9058654873749919289593890e+01
0,1.5281335419880647918944305e+01,2.9863243573806634856282471e+01
0,1.3446854102464826041796186e+01,1.6493583225005938430740571e+01
0,1.2128360327214581459998044e+01,2.8389266820918809486329337e+01
0,7.6536449299089621689518026e+00,9.4380079875248963361400456e+00
0,1.0918992251594019649019174e+01,6.7112172104370468872502897e+00
0,1.3112761697585769482543583e+01,2.1933749648273497712125391e+01
0,1.2497396801032301993927831e+01,1.5706983269126091329326300e+01
0,1.4207476805857044865888383e+01,1.9605225252620900988631547e+01
0,1.5758140143649061570840786e+01,1.2188949636931324604915972e+01
0,4.0705690716033046783195459e+01,3.0853448309938901417126544e+01
0,1.9084303917698882457898435e+01,4.6725898271619016099975852e+01
0,1.4563146141606326366968460e+01,1.7787211977219964609275848e+01
0,3.2465615133531791514087672e+01,3.4540754860847464158268849e+01
0,2.1119659761032597344865280e+01,2.3775618926212867876301971e+01
0,4.2379924361730791915192640e+00,3.9242173925907852805039511e+00
0,9.5173982372816201547038872e+00,8.7634769627430308958082605e+00
0,3.3794402364582092346267927e+00,1.5740810168119356404758946e+01
0,2.1015301026399768602459517e+00,1.4451951571246830496875191e+01
0,1.3018074443118003102881630e+01,2.8449190911107962165260687e+01
0,1.0055351078016901311684705e+01,1.6054917370373232188285328e+01
0,1.6511791713727934194366753e+01,9.1778073103961368417458289e+00
0,1.7435496249266389412468925e+01,5.0000567142875325998829794e+01
0,1.6321491320258139978705003e+01,4.0533642821152852775412612e+01
0,1.6528591930448126134933773e+01,2.6963997938258799536015431e+01
0,1.0994158117494178483752876e+01,2.5798947279117953712557210e+01
0,2.4196866169571499938228953e+01,2.6848182141085011664927151e+01
0,1.5342113926808226054276929e+01,1.3610150405075589929992930e+01
0,4.7368588164842435617174488e+00,6.7840444630328580188916021e+00
0,1.0456467680534949238335685e+01,9.3785025638154770888377243e+00
0,8.5760442240842600369887805e+00,1.3242227369002620207538712e+01
0,3.7615008072160378560511163e+00,2.7682792701836591575670354e+00
0,5.8412958280104172459346046e+00,4.1710423569088135309357313e+00
0,4.1769301171775161662935716e+00,5.4858012577801922304843174e+00
0,3.4823409733961869783058773e+00,1.5874028083403299405063080e+01
0,6.9165504081120054991060897e+00,1.3257358398398796595074600e+01
0,1.5613920465590444663916969e+01,1.8744144735272982416063314e+01
0,2.2328857920880682996767064e+01,1.4834074908412619109299158e+01
0,1.7370468117324730172867930e+01,4.4471338889586400355824480e+00
0,1.0799600405569695027452326e+01,9.6648860409547605598845621e+00
0,1.3051667661006057130634872e+01,2.6394254741579981526911070e+01
0,1.6045906794881567236643605e+01,1.2908917238780905023531886e+01
0,9.4910653886372724485909202e+00,1.0069210108302657502576949e+01
0,3.4656565909219239074445795e+00,6.8941623707424932732124034e+00
0,2.6002945772905841081978906e+00,4.9150219320993997484947613e+00
0,6.5799383039369381265260017e+00,9.2663236354460067900618014e+00
0,8.9299485090577075396822693e+00,2.2970732899484506361886815e+01
0,9.7881494817485084070085577e+00,1.4120453121734801271713877e+01
0,1.0316208390846915321503730e+01,1.6143242773567408221424557e+01
0,6.2615268861391566446172874e+00,6.1171990400621147898618801e+00
0,1.4078765861726328267877761e+01,1.3549875719246390559646898e+01
0,1.1518025288055900645645124e+01,1.5877425904266107892226501e+01
0,1.4098938958124008991035225e+01,1.0529830038726235130752684e+01
0,7.9027373451135316528848307e+00,4.5410358665585670578934696e+00
0,5.8655225980511707106757058e+00,7.3110607473228306218970829e+00
0,1.4853097672608548407424678e+01,1.4850077988532094153129037e+01
0,2.0754735594176430879542750e+01,2.3919097615937985779055452e+01
0,8.9574400867122072611437034e+00,1.4434020914249483524827156e+01
0,5.2468920090253892141163305e+00,6.1285032572476225709579012e+00
0,5.7481026586949806045367950e+00,6.2862017317942378014095084e+00
0,1.7982537947041286052751730e+00,1.1306456270387621465545180e+00
0,5.3056553819531284688082451e+00,5.8567828582673904236344242e+00
0,6.3938402113163768092363171e+00,8.4375989056345339633935509e+00
0,8.8626753398174855647084769e+00,1.9055612107379964470510458e+01
0,1.0345598596503180033323588e+01,1.6072829506684961131668388e+01
0,1.1276604547207986328771767e+01,9.0499118682761139353942781e+00
0,1.5249001683020800612666790e+01,1.1814104201225209322956289e+01
0,1.3535166941610508928306444e+01,2.7059047137975195340686696e+01
0,7.7731326734381465115575338e+00,1.2552700219753923249754735e+01
0,4.7466464321044838925445220e+00,8.3205591643474150487236329e+00
0,7.6244140239814690573894040e+00,1.0346340786718563720114616e+01
0,1.5268133991913067859513831e+01,1.1896535884375179392691280e+01
0,1.3489156465108175453337935e+01,1.4668974255233447223645271e+01
0,7.3930649775668211276524744e+00,9.0797385417648452943240045e+00
0,8.6017774714472707842105592e+00,9.1441806286040687723470910e+00
0,5.3837849722932933360652896e+00,1.0864542068148839604191380e+01
0,6.7880811768099942327125973e+00,9.8347890446349008897186650e+00
0,4.4029732824679577163351496e+00,4.7791153990848851407235998e+00
0,5.2372511268328487687995221e+00,1.1431480660771807578157677e+01
0,3.1983056737230288746332008e+00,3.9002451972542848679381677e+00
0,5.7682680147077896037899336e+00,1.1599451921626556583078127e+01
0,8.8683563165003143069498037e+00,8.6428257553755045705656812e+00
0,4.8062385933678672955693401e+00,5.2947609043204026946227714e+00
0,4.8494752263807443526388852e+00,8.7593536609371938084223075e+00
0,1.0800745921480269018388753e+01,1.4881297384552052420758628e+01
0,6.2851485516613152526588237e+00,8.5413737594051113433124556e+00
0,6.5812626563173726168542998e+00,8.7546519268403901747888085e+00
0,1.5331293367668276772519675e+01,1.3565119797169963078431465e+01
0,8.7381852891448303921606566e+00,9.6553756985861447503793897e+00
0,3.3457932312409202069147796e+00,5.5544680317384251821977159e+00
0,9.5626794384313988928170147e+00,1.4845366562935744525475457e+01
0,9.3067241642960105707516050e+00,1.6773243863092041294748924e+01
0,9.6880082834089407128885796e+00,1.3600099011831336071054466e+01
0,6.3373425632549968966600318e+00,5.3079562293860043098447932e+00
0,2.4576436395822107705555482e+00,8.4166242197312062245373454e+00
0,2.9606637245797107205191878e+00,1.0189610516771274717484630e+01
0,2.6766335830205303381035264e+00,1.0868254740988680495661356e+01
0,2.3338325424135417662796499e+00,2.2865143163720613728173703e+00
0,3.3611226035363559461188743e+00,2.2439983870089506012845959e+00
0,1.8196115891729349733907384e+00,2.1492653105031536142632831e+00
0,2.0739167756661833763587310e+00,2.7977501356061900139593490e+00
0,3.6976159625108699913198507e+00,4.6805847999245937529622097e+00
0,9.2633660872060339386280248e+00,1.0281357375346928506587574e+01
0,8.4391441342952155935108749e+00,2.3632429105609340069804603e+01
0,4.3939319289658547162957802e+00,1.5212376246455182382533167e+01
0,4.7058675387715478422023807e+00,9.9220198092913580723006817e+00
0,6.2244329123744703835541259e+00,1.2212285718881698670656988e+01
0,4.8852271692512481138237490e+00,6.5103592532675040871481542e+00
0,3.9308049876656192544999158e+00,4.8159872913987626930065744e+00
0,2.9365404814011824008446183e+00,2.7265129545106825403877338e+00
0,2.4537418373965969031758050e+00,1.9001362477663454875198568e+00
0,2.3128908717912155523777074e+00,4.0604518255673331950106331e+00
0,7.1681873328564096325976607e+00,1.2270508427966715814250165e+01
0,1.6690338167250957646103871e+00,1.4221319802425138600909804e+00
0,4.9103848540560637303542535e+00,3.9145314229823759966109264e+00
0,2.3021520457056028341469300e+00,2.9061475855914724597539589e+00
0,3.2993141613976844084277218e+00,2.8467611272877446637608045e+00
0,3.9841457562455930840883411e+00,4.5082476708370569085104762e+00
0,5.7380024956567661220674381e+00,3.4742720180742003854845734e+00
0,3.3607387609208605461219577e+00,6.1179985749763652336241648e+00
0,2.0536039428077956792151326e+00,6.8984894755536938504292266e+00
0,6.1050910622576202158029446e+00,8.8752445460448967651245766e+00
0,3.7416607374246453332489182e+00,4.4038987432656266918229448e+00
0,1.9466772422540228326681699e+00,2.0599822850171554122766793e+00
0,1.9093003390862994805843300e+00,1.5326097762262067547567312e+00
0,2.3335814335845630473897927e+00,1.7594117986967807709675071e+00
0,2.4319045574858337843693334e+00,1.4450714831023772077855938e+00
0,2.8762058240634571504301675e+00,2.1435535981735536203984793e+00
0,3.9231096115425252435215953e+00,5.8363865893516386762485126e+00
0,2.5128145738296372435627291e+00,2.7517359477410252566187410e+00
0,3.1065980800788084437158432e+00,4.0399296532709421114759607e+00
0,3.4269281229935719679247086e+00,4.9690188152552021705332663e+00
0,3.7560418945411733204764460e+00,2.6169239095309957399138057e+00
0,3.6594011009830285097166325e+00,3.1605274948866446393935803e+00
0,2.2738254943166786858910200e+00,2.2989716630030985200505711e+00
0,2.6440864875896075147920783e+00,3.9986301795458598640209402e+00
0,4.6960419759070868295225409e+00,6.4496644036065102767452117e+00
0,5.8021096172326718232170606e+00,1.0108387985168748812725426e+01
0,2.1415684615000265544892954e+00,2.4815482302346074661159037e+00
0,1.3168922410128560684938748e+00,1.2927230052323819275983396e+00
0,1.6277169174720491628960417e+00,1.5354408796143403925782422e+00
0,1.4917327415334113993594656e+00,2.1618181113079879551719387e+00
0,2.2710517294028980117559513e+00,2.3415215499310804148080933e+00
0,1.4081691072856128421619815e+00,1.3751512333342648108924777e+00
0,1.9504414028751781984283298e+00,1.7655107652190995537466733e+00
0,4.2056746570617038472050808e+00,5.7106916863576202558760997e+00
0,4.0395728534269741416551369e+00,4.0842179734391921286373872e+00
0,1.8820452216899639097391628e+00,3.3033285571989878803833562e+00
0,3.1124422573617716025751179e+00,2.0065721403668925759689046e+00
0,2.8769508250498834200925558e+00,2.5309875194158193423277226e+00
0,1.6058504659426433569535675e+00,1.8100308701888832008108920e+00
0,2.4816893842343326070931653e+00,3.7475248249836750069619029e+00
0,6.0449638368774509800118722e+00,5.3430259583061481265531256e+00
0,4.9915028300199413280324734e+00,5.5767029587383998290306408e+00
0,2.9646497744253621497989570e+00,4.0325450567911014232436173e+00
0,2.2919615756074263046571104e+00,2.0832754676511822111706351e+00
0,1.6213415981555798772717480e+00,1.1627312734943262562126165e+00
0,1.7235232082366047645649587e+00,1.5270883437068336618835929e+00
0,1.3244824901372083125750123e+00,1.0540432749943291490524189e+00
0,4.1154151562702478983624133e+00,2.5586829892180853462946288e+00
0,2.1580606248967511007208486e+00,1.6888529219415442383933623e+00
0,2.5333024880731831451896596e+00,2.6742767646925198476992591e+00
0,3.4709482214076849970751937e+00,5.0414361109266287996888423e+00
0,2.4280160055166821742034244e+00,3.0261066058701064918068369e+00
0,3.2283251227906202274198222e+00,2.8153658838798376606860074e+00
0,2.1569414600981100527121725e+00,2.2375147260224990120036637e+00
0,1.4879414321394306419676923e+00,1.3276270137459538211999188e+00
0,2.2355827275067312598366698e+00,2.5256802129253941302522435e+00
0,4.0153287770856618266179794e+00,5.0513140361796953214934547e+00
0,5.7354653216938382698231180e+00,6.3601748152930532853588375e+00
0,2.3262068696933519973413240e+00,3.8103186022140325128759741e+00
0,2.8584288632862651091670614e+00,4.5245896709510251554320348e+00
0,2.3513736552181123684590602e+00,3.8097915821237258171549911e+00
0,2.5720553263491576778676517e+00,1.5627092673836211478288760e+00
0,1.6211450150086230692636491e+00,1.3944114452953604299523249e+00
0,1.9471329593061221796546079e+00,2.4566182655837991433145362e+00
0,1.6797853149227717217684130e+00,1.8874585460225943300827112e+00
0,2.4561981384237796532943321e+00,3.1845167427726477349381184e+00
0,3.4383683934297248896427845e+00,4.2842265357606956754921157e+00
0,1.8982179714093259104146227e+00,1.7151460229334438700732335e+00
0,5.8976636508443380790822630e+00,5.0639167643030358334499397e+00
0,3.6334034322516388648693919e+00,4.7833221818616618037367516e+00
0,1.8699799813411219773229277e+00,2.0694538579046501958202953e+00
0,3.2044298503750514583998665e+00,6.1695441534961572571660327e+00
0,1.8629159010219058512092261e+00,1.8821122022604157564273919e+00
0,2.1482132751419857896735266e+00,1.9748060530862230343984720e+00
0,1.6728677070372561797029221e+00,3.4638041774808954187392374e+00
0,3.0473542099061443622076695e+00,4.6008836416720626516507764e+00
0,2.2833759391528540838578465e+00,2.4686052474237722975658471e+00
0,1.5917185840321108614148216e+00,2.0048800033370239859209505e+00
0,1.4603265656609814016064774e+00,1.5802503724150316344321254e+00
0,2.2984042325935729600416835e+00,5.1176601095736291568982779e+00
0,1.5854500144821952467566462e+00,3.3945756188096334327042314e+00
0,1.4504115808316178082293391e+00,1.4894599569032456187755997e+00
0,2.7839893599866853968194391e+00,2.3265710978761182659013684e+00
0,2.0563578206969350681276865e+00,1.6731145460764174082157751e+00
0,3.9191403878325816734218279e+00,3.5494684099370075180956974e+00
0,1.2945995783376327281644080e+00,1.3323888920070339203505227e+00
0,1.4863527546716372995661004e+00,1.8449330054364723174842311e+00
0,4.7918673959794375605270034e+00,4.1718181917121741619780551e+00
0,2.7588383399590452604854818e+00,2.2857499760291593027261570e+00
0,1.1458874967753727158736865e+00,1.0213905154365734428978385e+00
0,2.2844803108609887942748173e+00,2.4593037254656997525614770e+00
0,2.0820288897014318507672215e+00,2.2439220217049817840404558e+00
0,2.2625280374675509342807800e+00,2.1707275118049267348396825e+00
0,2.4060002864386658139039810e+00,2.3962369736183237733939677e+00
0,1.5739240908194729318125837e+00,1.0290275749826733875380569e+00
