Species Id,V_var_x,V_var_y
0,8.7141458917398229022666101e-01,1.1417999856827800719827337e+00
0,9.5530400411264215776441233e-01,9.9043368179939705875369782e-01
0,1.0544681179408539328790084e+00,9.1086370930759774644513982e-01
0,1.0731047569758156434716057e+00,9.6380320571951749730743586e-01
0,1.1219200412308736325428526e+00,7.9030630523208500459730885e-01
0,1.0563340991170195870552106e+00,1.0259133688226960146039346e+00
0,9.6682210154842551652620841e-01,1.0818269520473919875769298e+00
0,1.1958279808421421464004197e+00,1.0529982552438650333925807e+00
0,9.5623583345932283705792543e-01,9.5932648410112797421334108e-01
0,9.9794973034781642162727167e-01,9.1828374713672689111376712e-01
0,1.0156611655926790493964518e+00,8.5190562472805875238179851e-01
0,1.0075835683488287841669262e+00,8.8390310158839779930417535e-01
0,1.1130479286513330627883533e+00,8.8684529545324919386217744e-01
0,1.0185170398942904324002257e+00,9.1533334206518568443300410e-01
0,1.0267286720053445669975645e+00,1.0029047848681662546965754e+00
0,1.0987639136909841397482523e+00,1.0599069049389311381048628e+00
0,1.0023262318187451391793275e+00,1.0943526174510491699720660e+00
0,9.7870295438468934978715197e-01,9.3722964405496700379671893e-01
0,9.1813336256487732001119184e-01,9.3054344955680301509914898e-01
0,1.1054389047343682328516934e+00,1.0095966544454781921302811e+00
0,1.0354427596053952242982632e+00,9.0014896875736094550291000e-01
0,9.8721257801658879316164530e-01,1.0043810802943873294879040e+00
0,9.9987002326635820992351000e-01,1.0282377208020614389738512e+00
0,1.0671430026455168693644282e+00,9.9856267288370981205503085e-01
0,9.6424722409985952342736937e-01,9.3670407875162431388105233e-01
0,9.5234099620527534746372567e-01,8.6781362194989852820725673e-01
0,9.6635857822278015127892559e-01,9.1871014288091967792126979e-01
0,1.0780247713696926581405933e+00,1.0683831664455061272178682e+00
0,1.0450643329564937022979620e+00,1.0134847480419879595103794e+00
0,9.7237992377457493908821107e-01,9.7819506949331258560675906e-01
0,1.0381716025049487761577893e+00,1.0164303667360217175996695e+00
0,1.1023082161659194522229654e+00,1.0755359982670809060323336e+00
0,1.1423001408080915020093471e+00,9.7471313119826719084670685e-01
0,9.9825500285935253597102701e-01,9.7079576968752501198167693e-01
0,9.9445754721622270366765406e-01,9.9125990899082050411550426e-01
0,1.0660120369716103994051082e+00,1.0299025761147766466763187e+00
0,9.8619107853364029736553675e-01,1.0450255459827606507872133e+00
0,1.0048983671050890631448738e+00,1.0086540749764880686711876e+00
0,1.0061325932924689574576860e+00,9.6079877879013986241574230e-01
0,1.0496540708316157708424043e+00,1.0602752640862320721026890e+00
0,1.0791897455222778656747096e+00,1.0531090782790020199399805e+00
0,1.0037076914793339188491927e+00,9.8584858073664716204831393e-01
0,1.0030574936385545647965500e+00,1.0040494672935382780565305e+00
0,9.7933088346403840418474829e-01,9.7135801722660186641178370e-01
0,1.0021783536813646531271615e+00,1.0182699931990721875507688e+00
0,1.0233704300626405014895681e+00,1.0131099115135779875629396e+00
0,9.6450990464111385769285789e-01,1.0766651587778548471163731e+00
0,1.0857665124831670233618297e+00,1.0914090250522776592845275e+00
0,1.1982432004685719117986764e+00,9.1739063866488534948473443e-01
0,9.5997848553374498514756397e-01,9.9200565009947294647929539e-01
0,9.5018774503878877801810177e-01,1.0780359221668929237125667e+00
0,1.0634096744586323257664162e+00,9.5134533167146617671505737e-01
0,9.7363092588392330384294837e-01,9.5699332026470740331092202e-01
0,9.1657773347279170028656381e-01,9.4052627257878973487947860e-01
0,1.0388701020409767394880873e+00,8.6489447120588547335273688e-01
0,1.0750997422845496309662394e+00,9.7531907636203141187536403e-01
0,9.8050505142092669874642752e-01,1.0778260988377568185825339e+00
0,9.5669001491729455111112657e-01,1.0855243317472416109126243e+00
0,9.4308527564542543597525537e-01,9.4793065809581589231669341e-01
0,9.7391050387515976094476855e-01,1.0372525476743961192482857e+00
0,1.1254085020060158317534160e+00,9.8382743898660762749130981e-01
0,9.6663582585736973484813461e-01,1.0167318871322463813555714e+00
0,9.2691184609099508406870882e-01,1.0340607895995206355621576e+00
0,1.1268740878506537939074406e+00,1.0782712851698184053361729e+00
0,9.5120648460912737842676279e-01,1.0965605117745778063209627e+00
0,9.7648232722359096236175446e-01,1.0142845720863120639876342e+00
0,9.8075679336896470772444445e-01,9.5427607534874137051872367e-01
0,9.8193947460800701243499589e-01,8.9960546040272837409190743e-01
0,9.9049302304812614217155442e-01,9.1888386844696245958630243e-01
0,9.5545275587241906833924077e-01,9.6794637964375473959677265e-01
0,1.0107911549791546157450739e+00,9.3637314790798076291622465e-01
0,1.0520451701262985011453566e+00,1.0090443292995103785614219e+00
0,9.7314919846737257813629185e-01,1.0434808741500414264180563e+00
0,9.8589676371569223700674911e-01,1.0705836426343902090252413e+00
0,1.0057799131648641477454476e+00,1.0288160138235120655281207e+00
0,8.9498971786852532517286818e-01,1.0308112386509096225495341e+00
0,1.0105931698487873315883689e+00,9.9827542453074347150732137e-01
0,1.0552931101009570546978011e+00,1.0735382063748835079763921e+00
0,1.0949605793880914372806501e+00,9.5225813375341927802253394e-01
0,1.0638619430788893716055554e+00,9.7635941750479515732763502e-01
0,8.9126678610953169457076228e-01,1.0693387091352479778549878e+00
0,9.7337246533426946548672731e-01,1.0931255570189164494365741e+00
0,8.7032586854510796126049854e-01,1.1066700100092030645271279e+00
0,9.7530619271977525563954714e-01,1.0369536786265287631181309e+00
0,9.9222347751097172974255045e-01,1.0759525580488928930833481e+00
0,1.0328944902553121032440231e+00,1.0203491389780587894620112e+00
0,1.0535967337400344856490619e+00,9.6424609071280031891149065e-01
0,1.1876219961080445308709841e+00,9.6122823231122422882322098e-01
0,9.9310774561150683137356054e-01,1.0375485123093617367828756e+00
0,9.7471113971006340115366129e-01,1.0132050579583564697827569e+00
0,1.0075549266773939915964320e+00,1.0087653933862597011028583e+00
0,9.5460835600463456174225030e-01,9.4176673410723876767036700e-01
0,1.0113360642661928245900071e+00,1.1863379544324443859437679e+00
0,1.0219920209610080519269104e+00,1.0889423355868710352467588e+00
0,1.1436104315998334435278139e+00,9.2588974781197208585581393e-01
0,1.0986581313316243768696268e+00,8.3762394489310831868777996e-01
0,1.0252121417374508993702875e+00,9.1310890898034013929418506e-01
0,1.0352920420741589246915737e+00,1.0746191021168642887317901e+00
0,8.7514694075157484220994775e-01,1.1217669196904462847186323e+00
0,1.0098750423363522799036218e+00,1.0514584595748059925313100e+00
0,9.8842281148469457452421238e-01,1.0415233111180284275576469e+00
0,1.0757005273688986513036525e+00,1.0077850163127486382563802e+00
0,9.8964859765731372220898265e-01,1.0167594131655521838553113e+00
0,1.0092437305268524561085997e+00,9.6966958439046047057985334e-01
0,9.7347148436551877992428672e-01,1.0377097301311131172241176e+00
0,1.0545942777841255111326291e+00,9.3838534727798483814353858e-01
0,1.0328979284811494743223648e+00,9.0067936928497593918052644e-01
0,1.0850595072053641487741515e+00,9.4020678119169909248142858e-01
0,1.0718113146854058026491430e+00,1.0199824006135109755177837e+00
0,1.0254588293570439105906189e+00,9.7258032406692762616984282e-01
0,9.6236413940588938498166272e-01,8.4479199783821079527967868e-01
0,9.6485153057297734502384401e-01,8.7048172712275184714769694e-01
0,1.1350857164141803234969075e+00,8.9064929483981525315527961e-01
0,1.1225767058297091427476744e+00,9.9170470335532967531833037e-01
0,9.5848528063549909283835859e-01,1.0072196435861386909493831e+00
0,9.7638880666742444702776993e-01,1.1497982497942449420236244e+00
0,9.6304552758266193102087982e-01,1.0688028511204248349741874e+00
0,1.0844625020476084120701898e+00,9.5031920807000735962333238e-01
0,1.0082104628984835947846932e+00,9.6868231858879016993313371e-01
0,9.4804564505507427085717609e-01,9.5787978708442200748152118e-01
0,9.2641326852077521269990257e-01,1.0718322543664924317852183e+00
0,1.0556071744895632047445133e+00,1.0395971611119543265289167e+00
0,9.0648979765746529047021340e-01,1.0036967701163916899531614e+00
0,9.9014873015082527363261988e-01,9.2018417670968621902005680e-01
0,1.0161322523761282532461792e+00,9.7973839346890057022676501e-01
0,9.8042952696882013086110419e-01,9.9057117563636087886891346e-01
0,9.8501522118534989846949657e-01,1.0474725142720116011219034e+00
0,1.0307649007462305057458707e+00,1.0039404380520016157873897e+00
0,9.7211549238466588018781067e-01,9.3526372394372281338092989e-01
0,1.0186072325116346526385769e+00,1.0471634735568511320735752e+00
0,9.9306313712174421048928252e-01,9.4257863886454040791562647e-01
0,1.0662495064233417085830524e+00,1.0055513555183801521764053e+00
0,9.7511352844112475501958670e-01,9.9564777905358325948981246e-01
0,1.0269663265720443412476470e+00,9.8210342197554356680200272e-01
0,1.0325384268454107505874617e+00,1.0692103385210265376059624e+00
0,1.0049245896604694916476319e+00,9.9660311493930908710581207e-01
0,1.0228305860028998885979945e+00,1.2225690205147485833947485e+00
0,9.3185318930686222849146816e-01,9.5430645416677062353727479e-01
0,9.2540053773588881735889800e-01,1.0157894943278282795517953e+00
0,1.0505001860726814744140256e+00,9.0785390131815679737314895e-01
0,1.0148956317161328399834019e+00,9.9796710075299654985059306e-01
0,9.5915517062058042174754746e-01,9.7976889760159024955754603e-01
0,9.5886045334163694242590736e-01,9.8229072479802947981397665e-01
0,1.0101241353523879862308377e+00,9.7789073843108909045440669e-01
0,1.0110298324606175057738255e+00,8.5329086683132970847509569e-01
0,1.1249141653156820019887618e+00,8.0791526691318971131750004e-01
0,1.0556684855522284749440587e+00,8.8760543456013796248527115e-01
0,9.6810884916750650219796626e-01,9.1440522099121701593560374e-01
0,1.0058262342993835591897778e+00,9.5144773622636114041029032e-01
0,1.0731201052252368199901866e+00,9.9679704835208127189360994e-01
0,1.0030402583288080542445186e+00,1.0460536505450832578389964e+00
0,9.2143215628511443426873484e-01,9.2600071079892321002091649e-01
0,1.0036407041973374187904255e+00,9.5853809541392998028186412e-01
0,9.7108738721079601585728369e-01,9.6834496161864425101128973e-01
0,9.1551105318058489945798328e-01,1.0241290637262885354630271e+00
0,1.0515129087975951804878605e+00,1.0189679291014335227316678e+00
0,1.0332936796261342760061552e+00,9.5252460843545561086642692e-01
0,1.0182667487400212102954811e+00,1.0729588664735143499484593e+00
0,1.0509270699907971025055531e+00,8.7444229424966646302408435e-01
0,1.0003500906319240382202906e+00,8.2902407926929111425806695e-01
0,1.0083236296811701748765699e+00,9.4108534277078181862208339e-01
0,1.0724325254629567538700030e+00,1.0042307859447607842895422e+00
0,1.0199790439622098414673701e+00,1.0265340624620480358686336e+00
0,9.7271428254141145686162417e-01,1.0299090347426309577372194e+00
0,9.5034083880055775228612447e-01,1.0525865349148799676726185e+00
0,1.0753215361193009247386954e+00,1.1057946301887167095401310e+00
0,9.7402939018519907321547180e-01,1.0538623119792687177209700e+00
0,9.7800414053841988604176549e-01,9.6364910347214971508833514e-01
0,9.7318256793774815527342525e-01,1.0264811738990549105920991e+00
0,1.0271950512793159848712321e+00,1.0952727025730686349902498e+00
0,8.4337505767009357526831081e-01,1.0547930860504917127684621e+00
0,9.2069550207483730197566274e-01,9.7975875970073200704746341e-01
0,1.0346434478984083416008843e+00,9.5500078932827570099561854e-01
0,1.0268095505117149635054830e+00,9.6542545812479707567632659e-01
0,9.7248435580050085480507960e-01,9.9197774779939595912736650e-01
0,9.5742023594656933127566845e-01,9.5576316117382087433895776e-01
0,9.9381280541047567478329938e-01,8.5026018332699881963065991e-01
0,9.9446771025589075776451864e-01,1.0868836051347083859752729e+00
0,9.2676440430258610891911530e-01,9.6783166027973677181250878e-01
0,9.6969288554731436491351815e-01,9.1978353425010173083364862e-01
0,1.0299586639890134787123088e+00,1.0417497928820560471052659e+00
0,1.0938421442089136803588190e+00,9.6987683913052968875945226e-01
0,1.0128883804354440467676568e+00,9.7921921842258552448612363e-01
0,9.3560556888477042214447010e-01,9.3953699091372877560957022e-01
0,9.5447239321054300198454712e-01,9.8913820948236486074733875e-01
0,1.0184187625120979525661369e+00,9.3821169278067872987492137e-01
0,9.0932685642982358231733997e-01,9.4090443107342613959787059e-01
0,9.8190557699526448409699242e-01,1.0167265261240332474557135e+00
0,8.9102572055295592434731589e-01,9.5455423585568366373621529e-01
0,8.8040123235569667237143676e-01,1.0190729320816160896612246e+00
0,8.4254306624926145197207461e-01,9.4071953409183173278051981e-01
0,9.5800566796360575594349029e-01,9.1695952897509847012713635e-01
0,1.1448750709541410941483264e+00,8.4690928764133177608641745e-01
0,9.8394257476190538636018346e-01,1.0691810290336705158154018e+00
0,9.6867964727620292642029654e-01,9.5175315588953024459328844e-01
0,8.6876489031276782348811594e-01,9.2845092200258305670246273e-01
0,9.2710914880023409523346345e-01,9.6193037215447130261480879e-01
0,1.0207813915601577914316067e+00,1.0738267483783690003917854e+00
0,1.1213850727277647756352508e+00,1.0612264732541873968330037e+00
0,9.7697053791153765089916305e-01,8.7432786640540660627607394e-01
0,1.0092667105379184988578345e+00,9.7559845762260355428452385e-01
0,9.4859528344661392385006593e-01,9.8764150697953723145872118e-01
0,9.1944344774198172309809252e-01,1.0310767982367665673848478e+00
0,1.0643896490514275221528351e+00,1.0655935063763826153859782e+00
0,1.0012541972097535047936390e+00,1.0555328044886043148409271e+00
0,9.5159084108492508757848327e-01,1.0600586221546257625902854e+00
0,8.7613133166926571160360027e-01,9.4194354111578271204763269e-01
0,9.2551595220283155995844027e-01,9.1474376710680893598492958e-01
0,8.1726999539254330251480951e-01,9.1700438427683583775262832e-01
0,8.9683167793597129424654213e-01,9.7626946907769873718052622e-01
0,8.9579736997167302980926706e-01,9.2033177242793873240600533e-01
0,9.5638370543823958414009212e-01,9.9786757587282504111669823e-01
0,9.1970981505756377316629369e-01,8.2826837582968160234031529e-01
0,9.7735608098066539817239118e-01,9.5786625640431743988756352e-01
0,1.0545239109364810126123757e+00,1.0599085752275327898530577e+00
0,1.0599070595944923844911045e+00,9.8418735021161729559224796e-01
0,1.0465019851616546020522946e+00,1.0032611482552649118105137e+00
0,1.0155834998707182759147827e+00,1.0159126573819550198862771e+00
0,9.4875837179985489377997965e-01,1.0516215832588617917764395e+00
0,1.0904767440137668188526732e+00,1.0322111149069828073265853e+00
0,1.0242619835771706870986009e+00,9.2077625743918822820432979e-01
0,8.4950585090770536211834951e-01,1.0815085441366010243768869e+00
0,7.9299385359864049682698806e-01,1.0509388149717659999282660e+00
0,8.4637373319655784253967568e-01,9.3919124949395937917984156e-01
0,8.0607706682905666539795675e-01,1.0122992398338670483326496e+00
0,8.2754321096888594500029512e-01,9.6545345765421097805614181e-01
0,9.6779077815082170666016737e-01,1.0131932380390120673752108e+00
0,1.0181293922317058431303849e+00,9.4878497016512097772533707e-01
0,9.8085263239442410654334026e-01,1.0318753707935952590446504e+00
0,9.9671733845117083117060020e-01,1.0096616501234911833506658e+00
0,1.1579326933450544423465089e+00,1.0514974215757557640671394e+00
0,1.0145442714527579397554291e+00,9.1932055799444356569694037e-01
0,1.1162019463816230668840035e+00,9.3617267194300923804917147e-01
0,1.0685253182809220096061154e+00,9.4418995060804067342985491e-01
0,1.0781702531099210951026635e+00,1.0065770265719908849177955e+00
0,9.3596315951308217684356805e-01,1.0617831703261115805503323e+00
0,9.8731605659932297758274444e-01,9.6507399642247260196370462e-01
0,9.5445307731426776154393110e-01,1.0577950993099394239038702e+00
0,8.5053890724528469213794324e-01,1.1075150631819701274594081e+00
0,8.9339075886982688423643140e-01,8.9915316287794100347241510e-01
0,9.3674538891870251511306833e-01,9.7034827751586016919560507e-01
0,9.3564652235209733177612179e-01,9.5671221095825742519735968e-01
0,8.4069392094943262705442066e-01,1.0326252089778473752801347e+00
0,9.4962835296003877960657746e-01,8.7999085016563671768352606e-01
0,1.0131732942220827986545828e+00,1.1017535891814291826307226e+00
0,1.0781275490621500257049092e+00,1.0380361272372873315816832e+00
0,1.0519134546316724065917469e+00,1.0953846400766797941628283e+00
0,9.1122204132460637993062846e-01,9.5807056561942394168340797e-01
0,1.1676748548310822428675237e+00,1.0353504903775290202361248e+00
0,1.0414723741473321805273144e+00,7.9200019496871920665626021e-01
0,9.6713856356968164185161640e-01,1.0594035055280648371933694e+00
0,1.1129877504420568889997867e+00,9.9553025401955386186614305e-01
0,1.1608622531217642759315822e+00,9.0247652784461451780373409e-01
0,1.0856332043504053341820281e+00,8.6820414425528102952966947e-01
0,9.8036836394717474796323131e-01,9.4607548293916798876068697e-01
0,9.3240879679274824010093425e-01,1.0147441112128314788520811e+00
