Species Id,V_var_x,V_var_y
0,3.6872061215895177710422104e+00,2.2303241690808466302087254e+00
0,4.7557716977913777611775004e+00,1.7803990414341948067544763e+00
0,7.9640095350189312739530578e+00,9.3150032225319279177710996e+00
0,5.5555352540551803386392749e+00,2.9568990643661621220417146e+00
0,5.4600483661755490061295859e+00,2.4245429085616163611405227e+00
0,6.2031402893180924706939550e+00,6.1692808607325062553172756e+00
0,6.6140455474743529151737675e+00,2.1462090870004559839401281e+00
0,3.1980401616953685328681445e-01,3.4938887453669442706427617e-01
0,3.8058927275836673231879104e+01,9.8913495152797246134923626e+00
0,6.7357801723592515941163583e+01,1.8469254363477276115190762e+01
0,7.5784586951017152145482214e+00,6.6628138682714537210927119e+00
0,7.7825724150488975183748153e+00,3.7610072912132492817249840e+00
0,3.9433678921700821007334525e+00,1.2676002337445030576645877e+01
0,5.8123592904256704549936785e-01,2.7976166554353736337645842e+00
0,9.8570144285796201799598748e-01,1.6800856842314257910686592e+00
0,9.3270855488145376632758143e-01,4.2665345144571581448289521e-01
0,1.9438775270217689694618457e+01,4.9402623330696604497802582e+00
0,4.7353441675815375333513657e+00,3.2297704151874229161478524e+00
0,6.5443246269179837781848619e+00,7.1501276067325445495725944e+00
0,5.9026579395255467375136504e+00,4.8598217253215691968648571e+00
0,7.7814065112065176066380445e+00,4.9164204547105887499469645e+00
0,1.2463071290269496671498928e+01,8.9898913963239408531080699e+00
0,5.0422116729488033470829578e+00,1.1498416718961783189456582e+01
0,6.6208815719101101748833571e+00,6.1828799150875335399746291e+00
0,1.0690914192299626250814981e+01,7.2774239016142701075295918e+00
0,1.9334614372355165556882639e+01,2.2529017540770702510144474e+01
0,1.4474582710973756149996916e+01,1.0962359216484196977603460e+01
0,6.4182184560851673893466796e+00,6.1660105515705367906775791e+00
0,1.9873763724515123296754382e+00,4.5741566254544823166838796e+00
0,4.1439464813186616121143402e-01,2.8368808287040558901992426e+00
0,3.3483450704608546111273881e+00,2.3100779016116836928063094e+00
0,3.5801165515866912869569205e+00,1.0876587066027290084946344e+00
0,8.9632065810387349102938970e+00,2.5072733724950815314969077e+00
0,1.8913316638262816837823266e+01,4.6009911278743928164658428e+01
0,1.0957511458334867171515725e+01,2.3661180665830798375282029e+01
0,3.9763485061190024794086639e+00,2.5008317551976428916304940e+00
0,1.1491418660396659490174898e+01,5.4339019985741146001601010e+00
0,1.8316957038655321099440698e+01,9.0542744527579603897038396e+00
0,1.2691374144733678974716895e+01,7.5857895732552211853771951e+00
0,7.6992392651007648396443983e+00,4.8584021202098011116277121e+00
0,7.8216936148025570929576133e+00,1.7869296440408859893977933e+01
0,6.1359689308977918287268949e+00,5.8750031490247467402809889e+00
0,6.3636767880903271077386307e+00,4.5019734879578141573119865e+00
0,9.2327545561941875007505587e+00,5.3567707057550464355699660e+00
0,1.4193612828427154326504933e+01,1.7443423833649184473415517e+01
0,1.8016135739724088438151739e+01,6.1596315828482417487066414e+00
0,1.4744953512699716213774082e+01,4.0438055119105023038628133e+01
0,5.2288145791789588656683918e+00,1.4674633822047848497049927e+01
0,2.3648923407677369112889210e-01,5.6012184110429319439106166e-01
0,7.9953056640868771509644830e+00,3.4639722846021001601002354e+01
0,4.7954553236227912549338726e+00,9.8129443888036913534733685e+00
0,3.5469875303075566463917312e+00,4.8298367988532735495255110e+00
0,1.3079630576502806249550304e+01,1.7346299328859348776177285e+01
0,1.4166505091080736633557535e+01,1.6026756897099115661831092e+01
0,6.3062483735668326545464879e+00,7.2664280704829202761629858e+00
0,6.7134604485383508887252901e+00,4.6582977275396766358994682e+00
0,7.2937330108093831881888036e+00,1.9127386573138276393279966e+00
0,7.8669600538388504418207958e+00,3.7424067881752929309868705e+00
0,4.7583605944015934241519972e+00,4.1567003185233808437715197e+00
0,5.7691239617903411485144716e+00,4.5234714765465113828213362e+00
0,7.6460982899083411723495374e+00,1.2325903755021961671900499e+01
0,1.3270608548378646673882031e+01,9.9064140149751391817289914e+00
0,1.0184674280829677073256789e+01,3.1260578208348963613616434e+01
0,8.4908562390503981021083746e+00,3.8814877843423673198230972e+01
0,1.1218920819080469009065837e+00,4.9677412678975813031811981e-01
0,6.4863657532918388426423917e+00,8.3069718779623080706642213e+00
0,3.7622342784943820781506929e+00,1.1958213970836833794919585e+01
0,4.6834625173485289195696168e+00,1.3411254440886848371405904e+01
0,2.9014960673197496276998208e+00,1.6494982981852196246563835e+01
0,4.5860505573362742026688466e+00,4.8997736524966128968117118e+00
0,1.3069208816565986097657515e+01,1.5010787464607030727847814e+01
0,1.4615626119822993089769625e+01,9.3108788042047461175343415e+00
0,8.0565135269360883540912255e+00,3.5009257596494851583202035e+00
0,8.4148608089008174459877409e+00,6.2902507367141584637693086e+00
0,8.3967860043260547087129453e+00,9.4581751566931213659472633e+00
0,5.0690675319202753712488629e+00,3.5463411745506880912159886e+00
0,1.1468420911176568921518992e+00,5.1833227268427854994570225e+00
0,3.7342580224998704885308598e+00,9.8316008085722224052460660e+00
0,3.1085415636122255556017535e+00,1.4352335598531233529229212e+01
0,2.3000397307353876996671715e+00,1.3440868983388861934713532e+01
0,2.2371683813860836487208417e+00,9.0284320402874784772251360e-01
0,6.1067593976818601575473622e+00,9.5176334185575139912316445e+00
0,6.1967869799974577560419675e+00,1.0096087650314359507319750e+01
0,2.7286956461697680076383676e+00,7.1477756691855987014605489e+00
0,8.8690199259819078037025974e+00,2.1971891315692595014752442e+01
0,4.3336929184711179274813730e+00,3.1055236397925525260177437e+00
0,9.4555000401731952308637119e+00,5.1665056333247516562323653e+00
0,1.0770798761446545910303030e+01,5.0993638432435020035882189e+00
0,7.0286355958288559975244425e+00,3.6795998580028372870742714e+00
0,8.0314535792004395631238367e+00,2.1173451761209161503529685e+01
0,1.2461051372763176203761759e+01,4.2800955153887841220239352e+01
0,4.4509742574315938057338826e+00,2.2973726121168951408435532e+00
0,3.8706105582773968620813321e+00,7.5302456310809144923723579e+00
0,6.0489803713749168423419178e+00,2.5393334812990424609324691e+01
0,4.2283678922748446638024689e+00,6.5841292266914175357328531e+00
0,6.2340496352924101852721606e-01,2.3373903330818959767078979e-01
0,1.2703994883454412523349220e+00,3.1686413862799538421199941e+00
0,2.4100218527459507100729752e+00,4.4431221074974400764290294e+00
0,2.9126292492284631130416983e+00,3.3147839774590375228058292e+00
0,2.8329187384001004446076877e+00,6.9440705674458076401833750e+00
0,6.2835958664123365835507684e+00,1.3157334361196397765070287e+01
0,6.0477582255040260861278512e+00,5.5640888969968393951148755e+00
0,4.9914517723524536307877497e+00,4.0572897612061202821109873e+00
0,5.1885884911777839789692734e+00,4.7755574432383705030247256e+00
0,5.0590814912337576103595893e+00,1.9365430550431481648843146e+00
0,4.6908881279267733432902787e+00,1.1787115437983011645428633e+01
0,5.6720282547745188850285558e+00,1.9783745336683992377402319e+01
0,4.1427790738237755263639883e+00,4.4798141380727196647626442e+00
0,2.2464120312279969304825045e+00,2.8327242207375489257970003e+00
0,2.0130893367850539732444304e+00,5.7164802145147532996816153e+00
0,1.3400571568525736498855849e+00,7.8336325294489683734866503e-01
0,1.0905464150620201024821654e+00,5.2057232099364980637545841e-01
0,5.1555891811043785821766505e+00,9.4118599476119744196012107e+00
0,5.3882476632321765208644138e+00,7.5713892923725669703571839e+00
0,2.6432751506582143896650905e+00,2.9260270196291697786250552e+00
0,7.0452923740613746517169602e+00,5.5914799010151412517188874e+00
0,6.3925381896238757661876662e+00,8.2295487548443908565332094e+00
0,2.2531153991238763723004013e+00,4.8511849500622670205984832e+00
0,4.8516022142163244268431299e+00,4.1608020554117430833684921e+00
0,6.7958747834728487902111738e+00,3.1599124986255597846707133e+00
0,9.9263724905019188327059965e+00,4.6668444958246091402997990e+00
0,3.0199947521439960418376813e+00,5.8955653697940215707262723e+00
0,3.7044478334452106693674978e+00,7.6804092013592430987500848e+00
0,3.9302334548625519339282164e+00,7.0627222496976722609929311e+00
0,3.9053001336793560227533817e+00,1.2630690117043878117897293e+01
0,5.7096891770699453871884543e+00,6.1357598466165637063340910e+00
0,2.2131718323994498121010110e+00,1.4843696538802415574309634e+00
0,1.1251212015574538760631640e+00,6.6080783687911837098738488e-01
0,2.6355554082507453017569787e+00,2.0282923178007603581818330e+00
0,2.8865069578345714518263776e+00,5.6657335337298597721655824e+00
0,1.8280069659570208351340170e+00,3.4477392405289410959312590e+00
0,2.1530338380054510061256678e+00,1.9761411967445421389300009e+00
0,1.9279833033100532979631225e+00,2.8776696979896545514066020e+00
0,1.9264692730484727078987817e+00,2.2995229532576226816331655e+00
0,2.1560509645768406450372368e+00,1.4181093881027679870499014e+00
0,2.8526743201161890439720992e+00,9.7872553649736904191058784e-01
0,2.4312954974282154907427866e+00,1.0470577622256560523794633e+00
0,2.6574062968539093887443414e+00,1.0819778228759524552060611e+01
0,2.1344899580246963211038747e+00,2.7885763328025028329193447e+00
0,2.7106023493128108547978172e+00,5.2686025459178358332223979e+00
0,1.8999105920729071339536631e+00,8.5402263368598507753404192e+00
0,2.5876140177625845950615258e+00,2.2822910688859776584536121e+00
0,1.2980413653681381891402680e+00,1.1424448724735825067000405e+00
0,9.8806143490877285096019023e-01,1.1969644745302958632748869e+00
0,1.7080235148033025005531726e+00,9.9011068415255643060390867e-01
0,1.5118861012783131325676322e+00,1.5131505602625767714641825e+00
0,1.4834847962950923339064957e+00,1.9883430815125318069647165e+00
0,1.4729623434497927103592474e+00,1.0200805893337534513420906e+00
0,1.3009178349894516824036828e+00,1.2167501835766199036470425e+00
0,1.6569640781617653857438199e+00,4.0908159907208592187544127e+00
0,2.0682011060802776292177896e+00,1.9273956929250553038457383e+00
0,3.9474223706124327293309761e+00,5.1412765098070671854202374e+00
0,1.8178974926650157684093756e+00,2.1754880018770070826406027e+00
0,1.7156594066862331793288377e+00,4.8086586411860272605167665e+00
0,1.6965535486259977204781535e+00,1.5219963887533574098398503e+00
0,2.3003905232591099760952602e+00,2.2025296208436815348363780e+00
0,1.1213407719150567665167273e+00,1.1075772696510326476015962e+00
0,1.7500816357273132339855692e+00,2.1545142163872066376484327e+00
0,1.2524916620569468417301096e+00,1.1971780903080586622166948e+00
0,1.0034256238569612129651887e+00,1.1647248949663557837652661e+00
0,1.1375760191341728333469518e+00,9.1111081799187987328991767e-01
0,1.1929501824643469198861112e+00,1.0280552636677384725771844e+00
0,1.1548334675733393783758629e+00,2.6045208680972860015856440e+00
0,1.3094847069686006424404923e+00,1.3754454081461076064840654e+00
0,1.2527759689409136978355264e+00,1.0829932574052194560465523e+00
0,1.9107211752930974846265144e+00,1.2926009315763113960429109e+00
0,2.3629443979990960578163595e+00,1.4206630536242514928346736e+00
0,4.3129452737840914267053449e+00,9.2413093664154963846613100e+00
0,2.6094763767033684054297282e+00,4.6532030427821009510580552e+00
0,5.1278913449123262324746975e+00,7.5558819463642752367604771e+00
0,1.3503740895633882246329449e+00,1.2662960676394787729037716e+00
0,1.2692442607190950187856515e+00,9.2910159978348283438265298e-01
0,1.3212245819951566883077021e+00,1.0922805258854864085549252e+00
0,2.1835421343661254311996345e+00,2.5906185853663177276473562e+00
0,2.6073711775638495069529199e+00,2.4770681137567187590775575e+00
0,2.1235944570216096494164049e+00,1.7331819634482301673017446e+00
0,1.2283567462909457113084954e+00,2.9770192456399255931387415e+00
0,1.0567408823410611162785244e+00,1.2460598793683466123383141e+00
0,1.2564205389445919358593073e+00,1.6525462595085183004073315e+00
0,1.3479877955221377661132465e+00,1.0815583299565205699366288e+00
0,1.3928580443769149610488967e+00,9.9887969307715818167991984e-01
0,2.0188483611078518187298414e+00,1.6613655820982693445131417e+00
0,2.4168457707971153780590612e+00,3.1080424389740652912905716e+00
0,1.9627316149344276041688317e+00,2.4069359244282839682682607e+00
0,2.0361450734213359936575216e+00,1.8915202325987905407345124e+00
0,2.9113052367421818900083963e+00,3.0263214105893179173278895e+00
0,2.0072455943666112077039543e+00,2.4975275851702107843266276e+00
0,1.4181473700954505545723805e+00,1.7517572384915358618684422e+00
0,1.5382365872883987378827442e+00,1.3734002173266830482134537e+00
0,1.3036555984920967787843438e+00,1.2123824540338534738737053e+00
0,1.1510692809457372387527130e+00,9.9827606448734873545447499e-01
0,1.2657592615032378091655119e+00,9.2866747106875613404497471e-01
0,1.7643501007792432577758746e+00,4.1625997997033401532007701e+00
0,1.2281384164125257463240359e+00,1.0638264054602002417482254e+00
0,1.3786586780174667765663798e+00,9.5028663878216923510677816e-01
0,1.2055054831510023660712250e+00,9.1435563466853464476002955e-01
0,1.2571131373390187491168035e+00,1.1028701201471613480009637e+00
0,1.7345402589414680161183924e+00,1.4745656015416315209876075e+00
0,1.7467897080726930703065136e+00,1.7700274675616163300162498e+00
0,1.5941769178323901279270558e+00,1.1369094009704858727616283e+00
0,1.5971940419336101424363505e+00,1.5371224576461510746838712e+00
0,1.7131565001987398844107702e+00,2.0131012695182697314066900e+00
0,1.8013009880985522137564203e+00,1.9480463248128163655792378e+00
0,1.6409773974891059822311945e+00,1.3693160684915754998769444e+00
0,1.3722152195610723968144384e+00,1.2079810500933865213823992e+00
0,1.2372501202356502858492604e+00,1.7651785541008631064130441e+00
0,1.0449862486920673543266957e+00,9.6582506610588292339514283e-01
0,1.7255995676592994492182243e+00,1.1705248718172849287100235e+00
0,1.2450786548558279154264028e+00,1.5808083852631142907085859e+00
0,1.1814437593043369822964905e+00,1.1509124661162135616621072e+00
0,1.1497571206867576165677747e+00,1.4777645034945645630131139e+00
0,1.3992089174504909188101465e+00,1.6414458912044458394063895e+00
0,1.6252054484343902984733177e+00,1.1307009781157377759086557e+00
0,1.3757907873568981926837296e+00,1.1589532960366257796636091e+00
0,1.4874990977628028687718142e+00,1.1703036578578522863836042e+00
0,1.6227752588537829314674354e+00,1.1636406986403775576377484e+00
0,1.3266527455795014134309895e+00,9.8285838671630110230381661e-01
0,1.4717472243220486305403938e+00,1.5860395664509752133852771e+00
0,1.7935608342876920850983424e+00,1.6664813864127636655609876e+00
0,1.7283948597702725180624839e+00,1.4838983900516584668594078e+00
0,1.5519837625811465642300391e+00,1.9086934899451075686727108e+00
0,1.3681605558154996682418414e+00,4.2022338714090352596031153e+00
0,1.0385841992274391643036324e+00,1.2480805423987115787554103e+00
0,1.6893970318240869588066744e+00,1.4060894765455824728661582e+00
0,9.2322318150407056691619800e-01,6.7618757575130539194674384e-01
0,1.4005459985692381152944108e+00,1.0383434047146749001910848e+00
0,1.1369523472303693090168508e+00,9.0046925415678502613303635e-01
0,1.3956296229664568731010377e+00,8.9492564436409849371045766e-01
0,1.4050661208171979499326198e+00,7.2465557003308123107387928e-01
0,1.3736524731646664321260687e+00,8.6427275659840407939782381e-01
0,1.2088692972366135158779343e+00,9.8288885416159166297234151e-01
0,1.1234244525046672702472961e+00,8.2120557844349451048771016e-01
0,1.4496309517593253257672359e+00,9.9050343631245396647244661e-01
0,1.1557761353902007428473553e+00,1.2804605771236121647405071e+00
0,1.3342515882460874721004984e+00,1.2576090909989332544682838e+00
0,1.0552337755059664203827197e+00,1.1173430979208618385456475e+00
0,1.3314881254341561778176128e+00,2.2316881729257778133046486e+00
0,1.1670354280089343390613976e+00,1.0058678190892507142706336e+00
0,1.1719451933927902409493527e+00,1.1033145190441397964775661e+00
0,1.1217335957923491029930574e+00,7.9283209576821489505960017e-01
0,8.3286833287857187091418609e-01,7.3500233306948625777721418e-01
0,2.2421974116187550762901992e+00,1.1798127832912279622235019e+00
0,1.5625453275483827120240221e+00,9.1056615565024978664609989e-01
0,1.4527118444578503986264195e+00,1.0789087392622458416724385e+00
0,1.4626346317581551126352224e+00,8.9942175213023911606313732e-01
0,1.9368533265858305369988557e+00,9.9763848041315528192285456e-01
0,1.3699476672769288487785388e+00,1.0392359868960077129429465e+00
0,1.0700183636661582120552794e+00,6.7824041539669388534150585e-01
0,1.1632067600707971521956097e+00,1.6098637341260497723993694e+00
0,1.3039236151685553721790711e+00,5.0748979293899356690644709e+00
0,1.1219940304280315856999550e+00,9.1416957782761976147867244e-01
0,1.0309058051076598339079737e+00,7.5026497652323054232681443e-01
0,1.0234331363838404804766924e+00,7.6956007104355372838710991e-01
0,1.3224021502698080077209397e+00,1.8879922871890579827436341e+00
0,1.3595833206387610836429758e+00,1.3286027476977610994879342e+00
0,9.8766982486946230945790148e-01,6.6907249761211939897975753e-01
