$MeshFormat
2.2 0 8
$EndMeshFormat
$PhysicalNames
3
0 1 "left"
0 2 "right"
1 3 "interior"
$EndPhysicalNames
$Nodes
5
1 0 0 0
2 4 0 0
3 0.9999999999976438 0 0
4 1.999999999994768 0 0
5 2.999999999997363 0 0
$EndNodes
$Elements
6
1 0 2 1 1 1
2 0 2 2 2 2
3 1 2 3 1 1 3
4 1 2 3 1 3 4
5 1 2 3 1 4 5
6 1 2 3 1 5 2
$EndElements
